0.00509635; 0.00224291; 0.140412; 0.0108812; 0.0168713; 0
0.0156382; 0.000814945; 0.140412; 0.0108812; 0.0168713; 0
0.0434754; 0.000464035; 0.140412; 0.0108812; 0.0168713; 0
0.05; 0.000383107; 0.140412; 0.0108812; 0.0168713; 0
0.0672325; 0.000329179; 0.140412; 0.0108812; 0.0168713; 0
0.14074; 0.000251283; 0.140412; 0.0108812; 0.0168713; 0
0.327143; 0.000178885; 0.140411; 0.0108812; 0.0168713; 0
0.776096; 0.000138197; 0.140411; 0.0108812; 0.0168713; 0
1.75353; 0.000125744; 0.140409; 0.0108812; 0.0168713; 0
2.66224; 0.000124226; 0.140408; 0.0108812; 0.0168713; 0
4.68765; 0.000123753; 0.140405; 0.0108812; 0.0168713; 0
9.05143; 0.000123077; 0.140399; 0.0108812; 0.0168713; 0
19.2637; 0.00012196; 0.140386; 0.0108812; 0.0168713; 0
44.0904; 0.000120174; 0.140353; 0.0108812; 0.0168713; 0
49.8607; 0.000119459; 0.140345; 0.0108812; 0.0168713; 0
57.4472; 0.000118987; 0.140335; 0.0108812; 0.0168713; 0
65.219; 0.000118565; 0.140325; 0.0108812; 0.0168713; 0
83.6635; 0.000117778; 0.140301; 0.0108812; 0.0168713; 0
126.325; 0.00011635; 0.140247; 0.0108812; 0.0168713; 0
133.538; 0.000115813; 0.140238; 0.0108812; 0.0168713; 0
144.661; 0.000115496; 0.140223; 0.0108812; 0.0168713; 0
171.058; 0.00011487; 0.14019; 0.0108812; 0.0168713; 0
227.932; 0.00011382; 0.140119; 0.0108812; 0.0168713; 0
239.777; 0.000113415; 0.140104; 0.0108812; 0.0168713; 0
265.239; 0.000113061; 0.140072; 0.0108812; 0.0168713; 0
321.697; 0.000112483; 0.140003; 0.0108812; 0.0168713; 0
401.795; 0.000112028; 0.139904; 0.0108812; 0.0168713; 0
505.695; 0.000111778; 0.139776; 0.0108812; 0.0168713; 0
678.246; 0.000111533; 0.139564; 0.0108812; 0.0168713; 0
868.08; 0.000111362; 0.139332; 0.0108812; 0.0168713; 0
1050.39; 0.000111159; 0.139109; 0.0108812; 0.0168713; 0
1110.78; 0.000110988; 0.139035; 0.0108812; 0.0168713; 0
1235.22; 0.000110792; 0.138884; 0.0108812; 0.0168713; 0
1476.56; 0.000110742; 0.13859; 0.0108812; 0.0168713; 0
1828.45; 0.000110651; 0.138161; 0.0108812; 0.0168713; 0
2238.98; 0.000110513; 0.137662; 0.0108812; 0.0168713; 0
2614.63; 0.000110377; 0.137206; 0.0108812; 0.0168713; 0
2652.73; 0.000110366; 0.13716; 0.0108812; 0.0168713; 0
2693.05; 0.000110354; 0.137111; 0.0108812; 0.0168713; 0
2716.99; 0.000110348; 0.137082; 0.0108812; 0.0168713; 0
2776.18; 0.000110332; 0.13701; 0.0108812; 0.0168713; 0
2922.45; 0.000110289; 0.136833; 0.0108812; 0.0168713; 0
3232.06; 0.000110211; 0.136457; 0.0108812; 0.0168713; 0
3600.05; 0.000110118; 0.136011; 0.0108812; 0.0168713; 0
3894.36; 0.000110037; 0.135655; 0.0108812; 0.0168713; 0
4129.35; 0.000109969; 0.135371; 0.0108812; 0.0168713; 0
4651.38; 0.000109847; 0.13474; 0.0108812; 0.0168713; 0
4848.59; 0.00010976; 0.134502; 0.0108812; 0.0168713; 0
4895.01; 0.000109735; 0.134446; 0.0108812; 0.0168713; 0
5003.36; 0.000109708; 0.134315; 0.0108812; 0.0168713; 0
5232.7; 0.00010965; 0.134039; 0.0108812; 0.0168713; 0
5507.71; 0.000109568; 0.133707; 0.0108812; 0.0168713; 0
5759.71; 0.000109493; 0.133404; 0.0108812; 0.0168713; 0
6345.92; 0.000109286; 0.132699; 0.0108812; 0.0168713; 0
6871.96; 0.000109079; 0.132068; 0.0108812; 0.0168713; 0
7200.05; 0.000108936; 0.131675; 0.0108812; 0.0168713; 0
7381.18; 0.000108834; 0.131458; 0.0108812; 0.0168713; 0
7574.95; 0.00010863; 0.131226; 0.0108812; 0.0168713; 0
7687.66; 0.000108542; 0.131092; 0.0108812; 0.0168713; 0
7985.28; 0.00010847; 0.130737; 0.0108812; 0.0168713; 0
8131.38; 0.000108366; 0.130562; 0.0108812; 0.0168713; 0
8334.17; 0.000108336; 0.130321; 0.0108812; 0.0168713; 0
8488.32; 0.000108409; 0.130137; 0.0108812; 0.0168713; 0
8581.14; 0.000108547; 0.130026; 0.0108812; 0.0168713; 0
8683.74; 0.000108779; 0.129903; 0.0108812; 0.0168713; 0
8891.63; 0.00010895; 0.129654; 0.0108812; 0.0168713; 0
9033.47; 0.000108784; 0.129485; 0.0108812; 0.0168713; 0
9239.24; 0.000108406; 0.129239; 0.0108812; 0.0168713; 0
9379.64; 0.000108326; 0.129072; 0.0108812; 0.0168713; 0
9532.4; 0.000108306; 0.12889; 0.0108812; 0.0168713; 0
9634.12; 0.000108237; 0.128769; 0.0108812; 0.0168713; 0
9782.64; 0.000108109; 0.128592; 0.0108812; 0.0168713; 0
9957.11; 0.00010805; 0.128385; 0.0108812; 0.0168713; 0
10112.9; 0.0001079; 0.1282; 0.0108812; 0.0168713; 0
10466; 0.000107775; 0.127781; 0.0108812; 0.0168713; 0
10800; 0.000107682; 0.127386; 0.0108812; 0.0168713; 0
11545.4; 0.000107425; 0.126505; 0.0108812; 0.0168713; 0
12545.4; 0.000107115; 0.125326; 0.0108812; 0.0168713; 0
13170.4; 0.000106829; 0.124592; 0.0108812; 0.0168713; 0
13566.9; 0.000106674; 0.124127; 0.0108812; 0.0168713; 0
14379; 0.000106397; 0.123176; 0.0108812; 0.0168713; 0
14400; 0.000106312; 0.123152; 0.0108812; 0.0168713; 0
14890; 0.000106115; 0.12258; 0.0108812; 0.0168713; 0
15890; 0.000105828; 0.121416; 0.0108814; 0.0168716; -5.02776e-07
16890; 0.000105453; 0.120256; 0.0108817; 0.0168721; -1.28709e-06
17452.5; 0.000105163; 0.119605; 0.0108819; 0.0168723; -1.76474e-06
17564.1; 0.000105101; 0.119476; 0.0108805; 0.0168702; 1.72183e-06
17674.4; 0.000104982; 0.119349; 0.0108782; 0.0168666; 7.70624e-06
17872.9; 0.00010494; 0.11912; 0.0108739; 0.0168601; 1.84414e-05
18000; 0.000104883; 0.118973; 0.0108712; 0.0168559; 2.5386e-05
18127.2; 0.000104858; 0.118826; 0.0108685; 0.0168516; 3.23605e-05
18669.6; 0.000104698; 0.118202; 0.0108566; 0.0168334; 6.24526e-05
19669.6; 0.000104335; 0.117054; 0.0108342; 0.0167989; 0.000119356
20669.6; 0.000103931; 0.115911; 0.0108112; 0.0167634; 0.000177904
21384.8; 0.000103592; 0.115096; 0.0107944; 0.0167374; 0.000220746
21600; 0.000103438; 0.114851; 0.0107892; 0.0167295; 0.00023377
21815.3; 0.000103343; 0.114606; 0.0107841; 0.0167215; 0.00024687
22183.3; 0.00010323; 0.114188; 0.0107752; 0.0167078; 0.00026943
22997.1; 0.000102922; 0.113267; 0.0107552; 0.016677; 0.000320244
23997.1; 0.000102511; 0.112139; 0.01073; 0.0166382; 0.000384221
24997.1; 0.000102092; 0.111016; 0.0107043; 0.0165984; 0.000449771
25200; 0.000101885; 0.110789; 0.010699; 0.0165903; 0.00046322
25700; 0.000101666; 0.11023; 0.0106858; 0.0165699; 0.00049674
26450; 0.000101404; 0.109393; 0.0106657; 0.016539; 0.000547695
26807.6; 0.000101187; 0.108995; 0.0106556; 0.0165235; 0.000573366
27103.7; 0.000101004; 0.108666; 0.0106464; 0.0165092; 0.00059695
27694.7; 0.000100715; 0.108011; 0.0106241; 0.0164748; 0.000653605
28625.6; 0.000100358; 0.106984; 0.0105831; 0.0164116; 0.000757794
28800; 0.000100212; 0.106791; 0.0105752; 0.0163995; 0.000777786
29300; 0.00010001; 0.106241; 0.0105519; 0.0163635; 0.000837019
30050; 9.97787e-05; 0.105418; 0.0105163; 0.0163085; 0.000927707
30509.5; 9.96679e-05; 0.104914; 0.0104937; 0.0162737; 0.000985165
30805.6; 9.96128e-05; 0.10459; 0.0104778; 0.0162492; 0.00102547
30999.1; 9.94978e-05; 0.104378; 0.0104672; 0.0162329; 0.0010523
31140.6; 9.9445e-05; 0.104223; 0.0104595; 0.0162209; 0.00107209
31334.4; 9.93933e-05; 0.104011; 0.0104484; 0.0162038; 0.00110025
31379.4; 9.93437e-05; 0.103962; 0.0104457; 0.0161998; 0.00110696
31470.8; 9.95279e-05; 0.103862; 0.010441; 0.0161924; 0.00111903
31628.5; 9.95662e-05; 0.103689; 0.0104332; 0.0161805; 0.00113878
31833.4; 9.96795e-05; 0.103465; 0.010424; 0.0161663; 0.00116217
32054.2; 9.95378e-05; 0.103223; 0.0104146; 0.0161518; 0.00118611
32222.3; 9.96674e-05; 0.103039; 0.0104072; 0.0161403; 0.00120497
32385.4; 9.97632e-05; 0.10286; 0.0103995; 0.0161285; 0.00122441
32400; 9.97549e-05; 0.102844; 0.0103988; 0.0161274; 0.00122618
32498.4; 9.97538e-05; 0.102736; 0.010394; 0.01612; 0.00123843
32603; 9.97088e-05; 0.102621; 0.0103889; 0.0161122; 0.00125135
32693.5; 9.98186e-05; 0.102522; 0.0103846; 0.0161054; 0.00126245
32784.4; 9.98539e-05; 0.102422; 0.0103803; 0.0160989; 0.00127329
32904.9; 9.98613e-05; 0.102289; 0.0103747; 0.0160903; 0.00128747
33084.2; 9.97442e-05; 0.102093; 0.0103663; 0.0160773; 0.00130891
33248.1; 9.9698e-05; 0.101913; 0.0103581; 0.0160645; 0.00132988
33470.4; 9.96348e-05; 0.101669; 0.0103451; 0.0160446; 0.00136271
33677.1; 9.96357e-05; 0.101443; 0.010333; 0.0160259; 0.00139364
33901.3; 9.98988e-05; 0.101197; 0.0103212; 0.0160077; 0.0014236
34063.7; 9.99598e-05; 0.101018; 0.0103133; 0.0159955; 0.00144376
34167; 9.97301e-05; 0.100905; 0.0103085; 0.0159881; 0.00145592
34307.4; 9.94148e-05; 0.100751; 0.0103021; 0.0159783; 0.00147201
34443.8; 9.9174e-05; 0.100602; 0.0102961; 0.0159689; 0.00148749
34632.5; 9.8905e-05; 0.100397; 0.010287; 0.0159549; 0.00151056
34879.3; 9.88402e-05; 0.100129; 0.0102742; 0.0159352; 0.00154312
35028.6; 9.88567e-05; 0.0999663; 0.010266; 0.0159225; 0.00156399
35185.5; 9.87597e-05; 0.0997958; 0.0102567; 0.0159083; 0.00158744
35342; 9.88476e-05; 0.0996257; 0.0102474; 0.0158939; 0.0016111
35466.2; 9.88893e-05; 0.0994905; 0.01024; 0.0158824; 0.00163011
35590.9; 9.90166e-05; 0.0993547; 0.0102321; 0.0158704; 0.00164995
35859.5; 9.87979e-05; 0.0990628; 0.0102154; 0.0158445; 0.00169265
36000.1; 9.85218e-05; 0.0989105; 0.0102059; 0.0158299; 0.00171674
36078.8; 9.8362e-05; 0.0988253; 0.0102002; 0.0158212; 0.00173107
36289.5; 9.83013e-05; 0.0985975; 0.0101847; 0.0157972; 0.00177059
36653.8; 9.8325e-05; 0.0982034; 0.0101559; 0.0157529; 0.00184365
36992.6; 9.83142e-05; 0.097837; 0.0101271; 0.0157084; 0.00191702
37232.9; 9.8307e-05; 0.0975772; 0.0101057; 0.0156753; 0.0019715
37366.2; 9.8305e-05; 0.097433; 0.0100937; 0.0156569; 0.00200192
37511.4; 9.82881e-05; 0.0972761; 0.0100809; 0.0156371; 0.00203451
37722.7; 9.81802e-05; 0.0970478; 0.0100624; 0.0156086; 0.00208147
38128.5; 9.81394e-05; 0.0966097; 0.0100269; 0.0155539; 0.00217173
38386.8; 9.8132e-05; 0.096331; 0.0100042; 0.0155189; 0.00222936
38780.3; 9.80888e-05; 0.0959063; 0.00997011; 0.0154663; 0.00231607
39337.8; 9.80646e-05; 0.0953049; 0.00992156; 0.0153914; 0.0024395
39600.1; 9.80496e-05; 0.0950221; 0.00989802; 0.0153551; 0.00249934
39926.9; 9.80111e-05; 0.0946698; 0.00986787; 0.0153086; 0.00257598
40274.5; 9.79744e-05; 0.0942952; 0.00983534; 0.0152584; 0.00265868
40730.2; 9.79281e-05; 0.0938043; 0.00979112; 0.0151903; 0.00277108
41122.7; 9.79091e-05; 0.0933815; 0.00975184; 0.0151297; 0.00287094
41661.9; 9.79462e-05; 0.0928006; 0.00969688; 0.0150449; 0.00301065
42186.4; 9.79956e-05; 0.0922352; 0.00964324; 0.0149622; 0.00314701
42867.3; 9.79808e-05; 0.0915013; 0.00957358; 0.0148548; 0.00332411
43200.1; 9.79596e-05; 0.0911428; 0.00953937; 0.014802; 0.00341107
43586.5; 9.7947e-05; 0.0907264; 0.00949952; 0.0147406; 0.00351237
44513.2; 9.7925e-05; 0.0897282; 0.00940402; 0.0145933; 0.00375515
45513.2; 9.78979e-05; 0.0886513; 0.00930034; 0.0144334; 0.00401871
46513.2; 9.78469e-05; 0.087575; 0.00919671; 0.0142736; 0.00428214
46800.1; 9.78155e-05; 0.0872664; 0.00916713; 0.014228; 0.00435735
47300.1; 9.77887e-05; 0.0867285; 0.00911561; 0.0141485; 0.00448831
47956.3; 9.77627e-05; 0.0860228; 0.00904794; 0.0140442; 0.00466034
48581.3; 9.77274e-05; 0.0853509; 0.0089833; 0.0139445; 0.00482467
49012; 9.77038e-05; 0.0848881; 0.00893866; 0.0138757; 0.00493814
49945.2; 9.76522e-05; 0.0838856; 0.00884161; 0.013726; 0.00518486
50400.1; 9.76025e-05; 0.0833973; 0.00879413; 0.0136528; 0.00530556
50900.1; 9.75604e-05; 0.0828607; 0.00874172; 0.013572; 0.00543878
51452.1; 9.7521e-05; 0.0822685; 0.00868368; 0.0134825; 0.00558633
52443; 9.7425e-05; 0.0812065; 0.00857846; 0.0133202; 0.00585381
53443; 9.72853e-05; 0.0801364; 0.00847122; 0.0131548; 0.00612643
54000.1; 9.71537e-05; 0.0795411; 0.00841145; 0.0130626; 0.00627838
55000.1; 9.70394e-05; 0.0784737; 0.00830465; 0.0128979; 0.00654988
56000.1; 9.69847e-05; 0.0774068; 0.00819768; 0.012733; 0.0068218
56450.1; 9.69507e-05; 0.0769269; 0.00814926; 0.0126583; 0.0069449
56744.6; 9.69144e-05; 0.076613; 0.00811729; 0.012609; 0.00702617
57016.5; 9.66531e-05; 0.0763239; 0.00808678; 0.012562; 0.00710373
57092.4; 9.62988e-05; 0.0762435; 0.00807833; 0.0125489; 0.00712521
57173.2; 9.61378e-05; 0.076158; 0.00806934; 0.0125351; 0.00714806
57260.9; 9.60035e-05; 0.0760654; 0.00805963; 0.0125201; 0.00717276
57340.8; 9.58931e-05; 0.0759811; 0.00805078; 0.0125065; 0.00719524
57446.3; 9.57604e-05; 0.07587; 0.00803913; 0.0124885; 0.00722486
57547.1; 9.56278e-05; 0.0757639; 0.00802801; 0.0124713; 0.00725313
57600.1; 9.55346e-05; 0.0757083; 0.00802218; 0.0124623; 0.00726795
57662.5; 9.54639e-05; 0.0756427; 0.00801531; 0.0124518; 0.0072854
57795.6; 9.53608e-05; 0.0755031; 0.0080007; 0.0124292; 0.00732255
57971.4; 9.52207e-05; 0.0753189; 0.00798145; 0.0123995; 0.00737149
58131.7; 9.51106e-05; 0.0751512; 0.00796394; 0.0123725; 0.00741601
58343.3; 9.50154e-05; 0.0749301; 0.00794086; 0.0123369; 0.00747467
58483; 9.49581e-05; 0.0747842; 0.00792565; 0.0123135; 0.00751334
58667.5; 9.49032e-05; 0.0745916; 0.00790559; 0.0122825; 0.00756434
58843.8; 9.48453e-05; 0.0744076; 0.00788642; 0.012253; 0.00761306
59004.6; 9.47893e-05; 0.07424; 0.00786897; 0.0122261; 0.00765743
59158.3; 9.47309e-05; 0.0740799; 0.00785229; 0.0122004; 0.00769982
59298.4; 9.46749e-05; 0.0739339; 0.0078371; 0.0121769; 0.00773844
59432.4; 9.46204e-05; 0.0737945; 0.00782259; 0.0121545; 0.00777534
59554.5; 9.45717e-05; 0.0736674; 0.00780936; 0.0121342; 0.00780896
59715.7; 9.45117e-05; 0.0734998; 0.00779191; 0.0121072; 0.00785332
59822.2; 9.44646e-05; 0.0733892; 0.0077804; 0.0120895; 0.00788258
59962.7; 9.44142e-05; 0.0732432; 0.00776521; 0.0120661; 0.00792121
60097.1; 9.43637e-05; 0.0731037; 0.00775069; 0.0120437; 0.00795811
60219.6; 9.43205e-05; 0.0729766; 0.00773746; 0.0120233; 0.00799174
60381.4; 9.42711e-05; 0.0728089; 0.00772; 0.0119963; 0.00803612
60536; 9.42237e-05; 0.0726486; 0.00770332; 0.0119706; 0.00807853
60677; 9.41843e-05; 0.0725026; 0.00768812; 0.0119472; 0.00811718
60863.1; 9.41402e-05; 0.0723098; 0.00766805; 0.0119162; 0.00816819
61041.1; 9.40981e-05; 0.0721256; 0.00764887; 0.0118867; 0.00821694
61200.1; 9.40644e-05; 0.0719611; 0.00763175; 0.0118602; 0.00826048
61408.7; 9.40286e-05; 0.0717453; 0.00760927; 0.0118256; 0.00831761
61684.1; 9.39929e-05; 0.0714605; 0.00757959; 0.0117798; 0.00839306
62238.4; 9.39463e-05; 0.0708878; 0.00751984; 0.0116877; 0.00854494
62938.6; 9.38203e-05; 0.0701651; 0.00744438; 0.0115713; 0.00873678
63306.8; 9.37112e-05; 0.0697856; 0.00740474; 0.0115102; 0.00883755
63549.9; 9.36367e-05; 0.0695352; 0.00737859; 0.0114699; 0.00890403
63870.8; 9.35512e-05; 0.069205; 0.00734409; 0.0114166; 0.00899174
64082.6; 9.34812e-05; 0.0689872; 0.00732132; 0.0113815; 0.00904961
64362.3; 9.34001e-05; 0.0686998; 0.00729127; 0.0113352; 0.00912601
64629.7; 9.33075e-05; 0.0684253; 0.00726255; 0.0112909; 0.00919901
64800.1; 9.32205e-05; 0.0682507; 0.00724427; 0.0112627; 0.00924549
64885.2; 9.31877e-05; 0.0681634; 0.00723513; 0.0112486; 0.00926873
65066.9; 9.31321e-05; 0.0679773; 0.00721564; 0.0112186; 0.00931827
65232.5; 9.30622e-05; 0.0678078; 0.00719788; 0.0111912; 0.00936341
65390.8; 9.29912e-05; 0.0676458; 0.00718091; 0.011165; 0.00940655
65535.1; 9.29243e-05; 0.0674983; 0.00716545; 0.0111412; 0.00944586
65725.7; 9.28378e-05; 0.0673036; 0.00714505; 0.0111097; 0.00949772
65851.5; 9.27663e-05; 0.0671753; 0.00713159; 0.0110889; 0.00953194
65971.8; 9.27017e-05; 0.0670526; 0.00711873; 0.0110691; 0.00956463
66130.6; 9.26196e-05; 0.0668908; 0.00710176; 0.0110429; 0.00960777
66260.2; 9.25425e-05; 0.0667589; 0.00708792; 0.0110216; 0.00964295
66423.3; 9.24495e-05; 0.0665931; 0.00707052; 0.0109948; 0.00968718
66625.5; 9.23278e-05; 0.0663877; 0.00704898; 0.0109615; 0.00974195
66759; 9.22274e-05; 0.0662523; 0.00703477; 0.0109396; 0.00977807
66886.6; 9.2136e-05; 0.0661229; 0.0070212; 0.0109187; 0.00981257
67074.6; 9.20103e-05; 0.0659327; 0.00700122; 0.0108879; 0.00986335
67198.6; 9.19023e-05; 0.0658072; 0.00698804; 0.0108676; 0.00989684
67348.3; 9.17846e-05; 0.0656561; 0.00697217; 0.0108431; 0.0099372
67435.7; 9.16972e-05; 0.065568; 0.00696291; 0.0108288; 0.00996073
67551; 9.15995e-05; 0.0654518; 0.00695071; 0.01081; 0.00999175
67627.2; 9.15191e-05; 0.0653751; 0.00694266; 0.0107976; 0.0100122
67727.7; 9.14279e-05; 0.065274; 0.00693205; 0.0107812; 0.0100392
67823.8; 9.13366e-05; 0.0651775; 0.00692192; 0.0107656; 0.0100649
67911.4; 9.12557e-05; 0.0650895; 0.00691269; 0.0107514; 0.0100884
67995.2; 9.11774e-05; 0.0650055; 0.00690388; 0.0107378; 0.0101108
68071.6; 9.11064e-05; 0.064929; 0.00689585; 0.0107254; 0.0101312
68144.6; 9.1037e-05; 0.0648558; 0.00688818; 0.0107136; 0.0101507
68211.1; 9.09738e-05; 0.0647892; 0.0068812; 0.0107028; 0.0101685
68299; 9.08971e-05; 0.0647014; 0.00687199; 0.0106886; 0.0101919
68357.1; 9.08389e-05; 0.0646434; 0.00686591; 0.0106792; 0.0102073
68400.1; 9.07903e-05; 0.0646004; 0.00686141; 0.0106723; 0.0102188
68476.7; 9.07414e-05; 0.064524; 0.0068534; 0.0106599; 0.0102391
68549.9; 9.06795e-05; 0.0644509; 0.00684574; 0.0106481; 0.0102586
68668.9; 9.05929e-05; 0.0643323; 0.00683332; 0.010629; 0.0102902
68723.2; 9.05382e-05; 0.0642783; 0.00682765; 0.0106202; 0.0103046
68802.2; 9.0481e-05; 0.0641996; 0.00681941; 0.0106075; 0.0103255
68886.5; 9.04148e-05; 0.0641158; 0.00681063; 0.010594; 0.0103479
68962.1; 9.03553e-05; 0.0640407; 0.00680276; 0.0105818; 0.0103679
69070.8; 9.0292e-05; 0.0639326; 0.00679144; 0.0105644; 0.0103966
69238.9; 9.01996e-05; 0.0637659; 0.00677395; 0.0105374; 0.0104411
69361.4; 9.01131e-05; 0.0636445; 0.00676122; 0.0105178; 0.0104734
69483.6; 9.00283e-05; 0.0635235; 0.00674853; 0.0104982; 0.0105057
69612.1; 8.99344e-05; 0.0633963; 0.00673519; 0.0104777; 0.0105396
69733.8; 8.98459e-05; 0.0632761; 0.00672258; 0.0104582; 0.0105717
69937.1; 8.97006e-05; 0.0630754; 0.00670153; 0.0104257; 0.0106252
70108.4; 8.95486e-05; 0.0629067; 0.00668384; 0.0103985; 0.0106702
70219.5; 8.94323e-05; 0.0627974; 0.00667238; 0.0103808; 0.0106993
70340.1; 8.93259e-05; 0.0626789; 0.00665996; 0.0103616; 0.0107309
70486.1; 8.91941e-05; 0.0625357; 0.00664495; 0.0103385; 0.010769
70607.7; 8.90769e-05; 0.0624166; 0.00663246; 0.0103192; 0.0108008
70749.6; 8.89504e-05; 0.0622777; 0.00661792; 0.0102968; 0.0108377
70843.2; 8.88506e-05; 0.0621862; 0.00660833; 0.010282; 0.0108621
70966.9; 8.87386e-05; 0.0620654; 0.00659568; 0.0102625; 0.0108943
71048.6; 8.86484e-05; 0.0619858; 0.00658734; 0.0102497; 0.0109155
71156.4; 8.85487e-05; 0.0618808; 0.00657634; 0.0102327; 0.0109434
71227.6; 8.84735e-05; 0.0618115; 0.00656908; 0.0102215; 0.0109619
71321.5; 8.83943e-05; 0.0617201; 0.0065595; 0.0102067; 0.0109862
71392.3; 8.83274e-05; 0.0616514; 0.00655229; 0.0101956; 0.0110046
71474.8; 8.82571e-05; 0.0615713; 0.00654388; 0.0101826; 0.0110259
71561.7; 8.81807e-05; 0.061487; 0.00653505; 0.010169; 0.0110484
71643.2; 8.81128e-05; 0.061408; 0.00652676; 0.0101562; 0.0110695
71703.2; 8.80567e-05; 0.0613499; 0.00652066; 0.0101468; 0.011085
71760.6; 8.80061e-05; 0.0612943; 0.00651483; 0.0101378; 0.0110998
71810.3; 8.79673e-05; 0.0612463; 0.00650979; 0.0101301; 0.0111126
71930.5; 8.78838e-05; 0.0611301; 0.0064976; 0.0101113; 0.0111436
72000.1; 8.78021e-05; 0.0610629; 0.00649054; 0.0101004; 0.0111616
72074.4; 8.77376e-05; 0.0609911; 0.006483; 0.0100888; 0.0111807
72184; 8.76644e-05; 0.0608854; 0.00647191; 0.0100717; 0.0112089
72288.8; 8.75667e-05; 0.0607845; 0.00646132; 0.0100553; 0.0112358
72391.6; 8.74704e-05; 0.0606856; 0.00645093; 0.0100393; 0.0112622
72620.1; 8.72785e-05; 0.0604662; 0.00642791; 0.0100038; 0.0113208
72783; 8.70919e-05; 0.0603101; 0.00641154; 0.00997855; 0.0113624
72888.7; 8.69648e-05; 0.060209; 0.00640093; 0.00996219; 0.0113894
73028.3; 8.68225e-05; 0.0600757; 0.00638695; 0.00994064; 0.0114249
73177.1; 8.66673e-05; 0.0599338; 0.00637208; 0.0099177; 0.0114627
73301.1; 8.65299e-05; 0.0598158; 0.0063597; 0.00989861; 0.0114942
73408.7; 8.64124e-05; 0.0597135; 0.00634897; 0.00988206; 0.0115214
73511.6; 8.62995e-05; 0.0596159; 0.00633872; 0.00986625; 0.0115475
73663.1; 8.61465e-05; 0.0594723; 0.00632365; 0.00984302; 0.0115858
73763.1; 8.60173e-05; 0.0593777; 0.00631372; 0.0098277; 0.0116111
73861.7; 8.58986e-05; 0.0592845; 0.00630394; 0.00981262; 0.0116359
73964.9; 8.57774e-05; 0.0591871; 0.00629372; 0.00979685; 0.0116619
74044.7; 8.56738e-05; 0.0591119; 0.00628583; 0.00978469; 0.011682
74117.4; 8.55866e-05; 0.0590435; 0.00627865; 0.00977362; 0.0117002
74233.8; 8.54631e-05; 0.0589341; 0.00626717; 0.00975592; 0.0117294
74310.7; 8.53636e-05; 0.0588619; 0.00625959; 0.00974423; 0.0117487
74400.5; 8.52616e-05; 0.0587776; 0.00625075; 0.00973059; 0.0117711
74472.7; 8.51753e-05; 0.05871; 0.00624365; 0.00971965; 0.0117892
74602.2; 8.50585e-05; 0.0585888; 0.00623093; 0.00970003; 0.0118215
74740.3; 8.49135e-05; 0.0584598; 0.00621739; 0.00967915; 0.0118559
74911.4; 8.47288e-05; 0.0583003; 0.00620064; 0.00965333; 0.0118985
75092.3; 8.45166e-05; 0.0581321; 0.00618297; 0.00962607; 0.0119434
75201.8; 8.43614e-05; 0.0580306; 0.0061723; 0.00960961; 0.0119706
75364.6; 8.41796e-05; 0.0578798; 0.00615645; 0.00958517; 0.0120109
75545.5; 8.39526e-05; 0.0577128; 0.0061389; 0.00955811; 0.0120555
75600.1; 8.38363e-05; 0.0576625; 0.00613361; 0.00954996; 0.0120689
75654.6; 8.37677e-05; 0.0576122; 0.00612833; 0.00954181; 0.0120823
75757.6; 8.36687e-05; 0.0575174; 0.00611837; 0.00952645; 0.0121077
75865.3; 8.35293e-05; 0.0574185; 0.00610797; 0.00951042; 0.0121341
75971.6; 8.33903e-05; 0.057321; 0.00609773; 0.00949461; 0.0121601
76075; 8.32496e-05; 0.0572262; 0.00608777; 0.00947927; 0.0121854
76185.3; 8.31e-05; 0.0571254; 0.00607718; 0.00946293; 0.0122124
76249.7; 8.29953e-05; 0.0570667; 0.00607101; 0.00945341; 0.0122281
76324.9; 8.28912e-05; 0.0569981; 0.0060638; 0.0094423; 0.0122464
76408.3; 8.27781e-05; 0.0569221; 0.00605581; 0.00942998; 0.0122667
76542.5; 8.26122e-05; 0.0568002; 0.00604299; 0.00941021; 0.0122993
76641.3; 8.24656e-05; 0.0567105; 0.00603357; 0.00939568; 0.0123232
76719.7; 8.23532e-05; 0.0566395; 0.00602611; 0.00938417; 0.0123422
76783.3; 8.22668e-05; 0.056582; 0.00602006; 0.00937484; 0.0123576
76921; 8.21081e-05; 0.0564576; 0.00600699; 0.00935469; 0.0123908
77052.3; 8.19097e-05; 0.0563393; 0.00599456; 0.00933552; 0.0124224
77158.6; 8.17586e-05; 0.0562437; 0.00598452; 0.00932004; 0.0124479
77300.1; 8.15664e-05; 0.0561167; 0.00597118; 0.00929946; 0.0124818
77451; 8.13531e-05; 0.0559817; 0.00595698; 0.00927757; 0.0125179
77578.6; 8.11583e-05; 0.0558678; 0.00594501; 0.00925911; 0.0125484
77714.6; 8.09602e-05; 0.0557466; 0.00593227; 0.00923946; 0.0125808
77853.9; 8.07511e-05; 0.0556229; 0.00591925; 0.00921939; 0.0126138
78002.8; 8.05233e-05; 0.055491; 0.00590538; 0.00919799; 0.0126491
78152.4; 8.029e-05; 0.0553589; 0.00589147; 0.00917655; 0.0126845
78250.7; 8.01119e-05; 0.0552723; 0.00588236; 0.00916249; 0.0127076
78357; 7.99401e-05; 0.0551788; 0.00587252; 0.00914733; 0.0127326
78445; 7.97859e-05; 0.0551016; 0.0058644; 0.0091348; 0.0127533
78570; 7.95918e-05; 0.0549922; 0.00585289; 0.00911705; 0.0127825
78702.1; 7.93748e-05; 0.0548768; 0.00584074; 0.00909832; 0.0128134
78815.2; 7.91819e-05; 0.0547783; 0.00583037; 0.00908232; 0.0128398
78940.4; 7.89988e-05; 0.0546695; 0.00581892; 0.00906467; 0.0128689
79086.8; 7.87831e-05; 0.0545426; 0.00580557; 0.00904408; 0.0129028
79200.1; 7.86018e-05; 0.0544447; 0.00579527; 0.00902819; 0.012929
79348.7; 7.83859e-05; 0.0543166; 0.00578178; 0.00900739; 0.0129633
79582.5; 7.8058e-05; 0.0541157; 0.00576064; 0.00897479; 0.013017
79728.5; 7.77905e-05; 0.0539908; 0.00574748; 0.00895451; 0.0130505
79899.1; 7.75188e-05; 0.0538453; 0.00573216; 0.00893087; 0.0130895
79993.8; 7.7335e-05; 0.0537649; 0.00572367; 0.00891778; 0.013111
80146; 7.71021e-05; 0.0536358; 0.00571005; 0.00889678; 0.0131456
80251.8; 7.69e-05; 0.0535462; 0.0057006; 0.00888221; 0.0131697
80333.7; 7.6746e-05; 0.0534771; 0.00569332; 0.00887097; 0.0131882
80471.5; 7.65256e-05; 0.0533611; 0.00568107; 0.00885208; 0.0132193
80623.1; 7.62561e-05; 0.0532339; 0.00566764; 0.00883138; 0.0132535
80721.5; 7.60556e-05; 0.0531516; 0.00565896; 0.00881799; 0.0132755
80877; 7.58144e-05; 0.0530219; 0.00564528; 0.0087969; 0.0133103
80971.1; 7.56267e-05; 0.0529436; 0.00563703; 0.00878417; 0.0133313
81098.7; 7.54209e-05; 0.0528378; 0.00562587; 0.00876696; 0.0133597
81234.8; 7.51852e-05; 0.0527252; 0.005614; 0.00874865; 0.0133898
81368.4; 7.49459e-05; 0.0526151; 0.00560237; 0.00873072; 0.0134194
81525.6; 7.46711e-05; 0.052486; 0.00558874; 0.0087097; 0.013454
81661; 7.44058e-05; 0.0523751; 0.00557704; 0.00869166; 0.0134838
81789.7; 7.41614e-05; 0.0522701; 0.00556595; 0.00867456; 0.013512
81890.5; 7.3953e-05; 0.0521882; 0.0055573; 0.00866122; 0.013534
82003.5; 7.37342e-05; 0.0520965; 0.00554762; 0.00864628; 0.0135586
82101.8; 7.35343e-05; 0.052017; 0.00553923; 0.00863335; 0.0135799
82247; 7.32659e-05; 0.0518999; 0.00552686; 0.00861427; 0.0136114
82374.8; 7.29933e-05; 0.0517974; 0.00551601; 0.00859754; 0.0136389
82465.6; 7.28038e-05; 0.0517246; 0.00550831; 0.00858568; 0.0136585
82659.3; 7.25038e-05; 0.0515701; 0.00549197; 0.00856047; 0.0137
82800.1; 7.22321e-05; 0.0514583; 0.00548013; 0.00854222; 0.0137301
82927.6; 7.19919e-05; 0.0513573; 0.00546944; 0.00852573; 0.0137573
83132.7; 7.16433e-05; 0.0511957; 0.00545231; 0.00849931; 0.0138009
83255.6; 7.137e-05; 0.0510992; 0.00544208; 0.00848354; 0.0138269
83399.2; 7.10956e-05; 0.0509869; 0.00543017; 0.00846517; 0.0138571
83531.2; 7.08269e-05; 0.0508841; 0.00541927; 0.00844836; 0.0138848
83637.2; 7.06004e-05; 0.0508018; 0.00541054; 0.00843489; 0.013907
83797.2; 7.03025e-05; 0.050678; 0.0053974; 0.00841464; 0.0139404
83914; 7.00378e-05; 0.050588; 0.00538785; 0.00839991; 0.0139647
83984; 6.98708e-05; 0.0505342; 0.00538214; 0.0083911; 0.0139792
84117.8; 6.96359e-05; 0.0504317; 0.00537126; 0.00837432; 0.0140069
84328.5; 6.92559e-05; 0.0502712; 0.00535422; 0.00834804; 0.0140502
84530.6; 6.88326e-05; 0.0501182; 0.00533794; 0.00832294; 0.0140916
84674.3; 6.85067e-05; 0.0500099; 0.00532641; 0.00830516; 0.0141209
84782.9; 6.82586e-05; 0.0499283; 0.00531773; 0.00829177; 0.014143
84906.8; 6.7998e-05; 0.0498357; 0.00530786; 0.00827655; 0.0141681
85014.3; 6.77574e-05; 0.0497556; 0.00529933; 0.0082634; 0.0141898
85157.9; 6.74611e-05; 0.049649; 0.00528799; 0.00824591; 0.0142186
85267.1; 6.71974e-05; 0.0495683; 0.00527939; 0.00823265; 0.0142404
85402.4; 6.6939e-05; 0.0494687; 0.00526878; 0.00821629; 0.0142674
85533.1; 6.66732e-05; 0.0493728; 0.00525857; 0.00820054; 0.0142934
85671; 6.64e-05; 0.049272; 0.00524784; 0.00818399; 0.0143206
85810.4; 6.61143e-05; 0.0491707; 0.00523705; 0.00816735; 0.0143481
85964.9; 6.5806e-05; 0.0490588; 0.00522513; 0.00814897; 0.0143784
86067; 6.5565e-05; 0.0489853; 0.00521729; 0.00813688; 0.0143983
86164.5; 6.53525e-05; 0.0489151; 0.00520982; 0.00812536; 0.0144173
86349.9; 6.50012e-05; 0.0487826; 0.0051957; 0.00810359; 0.0144532
86400.1; 6.47919e-05; 0.0487468; 0.00519189; 0.00809772; 0.0144629
86443.7; 6.46997e-05; 0.0487158; 0.00518859; 0.00809262; 0.0144713
86617.8; 6.44241e-05; 0.0485924; 0.00517546; 0.00807237; 0.0145047
86788.7; 6.40616e-05; 0.048472; 0.00516263; 0.0080526; 0.0145372
86914.6; 6.37694e-05; 0.0483837; 0.00515324; 0.0080381; 0.0145611
87034.9; 6.34954e-05; 0.0482996; 0.00514429; 0.00802431; 0.0145839
87144.6; 6.32447e-05; 0.0482233; 0.00513617; 0.00801179; 0.0146045
87249.5; 6.29971e-05; 0.0481506; 0.00512844; 0.00799986; 0.0146242
87375.4; 6.27146e-05; 0.0480638; 0.0051192; 0.00798562; 0.0146477
87508.4; 6.2427e-05; 0.0479724; 0.00510948; 0.00797063; 0.0146724
87641.7; 6.21437e-05; 0.0478813; 0.0050998; 0.00795569; 0.014697
87797.4; 6.18072e-05; 0.0477754; 0.00508855; 0.00793834; 0.0147256
87907.6; 6.15348e-05; 0.0477008; 0.00508062; 0.00792612; 0.0147457
88019.8; 6.12745e-05; 0.0476252; 0.00507259; 0.00791373; 0.0147662
88135.2; 6.10001e-05; 0.0475478; 0.00506437; 0.00790106; 0.014787
88262.1; 6.06952e-05; 0.047463; 0.00505538; 0.0078872; 0.0148099
88408.9; 6.03638e-05; 0.0473656; 0.00504505; 0.00787127; 0.0148362
88547; 6.00267e-05; 0.0472744; 0.0050354; 0.00785638; 0.0148607
88685.1; 5.96817e-05; 0.0471838; 0.0050258; 0.00784158; 0.0148851
88803; 5.93666e-05; 0.0471067; 0.00501765; 0.00782901; 0.0149058
88956.1; 5.8992e-05; 0.0470074; 0.00500714; 0.00781281; 0.0149325
89083.1; 5.8656e-05; 0.0469254; 0.00499848; 0.00779944; 0.0149546
89215; 5.83351e-05; 0.0468408; 0.00498953; 0.00778564; 0.0149773
89375.4; 5.79678e-05; 0.0467385; 0.00497871; 0.00776896; 0.0150048
89540.5; 5.75476e-05; 0.046634; 0.00496766; 0.00775192; 0.0150329
89672.7; 5.71866e-05; 0.0465509; 0.00495887; 0.00773836; 0.0150553
89813.7; 5.68545e-05; 0.0464627; 0.00494954; 0.00772399; 0.0150789
89995.2; 5.6437e-05; 0.04635; 0.00493763; 0.00770562; 0.0151092
90000.1; 5.63118e-05; 0.046347; 0.00493732; 0.00770513; 0.01511
90090.8; 5.60735e-05; 0.046291; 0.0049314; 0.00769601; 0.0151251
90222.3; 5.58156e-05; 0.0462103; 0.00492287; 0.00768286; 0.0151467
90353.5; 5.55058e-05; 0.0461302; 0.00491442; 0.00766981; 0.0151682
90496.5; 5.51807e-05; 0.0460434; 0.00490525; 0.00765568; 0.0151915
90646.2; 5.48062e-05; 0.0459531; 0.00489572; 0.00764099; 0.0152158
90807; 5.44282e-05; 0.0458569; 0.00488557; 0.00762534; 0.0152416
90960.6; 5.4036e-05; 0.0457656; 0.00487596; 0.0076105; 0.015266
91138.6; 5.36122e-05; 0.0456606; 0.00486491; 0.00759346; 0.0152941
91353.7; 5.31311e-05; 0.0455349; 0.00485168; 0.00757307; 0.0153277
91524.8; 5.27357e-05; 0.0454356; 0.00484125; 0.00755698; 0.0153542
91661.8; 5.24497e-05; 0.0453566; 0.00483295; 0.00754419; 0.0153753
91800.7; 5.22307e-05; 0.0452768; 0.00482458; 0.00753127; 0.0153966
91931.4; 5.21015e-05; 0.0452019; 0.00481672; 0.00751916; 0.0154166
92049.9; 5.20135e-05; 0.0451341; 0.00480962; 0.0075082; 0.0154347
92231.7; 5.18943e-05; 0.0450303; 0.00479874; 0.00749143; 0.0154623
92543; 5.16957e-05; 0.0448533; 0.0047802; 0.00746284; 0.0155094
92739; 5.15375e-05; 0.0447422; 0.00476857; 0.0074449; 0.015539
92935.7; 5.13988e-05; 0.044631; 0.00475693; 0.00742695; 0.0155686
93147.5; 5.12506e-05; 0.0445115; 0.00474442; 0.00740766; 0.0156004
93414.3; 5.10703e-05; 0.0443617; 0.00472871; 0.00738343; 0.0156403
93600.1; 5.09165e-05; 0.0442576; 0.0047178; 0.00736661; 0.0156681
93823.1; 5.07676e-05; 0.0441331; 0.00470474; 0.00734647; 0.0157013
94124.4; 5.05627e-05; 0.0439655; 0.00468717; 0.00731938; 0.0157459
94387.5; 5.03524e-05; 0.0438198; 0.0046719; 0.00729583; 0.0157847
94633.1; 5.01694e-05; 0.0436842; 0.00465771; 0.00727394; 0.0158208
94856.2; 4.99942e-05; 0.0435616; 0.00464487; 0.00725414; 0.0158535
95014.8; 4.98602e-05; 0.0434746; 0.00463577; 0.00724011; 0.0158766
95203.4; 4.97282e-05; 0.0433714; 0.00462498; 0.00722347; 0.015904
95430.1; 4.95685e-05; 0.0432478; 0.00461205; 0.00720353; 0.0159369
95723.8; 4.93647e-05; 0.0430883; 0.00459537; 0.00717781; 0.0159793
95961.8; 4.91754e-05; 0.0429595; 0.0045819; 0.00715703; 0.0160136
96184.5; 4.90067e-05; 0.0428395; 0.00456933; 0.00713765; 0.0160455
96379.3; 4.88521e-05; 0.0427348; 0.00455836; 0.00712073; 0.0160734
96616.1; 4.8679e-05; 0.042608; 0.00454508; 0.00710025; 0.0161072
96789; 4.85312e-05; 0.0425157; 0.00453541; 0.00708534; 0.0161317
97084.9; 4.83213e-05; 0.0423585; 0.00451892; 0.00705991; 0.0161736
97200.1; 4.8171e-05; 0.0422974; 0.00451252; 0.00705004; 0.0161899
97281; 4.81059e-05; 0.0422546; 0.00450803; 0.00704311; 0.0162013
97433.1; 4.80158e-05; 0.0421743; 0.0044996; 0.00703012; 0.0162228
97613.1; 4.78762e-05; 0.0420794; 0.00448967; 0.0070148; 0.016248
97763.8; 4.77521e-05; 0.0420003; 0.00448138; 0.00700202; 0.0162691
97956.1; 4.76173e-05; 0.0418996; 0.00447081; 0.00698573; 0.0162959
98180.4; 4.74571e-05; 0.0417825; 0.0044585; 0.00696674; 0.0163272
98398.4; 4.72943e-05; 0.0416691; 0.00444656; 0.00694833; 0.0163576
98612.9; 4.71341e-05; 0.0415578; 0.00443484; 0.00693025; 0.0163874
98883.1; 4.69417e-05; 0.0414183; 0.00442012; 0.00690754; 0.0164248
99132.7; 4.67481e-05; 0.04129; 0.00440656; 0.00688664; 0.0164593
99498.1; 4.64913e-05; 0.0411031; 0.00438681; 0.00685618; 0.0165095
99696.9; 4.63061e-05; 0.0410019; 0.00437609; 0.00683966; 0.0165367
99868.2; 4.61739e-05; 0.0409149; 0.00436689; 0.00682546; 0.0165601
100000; 4.60719e-05; 0.0408481; 0.00435982; 0.00681457; 0.0165781