0.00509635; 0.00220496; 0.139085; 0.0119908; 0.0192832; 0
0.0156382; 0.000801193; 0.139085; 0.0119908; 0.0192832; 0
0.0434754; 0.000456201; 0.139085; 0.0119908; 0.0192832; 0
0.05; 0.000376639; 0.139085; 0.0119908; 0.0192832; 0
0.0672325; 0.00032362; 0.139085; 0.0119908; 0.0192832; 0
0.14074; 0.000247035; 0.139085; 0.0119908; 0.0192832; 0
0.327143; 0.000175857; 0.139084; 0.0119908; 0.0192832; 0
0.75828; 0.000136274; 0.139084; 0.0119908; 0.0192832; 0
1.64766; 0.000123815; 0.139082; 0.0119908; 0.0192832; 9.59818e-46
2.93656; 0.000122061; 0.139081; 0.0119908; 0.0192832; 1.16381e-60
5.82165; 0.000121461; 0.139077; 0.0119908; 0.0192832; 1.16381e-60
11.9362; 0.000120642; 0.139069; 0.0119908; 0.0192832; 1.16381e-60
19.6721; 0.000119709; 0.139058; 0.0119908; 0.0192832; 1.16381e-60
26.4974; 0.000119065; 0.139049; 0.0119908; 0.0192832; 1.16381e-60
42.2839; 0.000118013; 0.139029; 0.0119908; 0.0192832; 1.16381e-60
73.4851; 0.00011643; 0.138989; 0.0119908; 0.0192832; 1.16381e-60
128.887; 0.000114431; 0.138919; 0.0119908; 0.0192832; 1.16381e-60
220.895; 0.000112337; 0.138806; 0.0119908; 0.0192832; 1.16381e-60
300.144; 0.000111119; 0.138709; 0.0119908; 0.0192832; 1.16381e-60
371.478; 0.000110517; 0.138622; 0.0119908; 0.0192832; 1.16381e-60
385.465; 0.000110358; 0.138605; 0.0119908; 0.0192832; 1.16381e-60
413.542; 0.000110247; 0.138571; 0.0119908; 0.0192832; 1.16381e-60
429.958; 0.000110171; 0.138551; 0.0119908; 0.0192832; 1.16381e-60
461.602; 0.000110071; 0.138513; 0.0119908; 0.0192832; 1.16381e-60
534.793; 0.000109893; 0.138424; 0.0119908; 0.0192832; 1.16381e-60
674.853; 0.000109629; 0.138255; 0.0119908; 0.0192832; 1.16381e-60
825.376; 0.000109361; 0.138074; 0.0119908; 0.0192832; 1.16381e-60
1016.46; 0.000109202; 0.137845; 0.0119908; 0.0192832; 1.16381e-60
1272.49; 0.000109135; 0.137537; 0.0119908; 0.0192832; 1.16381e-60
1499.8; 0.000109109; 0.137265; 0.0119908; 0.0192832; 1.16381e-60
1688.95; 0.000109089; 0.137038; 0.0119908; 0.0192832; 1.16381e-60
1800.67; 0.000109035; 0.136904; 0.0119908; 0.0192832; 1.16381e-60
1920.84; 0.000108931; 0.13676; 0.0119908; 0.0192832; 1.16381e-60
2050.29; 0.00010885; 0.136605; 0.0119908; 0.0192832; 1.16381e-60
2210.29; 0.000108754; 0.136413; 0.0119908; 0.0192832; 1.16381e-60
2510.13; 0.000108651; 0.136055; 0.0119908; 0.0192832; 1.16381e-60
3251.13; 0.000108415; 0.135171; 0.0119908; 0.0192832; 1.16381e-60
3469.2; 0.00010825; 0.134912; 0.0119908; 0.0192832; 1.16381e-60
3595.62; 0.00010822; 0.134761; 0.0119908; 0.0192832; 1.16381e-60
3600.05; 0.000108208; 0.134756; 0.0119908; 0.0192832; 1.16381e-60
3678.31; 0.000108186; 0.134663; 0.0119908; 0.0192832; 1.16381e-60
3803.52; 0.000108178; 0.134514; 0.0119908; 0.0192832; 1.16381e-60
4072.68; 0.000108118; 0.134193; 0.0119908; 0.0192832; 1.16381e-60
4609.95; 0.000108005; 0.133555; 0.0119908; 0.0192832; 1.16381e-60
5467.85; 0.000107739; 0.132538; 0.0119908; 0.0192832; 1.16381e-60
6045.98; 0.00010754; 0.131855; 0.0119908; 0.0192832; 1.16381e-60
6544.24; 0.000107316; 0.131266; 0.0119908; 0.0192832; 1.16381e-60
6734.07; 0.000107217; 0.131043; 0.0119908; 0.0192832; 1.16381e-60
6933.74; 0.000107128; 0.130807; 0.0119908; 0.0192832; 1.16381e-60
7200.05; 0.00010706; 0.130494; 0.0119908; 0.0192832; 1.16381e-60
7346.3; 0.000107023; 0.130321; 0.0119908; 0.0192832; 1.16381e-60
7578.48; 0.000106932; 0.130048; 0.0119908; 0.0192832; 1.16381e-60
7636.73; 0.00010692; 0.12998; 0.0119908; 0.0192832; 1.16381e-60
7782.37; 0.00010691; 0.129809; 0.0119908; 0.0192832; 1.16381e-60
8023.77; 0.000106851; 0.129525; 0.0119908; 0.0192832; 1.16381e-60
8206.3; 0.000106838; 0.12931; 0.0119908; 0.0192832; 1.16381e-60
8275.72; 0.000106842; 0.129229; 0.0119908; 0.0192832; 1.16381e-60
8451.77; 0.000106767; 0.129022; 0.0119908; 0.0192832; 1.16381e-60
8657.1; 0.000106543; 0.128781; 0.0119908; 0.0192832; 1.16381e-60
8774.09; 0.000106432; 0.128644; 0.0119901; 0.0192821; 1.82832e-06
8864.32; 0.000106423; 0.128539; 0.0119885; 0.0192796; 6.02007e-06
9038.53; 0.000106561; 0.128335; 0.0119853; 0.0192747; 1.40462e-05
9282.46; 0.000106794; 0.128048; 0.011981; 0.0192681; 2.50378e-05
9503.26; 0.000106564; 0.127789; 0.011977; 0.0192619; 3.51778e-05
9714.52; 0.00010614; 0.127542; 0.011973; 0.0192558; 4.52648e-05
10055.9; 0.000106023; 0.127144; 0.0119666; 0.0192459; 6.1543e-05
10465.6; 0.000105731; 0.126668; 0.0119588; 0.0192338; 8.14987e-05
10800; 0.000105567; 0.126279; 0.0119524; 0.0192239; 9.77715e-05
11121.1; 0.000105392; 0.125907; 0.0119461; 0.0192143; 0.000113569
11521.7; 0.000105135; 0.125444; 0.0119381; 0.0192019; 0.000134077
11971.1; 0.000104933; 0.124925; 0.0119288; 0.0191877; 0.000157566
12123.4; 0.000104855; 0.12475; 0.0119257; 0.0191828; 0.000165585
12307.1; 0.000104841; 0.124538; 0.0119219; 0.0191769; 0.000175269
12513.4; 0.000104671; 0.1243; 0.0119177; 0.0191704; 0.000185972
12664.7; 0.000104844; 0.124126; 0.0119147; 0.0191658; 0.000193524
12731.4; 0.000104987; 0.124049; 0.0119134; 0.0191638; 0.000196845
12851.4; 0.000105267; 0.12391; 0.0119108; 0.0191598; 0.000203421
12959.2; 0.000105687; 0.123784; 0.0119086; 0.0191565; 0.000208942
13063.8; 0.000105948; 0.123663; 0.0119067; 0.0191535; 0.000213881
13176.4; 0.000106027; 0.123531; 0.0119047; 0.0191504; 0.000219029
13271; 0.000105965; 0.123421; 0.0119029; 0.0191477; 0.000223486
13423.2; 0.000105791; 0.123244; 0.0118998; 0.0191429; 0.00023138
13601.8; 0.00010539; 0.123037; 0.0118963; 0.0191374; 0.000240332
13774.9; 0.000105324; 0.122836; 0.0118929; 0.0191322; 0.000248979
14054.4; 0.000105304; 0.122512; 0.0118874; 0.0191237; 0.00026303
14400; 0.000105119; 0.122113; 0.0118803; 0.0191128; 0.000280979
14623.2; 0.000104959; 0.121855; 0.0118756; 0.0191055; 0.000292991
14781.1; 0.000104847; 0.121673; 0.0118722; 0.0191003; 0.000301649
14939.7; 0.000104701; 0.12149; 0.0118687; 0.0190949; 0.000310414
15188.9; 0.000104456; 0.121204; 0.0118633; 0.0190866; 0.000324181
15326.6; 0.000104022; 0.121046; 0.0118603; 0.019082; 0.000331788
15522.2; 0.000103622; 0.120824; 0.011856; 0.0190754; 0.000342615
15823.1; 0.000103343; 0.120482; 0.0118494; 0.0190652; 0.00035939
16281.3; 0.000103167; 0.119961; 0.0118393; 0.0190496; 0.000385188
17230.6; 0.000102732; 0.118889; 0.011818; 0.0190168; 0.000439271
18000; 0.00010232; 0.118023; 0.0118005; 0.0189897; 0.000483937
19000; 0.00010196; 0.116901; 0.0117772; 0.0189538; 0.000543106
20000; 0.00010156; 0.115784; 0.0117534; 0.0189172; 0.000603489
21000; 0.000101112; 0.114672; 0.0117291; 0.0188797; 0.000665302
21600; 0.000100786; 0.114007; 0.0117143; 0.0188568; 0.000703027
22600; 0.00010042; 0.112902; 0.0116889; 0.0188177; 0.000767436
23600; 9.99886e-05; 0.111802; 0.0116625; 0.0187769; 0.000834718
24300; 9.98417e-05; 0.111033; 0.0116416; 0.0187447; 0.000887704
24784.1; 9.97199e-05; 0.110502; 0.0116242; 0.0187179; 0.000931978
25152.9; 9.95888e-05; 0.110098; 0.011608; 0.018693; 0.000973068
25200; 9.9559e-05; 0.110047; 0.0116058; 0.0186896; 0.000978658
25416.2; 9.95231e-05; 0.10981; 0.0115951; 0.018673; 0.0010059
25744.6; 9.94529e-05; 0.109451; 0.0115778; 0.0186463; 0.00104999
25890.1; 9.93758e-05; 0.109292; 0.0115696; 0.0186337; 0.00107069
26023.5; 9.93234e-05; 0.109146; 0.011562; 0.0186219; 0.0010902
26130.8; 9.92651e-05; 0.109029; 0.0115558; 0.0186124; 0.00110588
26283; 9.92747e-05; 0.108863; 0.011547; 0.0185989; 0.00112814
26588.6; 9.91999e-05; 0.108529; 0.0115286; 0.0185705; 0.00117495
26703.6; 9.90818e-05; 0.108404; 0.0115216; 0.0185597; 0.00119278
26819.1; 9.91023e-05; 0.108278; 0.0115147; 0.0185491; 0.00121028
26994.6; 9.91853e-05; 0.108086; 0.0115041; 0.0185326; 0.0012374
27169.8; 9.92698e-05; 0.107895; 0.011494; 0.0185171; 0.00126298
27310; 9.93091e-05; 0.107742; 0.0114861; 0.0185049; 0.00128299
27446.1; 9.95442e-05; 0.107593; 0.0114788; 0.0184937; 0.00130153
27658.9; 9.94012e-05; 0.10736; 0.0114679; 0.0184768; 0.00132935
27755.2; 9.92921e-05; 0.107255; 0.011463; 0.0184692; 0.0013419
27968.7; 9.9361e-05; 0.107022; 0.0114526; 0.0184532; 0.00136824
28141.6; 9.91655e-05; 0.106833; 0.0114437; 0.0184396; 0.00139078
28235.2; 9.91568e-05; 0.106731; 0.0114391; 0.0184324; 0.00140258
28339.1; 9.91247e-05; 0.106618; 0.011434; 0.0184246; 0.00141551
28419.3; 9.91778e-05; 0.10653; 0.0114301; 0.0184186; 0.00142535
28546.2; 9.92154e-05; 0.106392; 0.0114243; 0.0184096; 0.00144015
28651.2; 9.91791e-05; 0.106277; 0.0114196; 0.0184023; 0.00145222
28787.3; 9.91423e-05; 0.106129; 0.0114135; 0.0183929; 0.00146769
28800; 9.90558e-05; 0.106115; 0.0114129; 0.018392; 0.0014692
28879.8; 9.88876e-05; 0.106028; 0.0114091; 0.0183862; 0.00147877
29026.4; 9.88307e-05; 0.105869; 0.0114014; 0.0183743; 0.00149836
29133.6; 9.86903e-05; 0.105752; 0.0113953; 0.0183648; 0.00151396
29250.2; 9.85911e-05; 0.105626; 0.011388; 0.0183537; 0.00153238
29385.1; 9.85729e-05; 0.10548; 0.011379; 0.0183397; 0.00155538
29526.3; 9.86212e-05; 0.105326; 0.0113686; 0.0183237; 0.00158179
29667.2; 9.86976e-05; 0.105173; 0.0113576; 0.0183068; 0.00160961
29890.4; 9.8658e-05; 0.104931; 0.0113395; 0.0182788; 0.00165583
29990; 9.85548e-05; 0.104823; 0.0113315; 0.0182665; 0.00167602
30067.2; 9.85119e-05; 0.10474; 0.0113256; 0.0182573; 0.0016912
30191.3; 9.85576e-05; 0.104605; 0.0113163; 0.0182431; 0.00171462
30367.8; 9.85409e-05; 0.104414; 0.0113032; 0.0182229; 0.00174798
30498.4; 9.85043e-05; 0.104272; 0.0112936; 0.018208; 0.00177252
30709.5; 9.85035e-05; 0.104044; 0.0112777; 0.0181835; 0.00181281
30994.7; 9.84428e-05; 0.103735; 0.0112557; 0.0181496; 0.0018687
31092; 9.85399e-05; 0.103629; 0.0112482; 0.018138; 0.00188783
31246.4; 9.84809e-05; 0.103462; 0.0112361; 0.0181194; 0.00191856
31427.6; 9.84601e-05; 0.103266; 0.0112213; 0.0180965; 0.00195633
31601.4; 9.84871e-05; 0.103077; 0.0112064; 0.0180735; 0.00199421
31739.5; 9.84239e-05; 0.102928; 0.0111943; 0.0180549; 0.00202488
31877.3; 9.83948e-05; 0.102779; 0.0111821; 0.0180361; 0.00205584
32086.8; 9.84746e-05; 0.102552; 0.0111629; 0.0180066; 0.00210456
32391.8; 9.83368e-05; 0.102222; 0.0111343; 0.0179623; 0.00217749
32400; 9.82503e-05; 0.102213; 0.0111335; 0.0179611; 0.00217946
32489.5; 9.81205e-05; 0.102116; 0.0111252; 0.0179483; 0.00220053
32782.4; 9.80926e-05; 0.1018; 0.0110978; 0.0179061; 0.00227011
33302.4; 9.81349e-05; 0.101239; 0.0110473; 0.0178283; 0.00239847
33650.6; 9.81412e-05; 0.100863; 0.0110131; 0.0177755; 0.00248545
34008.3; 9.81356e-05; 0.100477; 0.0109771; 0.01772; 0.00257694
34336.9; 9.81367e-05; 0.100122; 0.0109436; 0.0176683; 0.0026622
34638.8; 9.81322e-05; 0.0997964; 0.0109125; 0.0176204; 0.00274111
34971.5; 9.81222e-05; 0.0994373; 0.0108782; 0.0175674; 0.00282851
35477.6; 9.80795e-05; 0.0988913; 0.0108255; 0.0174863; 0.00296226
36000.1; 9.80266e-05; 0.098328; 0.0107715; 0.017403; 0.00309958
36393.6; 9.80059e-05; 0.0979037; 0.0107309; 0.0173404; 0.00320277
36954.1; 9.79747e-05; 0.0972996; 0.010673; 0.017251; 0.00335002
37091.5; 9.79576e-05; 0.0971516; 0.0106588; 0.0172291; 0.00338612
37311.4; 9.79415e-05; 0.0969146; 0.0106362; 0.0171942; 0.00344373
37832.5; 9.79116e-05; 0.0963534; 0.0105823; 0.0171112; 0.00358057
38483.5; 9.78694e-05; 0.0956526; 0.0105147; 0.0170069; 0.00375241
38929.9; 9.78347e-05; 0.0951722; 0.0104683; 0.0169353; 0.00387052
39410.8; 9.77876e-05; 0.0946549; 0.010418; 0.0168578; 0.00399821
39600.1; 9.77567e-05; 0.0944514; 0.0103982; 0.0168272; 0.0040487
39890.2; 9.77237e-05; 0.0941395; 0.0103674; 0.0167798; 0.00412686
40506.7; 9.76676e-05; 0.0934772; 0.0103021; 0.016679; 0.00429299
40927.6; 9.76058e-05; 0.0930253; 0.0102575; 0.0166103; 0.00440626
41787.3; 9.74812e-05; 0.0921034; 0.0101657; 0.0164687; 0.00463965
42214.4; 9.73478e-05; 0.091646; 0.0101194; 0.0163972; 0.00475749
42543.6; 9.70138e-05; 0.0912948; 0.0100815; 0.0163389; 0.0048537
42703.7; 9.66733e-05; 0.0911245; 0.0100632; 0.0163106; 0.00490023
42919.3; 9.64233e-05; 0.0908958; 0.0100386; 0.0162727; 0.00496276
43200.1; 9.61626e-05; 0.0905988; 0.0100067; 0.0162234; 0.00504397
43571.8; 9.60808e-05; 0.0902059; 0.00996448; 0.0161584; 0.00515122
44445.8; 9.61467e-05; 0.0892816; 0.00986516; 0.0160052; 0.00540368
45445.8; 9.60597e-05; 0.0882249; 0.00975121; 0.0158295; 0.00569338
46390.3; 9.58959e-05; 0.0872287; 0.00964316; 0.0156629; 0.00596803
46800.1; 9.57604e-05; 0.086797; 0.00959611; 0.0155903; 0.00608766
47300.1; 9.55729e-05; 0.0862713; 0.00953863; 0.0155017; 0.00623376
48300.1; 9.53288e-05; 0.0852227; 0.00942425; 0.0153253; 0.00652453
49300.1; 9.50569e-05; 0.0841771; 0.00931047; 0.0151498; 0.00681377
49753.2; 9.48614e-05; 0.0837043; 0.00925905; 0.0150705; 0.00694451
50052.3; 9.46622e-05; 0.0833928; 0.00922513; 0.0150182; 0.00703072
50249.8; 9.44846e-05; 0.0831875; 0.00920278; 0.0149838; 0.00708754
50400.1; 9.43558e-05; 0.0830316; 0.0091858; 0.0149576; 0.0071307
50542; 9.42558e-05; 0.0828844; 0.00916979; 0.0149329; 0.00717141
50729.5; 9.41582e-05; 0.0826902; 0.00914869; 0.0149003; 0.00722505
50969.9; 9.40794e-05; 0.0824414; 0.0091217; 0.0148587; 0.00729365
51395.3; 9.40053e-05; 0.0820015; 0.00907408; 0.0147853; 0.00741471
51715.4; 9.39598e-05; 0.0816707; 0.00903833; 0.0147301; 0.00750559
52010.2; 9.39329e-05; 0.0813661; 0.00900543; 0.0146794; 0.00758923
52261.8; 9.38856e-05; 0.0811063; 0.00897738; 0.0146362; 0.00766052
52640.5; 9.37496e-05; 0.0807157; 0.0089352; 0.0145711; 0.00776776
52936; 9.35762e-05; 0.0804116; 0.00890233; 0.0145204; 0.00785133
53158.1; 9.33714e-05; 0.0801834; 0.00887766; 0.0144824; 0.00791402
53304.4; 9.31942e-05; 0.0800335; 0.00886146; 0.0144574; 0.00795521
53478.5; 9.2984e-05; 0.0798554; 0.00884222; 0.0144277; 0.00800413
53586.1; 9.27911e-05; 0.0797455; 0.00883033; 0.0144094; 0.00803434
53715.9; 9.25694e-05; 0.0796134; 0.00881603; 0.0143873; 0.00807072
53825.6; 9.23498e-05; 0.0795019; 0.00880396; 0.0143687; 0.00810139
53977.8; 9.21055e-05; 0.0793477; 0.00878713; 0.0143428; 0.00814417
54000.1; 9.20197e-05; 0.0793252; 0.00878467; 0.014339; 0.00815043
54046; 9.19613e-05; 0.0792788; 0.00877959; 0.0143311; 0.00816334
54169.5; 9.18753e-05; 0.0791539; 0.00876596; 0.0143101; 0.008198
54353.4; 9.18207e-05; 0.0789681; 0.00874574; 0.0142789; 0.00824939
54670.3; 9.18675e-05; 0.0786479; 0.00871101; 0.0142254; 0.00833767
55151.8; 9.17972e-05; 0.0781617; 0.00865835; 0.0141442; 0.00847156
55438.5; 9.15757e-05; 0.0778729; 0.00862706; 0.0140959; 0.00855109
55680; 9.13375e-05; 0.0776303; 0.00860078; 0.0140554; 0.0086179
55876; 9.11209e-05; 0.0774339; 0.0085795; 0.0140226; 0.008672
56125.3; 9.08774e-05; 0.0771846; 0.00855249; 0.0139809; 0.00874065
56275.8; 9.06914e-05; 0.0770345; 0.00853624; 0.0139559; 0.00878197
56451.3; 9.04947e-05; 0.0768597; 0.00851728; 0.0139266; 0.00883016
56557.2; 9.03351e-05; 0.0767545; 0.00850587; 0.013909; 0.00885918
56680.8; 9.01744e-05; 0.0766319; 0.00849257; 0.0138885; 0.00889298
56879.7; 8.99226e-05; 0.0764353; 0.00847124; 0.0138556; 0.0089472
57037.4; 8.96986e-05; 0.0762796; 0.00845436; 0.0138296; 0.0089901
57232.3; 8.94973e-05; 0.0760877; 0.00843355; 0.0137975; 0.00904301
57440.2; 8.92691e-05; 0.0758836; 0.00841141; 0.0137634; 0.00909929
57600.1; 8.90378e-05; 0.075727; 0.00839442; 0.0137372; 0.00914248
57775.1; 8.88599e-05; 0.0755559; 0.00837583; 0.0137085; 0.00918973
57921.5; 8.8642e-05; 0.0754132; 0.00836033; 0.0136846; 0.00922914
58114.7; 8.83346e-05; 0.0752255; 0.00833995; 0.0136532; 0.00928096
58299.4; 8.79861e-05; 0.0750467; 0.00832055; 0.0136233; 0.00933027
58430; 8.76988e-05; 0.0749207; 0.00830689; 0.0136022; 0.009365
58549.8; 8.74422e-05; 0.0748055; 0.00829441; 0.0135829; 0.00939671
58658.9; 8.7177e-05; 0.0747008; 0.00828309; 0.0135655; 0.0094255
58798.9; 8.68407e-05; 0.0745671; 0.00826863; 0.0135432; 0.00946225
58922.7; 8.65806e-05; 0.0744492; 0.00825587; 0.0135235; 0.00949471
59241.4; 8.64905e-05; 0.074146; 0.00822309; 0.0134729; 0.00957804
59513.2; 8.65772e-05; 0.0738871; 0.00819513; 0.0134298; 0.00964909
59872.2; 8.65832e-05; 0.0735452; 0.00815827; 0.013373; 0.0097428
60215.4; 8.64047e-05; 0.073219; 0.00812312; 0.0133188; 0.00983215
60528.3; 8.61365e-05; 0.0729225; 0.0080912; 0.0132696; 0.0099133
60734.9; 8.59017e-05; 0.0727274; 0.0080702; 0.0132372; 0.0099667
60871.2; 8.57365e-05; 0.0725988; 0.00805636; 0.0132158; 0.0100019
61051.3; 8.55477e-05; 0.0724293; 0.00803811; 0.0131877; 0.0100483
61200.1; 8.53837e-05; 0.0722896; 0.00802307; 0.0131645; 0.0100865
61418.5; 8.51958e-05; 0.0720849; 0.00800104; 0.0131305; 0.0101425
61816.7; 8.48378e-05; 0.0717133; 0.00796107; 0.0130689; 0.0102441
62079.6; 8.45082e-05; 0.0714689; 0.0079348; 0.0130284; 0.0103109
62330.9; 8.41995e-05; 0.0712361; 0.00790979; 0.0129898; 0.0103745
62560.1; 8.39118e-05; 0.0710246; 0.00788704; 0.0129547; 0.0104323
62711.3; 8.36951e-05; 0.0708854; 0.00787207; 0.0129316; 0.0104704
62989.1; 8.33899e-05; 0.0706306; 0.00784469; 0.0128894; 0.01054
63346.5; 8.29481e-05; 0.0703044; 0.00780965; 0.0128354; 0.010629
63799.7; 8.22857e-05; 0.0698943; 0.00776556; 0.0127674; 0.0107411
64202.3; 8.15668e-05; 0.069533; 0.0077268; 0.0127076; 0.0108397
64468.1; 8.10245e-05; 0.0692961; 0.00770137; 0.0126684; 0.0109043
64800.1; 8.04696e-05; 0.0690023; 0.00766981; 0.0126197; 0.0109845
65219.1; 7.9889e-05; 0.068634; 0.00763014; 0.0125586; 0.0110854
65726.4; 7.92094e-05; 0.0681921; 0.00758251; 0.0124851; 0.0112065
66179.5; 7.85247e-05; 0.0678007; 0.00754027; 0.01242; 0.0113138
66478.6; 7.79834e-05; 0.0675441; 0.00751257; 0.0123773; 0.0113842
66764.6; 7.74832e-05; 0.0673003; 0.00748623; 0.0123366; 0.0114512
66953.4; 7.71054e-05; 0.0671402; 0.00746891; 0.0123099; 0.0114952
67372.8; 7.64513e-05; 0.0667874; 0.00743077; 0.0122511; 0.0115922
67784.6; 7.56404e-05; 0.0664448; 0.00739374; 0.012194; 0.0116863
68188.9; 7.47663e-05; 0.0661123; 0.00735778; 0.0121385; 0.0117777
68400.1; 7.40403e-05; 0.0659404; 0.00733919; 0.0121099; 0.011825
68510.7; 7.37723e-05; 0.0658506; 0.00732949; 0.0120949; 0.0118497
68808.3; 7.32089e-05; 0.0656109; 0.00730358; 0.012055; 0.0119155
69125.8; 7.24086e-05; 0.0653581; 0.00727624; 0.0120128; 0.011985
69464.3; 7.15828e-05; 0.0650915; 0.00724741; 0.0119683; 0.0120583
69825.3; 7.06551e-05; 0.0648109; 0.00721708; 0.0119216; 0.0121354
70314.4; 6.93745e-05; 0.0644377; 0.00717667; 0.0118592; 0.0122382
70642.1; 6.82693e-05; 0.0641916; 0.00714996; 0.0118181; 0.012306
70940.4; 6.73285e-05; 0.0639707; 0.00712598; 0.0117811; 0.012367
71233.3; 6.63986e-05; 0.0637568; 0.00710277; 0.0117453; 0.012426
71484.9; 6.56871e-05; 0.0635749; 0.00708304; 0.0117149; 0.0124762
71710.7; 6.51425e-05; 0.0634132; 0.00706547; 0.0116878; 0.0125208
71901.5; 6.46825e-05; 0.0632774; 0.0070507; 0.011665; 0.0125584
72000.1; 6.43735e-05; 0.0632076; 0.0070431; 0.0116533; 0.0125777
72118.2; 6.41171e-05; 0.0631243; 0.00703403; 0.0116393; 0.0126008
72370; 6.36955e-05; 0.0629478; 0.0070148; 0.0116096; 0.0126496
72526.1; 6.33017e-05; 0.0628392; 0.00700297; 0.0115914; 0.0126797
72788.9; 6.27815e-05; 0.0626576; 0.0069832; 0.0115609; 0.01273
72977.1; 6.23111e-05; 0.0625287; 0.00696916; 0.0115393; 0.0127657
73228.5; 6.17794e-05; 0.0623578; 0.00695055; 0.0115106; 0.012813
73538.8; 6.11115e-05; 0.0621492; 0.00692781; 0.0114755; 0.0128708
73938.3; 6.02341e-05; 0.0618845; 0.00689894; 0.011431; 0.0129442
74425.4; 5.91104e-05; 0.0615678; 0.00686435; 0.0113776; 0.0130321
74853; 5.8028e-05; 0.0612949; 0.00683453; 0.0113316; 0.0131079
75196.4; 5.70777e-05; 0.0610792; 0.00681097; 0.0112953; 0.0131678
75600.1; 5.60476e-05; 0.0608304; 0.00678378; 0.0112534; 0.0132369
75879.1; 5.51523e-05; 0.0606611; 0.00676529; 0.0112249; 0.0132839
76164.9; 5.43515e-05; 0.0604903; 0.00674661; 0.0111961; 0.0133314
76499.1; 5.34091e-05; 0.0602939; 0.00672514; 0.0111629; 0.013386
76723.8; 5.26586e-05; 0.0601637; 0.00671089; 0.011141; 0.0134222
77054.4; 5.17394e-05; 0.0599756; 0.00669031; 0.0111092; 0.0134745
77358.6; 5.07949e-05; 0.0598056; 0.00667172; 0.0110806; 0.0135218
77579.1; 5.00875e-05; 0.0596841; 0.00665844; 0.0110601; 0.0135556
77786.1; 4.95186e-05; 0.0595714; 0.0066461; 0.0110411; 0.0135869
77992.7; 4.90379e-05; 0.0594599; 0.0066339; 0.0110222; 0.0136179
78340.9; 4.84986e-05; 0.0592741; 0.00661351; 0.0109908; 0.0136698
78868.4; 4.80249e-05; 0.0589955; 0.00658285; 0.0109435; 0.0137477
79200.1; 4.75988e-05; 0.0588219; 0.00656369; 0.010914; 0.0137964
79568.5; 4.73241e-05; 0.0586301; 0.00654247; 0.0108812; 0.0138504
79973.9; 4.69435e-05; 0.0584207; 0.00651926; 0.0108455; 0.0139094
80451.5; 4.64989e-05; 0.0581764; 0.00649214; 0.0108036; 0.0139783
80713; 4.61782e-05; 0.0580436; 0.00647738; 0.0107809; 0.0140158
80907.7; 4.59598e-05; 0.0579452; 0.00646644; 0.010764; 0.0140436
81098; 4.57538e-05; 0.0578494; 0.00645578; 0.0107476; 0.0140707
81423.5; 4.54525e-05; 0.0576867; 0.00643764; 0.0107196; 0.0141169
81918.4; 4.49834e-05; 0.0574418; 0.00641022; 0.0106773; 0.0141866
82641.1; 4.42545e-05; 0.05709; 0.00637081; 0.0106165; 0.0142867
82800.1; 4.39144e-05; 0.0570132; 0.00636223; 0.0106033; 0.0143086
82967.3; 4.37179e-05; 0.0569327; 0.00635324; 0.0105894; 0.0143314
83245.6; 4.34098e-05; 0.0567998; 0.0063384; 0.0105665; 0.0143691
83674; 4.29296e-05; 0.0565976; 0.00631583; 0.0105317; 0.0144265
84171.6; 4.23431e-05; 0.0563658; 0.00628995; 0.0104918; 0.0144923
84536.4; 4.18631e-05; 0.0561978; 0.00627118; 0.0104629; 0.01454
85017.4; 4.13186e-05; 0.0559792; 0.00624674; 0.0104252; 0.0146021
85522.3; 4.07622e-05; 0.0557528; 0.00622143; 0.0103862; 0.0146665
86053.5; 4.02529e-05; 0.0555176; 0.0061951; 0.0103456; 0.0147334
86400.1; 3.98978e-05; 0.0553655; 0.00617805; 0.0103193; 0.0147767
86812.1; 3.9536e-05; 0.0551863; 0.00615798; 0.0102883; 0.0148278
87182.9; 3.91831e-05; 0.0550265; 0.00614008; 0.0102607; 0.0148733
87640.4; 3.87849e-05; 0.0548313; 0.00611824; 0.010227; 0.0149288
88113; 3.83518e-05; 0.0546319; 0.00609593; 0.0101926; 0.0149855
88591.1; 3.79186e-05; 0.0544325; 0.00607363; 0.0101582; 0.0150422
88882.6; 3.76092e-05; 0.0543119; 0.00606015; 0.0101374; 0.0150765
89401.2; 3.719e-05; 0.0540998; 0.00603643; 0.0101009; 0.0151368
89989.8; 3.66527e-05; 0.0538624; 0.00600994; 0.01006; 0.0152041
90000.1; 3.65051e-05; 0.0538583; 0.00600948; 0.0100593; 0.0152053
90294.4; 3.62241e-05; 0.053741; 0.00599642; 0.0100392; 0.0152385
90913.7; 3.57807e-05; 0.0534973; 0.00596933; 0.00999739; 0.0153074
91581.8; 3.51549e-05; 0.0532389; 0.00594072; 0.00995327; 0.0153801
92298; 3.44934e-05; 0.0529672; 0.00591069; 0.00990696; 0.0154564
92897.2; 3.39085e-05; 0.0527437; 0.00588606; 0.00986899; 0.015519
93496.3; 3.33781e-05; 0.0525237; 0.00586189; 0.00983171; 0.0155805
93600.1; 3.31735e-05; 0.0524859; 0.00585773; 0.0098253; 0.015591
93899.6; 3.29963e-05; 0.0523771; 0.0058458; 0.0098069; 0.0156214
94561.2; 3.27152e-05; 0.052139; 0.00581972; 0.00976667; 0.0156877
95248.6; 3.23252e-05; 0.0518946; 0.00579289; 0.00972531; 0.0157559
95973.3; 3.19283e-05; 0.0516401; 0.00576483; 0.00968203; 0.0158272
96527.2; 3.16009e-05; 0.0514476; 0.00574357; 0.00964924; 0.0158813
96879.7; 3.13895e-05; 0.0513259; 0.00573012; 0.00962851; 0.0159154
97200.1; 3.12338e-05; 0.0512158; 0.00571795; 0.00960973; 0.0159464
97743.5; 3.10379e-05; 0.0510302; 0.00569739; 0.00957804; 0.0159986
98685.1; 3.07234e-05; 0.050712; 0.0056621; 0.00952361; 0.0160884
99685.1; 3.03643e-05; 0.050378; 0.00562505; 0.00946647; 0.0161826