0.00509635; 0.00206409; 0.133999; 0.016824; 0.0274964; 0
0.0156382; 0.000750128; 0.133999; 0.016824; 0.0274964; 0
0.0434754; 0.000427111; 0.133999; 0.016824; 0.0274964; 0
0.05; 0.000352623; 0.133999; 0.016824; 0.0274964; 0
0.0672325; 0.00030298; 0.133999; 0.016824; 0.0274964; 0
0.14074; 0.000231267; 0.133999; 0.016824; 0.0274964; 0
0.334845; 0.000163571; 0.133999; 0.016824; 0.0274964; 0
0.847405; 0.000125677; 0.133998; 0.016824; 0.0274964; 0
2.20088; 0.000115116; 0.133996; 0.016824; 0.0274964; 0
3.56242; 0.000114048; 0.133994; 0.016824; 0.0274964; -7.67854e-45
6.17232; 0.000113572; 0.133991; 0.016824; 0.0274964; -7.67854e-45
12.2089; 0.000112793; 0.133984; 0.016824; 0.0274964; -7.67854e-45
26.171; 0.000111563; 0.133967; 0.016824; 0.0274964; -7.67854e-45
43.8523; 0.000110267; 0.133945; 0.016824; 0.0274964; -7.67854e-45
55.2173; 0.000109518; 0.133931; 0.016824; 0.0274964; -7.67854e-45
82.1896; 0.000108395; 0.133899; 0.016824; 0.0274963; 1.46757e-07
125.756; 0.000106957; 0.133848; 0.0168236; 0.0274956; 1.17998e-06
190.184; 0.000105405; 0.133773; 0.0168223; 0.0274936; 4.45699e-06
265.769; 0.00010416; 0.133687; 0.0168205; 0.0274909; 9.03118e-06
332.92; 0.000103554; 0.13361; 0.0168189; 0.0274884; 1.31042e-05
430.842; 0.000103224; 0.133499; 0.0168165; 0.0274847; 1.92351e-05
566.361; 0.000102945; 0.133346; 0.0168131; 0.0274795; 2.77374e-05
717.415; 0.000102632; 0.133175; 0.0168095; 0.027474; 3.68634e-05
800.274; 0.000102234; 0.133082; 0.0168076; 0.027471; 4.18518e-05
825.337; 0.000102157; 0.133054; 0.016807; 0.02747; 4.3363e-05
876.671; 0.000102115; 0.132996; 0.0168057; 0.0274682; 4.64804e-05
957.133; 0.000102051; 0.132906; 0.0168037; 0.0274651; 5.15455e-05
1061.51; 0.000102018; 0.132789; 0.016801; 0.0274608; 5.865e-05
1271.41; 0.000101941; 0.132553; 0.0167955; 0.0274523; 7.25413e-05
1376.74; 0.000101822; 0.132435; 0.0167928; 0.0274482; 7.9439e-05
1435.67; 0.000101773; 0.132369; 0.0167913; 0.0274458; 8.32936e-05
1591.28; 0.000101657; 0.132195; 0.0167872; 0.0274396; 9.35025e-05
1779.62; 0.000101557; 0.131985; 0.0167823; 0.027432; 0.000106161
1833.23; 0.000101555; 0.131925; 0.0167808; 0.0274297; 0.000109804
1853.21; 0.000101554; 0.131903; 0.0167803; 0.0274289; 0.000111167
1905.97; 0.000101553; 0.131844; 0.0167789; 0.0274267; 0.000114782
2045.3; 0.000101513; 0.131688; 0.0167751; 0.027421; 0.000124287
2126.33; 0.000101472; 0.131598; 0.0167729; 0.0274176; 0.000129873
2322.5; 0.000101407; 0.131379; 0.0167676; 0.0274093; 0.000143499
2550.67; 0.000101337; 0.131125; 0.0167614; 0.0273997; 0.000159303
2932.09; 0.000101236; 0.1307; 0.0167509; 0.0273835; 0.000185993
2950.39; 0.000101225; 0.130679; 0.0167504; 0.0273827; 0.000187276
2996.13; 0.000101218; 0.130628; 0.0167491; 0.0273808; 0.000190489
3116.92; 0.000101188; 0.130494; 0.0167458; 0.0273756; 0.000198988
3368.05; 0.000101118; 0.130215; 0.0167388; 0.0273649; 0.000216719
3600.05; 0.000101005; 0.129957; 0.0167323; 0.0273549; 0.000233149
3981.51; 0.00010093; 0.129533; 0.0167216; 0.0273385; 0.000260274
4259.64; 0.000100851; 0.129225; 0.0167136; 0.027326; 0.000280836
4578.49; 0.000100773; 0.128871; 0.0167028; 0.0273095; 0.000308089
4849.89; 0.000100703; 0.128571; 0.0166927; 0.0272939; 0.000333756
5350.72; 0.000100619; 0.128016; 0.0166705; 0.0272596; 0.000390222
5588.26; 0.000100535; 0.127754; 0.016659; 0.0272419; 0.000419465
5765.31; 0.000100498; 0.127558; 0.0166501; 0.0272281; 0.000442226
6156.7; 0.000100428; 0.127126; 0.0166288; 0.0271953; 0.000496317
6670.02; 0.000100225; 0.12656; 0.016599; 0.0271493; 0.000572151
7079.1; 0.000100089; 0.126109; 0.0165738; 0.0271105; 0.00063606
7200.05; 0.000100035; 0.125976; 0.0165662; 0.0270988; 0.000655351
7321; 9.99922e-05; 0.125843; 0.0165586; 0.027087; 0.000674839
7592.27; 9.99044e-05; 0.125545; 0.016541; 0.0270598; 0.000719604
7808.87; 9.9816e-05; 0.125307; 0.0165267; 0.0270378; 0.000755894
8157.23; 9.96954e-05; 0.124925; 0.0165031; 0.0270015; 0.000815758
8651.74; 9.96427e-05; 0.124383; 0.0164675; 0.0269465; 0.000906374
8704.25; 9.96917e-05; 0.124326; 0.0164638; 0.0269409; 0.00091569
8809.86; 9.96959e-05; 0.12421; 0.016456; 0.0269288; 0.000935676
9037.39; 9.9604e-05; 0.123961; 0.0164388; 0.0269023; 0.000979344
9494.04; 9.96038e-05; 0.12346; 0.0164016; 0.0268449; 0.00107387
9866.35; 9.96189e-05; 0.123052; 0.0163699; 0.026796; 0.00115453
9938.29; 9.95947e-05; 0.122973; 0.0163637; 0.0267865; 0.00117015
10039.2; 9.96017e-05; 0.122863; 0.0163556; 0.0267741; 0.00119069
10172.8; 9.96426e-05; 0.122716; 0.0163459; 0.026759; 0.00121547
10321.1; 9.95809e-05; 0.122554; 0.0163358; 0.0267435; 0.00124114
10476.2; 9.95241e-05; 0.122384; 0.0163252; 0.0267271; 0.00126811
10671.7; 9.9547e-05; 0.12217; 0.0163118; 0.0267064; 0.00130216
10796.6; 9.94328e-05; 0.122034; 0.016303; 0.0266929; 0.00132441
10800; 9.9513e-05; 0.12203; 0.0163028; 0.0266926; 0.00132505
10870.9; 9.94887e-05; 0.121952; 0.0162978; 0.0266848; 0.00133784
11123.9; 9.94412e-05; 0.121675; 0.0162794; 0.0266564; 0.00138461
11332.5; 9.93525e-05; 0.121447; 0.0162629; 0.026631; 0.00142656
11536.8; 9.93548e-05; 0.121224; 0.0162449; 0.0266033; 0.00147225
11688.7; 9.93592e-05; 0.121058; 0.0162312; 0.0265822; 0.00150703
11814.1; 9.94341e-05; 0.120921; 0.0162201; 0.0265651; 0.00153515
11961.3; 9.93764e-05; 0.12076; 0.0162075; 0.0265455; 0.0015674
12161; 9.93454e-05; 0.120542; 0.0161902; 0.0265189; 0.00161123
12306.9; 9.93795e-05; 0.120382; 0.016177; 0.0264986; 0.00164476
12441.4; 9.92857e-05; 0.120236; 0.0161647; 0.0264796; 0.00167607
12556.2; 9.9276e-05; 0.12011; 0.016154; 0.0264632; 0.00170317
12716.6; 9.92467e-05; 0.119935; 0.0161388; 0.0264396; 0.00174196
12956.8; 9.93843e-05; 0.119672; 0.0161142; 0.0264017; 0.00180442
13089.2; 9.93282e-05; 0.119528; 0.0161003; 0.0263803; 0.00183981
13191.4; 9.93693e-05; 0.119416; 0.0160898; 0.0263641; 0.00186656
13336; 9.9319e-05; 0.119258; 0.0160748; 0.026341; 0.0019046
13555.6; 9.93265e-05; 0.119018; 0.0160521; 0.0263059; 0.00196236
13651.7; 9.92579e-05; 0.118913; 0.0160422; 0.0262907; 0.00198748
13806.1; 9.91966e-05; 0.118745; 0.0160267; 0.0262668; 0.0020268
13942.7; 9.91844e-05; 0.118596; 0.0160132; 0.0262459; 0.00206136
14122.5; 9.92012e-05; 0.118399; 0.0159951; 0.0262181; 0.00210715
14281.7; 9.91308e-05; 0.118226; 0.0159793; 0.0261937; 0.00214736
14400; 9.91197e-05; 0.118097; 0.0159675; 0.0261755; 0.00217742
14549.3; 9.90337e-05; 0.117934; 0.015952; 0.0261516; 0.00221673
14857.5; 9.90333e-05; 0.117599; 0.0159194; 0.0261013; 0.00229978
15396; 9.89907e-05; 0.117012; 0.0158588; 0.0260079; 0.00245364
16038.2; 9.90364e-05; 0.116313; 0.0157797; 0.0258859; 0.00265482
16406.6; 9.9027e-05; 0.115911; 0.0157322; 0.0258126; 0.00277564
17167.5; 9.89853e-05; 0.115083; 0.0156313; 0.025657; 0.00303208
17394; 9.89642e-05; 0.114836; 0.0156009; 0.0256102; 0.00310933
17792.9; 9.89474e-05; 0.114402; 0.0155471; 0.0255272; 0.00324609
18000; 9.89319e-05; 0.114177; 0.015519; 0.0254839; 0.00331743
18233.9; 9.89154e-05; 0.113922; 0.0154872; 0.0254347; 0.00339851
19089.4; 9.88736e-05; 0.112992; 0.0153686; 0.0252519; 0.00369986
19719.6; 9.88442e-05; 0.112306; 0.0152806; 0.0251162; 0.00392352
20719.6; 9.87923e-05; 0.11122; 0.0151398; 0.024899; 0.00428161
21375.9; 9.87406e-05; 0.110507; 0.0150468; 0.0247557; 0.00451792
21600; 9.87094e-05; 0.110264; 0.015015; 0.0247066; 0.00459886
22006.3; 9.86679e-05; 0.109823; 0.0149571; 0.0246173; 0.00474594
23006.3; 9.86036e-05; 0.108738; 0.0148142; 0.024397; 0.0051092
24006.3; 9.8525e-05; 0.107654; 0.0146707; 0.0241756; 0.00547406
25006.3; 9.84327e-05; 0.106571; 0.0145265; 0.0239533; 0.00584056
25200; 9.83885e-05; 0.106362; 0.0144985; 0.0239102; 0.00591167
25700; 9.83353e-05; 0.105821; 0.0144263; 0.0237988; 0.0060952
26700; 9.82592e-05; 0.10474; 0.0142827; 0.0235772; 0.00646049
27700; 9.81712e-05; 0.10366; 0.0141392; 0.023356; 0.00682516
28700; 9.80678e-05; 0.102581; 0.0139951; 0.0231339; 0.00719138
28800; 9.80238e-05; 0.102474; 0.0139807; 0.0231116; 0.00722808
29300; 9.79414e-05; 0.101935; 0.0139082; 0.0229998; 0.00741244
29892.6; 9.78293e-05; 0.101297; 0.0138218; 0.0228666; 0.00763202
30208.6; 9.77148e-05; 0.100958; 0.0137756; 0.0227954; 0.00774941
30452.5; 9.75729e-05; 0.100696; 0.0137399; 0.0227403; 0.00784021
30579.8; 9.74141e-05; 0.100559; 0.0137212; 0.0227115; 0.0078877
30734.4; 9.72187e-05; 0.100394; 0.0136986; 0.0226765; 0.00794535
30852.4; 9.70728e-05; 0.100268; 0.0136813; 0.0226498; 0.0079893
30991.9; 9.69932e-05; 0.100119; 0.0136609; 0.0226184; 0.00804116
31246.2; 9.69532e-05; 0.099848; 0.0136237; 0.0225611; 0.00813554
31470.1; 9.68957e-05; 0.0996094; 0.0135911; 0.0225108; 0.00821843
31663.3; 9.6825e-05; 0.0994036; 0.013563; 0.0224675; 0.00828987
31902.1; 9.67667e-05; 0.0991494; 0.0135283; 0.022414; 0.00837805
32217.4; 9.66871e-05; 0.0988141; 0.0134826; 0.0223435; 0.00849429
32400; 9.66235e-05; 0.09862; 0.0134562; 0.0223027; 0.00856152
32565.6; 9.65695e-05; 0.0984442; 0.0134322; 0.0222658; 0.00862237
32723.8; 9.65145e-05; 0.0982762; 0.0134094; 0.0222305; 0.00868048
32868; 9.64621e-05; 0.0981231; 0.0133886; 0.0221984; 0.0087334
32963.3; 9.6424e-05; 0.0980221; 0.0133748; 0.0221773; 0.00876831
33145.4; 9.63986e-05; 0.097829; 0.0133486; 0.0221368; 0.00883503
33626.2; 9.63369e-05; 0.0973195; 0.0132794; 0.02203; 0.009011
34261.1; 9.62461e-05; 0.0966473; 0.013188; 0.0218892; 0.00924311
34714.2; 9.6172e-05; 0.096168; 0.0131229; 0.0217888; 0.00940871
35294.3; 9.6091e-05; 0.0955548; 0.0130395; 0.0216602; 0.0096207
36000.1; 9.59911e-05; 0.0948096; 0.012938; 0.0215037; 0.00987867
36533.3; 9.58983e-05; 0.0942471; 0.0128614; 0.0213855; 0.0100736
37163.5; 9.57831e-05; 0.0935832; 0.0127707; 0.0212457; 0.010304
37491.6; 9.56861e-05; 0.0932378; 0.0127235; 0.0211729; 0.010424
37790.7; 9.55963e-05; 0.0929232; 0.0126805; 0.0211065; 0.0105334
37988.2; 9.55222e-05; 0.0927157; 0.0126521; 0.0210627; 0.0106056
38177; 9.54524e-05; 0.0925175; 0.0126249; 0.0210209; 0.0106746
38349.1; 9.53849e-05; 0.0923369; 0.0126002; 0.0209827; 0.0107375
38513.7; 9.53146e-05; 0.0921644; 0.0125765; 0.0209462; 0.0107977
38663.7; 9.52465e-05; 0.0920072; 0.012555; 0.020913; 0.0108525
38807.1; 9.51758e-05; 0.091857; 0.0125344; 0.0208812; 0.0109049
38937.9; 9.51076e-05; 0.0917202; 0.0125156; 0.0208522; 0.0109526
39024.2; 9.50547e-05; 0.09163; 0.0125032; 0.0208331; 0.0109841
39138.2; 9.49937e-05; 0.0915109; 0.0124868; 0.0208079; 0.0110257
39247.2; 9.49277e-05; 0.0913971; 0.0124712; 0.0207838; 0.0110654
39369.4; 9.4855e-05; 0.0912695; 0.0124537; 0.0207568; 0.0111099
39450.2; 9.47967e-05; 0.0911853; 0.0124421; 0.0207389; 0.0111393
39527.3; 9.47444e-05; 0.0911049; 0.0124311; 0.0207219; 0.0111674
39600.1; 9.46945e-05; 0.0910291; 0.0124207; 0.0207059; 0.0111939
39695.5; 9.46297e-05; 0.0909298; 0.012407; 0.0206848; 0.0112286
39778.6; 9.4565e-05; 0.0908433; 0.0123951; 0.0206665; 0.0112588
39849.3; 9.45117e-05; 0.0907698; 0.012385; 0.0206509; 0.0112845
39916.9; 9.44574e-05; 0.0906996; 0.0123754; 0.020636; 0.011309
39984.3; 9.44035e-05; 0.0906296; 0.0123658; 0.0206212; 0.0113335
40048.8; 9.43487e-05; 0.0905627; 0.0123566; 0.020607; 0.0113568
40113.1; 9.42951e-05; 0.090496; 0.0123474; 0.0205929; 0.0113801
40174.6; 9.42406e-05; 0.0904323; 0.0123386; 0.0205794; 0.0114024
40235.9; 9.41869e-05; 0.0903688; 0.0123299; 0.0205659; 0.0114246
40320.2; 9.41153e-05; 0.0902814; 0.0123179; 0.0205474; 0.0114551
40378.7; 9.40545e-05; 0.0902209; 0.0123096; 0.0205346; 0.0114762
40459.1; 9.39825e-05; 0.0901378; 0.0122982; 0.020517; 0.0115053
40530.2; 9.39114e-05; 0.0900643; 0.0122881; 0.0205014; 0.0115309
40645.7; 9.38191e-05; 0.0899451; 0.0122717; 0.0204761; 0.0115725
40722.3; 9.37454e-05; 0.0898662; 0.0122609; 0.0204594; 0.0116001
40799.1; 9.36776e-05; 0.089787; 0.01225; 0.0204427; 0.0116277
40912.2; 9.35856e-05; 0.0896706; 0.012234; 0.020418; 0.0116684
40986.9; 9.35083e-05; 0.0895937; 0.0122234; 0.0204017; 0.0116953
41058.4; 9.34405e-05; 0.0895203; 0.0122134; 0.0203861; 0.0117209
41141.4; 9.33659e-05; 0.089435; 0.0122016; 0.0203681; 0.0117507
41210.8; 9.32979e-05; 0.0893638; 0.0121918; 0.020353; 0.0117756
41277.2; 9.3234e-05; 0.0892957; 0.0121825; 0.0203386; 0.0117994
41337.7; 9.31769e-05; 0.0892337; 0.012174; 0.0203254; 0.011821
41395.6; 9.31222e-05; 0.0891744; 0.0121658; 0.0203129; 0.0118417
41448.3; 9.30735e-05; 0.0891204; 0.0121584; 0.0203014; 0.0118606
41529.2; 9.30153e-05; 0.0890377; 0.012147; 0.0202839; 0.0118895
41698.6; 9.29312e-05; 0.0888645; 0.0121232; 0.0202472; 0.01195
41853; 9.2836e-05; 0.0887069; 0.0121015; 0.0202137; 0.0120051
41954.9; 9.27617e-05; 0.0886028; 0.0120872; 0.0201917; 0.0120415
42089.5; 9.26764e-05; 0.0884657; 0.0120684; 0.0201625; 0.0120895
42178.3; 9.26047e-05; 0.0883752; 0.0120559; 0.0201433; 0.0121211
42288.1; 9.25248e-05; 0.0882634; 0.0120405; 0.0201196; 0.0121602
42433; 9.24113e-05; 0.0881161; 0.0120203; 0.0200884; 0.0122118
42528.7; 9.23144e-05; 0.0880189; 0.0120069; 0.0200678; 0.0122458
42655.1; 9.21992e-05; 0.0878908; 0.0119893; 0.0200406; 0.0122906
42715.5; 9.21199e-05; 0.0878296; 0.0119808; 0.0200276; 0.012312
42770.5; 9.20603e-05; 0.0877738; 0.0119732; 0.0200158; 0.0123315
42843.2; 9.19842e-05; 0.0877003; 0.0119631; 0.0200002; 0.0123572
42939.2; 9.1878e-05; 0.0876033; 0.0119497; 0.0199796; 0.0123911
43002.6; 9.17892e-05; 0.0875393; 0.0119409; 0.019966; 0.0124135
43086.2; 9.1688e-05; 0.0874549; 0.0119293; 0.0199481; 0.012443
43166.2; 9.15854e-05; 0.0873743; 0.0119182; 0.019931; 0.0124712
43200.1; 9.15212e-05; 0.0873403; 0.0119135; 0.0199238; 0.0124831
43224.8; 9.14904e-05; 0.0873153; 0.0119101; 0.0199185; 0.0124918
43283.7; 9.14384e-05; 0.0872561; 0.011902; 0.0199059; 0.0125125
43361.5; 9.13519e-05; 0.087178; 0.0118912; 0.0198894; 0.0125398
43435.8; 9.1262e-05; 0.0871033; 0.0118809; 0.0198735; 0.0125659
43503.6; 9.11826e-05; 0.0870354; 0.0118716; 0.0198591; 0.0125897
43593.1; 9.10875e-05; 0.0869457; 0.0118592; 0.0198401; 0.0126211
43652.1; 9.10101e-05; 0.0868866; 0.0118511; 0.0198275; 0.0126418
43715.1; 9.09403e-05; 0.0868235; 0.0118424; 0.0198142; 0.0126638
43798.3; 9.08515e-05; 0.0867404; 0.011831; 0.0197965; 0.0126929
43853.2; 9.07814e-05; 0.0866856; 0.0118235; 0.0197849; 0.012712
43925.7; 9.07036e-05; 0.0866133; 0.0118135; 0.0197696; 0.0127373
43995; 9.06213e-05; 0.0865442; 0.011804; 0.0197549; 0.0127615
44058.2; 9.05457e-05; 0.0864812; 0.0117954; 0.0197416; 0.0127835
44118.6; 9.04707e-05; 0.0864211; 0.0117871; 0.0197288; 0.0128045
44173.7; 9.04019e-05; 0.0863663; 0.0117796; 0.0197172; 0.0128236
44226.4; 9.03349e-05; 0.086314; 0.0117724; 0.0197061; 0.0128419
44295.9; 9.02573e-05; 0.086245; 0.0117629; 0.0196915; 0.0128661
44419; 9.01262e-05; 0.0861229; 0.0117461; 0.0196656; 0.0129088
44575.7; 8.99258e-05; 0.085968; 0.0117248; 0.0196327; 0.0129629
44679.1; 8.97538e-05; 0.0858659; 0.0117107; 0.019611; 0.0129986
44815.6; 8.95604e-05; 0.0857314; 0.0116922; 0.0195825; 0.0130456
44905.7; 8.94041e-05; 0.0856427; 0.01168; 0.0195637; 0.0130766
44998; 8.92528e-05; 0.0855521; 0.0116676; 0.0195445; 0.0131083
45111.8; 8.90829e-05; 0.0854406; 0.0116522; 0.0195208; 0.0131473
45215.5; 8.89098e-05; 0.0853392; 0.0116383; 0.0194993; 0.0131828
45348.6; 8.86817e-05; 0.0852094; 0.0116204; 0.0194718; 0.0132282
45433.2; 8.84888e-05; 0.0851271; 0.0116091; 0.0194543; 0.013257
45541.7; 8.82606e-05; 0.0850217; 0.0115946; 0.0194319; 0.0132939
45641.6; 8.80117e-05; 0.0849249; 0.0115812; 0.0194114; 0.0133278
45726.9; 8.77816e-05; 0.0848426; 0.0115699; 0.0193939; 0.0133566
45808.5; 8.75484e-05; 0.0847641; 0.0115591; 0.0193772; 0.0133842
45873.3; 8.73521e-05; 0.0847018; 0.0115505; 0.0193639; 0.013406
45958.8; 8.71156e-05; 0.0846198; 0.0115392; 0.0193465; 0.0134348
46015.3; 8.6925e-05; 0.0845658; 0.0115317; 0.019335; 0.0134537
46089.9; 8.67096e-05; 0.0844947; 0.0115219; 0.0193198; 0.0134787
46139.1; 8.65334e-05; 0.0844478; 0.0115154; 0.0193099; 0.0134951
46204.1; 8.63305e-05; 0.0843861; 0.0115069; 0.0192967; 0.0135167
46247; 8.61638e-05; 0.0843454; 0.0115013; 0.0192881; 0.013531
46329.1; 8.59174e-05; 0.0842678; 0.0114906; 0.0192716; 0.0135582
46465.8; 8.55175e-05; 0.0841392; 0.0114729; 0.0192443; 0.0136033
46616.2; 8.51381e-05; 0.0839984; 0.0114535; 0.0192143; 0.0136526
46749.2; 8.49294e-05; 0.0838742; 0.0114364; 0.0191879; 0.0136961
46800.1; 8.48515e-05; 0.0838267; 0.0114298; 0.0191779; 0.0137127
46882.4; 8.47947e-05; 0.0837499; 0.0114193; 0.0191616; 0.0137396
47003.6; 8.47378e-05; 0.0836369; 0.0114037; 0.0191376; 0.0137791
47119.5; 8.46462e-05; 0.083529; 0.0113888; 0.0191147; 0.0138169
47225.2; 8.45366e-05; 0.0834307; 0.0113753; 0.0190938; 0.0138513
47295; 8.44368e-05; 0.0833659; 0.0113664; 0.0190801; 0.0138739
47387.1; 8.43078e-05; 0.0832805; 0.0113546; 0.0190619; 0.0139038
47447.9; 8.41951e-05; 0.0832242; 0.0113469; 0.01905; 0.0139235
47528.1; 8.40601e-05; 0.0831499; 0.0113367; 0.0190342; 0.0139495
47604.9; 8.39101e-05; 0.0830791; 0.0113269; 0.0190192; 0.0139743
47674.9; 8.37682e-05; 0.0830146; 0.0113181; 0.0190055; 0.0139968
47741.8; 8.36263e-05; 0.0829531; 0.0113096; 0.0189925; 0.0140183
47802.8; 8.34955e-05; 0.0828971; 0.0113019; 0.0189806; 0.0140379
47861.1; 8.33728e-05; 0.0828436; 0.0112945; 0.0189692; 0.0140566
48015; 8.31125e-05; 0.0827028; 0.0112752; 0.0189394; 0.0141058
48123.9; 8.28611e-05; 0.0826035; 0.0112615; 0.0189183; 0.0141406
48258.2; 8.25957e-05; 0.0824816; 0.0112447; 0.0188924; 0.0141832
48380.5; 8.23276e-05; 0.0823708; 0.0112295; 0.0188689; 0.0142219
48497.5; 8.20689e-05; 0.0822652; 0.011215; 0.0188465; 0.0142589
48604.1; 8.18437e-05; 0.0821692; 0.0112018; 0.0188262; 0.0142925
48706.1; 8.16371e-05; 0.0820776; 0.0111892; 0.0188067; 0.0143245
48799; 8.1457e-05; 0.0819944; 0.0111777; 0.0187891; 0.0143536
48887.9; 8.12846e-05; 0.0819149; 0.0111668; 0.0187722; 0.0143814
48968.9; 8.11286e-05; 0.0818426; 0.0111568; 0.0187568; 0.0144067
49075.9; 8.09343e-05; 0.0817474; 0.0111437; 0.0187366; 0.01444
49146.5; 8.07793e-05; 0.0816846; 0.0111351; 0.0187233; 0.014462
49239.7; 8.06264e-05; 0.0816019; 0.0111237; 0.0187058; 0.0144909
49362.8; 8.04186e-05; 0.081493; 0.0111087; 0.0186827; 0.014529
49444.1; 8.02433e-05; 0.0814213; 0.0110988; 0.0186674; 0.0145541
49551.4; 8.00368e-05; 0.0813268; 0.0110858; 0.0186474; 0.0145872
49622.2; 7.98654e-05; 0.0812646; 0.0110773; 0.0186342; 0.0146089
49715.7; 7.96686e-05; 0.0811827; 0.011066; 0.0186168; 0.0146376
49777.5; 7.95083e-05; 0.0811287; 0.0110586; 0.0186053; 0.0146565
49836.5; 7.93662e-05; 0.0810771; 0.0110515; 0.0185944; 0.0146745
49890.3; 7.9236e-05; 0.0810302; 0.011045; 0.0185844; 0.0146909
49941.8; 7.91085e-05; 0.0809855; 0.0110389; 0.018575; 0.0147066
49988.7; 7.89925e-05; 0.0809447; 0.0110333; 0.0185663; 0.0147208
50050.6; 7.88493e-05; 0.080891; 0.0110259; 0.0185549; 0.0147396
50091.5; 7.87355e-05; 0.0808556; 0.011021; 0.0185474; 0.014752
50145.4; 7.86104e-05; 0.0808089; 0.0110146; 0.0185375; 0.0147683
50197; 7.8481e-05; 0.0807644; 0.0110085; 0.018528; 0.0147839
50307.1; 7.82598e-05; 0.0806696; 0.0109954; 0.0185079; 0.0148171
50400.1; 7.80389e-05; 0.0805898; 0.0109844; 0.018491; 0.014845
50500.3; 7.78108e-05; 0.080504; 0.0109726; 0.0184728; 0.014875
50596.2; 7.75759e-05; 0.0804222; 0.0109613; 0.0184554; 0.0149037
50715; 7.72951e-05; 0.0803212; 0.0109474; 0.0184339; 0.014939
50784.3; 7.7088e-05; 0.0802625; 0.0109393; 0.0184214; 0.0149596
50867.9; 7.68706e-05; 0.0801917; 0.0109296; 0.0184064; 0.0149844
50938.6; 7.6662e-05; 0.0801322; 0.0109214; 0.0183937; 0.0150053
51003; 7.64699e-05; 0.080078; 0.0109139; 0.0183822; 0.0150243
51064.6; 7.62768e-05; 0.0800263; 0.0109068; 0.0183712; 0.0150424
51120.7; 7.60975e-05; 0.0799793; 0.0109003; 0.0183612; 0.0150589
51186.3; 7.58895e-05; 0.0799245; 0.0108927; 0.0183496; 0.0150781
51259.1; 7.56605e-05; 0.0798639; 0.0108844; 0.0183367; 0.0150993
51315.3; 7.54726e-05; 0.0798173; 0.0108779; 0.0183268; 0.0151157
51366.6; 7.53129e-05; 0.0797748; 0.0108721; 0.0183178; 0.0151306
51415.5; 7.5156e-05; 0.0797343; 0.0108665; 0.0183091; 0.0151448
51467.8; 7.49915e-05; 0.0796912; 0.0108606; 0.0183; 0.0151599
51528.5; 7.48016e-05; 0.0796412; 0.0108536; 0.0182893; 0.0151774
51603.6; 7.45645e-05; 0.0795797; 0.0108452; 0.0182762; 0.015199
51661; 7.43551e-05; 0.0795328; 0.0108387; 0.0182662; 0.0152155
51672.7; 7.42881e-05; 0.0795232; 0.0108374; 0.0182642; 0.0152188
51703.5; 7.41939e-05; 0.0794981; 0.0108339; 0.0182588; 0.0152277
51744.1; 7.40645e-05; 0.0794649; 0.0108293; 0.0182518; 0.0152393
51790.9; 7.39178e-05; 0.0794269; 0.0108241; 0.0182437; 0.0152526
51864; 7.37002e-05; 0.0793676; 0.0108159; 0.0182311; 0.0152734
51915.1; 7.35227e-05; 0.0793263; 0.0108102; 0.0182223; 0.0152879
51958.8; 7.33748e-05; 0.0792911; 0.0108053; 0.0182148; 0.0153003
52042; 7.31327e-05; 0.0792241; 0.0107961; 0.0182005; 0.0153238
52085; 7.29549e-05; 0.0791896; 0.0107913; 0.0181932; 0.0153359
52148.9; 7.27585e-05; 0.0791385; 0.0107843; 0.0181823; 0.0153538
52204.4; 7.2563e-05; 0.0790942; 0.0107781; 0.0181729; 0.0153693
52248.5; 7.24076e-05; 0.0790591; 0.0107733; 0.0181654; 0.0153817
52303.3; 7.22316e-05; 0.0790155; 0.0107673; 0.0181562; 0.0153969
52336.8; 7.21027e-05; 0.0789889; 0.0107636; 0.0181505; 0.0154062
52395.8; 7.19264e-05; 0.0789423; 0.0107572; 0.0181406; 0.0154226
52446.3; 7.17532e-05; 0.0789024; 0.0107517; 0.0181321; 0.0154365
52503.6; 7.15693e-05; 0.0788573; 0.0107455; 0.0181226; 0.0154523
52558; 7.13936e-05; 0.0788145; 0.0107396; 0.0181135; 0.0154673
52604; 7.12428e-05; 0.0787785; 0.0107347; 0.0181058; 0.0154799
52656.9; 7.10959e-05; 0.0787371; 0.010729; 0.0180971; 0.0154943
52722.5; 7.09296e-05; 0.078686; 0.010722; 0.0180862; 0.0155122
52777.9; 7.07797e-05; 0.0786428; 0.010716; 0.0180771; 0.0155273
52845.3; 7.06171e-05; 0.0785905; 0.0107088; 0.018066; 0.0155455
52918.1; 7.04333e-05; 0.0785341; 0.0107011; 0.0180541; 0.0155652
53000.8; 7.024e-05; 0.0784702; 0.0106923; 0.0180405; 0.0155875
53063; 7.00725e-05; 0.0784222; 0.0106857; 0.0180304; 0.0156043
53122.5; 6.99167e-05; 0.0783765; 0.0106795; 0.0180207; 0.0156202
53176.7; 6.97726e-05; 0.0783348; 0.0106738; 0.0180119; 0.0156347
53240.6; 6.96055e-05; 0.078286; 0.0106671; 0.0180016; 0.0156517
53318.1; 6.93995e-05; 0.0782268; 0.010659; 0.0179891; 0.0156723
53407.4; 6.91485e-05; 0.0781588; 0.0106497; 0.0179748; 0.015696
53484.5; 6.89083e-05; 0.0781004; 0.0106417; 0.0179624; 0.0157163
53552.3; 6.86889e-05; 0.0780492; 0.0106347; 0.0179516; 0.0157341
53620.8; 6.84693e-05; 0.0779976; 0.0106276; 0.0179408; 0.015752
53683.3; 6.82628e-05; 0.0779507; 0.0106212; 0.0179309; 0.0157683
53722.2; 6.81135e-05; 0.0779215; 0.0106172; 0.0179248; 0.0157784
53769.6; 6.79613e-05; 0.0778861; 0.0106124; 0.0179173; 0.0157907
53860.4; 6.76832e-05; 0.0778185; 0.0106032; 0.0179031; 0.0158141
53909.5; 6.74776e-05; 0.077782; 0.0105982; 0.0178954; 0.0158268
53974.4; 6.72673e-05; 0.077734; 0.0105917; 0.0178853; 0.0158434
54000.1; 6.71308e-05; 0.0777151; 0.0105891; 0.0178813; 0.01585
54040.2; 6.69984e-05; 0.0776855; 0.010585; 0.0178751; 0.0158603
54148.4; 6.67261e-05; 0.0776061; 0.0105742; 0.0178584; 0.0158878
54267.3; 6.63378e-05; 0.0775193; 0.0105624; 0.0178401; 0.0159179
54372.5; 6.59656e-05; 0.077443; 0.0105519; 0.0178241; 0.0159444
54484.7; 6.55844e-05; 0.077362; 0.0105409; 0.017807; 0.0159725
54586.9; 6.52229e-05; 0.0772887; 0.0105309; 0.0177916; 0.0159979
54710.3; 6.48013e-05; 0.0772007; 0.0105189; 0.0177731; 0.0160284
54782.3; 6.45019e-05; 0.0771497; 0.0105119; 0.0177623; 0.0160461
54877.4; 6.41784e-05; 0.0770826; 0.0105028; 0.0177482; 0.0160694
54940.1; 6.39192e-05; 0.0770384; 0.0104967; 0.0177389; 0.0160847
55022.9; 6.36289e-05; 0.0769804; 0.0104888; 0.0177267; 0.0161049
55102.2; 6.33194e-05; 0.0769253; 0.0104813; 0.0177151; 0.016124
55161.4; 6.30732e-05; 0.0768842; 0.0104757; 0.0177064; 0.0161383
55218.1; 6.28415e-05; 0.076845; 0.0104703; 0.0176982; 0.0161519
55269.7; 6.26284e-05; 0.0768094; 0.0104655; 0.0176907; 0.0161642
55319.1; 6.24179e-05; 0.0767755; 0.0104608; 0.0176836; 0.016176
55390.8; 6.21261e-05; 0.0767265; 0.0104542; 0.0176733; 0.016193
55473.8; 6.17858e-05; 0.0766701; 0.0104465; 0.0176614; 0.0162125
55588.6; 6.13202e-05; 0.0765926; 0.0104359; 0.0176451; 0.0162393
55647.2; 6.10079e-05; 0.0765533; 0.0104306; 0.0176369; 0.0162529
55721.5; 6.06982e-05; 0.0765037; 0.0104238; 0.0176265; 0.0162701
55754.6; 6.05188e-05; 0.0764817; 0.0104208; 0.0176219; 0.0162777
55825.1; 6.02707e-05; 0.0764349; 0.0104145; 0.017612; 0.0162939
55890.7; 6.00156e-05; 0.0763917; 0.0104086; 0.017603; 0.0163089
55994; 5.96689e-05; 0.0763239; 0.0103993; 0.0175887; 0.0163323
56120.1; 5.92226e-05; 0.0762417; 0.0103882; 0.0175715; 0.0163608
56263.4; 5.87446e-05; 0.0761491; 0.0103755; 0.017552; 0.0163928
56385.7; 5.83104e-05; 0.0760707; 0.0103649; 0.0175356; 0.01642
56474.5; 5.80087e-05; 0.076014; 0.0103571; 0.0175237; 0.0164396
56556.4; 5.7766e-05; 0.075962; 0.0103501; 0.0175127; 0.0164576
56631; 5.75445e-05; 0.0759147; 0.0103436; 0.0175028; 0.0164739
56729.5; 5.7262e-05; 0.0758527; 0.0103352; 0.0174898; 0.0164954
56853.4; 5.69044e-05; 0.0757751; 0.0103246; 0.0174735; 0.0165223
56928.1; 5.66729e-05; 0.0757286; 0.0103183; 0.0174637; 0.0165384
57023.1; 5.6455e-05; 0.0756696; 0.0103102; 0.0174513; 0.0165589
57110.3; 5.62439e-05; 0.0756157; 0.0103029; 0.01744; 0.0165776
57187.7; 5.60631e-05; 0.0755679; 0.0102964; 0.0174299; 0.0165941
57312.3; 5.58021e-05; 0.0754914; 0.0102859; 0.0174138; 0.0166207
57388.4; 5.56167e-05; 0.0754448; 0.0102796; 0.017404; 0.0166368
57477.3; 5.54464e-05; 0.0753906; 0.0102722; 0.0173926; 0.0166556
57565.9; 5.52721e-05; 0.0753368; 0.0102648; 0.0173813; 0.0166743
57600.1; 5.51665e-05; 0.075316; 0.010262; 0.0173769; 0.0166815
57634.2; 5.51138e-05; 0.0752953; 0.0102591; 0.0173725; 0.0166888
57756.9; 5.50446e-05; 0.075221; 0.010249; 0.0173568; 0.0167146
57854.2; 5.49999e-05; 0.0751622; 0.0102409; 0.0173444; 0.0167351
57933.6; 5.49672e-05; 0.0751141; 0.0102343; 0.0173342; 0.0167518
57986; 5.49409e-05; 0.0750825; 0.01023; 0.0173275; 0.0167629
58082.3; 5.4907e-05; 0.0750243; 0.010222; 0.0173153; 0.0167831
58180; 5.48764e-05; 0.0749653; 0.0102139; 0.0173028; 0.0168037
58262.7; 5.4849e-05; 0.0749155; 0.0102071; 0.0172922; 0.0168211
58341.7; 5.48187e-05; 0.0748678; 0.0102005; 0.0172822; 0.0168377
58420.1; 5.47821e-05; 0.0748206; 0.0101941; 0.0172721; 0.0168542
58473.2; 5.47577e-05; 0.0747886; 0.0101897; 0.0172654; 0.0168653
58543.2; 5.47222e-05; 0.0747465; 0.0101839; 0.0172565; 0.01688
58628.3; 5.46727e-05; 0.0746953; 0.0101769; 0.0172456; 0.0168979
58726.3; 5.46061e-05; 0.0746364; 0.0101688; 0.0172332; 0.0169184
58829.2; 5.4523e-05; 0.0745747; 0.0101603; 0.0172202; 0.0169399
58922.4; 5.44317e-05; 0.0745189; 0.0101527; 0.0172084; 0.0169593
58997.5; 5.43592e-05; 0.074474; 0.0101465; 0.0171989; 0.016975
59064; 5.42921e-05; 0.0744343; 0.0101411; 0.0171904; 0.0169889
59150.5; 5.42049e-05; 0.0743827; 0.010134; 0.0171795; 0.0170069
59220.7; 5.41204e-05; 0.0743409; 0.0101283; 0.0171707; 0.0170214
59316.7; 5.40114e-05; 0.0742839; 0.0101204; 0.0171586; 0.0170413
59377.5; 5.39212e-05; 0.0742478; 0.0101155; 0.017151; 0.0170539
59431.4; 5.38479e-05; 0.0742159; 0.0101111; 0.0171443; 0.017065
59505.8; 5.37499e-05; 0.0741719; 0.0101051; 0.017135; 0.0170803
59562.3; 5.36639e-05; 0.0741386; 0.0101005; 0.0171279; 0.0170919
59625; 5.35753e-05; 0.0741016; 0.0100955; 0.0171201; 0.0171048
59679.4; 5.34885e-05; 0.0740696; 0.0100911; 0.0171133; 0.017116
59769.3; 5.33605e-05; 0.0740168; 0.0100838; 0.0171022; 0.0171344
59834.9; 5.32431e-05; 0.0739784; 0.0100786; 0.0170941; 0.0171478
59887; 5.31491e-05; 0.073948; 0.0100744; 0.0170876; 0.0171584
59945.3; 5.30502e-05; 0.0739139; 0.0100697; 0.0170804; 0.0171702
60011.9; 5.29445e-05; 0.0738751; 0.0100644; 0.0170722; 0.0171837
60083; 5.28257e-05; 0.0738338; 0.0100588; 0.0170635; 0.0171981
60130.6; 5.27404e-05; 0.0738062; 0.010055; 0.0170577; 0.0172077
60211; 5.26246e-05; 0.0737596; 0.0100486; 0.0170478; 0.017224
60292.8; 5.24937e-05; 0.0737124; 0.0100421; 0.0170378; 0.0172405
60403.4; 5.23365e-05; 0.0736487; 0.0100334; 0.0170244; 0.0172627
60551; 5.21391e-05; 0.0735641; 0.0100218; 0.0170065; 0.0172922
60668.8; 5.19723e-05; 0.0734967; 0.0100125; 0.0169922; 0.0173157
60794.1; 5.18146e-05; 0.0734253; 0.0100027; 0.016977; 0.0173407
60949.3; 5.16352e-05; 0.0733372; 0.00999055; 0.0169583; 0.0173715
61065.4; 5.14812e-05; 0.0732714; 0.00998152; 0.0169444; 0.0173945
61200.1; 5.13176e-05; 0.0731954; 0.0099711; 0.0169283; 0.017421
61308; 5.11742e-05; 0.0731347; 0.00996277; 0.0169155; 0.0174421
61455.6; 5.09973e-05; 0.0730519; 0.00995142; 0.016898; 0.017471
61553.2; 5.08514e-05; 0.0729973; 0.00994394; 0.0168865; 0.01749
61668.4; 5.07012e-05; 0.072933; 0.00993514; 0.0168729; 0.0175124
61802.9; 5.05334e-05; 0.0728582; 0.0099249; 0.0168571; 0.0175384
61941; 5.03578e-05; 0.0727818; 0.00991444; 0.016841; 0.017565
62147.5; 5.01261e-05; 0.0726679; 0.0098989; 0.016817; 0.0176045
62298.2; 4.99331e-05; 0.0725851; 0.0098876; 0.0167996; 0.0176332
62438.4; 4.97824e-05; 0.0725083; 0.00987712; 0.0167834; 0.0176598
62572.2; 4.96539e-05; 0.0724353; 0.00986716; 0.0167681; 0.0176852
62721.2; 4.95285e-05; 0.0723541; 0.0098561; 0.016751; 0.0177133
62839.4; 4.94274e-05; 0.0722898; 0.00984735; 0.0167375; 0.0177355
63007.9; 4.93077e-05; 0.0721984; 0.0098349; 0.0167183; 0.0177672
63121.8; 4.92108e-05; 0.0721368; 0.0098265; 0.0167053; 0.0177885
63238.9; 4.91159e-05; 0.0720735; 0.00981789; 0.0166921; 0.0178104
63346.9; 4.90206e-05; 0.0720153; 0.00980996; 0.0166799; 0.0178306
63533; 4.8868e-05; 0.0719152; 0.00979636; 0.0166589; 0.0178652
63730.4; 4.86749e-05; 0.0718096; 0.00978199; 0.0166367; 0.0179017
63970.4; 4.84247e-05; 0.0716817; 0.0097646; 0.0166099; 0.0179459
64124; 4.82137e-05; 0.0716002; 0.00975352; 0.0165928; 0.0179741
64309.6; 4.79848e-05; 0.0715023; 0.0097402; 0.0165723; 0.0180079
64490.1; 4.77378e-05; 0.0714075; 0.00972732; 0.0165524; 0.0180407
64633.3; 4.75186e-05; 0.0713326; 0.00971715; 0.0165367; 0.0180665
64773.8; 4.73139e-05; 0.0712595; 0.00970721; 0.0165214; 0.0180918
64800.1; 4.72296e-05; 0.0712459; 0.00970536; 0.0165185; 0.0180965
64887.1; 4.71042e-05; 0.0712008; 0.00969923; 0.0165091; 0.0181121
65061.2; 4.69137e-05; 0.0711109; 0.00968702; 0.0164903; 0.0181431
65229.4; 4.66662e-05; 0.0710246; 0.00967529; 0.0164722; 0.0181729
65392.4; 4.64151e-05; 0.0709413; 0.00966398; 0.0164547; 0.0182017
65532; 4.61922e-05; 0.0708704; 0.00965434; 0.0164399; 0.0182262
65684.3; 4.5965e-05; 0.0707934; 0.00964387; 0.0164237; 0.0182528
65896.2; 4.56691e-05; 0.070687; 0.0096294; 0.0164014; 0.0182896
66141.8; 4.53124e-05; 0.0705645; 0.00961275; 0.0163757; 0.0183319
66338.3; 4.49978e-05; 0.0704673; 0.00959953; 0.0163553; 0.0183655
66555.2; 4.46888e-05; 0.0703607; 0.00958503; 0.016333; 0.0184024
66777.2; 4.43737e-05; 0.0702523; 0.0095703; 0.0163103; 0.0184398
66995.7; 4.40679e-05; 0.0701464; 0.00955588; 0.016288; 0.0184765
67203.1; 4.37853e-05; 0.0700465; 0.00954228; 0.0162671; 0.0185111
67379.2; 4.35254e-05; 0.0699622; 0.00953079; 0.0162493; 0.0185403
67593.4; 4.32493e-05; 0.0698603; 0.00951691; 0.0162279; 0.0185755
67854.6; 4.29254e-05; 0.069737; 0.00950012; 0.016202; 0.0186182
68021.7; 4.26816e-05; 0.0696585; 0.00948944; 0.0161856; 0.0186454
68234.1; 4.24307e-05; 0.0695594; 0.00947593; 0.0161647; 0.0186797
68400.1; 4.22049e-05; 0.0694823; 0.00946545; 0.0161486; 0.0187064
68697.5; 4.19326e-05; 0.0693451; 0.00944676; 0.0161198; 0.0187539
69020.9; 4.15877e-05; 0.0691972; 0.0094266; 0.0160887; 0.0188051
69281.5; 4.12778e-05; 0.0690789; 0.00941049; 0.0160638; 0.0188461
69533.2; 4.09949e-05; 0.0689654; 0.00939504; 0.01604; 0.0188854
69808.7; 4.06695e-05; 0.0688421; 0.00937829; 0.0160142; 0.0189279
70084.1; 4.03136e-05; 0.06872; 0.00936167; 0.0159885; 0.0189702
70290.8; 4.00064e-05; 0.068629; 0.00934931; 0.0159695; 0.0190016
70481; 3.97579e-05; 0.0685459; 0.00933799; 0.015952; 0.0190304
70734.7; 3.94511e-05; 0.0684357; 0.00932303; 0.0159289; 0.0190684
71014.9; 3.90996e-05; 0.0683152; 0.0093066; 0.0159036; 0.0191102
71220.3; 3.88187e-05; 0.0682275; 0.00929465; 0.0158852; 0.0191406
71392; 3.85882e-05; 0.0681546; 0.00928473; 0.0158699; 0.0191658
71621; 3.83159e-05; 0.0680581; 0.00927159; 0.0158496; 0.0191992
71773.8; 3.80929e-05; 0.0679941; 0.00926286; 0.0158362; 0.0192214
71935.8; 3.78731e-05; 0.0679266; 0.00925367; 0.015822; 0.0192447
72000.1; 3.77289e-05; 0.0678999; 0.00925004; 0.0158164; 0.019254
72064.3; 3.76401e-05; 0.0678733; 0.00924642; 0.0158108; 0.0192632
72235.7; 3.74536e-05; 0.0678027; 0.00923681; 0.015796; 0.0192876
72442.8; 3.71709e-05; 0.0677181; 0.00922529; 0.0157782; 0.0193169
72637; 3.68746e-05; 0.0676393; 0.00921458; 0.0157617; 0.0193441
72737.8; 3.66921e-05; 0.0675986; 0.00920904; 0.0157532; 0.0193582
72882; 3.64841e-05; 0.0675407; 0.00920117; 0.015741; 0.0193782
73012.6; 3.62683e-05; 0.0674886; 0.00919409; 0.0157301; 0.0193962
73144.8; 3.60762e-05; 0.0674361; 0.00918696; 0.0157191; 0.0194143
73290.2; 3.58674e-05; 0.0673788; 0.00917916; 0.0157071; 0.0194342
73436.4; 3.56541e-05; 0.0673215; 0.00917137; 0.0156951; 0.0194539
73518.9; 3.55059e-05; 0.0672892; 0.00916699; 0.0156883; 0.0194651
73622.7; 3.53529e-05; 0.0672488; 0.00916151; 0.0156799; 0.019479
73712.2; 3.52096e-05; 0.0672142; 0.00915681; 0.0156726; 0.019491
73789.3; 3.5089e-05; 0.0671844; 0.00915277; 0.0156664; 0.0195012
73861.6; 3.49798e-05; 0.0671566; 0.009149; 0.0156606; 0.0195108
73950.5; 3.48587e-05; 0.0671225; 0.00914437; 0.0156534; 0.0195226
74054.1; 3.47231e-05; 0.0670829; 0.009139; 0.0156452; 0.0195362
74143.4; 3.46031e-05; 0.067049; 0.0091344; 0.0156381; 0.0195479
74250; 3.44707e-05; 0.0670085; 0.00912892; 0.0156296; 0.0195619
74337.4; 3.43561e-05; 0.0669755; 0.00912445; 0.0156227; 0.0195732
74442.4; 3.42394e-05; 0.066936; 0.0091191; 0.0156145; 0.0195868
74532.8; 3.41442e-05; 0.066902; 0.00911449; 0.0156073; 0.0195986
74610.7; 3.40741e-05; 0.0668728; 0.00911052; 0.0156012; 0.0196086
74744.9; 3.39891e-05; 0.0668226; 0.0091037; 0.0155907; 0.019626
74948.2; 3.38935e-05; 0.0667469; 0.00909339; 0.0155748; 0.0196522
75124.5; 3.38317e-05; 0.0666812; 0.00908444; 0.015561; 0.0196749
75448; 3.3745e-05; 0.0665612; 0.00906806; 0.0155358; 0.0197166
75600.1; 3.36805e-05; 0.0665048; 0.00906037; 0.0155239; 0.0197361
75777; 3.36352e-05; 0.0664393; 0.00905143; 0.0155101; 0.0197588
75905.3; 3.36082e-05; 0.0663919; 0.00904496; 0.0155001; 0.0197753
76177.1; 3.35392e-05; 0.0662917; 0.00903129; 0.015479; 0.0198101
76271.8; 3.35012e-05; 0.0662567; 0.00902653; 0.0154717; 0.0198222
76453; 3.34496e-05; 0.0661901; 0.00901744; 0.0154577; 0.0198453
76716.2; 3.33697e-05; 0.0660935; 0.00900428; 0.0154374; 0.0198787
77108.1; 3.3247e-05; 0.0659501; 0.00898476; 0.0154073; 0.0199283
77561.2; 3.30864e-05; 0.0657852; 0.00896232; 0.0153727; 0.0199854
77900.5; 3.29458e-05; 0.0656623; 0.00894559; 0.0153469; 0.0200279
78140.6; 3.28396e-05; 0.0655755; 0.00893381; 0.0153287; 0.0200579
78363.8; 3.27541e-05; 0.0654951; 0.00892287; 0.0153118; 0.0200857
78599.4; 3.26617e-05; 0.0654105; 0.00891136; 0.0152941; 0.0201149
78920.1; 3.25416e-05; 0.0652957; 0.00889576; 0.01527; 0.0201546
79200.1; 3.24253e-05; 0.0651958; 0.00888218; 0.0152491; 0.0201891
79459.3; 3.23141e-05; 0.0651037; 0.00886964; 0.0152298; 0.020221
79681.1; 3.2215e-05; 0.0650251; 0.00885894; 0.0152133; 0.0202482
79883.4; 3.21245e-05; 0.0649536; 0.00884922; 0.0151983; 0.0202729
80039.3; 3.2048e-05; 0.0648986; 0.00884175; 0.0151867; 0.0202919
80341.2; 3.19238e-05; 0.0647926; 0.00882732; 0.0151645; 0.0203286
80472.2; 3.18393e-05; 0.0647467; 0.00882108; 0.0151549; 0.0203444
80709; 3.17347e-05; 0.0646641; 0.00880984; 0.0151375; 0.020373
80894.3; 3.16348e-05; 0.0645996; 0.00880108; 0.015124; 0.0203953
81104.7; 3.15258e-05; 0.0645266; 0.00879115; 0.0151087; 0.0204205
81389.2; 3.1381e-05; 0.0644284; 0.00877782; 0.0150882; 0.0204544
81549.8; 3.12738e-05; 0.0643732; 0.00877031; 0.0150766; 0.0204735
81699.2; 3.11857e-05; 0.0643219; 0.00876336; 0.0150659; 0.0204912
81895.6; 3.10771e-05; 0.0642548; 0.00875424; 0.0150518; 0.0205143
82202.8; 3.09138e-05; 0.0641503; 0.00874007; 0.0150299; 0.0205504
82341.9; 3.08083e-05; 0.0641032; 0.00873367; 0.0150201; 0.0205666
82576.3; 3.06798e-05; 0.0640241; 0.00872295; 0.0150035; 0.0205939
82778.9; 3.05486e-05; 0.063956; 0.00871372; 0.0149893; 0.0206174
82800.1; 3.05066e-05; 0.0639489; 0.00871276; 0.0149878; 0.0206198
82861.2; 3.04656e-05; 0.0639284; 0.00870999; 0.0149836; 0.0206268
83046.7; 3.03743e-05; 0.0638664; 0.0087016; 0.0149706; 0.0206482
83162; 3.02857e-05; 0.063828; 0.0086964; 0.0149626; 0.0206614
83318.9; 3.01872e-05; 0.0637759; 0.00868935; 0.0149517; 0.0206793
83506.4; 3.00611e-05; 0.0637139; 0.00868095; 0.0149388; 0.0207007
83613.5; 2.9974e-05; 0.0636786; 0.00867617; 0.0149314; 0.0207128
83741.6; 2.98865e-05; 0.0636365; 0.00867047; 0.0149226; 0.0207273
83887.9; 2.97888e-05; 0.0635885; 0.00866397; 0.0149126; 0.0207438
84128.7; 2.96389e-05; 0.06351; 0.00865333; 0.0148962; 0.0207709
84337.7; 2.94887e-05; 0.0634422; 0.00864415; 0.014882; 0.0207942
84682.8; 2.92855e-05; 0.0633311; 0.00862907; 0.0148588; 0.0208325
85121.6; 2.9023e-05; 0.063191; 0.00861007; 0.0148295; 0.0208808
85312.3; 2.88626e-05; 0.0631304; 0.00860186; 0.0148168; 0.0209017
85578; 2.87074e-05; 0.0630465; 0.00859048; 0.0147993; 0.0209307
85895.6; 2.85163e-05; 0.0629469; 0.00857697; 0.0147784; 0.020965
86085.2; 2.83794e-05; 0.0628877; 0.00856894; 0.014766; 0.0209854
86400.1; 2.8212e-05; 0.06279; 0.00855568; 0.0147456; 0.0210191
86790.6; 2.80051e-05; 0.0626697; 0.00853935; 0.0147204; 0.0210606
87046.9; 2.78454e-05; 0.0625912; 0.00852869; 0.014704; 0.0210877
87343.2; 2.7684e-05; 0.062501; 0.00851645; 0.0146851; 0.0211188
87657.5; 2.75111e-05; 0.0624059; 0.00850355; 0.0146652; 0.0211516
88076.7; 2.72857e-05; 0.06228; 0.00848647; 0.0146389; 0.0211951
88357.5; 2.71046e-05; 0.0621963; 0.00847511; 0.0146213; 0.0212239
88727.9; 2.69028e-05; 0.0620867; 0.00846024; 0.0145984; 0.0212617
89179.4; 2.66442e-05; 0.0619544; 0.00844231; 0.0145708; 0.0213073
89481.9; 2.64387e-05; 0.0618664; 0.00843039; 0.0145524; 0.0213376
89880.8; 2.62142e-05; 0.0617514; 0.00841481; 0.0145284; 0.0213772
90000.1; 2.60827e-05; 0.0617172; 0.00841018; 0.0145212; 0.021389
90209.4; 2.59585e-05; 0.0616574; 0.00840209; 0.0145087; 0.0214096
90695.7; 2.5752e-05; 0.0615196; 0.00838344; 0.01448; 0.021457
91118.4; 2.55272e-05; 0.0614009; 0.00836735; 0.0144552; 0.0214979
91461.9; 2.53874e-05; 0.061305; 0.00835433; 0.0144351; 0.021531
91898.7; 2.52498e-05; 0.0611837; 0.00833786; 0.0144097; 0.0215728
92431.1; 2.51273e-05; 0.0610365; 0.00831784; 0.0143788; 0.0216237
92893.9; 2.50301e-05; 0.0609091; 0.0083005; 0.0143521; 0.0216678
93450.4; 2.49303e-05; 0.0607565; 0.00827972; 0.01432; 0.0217206
93600.1; 2.48779e-05; 0.0607155; 0.00827414; 0.0143114; 0.0217348
93915.9; 2.48198e-05; 0.0606293; 0.00826239; 0.0142933; 0.0217647
94475.4; 2.47405e-05; 0.060477; 0.00824165; 0.0142613; 0.0218174
94954.3; 2.465e-05; 0.0603472; 0.00822396; 0.014234; 0.0218624
95263; 2.45863e-05; 0.0602637; 0.00821257; 0.0142165; 0.0218913
95802.5; 2.44956e-05; 0.0601183; 0.00819276; 0.0141859; 0.0219417
96180.2; 2.44146e-05; 0.0600169; 0.00817894; 0.0141646; 0.0219768
96609.4; 2.43317e-05; 0.059902; 0.00816329; 0.0141405; 0.0220166
97115.1; 2.42335e-05; 0.0597672; 0.00814492; 0.0141122; 0.0220633
97200.1; 2.41907e-05; 0.0597446; 0.00814184; 0.0141074; 0.0220711
97338.4; 2.41611e-05; 0.0597078; 0.00813684; 0.0140997; 0.0220839
97663; 2.41089e-05; 0.0596218; 0.00812511; 0.0140816; 0.0221137
98084.4; 2.40244e-05; 0.0595104; 0.00810995; 0.0140582; 0.0221522
98571.6; 2.39193e-05; 0.0593822; 0.0080925; 0.0140313; 0.0221966
99088.1; 2.38032e-05; 0.059247; 0.00807409; 0.0140029; 0.0222434
99343.8; 2.37262e-05; 0.0591802; 0.00806502; 0.0139889; 0.0222664
99581.5; 2.36667e-05; 0.0591184; 0.0080566; 0.0139759; 0.0222878
99904.4; 2.35893e-05; 0.0590346; 0.00804522; 0.0139584; 0.0223168