   time;  evaporationRate;  cumulativeWaterLoss;  CumulativeSaltLoss(Na);  CumulativeSaltLoss (Cl);  CumulativeSaltAccumilation
0.00492708; 0.00216523; 0.126441; 0.0109007; 0.0175302; 0
0.0147469; 0.000917692; 0.126441; 0.0109007; 0.0175302; 0
0.0406774; 0.000623243; 0.126441; 0.0109007; 0.0175302; 0
0.05; 0.000547434; 0.126441; 0.0109007; 0.0175302; 0
0.0660522; 0.000508222; 0.126441; 0.0109007; 0.0175302; 0
0.130136; 0.000453385; 0.12644; 0.0109007; 0.0175302; 0
0.282224; 0.000403852; 0.12644; 0.0109007; 0.0175302; 0
0.604922; 0.000375136; 0.126438; 0.0109007; 0.0175302; 0
0.64518; 0.000368518; 0.126438; 0.0109007; 0.0175302; 0
0.694851; 0.000366052; 0.126438; 0.0109007; 0.0175302; 0
0.733483; 0.000364071; 0.126438; 0.0109007; 0.0175302; 0
0.782596; 0.000361933; 0.126437; 0.0109007; 0.0175302; 1.3095e-79
0.822035; 0.000360074; 0.126437; 0.0109007; 0.0175302; -1.32799e-48
0.855935; 0.00035853; 0.126437; 0.0109007; 0.0175302; -1.65999e-48
0.900637; 0.000356782; 0.126437; 0.0109007; 0.0175302; -1.65999e-48
0.955137; 0.00035457; 0.126437; 0.0109007; 0.0175302; -1.96275e-65
1.01198; 0.000352228; 0.126437; 0.0109007; 0.0175302; -1.96275e-65
1.03794; 0.000350919; 0.126436; 0.0109007; 0.0175302; -1.96275e-65
1.07541; 0.000349486; 0.126436; 0.0109007; 0.0175302; -1.96275e-65
1.10051; 0.000348413; 0.126436; 0.0109007; 0.0175302; -1.96275e-65
1.13494; 0.000347059; 0.126436; 0.0109007; 0.0175302; -1.96275e-65
1.17494; 0.000345544; 0.126436; 0.0109007; 0.0175302; -1.96275e-65
1.22129; 0.000343837; 0.126436; 0.0109007; 0.0175302; -1.96275e-65
1.25427; 0.000342412; 0.126436; 0.0109007; 0.0175302; -1.96275e-65
1.29776; 0.000340874; 0.126435; 0.0109007; 0.0175302; -1.96275e-65
1.34086; 0.000339246; 0.126435; 0.0109007; 0.0175302; -1.96275e-65
1.36432; 0.000338164; 0.126435; 0.0109007; 0.0175302; -1.96275e-65
1.39816; 0.000337121; 0.126435; 0.0109007; 0.0175302; -1.96275e-65
1.43632; 0.000335722; 0.126435; 0.0109007; 0.0175302; -1.96275e-65
1.47856; 0.000334192; 0.126435; 0.0109007; 0.0175302; -1.96275e-65
1.50394; 0.000333088; 0.126435; 0.0109007; 0.0175302; -1.96275e-65
1.54373; 0.000331805; 0.126435; 0.0109007; 0.0175302; -1.96275e-65
1.56895; 0.000330808; 0.126434; 0.0109007; 0.0175302; -1.96275e-65
1.61181; 0.000329413; 0.126434; 0.0109007; 0.0175302; -1.96275e-65
1.65365; 0.000327911; 0.126434; 0.0109007; 0.0175302; -1.96275e-65
1.69766; 0.000326433; 0.126434; 0.0109007; 0.0175302; -1.96275e-65
1.74625; 0.000324902; 0.126434; 0.0109007; 0.0175302; -1.96275e-65
1.7872; 0.000323405; 0.126434; 0.0109007; 0.0175302; -2.45343e-65
1.81851; 0.000322246; 0.126434; 0.0109007; 0.0175302; -2.45343e-65
1.85593; 0.000321076; 0.126433; 0.0109007; 0.0175302; 5.39756e-65
1.89175; 0.000319886; 0.126433; 0.0109007; 0.0175302; 1.47206e-65
1.93327; 0.000318557; 0.126433; 0.0109007; 0.0175302; 1.47206e-65
1.97911; 0.000317136; 0.126433; 0.0109007; 0.0175302; 1.47206e-65
2.0143; 0.000315931; 0.126433; 0.0109007; 0.0175302; 1.47206e-65
2.04594; 0.00031485; 0.126433; 0.0109007; 0.0175302; 1.47206e-65
2.07739; 0.000313863; 0.126433; 0.0109007; 0.0175302; 1.47206e-65
2.12913; 0.000312407; 0.126433; 0.0109007; 0.0175302; 1.34939e-65
2.16364; 0.000311185; 0.126432; 0.0109007; 0.0175302; 1.34939e-65
2.19153; 0.000310212; 0.126432; 0.0109007; 0.0175302; 1.34939e-65
2.20831; 0.000309756; 0.126432; 0.0109007; 0.0175302; 1.34939e-65
2.23998; 0.000308844; 0.126432; 0.0109007; 0.0175302; -6.13359e-66
2.25732; 0.000308165; 0.126432; 0.0109007; 0.0175302; -6.13359e-66
2.27407; 0.000307698; 0.126432; 0.0109007; 0.0175302; -1.10405e-65
2.29968; 0.00030701; 0.126432; 0.0109007; 0.0175302; -1.10405e-65
2.31908; 0.00030635; 0.126432; 0.0109007; 0.0175302; -1.07338e-65
2.34373; 0.000305643; 0.126432; 0.0109007; 0.0175302; -1.07338e-65
2.36099; 0.00030506; 0.126432; 0.0109007; 0.0175302; -1.07338e-65
2.38966; 0.000304313; 0.126432; 0.0109007; 0.0175302; -1.07338e-65
2.43103; 0.000303239; 0.126431; 0.0109007; 0.0175302; -1.07338e-65
2.46699; 0.000302075; 0.126431; 0.0109007; 0.0175302; -1.07338e-65
2.49698; 0.00030122; 0.126431; 0.0109007; 0.0175302; -1.07338e-65
2.52855; 0.00030027; 0.126431; 0.0109007; 0.0175302; -1.07338e-65
2.56795; 0.000299178; 0.126431; 0.0109007; 0.0175302; 1.32799e-48
2.60269; 0.000298229; 0.126431; 0.0109007; 0.0175302; 1.32929e-48
2.64837; 0.000297059; 0.126431; 0.0109007; 0.0175302; 1.32929e-48
2.68296; 0.000296025; 0.126431; 0.0109007; 0.0175302; 1.32929e-48
2.71374; 0.00029504; 0.126431; 0.0109007; 0.0175302; 1.32929e-48
2.75333; 0.000294069; 0.12643; 0.0109007; 0.0175302; 1.32929e-48
2.77462; 0.000293284; 0.12643; 0.0109007; 0.0175302; 1.32929e-48
2.79378; 0.000292753; 0.12643; 0.0109007; 0.0175302; 1.32929e-48
2.82375; 0.000292084; 0.12643; 0.0109007; 0.0175302; 1.32929e-48
2.84666; 0.000291347; 0.12643; 0.0109007; 0.0175302; 1.32929e-48
2.87837; 0.00029055; 0.12643; 0.0109007; 0.0175302; 1.32929e-48
2.90052; 0.000289882; 0.12643; 0.0109007; 0.0175302; 1.32929e-48
2.93696; 0.000289; 0.12643; 0.0109007; 0.0175302; 1.32929e-48
2.98099; 0.000287899; 0.12643; 0.0109007; 0.0175302; 1.32929e-48
3.01107; 0.000287093; 0.12643; 0.0109007; 0.0175302; 1.32929e-48
3.04894; 0.000286093; 0.126429; 0.0109007; 0.0175302; 1.32929e-48
3.07761; 0.000285386; 0.126429; 0.0109007; 0.0175302; 1.32929e-48
3.12145; 0.000284208; 0.126429; 0.0109007; 0.0175302; 4.4198e-20
3.15545; 0.000283295; 0.126429; 0.0109007; 0.0175302; 4.4198e-20
3.19439; 0.000282291; 0.126429; 0.0109007; 0.0175302; 4.4198e-20
3.21494; 0.000281968; 0.126429; 0.0109007; 0.0175302; 4.4198e-20
3.22115; 0.000281552; 0.126429; 0.0109007; 0.0175302; 4.4198e-20
3.23464; 0.000281217; 0.126429; 0.0109007; 0.0175302; 4.4198e-20
3.26132; 0.000280617; 0.126429; 0.0109007; 0.0175302; 4.4198e-20
3.2979; 0.000279759; 0.126429; 0.0109007; 0.0175302; 4.4198e-20
3.33136; 0.000278911; 0.126429; 0.0109007; 0.0175302; 4.4198e-20
3.35238; 0.000278322; 0.126429; 0.0109007; 0.0175302; 4.4198e-20
3.3822; 0.000277657; 0.126428; 0.0109007; 0.0175302; 4.4198e-20
3.41804; 0.00027677; 0.126428; 0.0109007; 0.0175302; 4.6694e-12
3.45473; 0.00027594; 0.126428; 0.0109007; 0.0175302; 1.02854e-10
3.48661; 0.000275059; 0.126428; 0.0109007; 0.0175302; 2.7954e-10
3.51741; 0.000274335; 0.126428; 0.0109007; 0.0175302; 5.24902e-10
3.55463; 0.000273494; 0.126428; 0.0109007; 0.0175302; 9.21192e-10
3.60663; 0.000272356; 0.126428; 0.0109007; 0.0175302; 1.65032e-09
3.64415; 0.000271574; 0.126428; 0.0109007; 0.0175302; 2.2755e-09
3.69916; 0.000270212; 0.126428; 0.0109007; 0.0175302; 3.35648e-09
3.71154; 0.000269786; 0.126427; 0.0109007; 0.0175302; 3.61547e-09
3.73424; 0.000269231; 0.126427; 0.0109007; 0.0175302; 4.11476e-09
3.75082; 0.000268921; 0.126427; 0.0109007; 0.0175302; 4.49469e-09
3.77958; 0.000268228; 0.126427; 0.0109007; 0.0175302; 5.19051e-09
3.81333; 0.000267485; 0.126427; 0.0109007; 0.0175302; 6.05742e-09
3.8424; 0.000266804; 0.126427; 0.0109007; 0.0175302; 6.84192e-09
3.87736; 0.000266068; 0.126427; 0.0109007; 0.0175302; 7.83214e-09
3.91332; 0.000265259; 0.126427; 0.0109007; 0.0175302; 8.89949e-09
3.95134; 0.00026447; 0.126427; 0.0109007; 0.0175302; 1.00757e-08
3.99595; 0.000263534; 0.126427; 0.0109007; 0.0175302; 1.15151e-08
4.03976; 0.000262556; 0.126427; 0.0109007; 0.0175302; 1.29823e-08
4.06965; 0.000261866; 0.126426; 0.0109007; 0.0175302; 1.40083e-08
4.10801; 0.000261043; 0.126426; 0.0109007; 0.0175302; 1.5358e-08
4.15049; 0.000260176; 0.126426; 0.0109007; 0.0175302; 1.68885e-08
4.18707; 0.000259353; 0.126426; 0.0109007; 0.0175302; 1.82325e-08
4.22937; 0.000258479; 0.126426; 0.0109007; 0.0175302; 1.98152e-08
4.26574; 0.000257711; 0.126426; 0.0109007; 0.0175302; 2.11951e-08
4.29663; 0.000257036; 0.126426; 0.0109007; 0.0175302; 2.23801e-08
4.32343; 0.000256517; 0.126426; 0.0109007; 0.0175302; 2.34171e-08
4.3726; 0.00025559; 0.126426; 0.0109007; 0.0175302; 2.53396e-08
4.40384; 0.000254805; 0.126425; 0.0109007; 0.0175302; 2.65708e-08
4.4445; 0.000254029; 0.126425; 0.0109007; 0.0175302; 2.81833e-08
4.48478; 0.000253195; 0.126425; 0.0109007; 0.0175302; 2.97899e-08
4.51464; 0.000252533; 0.126425; 0.0109007; 0.0175302; 3.09854e-08
4.54486; 0.000251951; 0.126425; 0.0109007; 0.0175302; 3.21977e-08
4.58216; 0.000251231; 0.126425; 0.0109007; 0.0175302; 3.36974e-08
4.62326; 0.000250444; 0.126425; 0.0109007; 0.0175302; 3.53517e-08
4.6515; 0.000249824; 0.126425; 0.0109007; 0.0175302; 3.64886e-08
4.68522; 0.000249212; 0.126425; 0.0109007; 0.0175302; 3.78456e-08
4.72452; 0.000248431; 0.126425; 0.0109007; 0.0175302; 3.94248e-08
4.75709; 0.000247858; 0.126425; 0.0109007; 0.0175302; 4.0731e-08
4.79615; 0.000247038; 0.126424; 0.0109007; 0.0175302; 4.22932e-08
4.82934; 0.000246347; 0.126424; 0.0109007; 0.0175302; 4.36167e-08
4.87144; 0.000245683; 0.126424; 0.0109007; 0.0175302; 4.52876e-08
4.90281; 0.000244911; 0.126424; 0.0109007; 0.0175302; 4.65274e-08
4.93197; 0.000244401; 0.126424; 0.0109007; 0.0175302; 4.76998e-08
4.9623; 0.000243761; 0.126424; 0.0109007; 0.0175302; 4.89135e-08
4.99579; 0.000243144; 0.126424; 0.0109007; 0.0175302; 5.02449e-08
5.03028; 0.000242489; 0.126424; 0.0109007; 0.0175302; 5.16065e-08
5.05632; 0.000241947; 0.126424; 0.0109007; 0.0175302; 5.26278e-08
5.08443; 0.000241538; 0.126424; 0.0109007; 0.0175302; 5.37236e-08
5.11436; 0.000240876; 0.126424; 0.0109007; 0.0175302; 5.48816e-08
5.14521; 0.000240324; 0.126423; 0.0109007; 0.0175302; 5.60665e-08
5.17083; 0.000239888; 0.126423; 0.0109007; 0.0175302; 5.70437e-08
5.19718; 0.000239315; 0.126423; 0.0109007; 0.0175302; 5.80417e-08
5.22385; 0.000238889; 0.126423; 0.0109007; 0.0175302; 5.90443e-08
5.26232; 0.000238191; 0.126423; 0.0109007; 0.0175302; 6.04766e-08
5.29261; 0.000237573; 0.126423; 0.0109007; 0.0175302; 6.15931e-08
5.32187; 0.000237054; 0.126423; 0.0109007; 0.0175302; 6.26624e-08
5.34617; 0.000236587; 0.126423; 0.0109007; 0.0175302; 6.35433e-08
5.38237; 0.00023601; 0.126423; 0.0109007; 0.0175302; 6.4842e-08
5.41585; 0.00023539; 0.126423; 0.0109007; 0.0175302; 6.60297e-08
5.4424; 0.000234853; 0.126423; 0.0109007; 0.0175302; 6.69627e-08
5.48072; 0.000234212; 0.126423; 0.0109007; 0.0175302; 6.82925e-08
5.52975; 0.000233384; 0.126422; 0.0109007; 0.0175302; 6.99659e-08
5.5708; 0.000232635; 0.126422; 0.0109007; 0.0175302; 7.13449e-08
5.61309; 0.000231971; 0.126422; 0.0109007; 0.0175302; 7.27425e-08
5.64501; 0.000231249; 0.126422; 0.0109007; 0.0175302; 7.37831e-08
5.67482; 0.000230727; 0.126422; 0.0109007; 0.0175302; 7.4743e-08
5.71801; 0.000230151; 0.126422; 0.0109007; 0.0175302; 7.61112e-08
5.75171; 0.000229411; 0.126422; 0.0109007; 0.0175302; 7.71621e-08
5.78851; 0.000228834; 0.126422; 0.0109007; 0.0175302; 7.82916e-08
5.82185; 0.000228162; 0.126422; 0.0109007; 0.0175302; 7.92991e-08
5.85406; 0.000227613; 0.126422; 0.0109007; 0.0175302; 8.02583e-08
5.8852; 0.000227073; 0.126422; 0.0109007; 0.0175302; 8.1172e-08
5.9144; 0.000226557; 0.126421; 0.0109007; 0.0175302; 8.20163e-08
5.94308; 0.000226087; 0.126421; 0.0109007; 0.0175302; 8.28342e-08
5.98671; 0.000225387; 0.126421; 0.0109007; 0.0175302; 8.40534e-08
6.01431; 0.000224844; 0.126421; 0.0109007; 0.0175302; 8.48122e-08
6.05071; 0.000224268; 0.126421; 0.0109007; 0.0175302; 8.57948e-08
6.07509; 0.000223812; 0.126421; 0.0109007; 0.0175302; 8.64433e-08
6.10779; 0.000223294; 0.126421; 0.0109007; 0.0175302; 8.72983e-08
6.14474; 0.000222692; 0.126421; 0.0109007; 0.0175302; 8.82449e-08
6.17822; 0.000222155; 0.126421; 0.0109007; 0.0175302; 8.90857e-08
6.21585; 0.000221578; 0.126421; 0.0109007; 0.0175302; 9.001e-08
6.25474; 0.000221; 0.126421; 0.0109007; 0.0175302; 9.09428e-08
6.3014; 0.000220136; 0.126421; 0.0109007; 0.0175302; 9.20305e-08
6.34466; 0.000219422; 0.12642; 0.0109007; 0.0175302; 9.30099e-08
6.37625; 0.000218962; 0.12642; 0.0109007; 0.0175302; 9.37082e-08
6.41141; 0.000218359; 0.12642; 0.0109007; 0.0175302; 9.44671e-08
6.4559; 0.000217617; 0.12642; 0.0109007; 0.0175302; 9.53983e-08
6.4963; 0.000216927; 0.12642; 0.0109007; 0.0175302; 9.6218e-08
6.5311; 0.000216531; 0.12642; 0.0109007; 0.0175302; 9.69043e-08
6.57089; 0.000215704; 0.12642; 0.0109007; 0.0175302; 9.76651e-08
6.59972; 0.000215197; 0.12642; 0.0109007; 0.0175302; 9.8202e-08
6.63416; 0.000214676; 0.12642; 0.0109007; 0.0175302; 9.88254e-08
6.67354; 0.00021405; 0.12642; 0.0109007; 0.0175302; 9.95145e-08
6.70823; 0.00021349; 0.12642; 0.0109007; 0.0175302; 1.00101e-07
6.74866; 0.000212868; 0.126419; 0.0109007; 0.0175302; 1.00761e-07
6.78996; 0.000212241; 0.126419; 0.0109007; 0.0175302; 1.01407e-07
6.83663; 0.000211547; 0.126419; 0.0109007; 0.0175301; 1.02103e-07
6.85902; 0.000211065; 0.126419; 0.0109007; 0.0175301; 1.02426e-07
6.88716; 0.00021069; 0.126419; 0.0109007; 0.0175301; 1.02821e-07
6.9122; 0.000210248; 0.126419; 0.0109007; 0.0175301; 1.03162e-07
6.94309; 0.000209775; 0.126419; 0.0109007; 0.0175301; 1.03567e-07
6.97856; 0.000209253; 0.126419; 0.0109007; 0.0175301; 1.04013e-07
7.0194; 0.000208631; 0.126419; 0.0109007; 0.0175301; 1.045e-07
7.0549; 0.000208053; 0.126419; 0.0109007; 0.0175301; 1.04901e-07
7.09375; 0.000207498; 0.126419; 0.0109007; 0.0175301; 1.05316e-07
7.11977; 0.000207039; 0.126419; 0.0109007; 0.0175301; 1.05582e-07
7.15546; 0.000206517; 0.126419; 0.0109007; 0.0175301; 1.05926e-07
7.19763; 0.000205917; 0.126418; 0.0109007; 0.0175301; 1.06305e-07
7.22832; 0.000205425; 0.126418; 0.0109007; 0.0175301; 1.06563e-07
7.26468; 0.00020486; 0.126418; 0.0109007; 0.0175301; 1.06848e-07
7.30487; 0.000204266; 0.126418; 0.0109007; 0.0175301; 1.07137e-07
7.34004; 0.000203808; 0.126418; 0.0109007; 0.0175301; 1.07367e-07
7.36884; 0.000203353; 0.126418; 0.0109007; 0.0175301; 1.07542e-07
7.40439; 0.000202756; 0.126418; 0.0109007; 0.0175301; 1.07737e-07
7.44292; 0.00020226; 0.126418; 0.0109007; 0.0175301; 1.07924e-07
7.46984; 0.000201799; 0.126418; 0.0109007; 0.0175301; 1.08041e-07
7.50868; 0.00020126; 0.126418; 0.0109007; 0.0175301; 1.08186e-07
7.5347; 0.000200792; 0.126418; 0.0109007; 0.0175301; 1.08271e-07
7.57039; 0.000200307; 0.126418; 0.0109007; 0.0175301; 1.08367e-07
7.60251; 0.000199812; 0.126418; 0.0109007; 0.0175301; 1.08435e-07
7.6278; 0.000199424; 0.126417; 0.0109007; 0.0175301; 1.08476e-07
7.65671; 0.000199; 0.126417; 0.0109007; 0.0175301; 1.08511e-07
7.69294; 0.000198647; 0.126417; 0.0109007; 0.0175301; 1.08532e-07
7.73294; 0.000197932; 0.126417; 0.0109007; 0.0175301; 1.08534e-07
7.77295; 0.000197345; 0.126417; 0.0109007; 0.0175301; 1.08534e-07
7.80653; 0.000196841; 0.126417; 0.0109007; 0.0175301; 1.08534e-07
7.83617; 0.000196394; 0.126417; 0.0109007; 0.0175301; 1.08534e-07
7.86673; 0.000196013; 0.126417; 0.0109007; 0.0175301; 1.08534e-07
7.90714; 0.000195425; 0.126417; 0.0109007; 0.0175301; 1.08534e-07
7.94965; 0.000194833; 0.126417; 0.0109007; 0.0175301; 1.08534e-07
7.98428; 0.000194295; 0.126417; 0.0109007; 0.0175301; 1.08534e-07
8.01998; 0.000193845; 0.126417; 0.0109007; 0.0175301; 1.08534e-07
8.06536; 0.0001932; 0.126417; 0.0109007; 0.0175301; 1.08534e-07
8.10346; 0.000192663; 0.126416; 0.0109007; 0.0175301; 1.08534e-07
8.1495; 0.000192019; 0.126416; 0.0109007; 0.0175301; 1.08534e-07
8.20034; 0.000191356; 0.126416; 0.0109007; 0.0175301; 1.08534e-07
8.23133; 0.000190858; 0.126416; 0.0109007; 0.0175301; 1.08534e-07
8.26672; 0.000190355; 0.126416; 0.0109007; 0.0175301; 1.08534e-07
8.30461; 0.000189865; 0.126416; 0.0109007; 0.0175301; 1.08534e-07
8.34851; 0.000189252; 0.126416; 0.0109007; 0.0175301; 1.08534e-07
8.38547; 0.000188729; 0.126416; 0.0109007; 0.0175301; 1.08534e-07
8.41489; 0.000188284; 0.126416; 0.0109007; 0.0175301; 1.08534e-07
8.43823; 0.000188051; 0.126416; 0.0109007; 0.0175301; 1.08534e-07
8.46833; 0.000187594; 0.126416; 0.0109007; 0.0175301; 1.08534e-07
8.50547; 0.000187154; 0.126416; 0.0109007; 0.0175301; 1.08534e-07
8.53237; 0.000186746; 0.126416; 0.0109007; 0.0175301; 1.08534e-07
8.55083; 0.000186406; 0.126416; 0.0109007; 0.0175301; 1.08534e-07
8.58367; 0.000186014; 0.126415; 0.0109007; 0.0175301; 1.08534e-07
8.62071; 0.000185568; 0.126415; 0.0109007; 0.0175301; 1.08534e-07
8.64474; 0.000185262; 0.126415; 0.0109007; 0.0175301; 1.08534e-07
8.68072; 0.000184724; 0.126415; 0.0109007; 0.0175301; 1.08534e-07
8.70433; 0.000184462; 0.126415; 0.0109007; 0.0175301; 1.08534e-07
8.7395; 0.000183928; 0.126415; 0.0109007; 0.0175301; 1.08534e-07
8.77187; 0.000183484; 0.126415; 0.0109007; 0.0175301; 1.08534e-07
8.80195; 0.000183202; 0.126415; 0.0109007; 0.0175301; 1.08534e-07
8.82301; 0.000183045; 0.126415; 0.0109007; 0.0175301; 1.08534e-07
8.84259; 0.000182597; 0.126415; 0.0109007; 0.0175301; 1.08534e-07
8.86925; 0.000182186; 0.126415; 0.0109007; 0.0175301; 1.08534e-07
8.90176; 0.000181778; 0.126415; 0.0109007; 0.0175301; 1.08534e-07
8.93944; 0.000181294; 0.126415; 0.0109007; 0.0175301; 1.08534e-07
8.97115; 0.000180911; 0.126415; 0.0109007; 0.0175301; 1.08534e-07
8.99871; 0.000180662; 0.126415; 0.0109007; 0.0175301; 1.08534e-07
9.03036; 0.000180149; 0.126415; 0.0109007; 0.0175301; 1.08534e-07
9.07059; 0.000179648; 0.126414; 0.0109007; 0.0175301; 1.08534e-07
9.1007; 0.000179243; 0.126414; 0.0109007; 0.0175301; 1.08534e-07
9.13356; 0.000178795; 0.126414; 0.0109007; 0.0175301; 1.08534e-07
9.15156; 0.000178487; 0.126414; 0.0109007; 0.0175301; 1.08534e-07
9.17491; 0.000178399; 0.126414; 0.0109007; 0.0175301; 1.08534e-07
9.20101; 0.000177853; 0.126414; 0.0109007; 0.0175301; 1.08534e-07
9.22742; 0.00017754; 0.126414; 0.0109007; 0.0175301; 1.08534e-07
9.26364; 0.000177124; 0.126414; 0.0109007; 0.0175301; 1.08534e-07
9.29155; 0.00017671; 0.126414; 0.0109007; 0.0175301; 1.08534e-07
9.32655; 0.000176286; 0.126414; 0.0109007; 0.0175301; 1.08534e-07
9.3672; 0.000175866; 0.126414; 0.0109007; 0.0175301; 1.08534e-07
9.40443; 0.000175368; 0.126414; 0.0109007; 0.0175301; 1.08534e-07
9.43763; 0.000174864; 0.126414; 0.0109007; 0.0175301; 1.08534e-07
9.47586; 0.000174429; 0.126414; 0.0109007; 0.0175301; 1.08534e-07
9.5113; 0.000173977; 0.126414; 0.0109007; 0.0175301; 1.08534e-07
9.54792; 0.000173543; 0.126414; 0.0109007; 0.0175301; 1.08534e-07
9.58025; 0.000173069; 0.126413; 0.0109007; 0.0175301; 1.08534e-07
9.61358; 0.000172713; 0.126413; 0.0109007; 0.0175301; 1.08534e-07
9.63686; 0.000172356; 0.126413; 0.0109007; 0.0175301; 1.08534e-07
9.66702; 0.000172023; 0.126413; 0.0109007; 0.0175301; 1.08534e-07
9.69453; 0.000171674; 0.126413; 0.0109007; 0.0175301; 1.08534e-07
9.72099; 0.00017133; 0.126413; 0.0109007; 0.0175301; 1.08534e-07
9.75917; 0.000170892; 0.126413; 0.0109007; 0.0175301; 1.08534e-07
9.79849; 0.000170607; 0.126413; 0.0109007; 0.0175301; 1.08534e-07
9.82337; 0.000170044; 0.126413; 0.0109007; 0.0175301; 1.08534e-07
9.85618; 0.000169687; 0.126413; 0.0109007; 0.0175301; 1.08534e-07
9.88068; 0.000169354; 0.126413; 0.0109007; 0.0175301; 1.08534e-07
9.91429; 0.00221398; 0.126412; 0.0109006; 0.01753; 1.08534e-07
9.93882; 0.000168735; 0.126412; 0.0109006; 0.01753; 1.08534e-07
9.9728; 0.00016827; 0.126412; 0.0109006; 0.01753; 1.08534e-07
9.99485; 0.00328466; 0.126411; 0.0109006; 0.0175299; 1.08534e-07
10.0305; 0.000167678; 0.126411; 0.0109006; 0.0175299; 1.08534e-07
10.0656; 0.00016715; 0.126411; 0.0109006; 0.0175299; 1.08534e-07
10.1039; 0.00189819; 0.12641; 0.0109005; 0.0175298; 1.08534e-07
10.116; 0.00016647; 0.12641; 0.0109005; 0.0175298; 1.08534e-07
10.1401; 0.000166363; 0.12641; 0.0109005; 0.0175298; 1.08534e-07
10.1746; 0.00150152; 0.12641; 0.0109005; 0.0175298; 1.08534e-07
10.1885; 0.000579208; 0.12641; 0.0109005; 0.0175298; 1.08534e-07
10.198; 0.000165627; 0.12641; 0.0109005; 0.0175298; 1.08534e-07
10.2177; 0.000165265; 0.126409; 0.0109005; 0.0175298; 1.08534e-07
10.2527; 7.86927e-05; 0.126409; 0.0109005; 0.0175298; 1.08534e-07
10.2704; 0.000495536; 0.126409; 0.0109005; 0.0175298; 1.08534e-07
10.2815; 0.000184074; 0.126409; 0.0109005; 0.0175298; 1.08534e-07
10.2857; 0.000164426; 0.126409; 0.0109005; 0.0175298; 1.08534e-07
10.2905; 0.000164375; 0.126409; 0.0109005; 0.0175298; 1.08534e-07
10.2943; 0.000164313; 0.126409; 0.0109005; 0.0175298; 1.08534e-07
10.2988; 0.000164265; 0.126409; 0.0109005; 0.0175298; 1.08534e-07
10.304; 0.000164218; 0.126409; 0.0109005; 0.0175298; 1.08534e-07
10.3099; 0.000164174; 0.126409; 0.0109005; 0.0175298; 1.08534e-07
10.3149; 0.000164081; 0.126409; 0.0109005; 0.0175298; 1.08534e-07
10.3206; 0.000164039; 0.126409; 0.0109005; 0.0175298; 1.08534e-07
10.3252; 0.000163943; 0.126409; 0.0109005; 0.0175298; 1.08534e-07
10.3306; 0.000163891; 0.126409; 0.0109005; 0.0175298; 1.08534e-07
10.3368; 0.00016384; 0.126409; 0.0109005; 0.0175298; 1.08534e-07
10.3419; 0.000163752; 0.126409; 0.0109005; 0.0175298; 1.08534e-07
10.3478; 0.000163705; 0.126409; 0.0109005; 0.0175298; 1.08534e-07
10.3526; 0.000163616; 0.126409; 0.0109005; 0.0175298; 1.08534e-07
10.3581; 0.000163562; 0.126409; 0.0109005; 0.0175298; 1.08534e-07
10.3645; 0.00016352; 0.126409; 0.0109005; 0.0175298; 1.08534e-07
10.3698; 0.00016342; 0.126409; 0.0109005; 0.0175298; 1.08534e-07
10.3759; 0.000163373; 0.126409; 0.0109005; 0.0175298; 1.08534e-07
10.383; 0.00016338; 0.126409; 0.0109005; 0.0175298; 1.08534e-07
10.3887; 0.000163211; 0.126409; 0.0109005; 0.0175298; 1.08534e-07
10.3953; 0.000163153; 0.126409; 0.0109005; 0.0175298; 1.08534e-07
10.4028; 0.000163026; 0.126409; 0.0109005; 0.0175298; 1.08534e-07
10.4087; 0.000162979; 0.126409; 0.0109005; 0.0175298; 1.08534e-07
10.4155; 0.00016331; 0.126409; 0.0109005; 0.0175298; 1.08534e-07
10.421; 0.000162813; 0.126409; 0.0109005; 0.0175298; 1.08534e-07
10.4274; 0.000162764; 0.126409; 0.0109005; 0.0175298; 1.08534e-07
10.4345; 0.000162645; 0.126409; 0.0109005; 0.0175298; 1.08534e-07
10.4424; 0.000162718; 0.126409; 0.0109005; 0.0175298; 1.08534e-07
10.449; 0.000162548; 0.126409; 0.0109005; 0.0175298; 1.08534e-07
10.4566; 0.000162628; 0.126409; 0.0109005; 0.0175298; 1.08534e-07
10.4627; 0.000162312; 0.126409; 0.0109005; 0.0175298; 1.08534e-07
10.4698; 0.00016228; 0.126409; 0.0109005; 0.0175298; 1.08534e-07
10.4781; 0.000162369; 0.126409; 0.0109005; 0.0175298; 1.08534e-07
10.4849; 0.000162101; 0.126409; 0.0109005; 0.0175298; 1.08534e-07
10.4927; 0.000161959; 0.126409; 0.0109005; 0.0175298; 1.08534e-07
10.5012; 0.000161868; 0.126409; 0.0109005; 0.0175298; 1.08534e-07
10.5076; 0.000161841; 0.126409; 0.0109005; 0.0175298; 1.08534e-07
10.5149; 0.000161867; 0.126409; 0.0109005; 0.0175298; 1.08534e-07
10.5234; 0.000161781; 0.126409; 0.0109005; 0.0175298; 1.08534e-07
10.534; 0.000380832; 0.126409; 0.0109004; 0.0175297; 1.08534e-07
10.551; 0.000161448; 0.126409; 0.0109004; 0.0175297; 1.08534e-07
10.5681; 0.000161175; 0.126409; 0.0109004; 0.0175297; 1.08534e-07
10.584; 0.000160939; 0.126409; 0.0109004; 0.0175297; 1.08534e-07
10.6; 0.000160713; 0.126409; 0.0109004; 0.0175297; 1.08534e-07
10.6148; 0.000160535; 0.126409; 0.0109004; 0.0175297; 1.08534e-07
10.6299; 0.000311558; 0.126409; 0.0109004; 0.0175297; 1.08534e-07
10.6428; 0.000160213; 0.126409; 0.0109004; 0.0175297; 1.08534e-07
10.6609; 0.000160106; 0.126409; 0.0109004; 0.0175297; 1.08534e-07
10.6786; 0.000159798; 0.126409; 0.0109004; 0.0175297; 1.08534e-07
10.7016; 0.000159545; 0.126409; 0.0109004; 0.0175297; 1.08534e-07
10.7213; 0.000171166; 0.126409; 0.0109004; 0.0175297; 1.08534e-07
10.7321; 0.000159161; 0.126408; 0.0109004; 0.0175297; 1.08534e-07
10.7375; 0.000159099; 0.126408; 0.0109004; 0.0175297; 1.08534e-07
10.7438; 0.000159103; 0.126408; 0.0109004; 0.0175297; 1.08534e-07
10.7488; 0.000158953; 0.126408; 0.0109004; 0.0175297; 1.08534e-07
10.7546; 0.000158917; 0.126408; 0.0109004; 0.0175297; 1.08534e-07
10.7614; 0.000158918; 0.126408; 0.0109004; 0.0175297; 1.08534e-07
10.7669; 0.000158778; 0.126408; 0.0109004; 0.0175297; 1.08534e-07
10.7734; 0.000158795; 0.126408; 0.0109004; 0.0175297; 1.08534e-07
10.7786; 0.000158612; 0.126408; 0.0109004; 0.0175297; 1.08534e-07
10.7846; 0.000158665; 0.126408; 0.0109004; 0.0175297; 1.08534e-07
10.7916; 0.000158544; 0.126408; 0.0109004; 0.0175297; 1.08534e-07
10.7974; 0.000158438; 0.126408; 0.0109004; 0.0175297; 1.08534e-07
10.8041; 0.000158496; 0.126408; 0.0109004; 0.0175297; 1.08534e-07
10.8095; 0.000158244; 0.126408; 0.0109004; 0.0175297; 1.08534e-07
10.8157; 0.000158238; 0.126408; 0.0109004; 0.0175297; 1.08534e-07
10.8229; 0.000158321; 0.126408; 0.0109004; 0.0175297; 1.08534e-07
10.8289; 0.000158102; 0.126408; 0.0109004; 0.0175297; 1.08534e-07
10.8358; 0.000158157; 0.126408; 0.0109004; 0.0175297; 1.08534e-07
10.8414; 0.000157891; 0.126408; 0.0109004; 0.0175297; 1.08534e-07
10.8478; 0.000157874; 0.126408; 0.0109004; 0.0175297; 1.08534e-07
10.8553; 0.000157908; 0.126408; 0.0109004; 0.0175297; 1.08534e-07
10.8614; 0.000157754; 0.126408; 0.0109004; 0.0175297; 1.08534e-07
10.8686; 0.000157791; 0.126408; 0.0109004; 0.0175297; 1.08534e-07
10.8743; 0.000157495; 0.126408; 0.0109004; 0.0175297; 1.08534e-07
10.881; 0.000157501; 0.126408; 0.0109004; 0.0175297; 1.08534e-07
10.8865; 0.000157386; 0.126408; 0.0109004; 0.0175297; 1.08534e-07
10.8929; 0.000157409; 0.126408; 0.0109004; 0.0175297; 1.08534e-07
10.8981; 0.000157224; 0.126408; 0.0109004; 0.0175297; 1.08534e-07
10.904; 0.000157193; 0.126408; 0.0109004; 0.0175297; 1.08534e-07
10.9109; 0.000157195; 0.126408; 0.0109004; 0.0175297; 1.08534e-07
10.9167; 0.000157046; 0.126408; 0.0109004; 0.0175297; 1.08534e-07
10.9233; 0.000157085; 0.126408; 0.0109004; 0.0175297; 1.08534e-07
10.9286; 0.000156885; 0.126408; 0.0109004; 0.0175297; 1.08534e-07
10.9348; 0.000156848; 0.126408; 0.0109004; 0.0175297; 1.08534e-07
10.9419; 0.000156915; 0.126408; 0.0109004; 0.0175297; 1.08534e-07
10.9478; 0.000156714; 0.126408; 0.0109004; 0.0175297; 1.08534e-07
10.9546; 0.000156816; 0.126408; 0.0109004; 0.0175297; 1.08534e-07
10.9602; 0.000156553; 0.126408; 0.0109004; 0.0175297; 1.08534e-07
10.9665; 0.000156515; 0.126408; 0.0109004; 0.0175297; 1.08534e-07
10.9737; 0.000156359; 0.126408; 0.0109004; 0.0175297; 1.08534e-07
10.9817; 0.000156707; 0.126408; 0.0109004; 0.0175297; 1.08534e-07
10.9882; 0.000156296; 0.126408; 0.0109004; 0.0175297; 1.08534e-07
10.9959; 0.000156103; 0.126408; 0.0109004; 0.0175297; 1.08534e-07
11.0016; 0.000156055; 0.126408; 0.0109004; 0.0175297; 1.08534e-07
11.0082; 0.000156038; 0.126408; 0.0109004; 0.0175297; 1.08534e-07
11.0159; 0.000156092; 0.126408; 0.0109004; 0.0175297; 1.08534e-07
11.0222; 0.000155909; 0.126408; 0.0109004; 0.0175297; 1.08534e-07
11.0295; 0.000156095; 0.126408; 0.0109004; 0.0175297; 1.08534e-07
11.0355; 0.000155732; 0.126408; 0.0109004; 0.0175297; 1.08534e-07
11.0423; 0.000155657; 0.126408; 0.0109004; 0.0175297; 1.08534e-07
11.0502; 0.000155706; 0.126408; 0.0109004; 0.0175297; 1.08534e-07
11.0568; 0.000155543; 0.126408; 0.0109004; 0.0175297; 1.08534e-07
11.0644; 0.000155321; 0.126408; 0.0109004; 0.0175297; 1.08534e-07
11.0725; 0.000155241; 0.126408; 0.0109004; 0.0175297; 1.08534e-07
11.0787; 0.000155202; 0.126408; 0.0109004; 0.0175297; 1.08534e-07
11.0858; 0.000155228; 0.126408; 0.0109004; 0.0175297; 1.08534e-07
11.0938; 0.000155006; 0.126408; 0.0109004; 0.0175297; 1.08534e-07
11.1024; 0.000154933; 0.126408; 0.0109004; 0.0175297; 1.08534e-07
11.1092; 0.000154957; 0.126408; 0.0109004; 0.0175297; 1.08534e-07
11.1171; 0.000154999; 0.126408; 0.0109004; 0.0175297; 1.08534e-07
11.1235; 0.000154682; 0.126408; 0.0109004; 0.0175297; 1.08534e-07
11.1309; 0.000154839; 0.126408; 0.0109004; 0.0175297; 1.08534e-07
11.1391; 0.000154507; 0.126408; 0.0109004; 0.0175297; 1.08534e-07
11.1481; 0.000154421; 0.126408; 0.0109004; 0.0175297; 1.08534e-07
11.1552; 0.000154521; 0.126408; 0.0109004; 0.0175297; 1.08534e-07
11.1634; 0.000154208; 0.126408; 0.0109004; 0.0175297; 1.08534e-07
11.1722; 0.000154124; 0.126408; 0.0109004; 0.0175297; 1.08534e-07
11.1788; 0.000154109; 0.126408; 0.0109004; 0.0175297; 1.08534e-07
11.1865; 0.000154178; 0.126408; 0.0109004; 0.0175297; 1.08534e-07
11.1954; 0.000154209; 0.126408; 0.0109004; 0.0175297; 1.08534e-07
11.2047; 0.000153803; 0.126408; 0.0109004; 0.0175297; 1.08534e-07
11.2158; 0.000366243; 0.126408; 0.0109004; 0.0175297; 1.08534e-07
11.2336; 0.000153456; 0.126408; 0.0109004; 0.0175297; 1.08534e-07
11.2563; 0.000153225; 0.126408; 0.0109004; 0.0175297; 1.08534e-07
11.2858; 0.000152905; 0.126408; 0.0109004; 0.0175297; 1.08534e-07
11.3092; 4.12251e-05; 0.126408; 0.0109004; 0.0175297; 1.08534e-07
11.3357; 0.000239036; 0.126407; 0.0109004; 0.0175297; 1.08534e-07
11.3597; 0.000152177; 0.126407; 0.0109004; 0.0175297; 1.08534e-07
11.3892; 0.000229983; 0.126407; 0.0109004; 0.0175297; 1.08534e-07
11.4136; 0.000151677; 0.126407; 0.0109004; 0.0175297; 1.08534e-07
11.4364; 0.000151209; 0.126407; 0.0109004; 0.0175297; 1.08534e-07
11.4575; 0.000150935; 0.126407; 0.0109004; 0.0175297; 1.08534e-07
11.4772; 0.000267332; 0.126407; 0.0109004; 0.0175297; 1.08534e-07
11.5121; 0.000150397; 0.126407; 0.0109004; 0.0175297; 1.08534e-07
11.5291; 0.000150225; 0.126407; 0.0109004; 0.0175297; 1.08534e-07
11.5461; 0.000150012; 0.126407; 0.0109004; 0.0175297; 1.08534e-07
11.5702; 0.000244701; 0.126407; 0.0109004; 0.0175297; 1.08534e-07
11.5927; 0.000149448; 0.126407; 0.0109004; 0.0175297; 1.08534e-07
11.6135; 0.000149237; 0.126407; 0.0109004; 0.0175297; 1.08534e-07
11.6329; 0.000148979; 0.126407; 0.0109004; 0.0175297; 1.08534e-07
11.6577; 0.000150288; 0.126407; 0.0109004; 0.0175297; 1.08534e-07
11.6744; 0.000148669; 0.126407; 0.0109004; 0.0175297; 1.08534e-07
11.6913; 0.000148486; 0.126407; 0.0109004; 0.0175297; 1.08534e-07
11.7081; 0.00014823; 0.126407; 0.0109004; 0.0175297; 1.08534e-07
11.7251; 0.000147956; 0.126407; 0.0109004; 0.0175297; 1.08534e-07
11.7408; 0.000147864; 0.126407; 0.0109004; 0.0175297; 1.08534e-07
11.7625; 0.000147744; 0.126407; 0.0109004; 0.0175297; 1.08534e-07
11.7772; 0.00014746; 0.126407; 0.0109004; 0.0175297; 1.08534e-07
11.7974; 0.000147183; 0.126407; 0.0109004; 0.0175297; 1.08534e-07
11.8162; 0.000146962; 0.126407; 0.0109004; 0.0175297; 1.08534e-07
11.8337; 0.000146768; 0.126407; 0.0109004; 0.0175297; 1.08534e-07
11.8499; 0.000146585; 0.126407; 0.0109004; 0.0175297; 1.08534e-07
11.865; 0.000146415; 0.126406; 0.0109004; 0.0175297; 1.08534e-07
11.8791; 0.000146259; 0.126406; 0.0109004; 0.0175297; 1.08534e-07
11.8981; 0.000146307; 0.126406; 0.0109004; 0.0175297; 1.08534e-07
11.9172; 0.00014588; 0.126406; 0.0109004; 0.0175297; 1.08534e-07
11.935; 0.000145671; 0.126406; 0.0109004; 0.0175297; 1.08534e-07
11.9515; 0.000145486; 0.126406; 0.0109004; 0.0175297; 1.08534e-07
11.9669; 0.000145309; 0.126406; 0.0109004; 0.0175297; 1.08534e-07
11.9811; 0.000145212; 0.126406; 0.0109004; 0.0175297; 1.08534e-07
12.0008; 0.000144969; 0.126406; 0.0109004; 0.0175297; 1.08534e-07
12.0196; 0.000145058; 0.126406; 0.0109004; 0.0175297; 1.08534e-07
12.0385; 0.00014472; 0.126406; 0.0109004; 0.0175297; 1.08534e-07
12.0569; 0.000144351; 0.126406; 0.0109004; 0.0175297; 1.08534e-07
12.074; 0.00014416; 0.126406; 0.0109004; 0.0175297; 1.08534e-07
12.0899; 0.000143981; 0.126406; 0.0109004; 0.0175297; 1.08534e-07
12.1046; 0.000143817; 0.126406; 0.0109004; 0.0175297; 1.08534e-07
12.1238; 0.000143624; 0.126406; 0.0109004; 0.0175297; 1.08534e-07
12.1411; 0.000143605; 0.126406; 0.0109004; 0.0175297; 1.08534e-07
12.1584; 0.00014325; 0.126406; 0.0109004; 0.0175297; 1.08534e-07
12.1745; 0.000143077; 0.126406; 0.0109004; 0.0175297; 1.08534e-07
12.1895; 0.000142973; 0.126406; 0.0109004; 0.0175297; 1.08534e-07
12.2045; 0.000142838; 0.126406; 0.0109004; 0.0175297; 1.08534e-07
12.2251; 0.000142589; 0.126406; 0.0109004; 0.0175297; 1.08534e-07
12.2443; 0.000142368; 0.126406; 0.0109004; 0.0175297; 1.08534e-07
12.2622; 0.000142144; 0.126406; 0.0109004; 0.0175297; 1.08534e-07
12.2854; 0.000141919; 0.126406; 0.0109004; 0.0175297; 1.08534e-07
12.3063; 0.000141804; 0.126406; 0.0109004; 0.0175297; 1.08534e-07
12.3256; 0.000141482; 0.126406; 0.0109004; 0.0175297; 1.08534e-07
12.3437; 0.000141281; 0.126406; 0.0109004; 0.0175297; 1.08534e-07
12.3604; 0.000141099; 0.126406; 0.0109004; 0.0175297; 1.08534e-07
12.3818; 0.000140903; 0.126406; 0.0109004; 0.0175297; 1.08534e-07
12.4017; 0.000140676; 0.126406; 0.0109004; 0.0175297; 1.08534e-07
12.4275; 0.000140408; 0.126406; 0.0109004; 0.0175297; 1.08534e-07
12.4488; 0.000140207; 0.126406; 0.0109004; 0.0175297; 1.08534e-07
12.4752; 0.000139929; 0.126406; 0.0109004; 0.0175297; 1.08534e-07
12.4968; 0.000139704; 0.126405; 0.0109004; 0.0175297; 1.08534e-07
12.5228; 0.000139405; 0.126405; 0.0109004; 0.0175297; 1.08534e-07
12.5461; 0.000139298; 0.126405; 0.0109004; 0.0175297; 1.08534e-07
12.575; 0.000138865; 0.126405; 0.0109004; 0.0175297; 1.08534e-07
12.5986; 0.000138698; 0.126405; 0.0109004; 0.0175297; 1.08534e-07
12.6205; 0.000138386; 0.126405; 0.0109004; 0.0175297; 1.08534e-07
12.641; 0.000138154; 0.126405; 0.0109004; 0.0175297; 1.08534e-07
12.6655; 0.000137909; 0.126405; 0.0109004; 0.0175297; 1.08534e-07
12.6939; 0.000137616; 0.126405; 0.0109004; 0.0175297; 1.08534e-07
12.7245; 0.000137342; 0.126405; 0.0109004; 0.0175297; 1.08534e-07
12.7499; 0.000137227; 0.126405; 0.0109004; 0.0175297; 1.08534e-07
12.7778; 0.000136831; 0.126405; 0.0109004; 0.0175297; 1.08534e-07
12.8104; 0.000136464; 0.126405; 0.0109004; 0.0175297; 1.08534e-07
12.8362; 0.000136159; 0.126405; 0.0109004; 0.0175297; 1.08534e-07
12.8594; 0.000135945; 0.126405; 0.0109004; 0.0175297; 1.08534e-07
12.897; 0.000135562; 0.126405; 0.0109004; 0.0175297; 1.08534e-07
12.9246; 0.000135242; 0.126405; 0.0109004; 0.0175297; 1.08534e-07
12.9504; 0.000135012; 0.126405; 0.0109004; 0.0175297; 1.08534e-07
12.9793; 0.000134851; 0.126405; 0.0109004; 0.0175297; 1.08534e-07
13.0019; 0.000134438; 0.126405; 0.0109004; 0.0175297; 1.08534e-07
13.0291; 0.000134192; 0.126405; 0.0109004; 0.0175297; 1.08534e-07
13.0683; 0.000133786; 0.126405; 0.0109004; 0.0175297; 1.08534e-07
13.0921; 0.000133512; 0.126405; 0.0109004; 0.0175297; 1.08534e-07
13.1126; 0.000133286; 0.126405; 0.0109004; 0.0175297; 1.08534e-07
13.1371; 0.000133202; 0.126405; 0.0109004; 0.0175297; 1.08534e-07
13.1587; 0.000132919; 0.126405; 0.0109004; 0.0175297; 1.08534e-07
13.1788; 0.000132629; 0.126404; 0.0109004; 0.0175297; 1.08534e-07
13.2049; 0.000132365; 0.126404; 0.0109004; 0.0175297; 1.08534e-07
13.2327; 0.00013208; 0.126404; 0.0109004; 0.0175297; 1.08534e-07
13.2542; 0.0001319; 0.126404; 0.0109004; 0.0175297; 1.08534e-07
13.2742; 0.00013175; 0.126404; 0.0109004; 0.0175297; 1.08534e-07
13.3001; 0.000131416; 0.126404; 0.0109004; 0.0175297; 1.08534e-07
13.3277; 0.000131126; 0.126404; 0.0109004; 0.0175297; 1.08534e-07
13.3491; 0.000130909; 0.126404; 0.0109004; 0.0175297; 1.08534e-07
13.3747; 0.000130655; 0.126404; 0.0109004; 0.0175297; 1.08534e-07
13.396; 0.0001306; 0.126404; 0.0109004; 0.0175297; 1.08534e-07
13.4214; 0.000130184; 0.126404; 0.0109004; 0.0175297; 1.08534e-07
13.4488; 0.000129929; 0.126404; 0.0109004; 0.0175297; 1.08534e-07
13.4706; 0.000129678; 0.126404; 0.0109004; 0.0175297; 1.08534e-07
13.5035; 0.000129408; 0.126404; 0.0109004; 0.0175297; 1.08534e-07
13.5265; 0.000129147; 0.126404; 0.0109004; 0.0175297; 1.08534e-07
13.5464; 0.000128924; 0.126404; 0.0109004; 0.0175297; 1.08534e-07
13.5805; 0.000128631; 0.126404; 0.0109004; 0.0175297; 1.08534e-07
13.6052; 0.000128353; 0.126404; 0.0109004; 0.0175297; 1.08534e-07
13.6316; 0.000128089; 0.126404; 0.0109004; 0.0175297; 1.08534e-07
13.66; 0.000127816; 0.126404; 0.0109004; 0.0175297; 1.08534e-07
13.6886; 0.000127768; 0.126404; 0.0109004; 0.0175297; 1.08534e-07
13.7198; 0.000127259; 0.126404; 0.0109004; 0.0175297; 1.08534e-07
13.7436; 0.000126996; 0.126404; 0.0109004; 0.0175297; 1.08534e-07
13.7721; 0.000127004; 0.126404; 0.0109004; 0.0175297; 1.08534e-07
13.8047; 0.000126455; 0.126404; 0.0109004; 0.0175297; 1.08534e-07
13.8226; 0.000126213; 0.126404; 0.0109004; 0.0175297; 1.08534e-07
13.8457; 0.000126226; 0.126404; 0.0109004; 0.0175297; 1.08534e-07
13.8733; 0.000125763; 0.126403; 0.0109004; 0.0175297; 1.08534e-07
13.8956; 0.000125591; 0.126403; 0.0109004; 0.0175297; 1.08534e-07
13.9232; 0.000125272; 0.126403; 0.0109004; 0.0175297; 1.08534e-07
13.9525; 0.000124973; 0.126403; 0.0109004; 0.0175297; 1.08534e-07
13.9751; 0.000124805; 0.126403; 0.0109004; 0.0175297; 1.08534e-07
14.0024; 0.00012458; 0.126403; 0.0109004; 0.0175297; 1.08534e-07
14.024; 0.000124281; 0.126403; 0.0109004; 0.0175297; 1.08534e-07
14.0498; 0.000124126; 0.126403; 0.0109004; 0.0175297; 1.08534e-07
14.0793; 0.000123833; 0.126403; 0.0109004; 0.0175297; 1.08534e-07
14.1089; 0.000123489; 0.126403; 0.0109004; 0.0175297; 1.08534e-07
14.1413; 0.000123184; 0.126403; 0.0109004; 0.0175297; 1.08534e-07
14.1717; 0.000122849; 0.126403; 0.0109004; 0.0175297; 1.08534e-07
14.1881; 0.000122643; 0.126403; 0.0109004; 0.0175297; 1.08534e-07
14.2083; 0.00012258; 0.126403; 0.0109004; 0.0175297; 1.08534e-07
14.2346; 0.00012223; 0.126403; 0.0109004; 0.0175297; 1.08534e-07
14.261; 0.000121992; 0.126403; 0.0109004; 0.0175297; 1.08534e-07
14.2819; 0.000121797; 0.126403; 0.0109004; 0.0175297; 1.08534e-07
14.3058; 0.000121558; 0.126403; 0.0109004; 0.0175297; 1.08534e-07
14.342; 0.000121251; 0.126403; 0.0109004; 0.0175297; 1.08534e-07
14.3674; 0.000120959; 0.126403; 0.0109004; 0.0175297; 1.08534e-07
14.4007; 0.000120652; 0.126403; 0.0109004; 0.0175297; 1.08534e-07
14.4351; 0.000120403; 0.126403; 0.0109004; 0.0175297; 1.08534e-07
14.4544; 0.000120112; 0.126403; 0.0109004; 0.0175297; 1.08534e-07
14.4783; 0.000119924; 0.126403; 0.0109004; 0.0175297; 1.08534e-07
14.507; 0.000119638; 0.126403; 0.0109004; 0.0175297; 1.08534e-07
14.5331; 0.000119504; 0.126403; 0.0109004; 0.0175297; 1.08534e-07
14.5653; 0.000119234; 0.126403; 0.0109004; 0.0175297; 1.08534e-07
14.5909; 0.000118878; 0.126403; 0.0109004; 0.0175297; 1.08534e-07
14.619; 0.000118622; 0.126402; 0.0109004; 0.0175297; 1.08534e-07
14.6497; 0.000118328; 0.126402; 0.0109004; 0.0175297; 1.08534e-07
14.6732; 0.000118074; 0.126402; 0.0109004; 0.0175297; 1.08534e-07
14.6943; 0.000117916; 0.126402; 0.0109004; 0.0175297; 1.08534e-07
14.7285; 0.000117574; 0.126402; 0.0109004; 0.0175297; 1.08534e-07
14.7562; 0.000117334; 0.126402; 0.0109004; 0.0175297; 1.08534e-07
14.7822; 0.0001171; 0.126402; 0.0109004; 0.0175297; 1.08534e-07
14.8107; 0.000116823; 0.126402; 0.0109004; 0.0175297; 1.08534e-07
14.8419; 0.000116512; 0.126402; 0.0109004; 0.0175297; 1.08534e-07
14.8637; 0.00011628; 0.126402; 0.0109004; 0.0175297; 1.08534e-07
14.8897; 0.00011605; 0.126402; 0.0109004; 0.0175297; 1.08534e-07
14.9195; 0.00011583; 0.126402; 0.0109004; 0.0175297; 1.08534e-07
14.9489; 0.000115595; 0.126402; 0.0109004; 0.0175297; 1.08534e-07
14.9786; 0.000115246; 0.126402; 0.0109004; 0.0175297; 1.08534e-07
15.0022; 0.000115005; 0.126402; 0.0109004; 0.0175297; 1.08534e-07
15.0325; 0.000114752; 0.126402; 0.0109004; 0.0175297; 1.08534e-07
15.0695; 0.000114549; 0.126402; 0.0109004; 0.0175297; 1.08534e-07
15.1069; 0.000114108; 0.126402; 0.0109004; 0.0175297; 1.08534e-07
15.1315; 0.000113939; 0.126402; 0.0109004; 0.0175297; 1.08534e-07
15.1609; 0.000113696; 0.126402; 0.0109004; 0.0175297; 1.08534e-07
15.1929; 0.000113303; 0.126402; 0.0109004; 0.0175297; 1.08534e-07
15.2174; 0.000113041; 0.126402; 0.0109004; 0.0175297; 1.08534e-07
15.2467; 0.000112814; 0.126402; 0.0109004; 0.0175297; 1.08534e-07
15.2707; 0.000112554; 0.126402; 0.0109004; 0.0175297; 1.08534e-07
15.2995; 0.000112349; 0.126402; 0.0109004; 0.0175297; 1.08534e-07
15.3243; 0.000112085; 0.126402; 0.0109004; 0.0175297; 1.08534e-07
15.3587; 0.000111832; 0.126402; 0.0109004; 0.0175297; 1.08534e-07
15.385; 0.000111628; 0.126402; 0.0109004; 0.0175297; 1.08534e-07
15.4174; 0.000111262; 0.126401; 0.0109004; 0.0175297; 1.08534e-07
15.4403; 0.000111075; 0.126401; 0.0109004; 0.0175297; 1.08534e-07
15.4615; 0.000110856; 0.126401; 0.0109004; 0.0175297; 1.08534e-07
15.4878; 0.000110624; 0.126401; 0.0109004; 0.0175297; 1.08534e-07
15.5092; 0.000110421; 0.126401; 0.0109004; 0.0175297; 1.08534e-07
15.5292; 0.000110219; 0.126401; 0.0109004; 0.0175297; 1.08534e-07
15.5551; 0.000110024; 0.126401; 0.0109004; 0.0175297; 1.08534e-07
15.5785; 0.000109831; 0.126401; 0.0109004; 0.0175297; 1.08534e-07
15.5992; 0.000109928; 0.126401; 0.0109004; 0.0175297; 1.08534e-07
15.626; 0.000109388; 0.126401; 0.0109004; 0.0175297; 1.08534e-07
15.6552; 0.00010912; 0.126401; 0.0109004; 0.0175297; 1.08534e-07
15.6938; 0.000108799; 0.126401; 0.0109004; 0.0175297; 1.08534e-07
15.7281; 0.000108724; 0.126401; 0.0109004; 0.0175297; 1.08534e-07
15.7654; 0.000108255; 0.126401; 0.0109004; 0.0175297; 1.08534e-07
15.794; 0.000107904; 0.126401; 0.0109004; 0.0175297; 1.08534e-07
15.8177; 0.000107728; 0.126401; 0.0109004; 0.0175297; 1.08534e-07
15.8459; 0.000107424; 0.126401; 0.0109004; 0.0175297; 1.08534e-07
15.8764; 0.000107221; 0.126401; 0.0109004; 0.0175297; 1.08534e-07
15.9006; 0.000106953; 0.126401; 0.0109004; 0.0175297; 1.08534e-07
15.9295; 0.00010672; 0.126401; 0.0109004; 0.0175297; 1.08534e-07
15.9532; 0.000106495; 0.126401; 0.0109004; 0.0175297; 1.08534e-07
15.9839; 0.000106245; 0.126401; 0.0109004; 0.0175297; 1.08534e-07
16.0177; 0.000105989; 0.126401; 0.0109004; 0.0175297; 1.08534e-07
16.0379; 0.000105749; 0.126401; 0.0109004; 0.0175297; 1.08534e-07
16.0722; 0.000105467; 0.126401; 0.0109004; 0.0175297; 1.08534e-07
16.1063; 0.000105165; 0.126401; 0.0109004; 0.0175297; 1.08534e-07
16.1365; 0.000104924; 0.126401; 0.0109004; 0.0175297; 1.08534e-07
16.1607; 0.000104794; 0.126401; 0.0109004; 0.0175297; 1.08534e-07
16.1873; 0.000104459; 0.126401; 0.0109004; 0.0175297; 1.08534e-07
16.2182; 0.000104193; 0.126401; 0.0109004; 0.0175297; 1.08534e-07
16.2428; 0.000103973; 0.126401; 0.0109004; 0.0175297; 1.08534e-07
16.2649; 0.000103837; 0.1264; 0.0109004; 0.0175297; 1.08534e-07
16.3042; 0.000103709; 0.1264; 0.0109004; 0.0175297; 1.08534e-07
16.334; 0.000103213; 0.1264; 0.0109004; 0.0175297; 1.08534e-07
16.3755; 0.00010292; 0.1264; 0.0109004; 0.0175297; 1.08534e-07
16.3965; 0.000102703; 0.1264; 0.0109004; 0.0175297; 1.08534e-07
16.4224; 0.000102502; 0.1264; 0.0109004; 0.0175297; 1.08534e-07
16.4521; 0.000102273; 0.1264; 0.0109004; 0.0175297; 1.08534e-07
16.4756; 0.000101993; 0.1264; 0.0109004; 0.0175297; 1.08534e-07
16.4968; 0.000101931; 0.1264; 0.0109004; 0.0175297; 1.08534e-07
16.5344; 0.000101543; 0.1264; 0.0109004; 0.0175297; 1.08534e-07
16.5592; 0.000101274; 0.1264; 0.0109004; 0.0175297; 1.08534e-07
16.5805; 0.00010109; 0.1264; 0.0109004; 0.0175297; 1.08534e-07
16.6051; 0.000100897; 0.1264; 0.0109004; 0.0175297; 1.08534e-07
16.6316; 0.000100668; 0.1264; 0.0109004; 0.0175297; 1.08534e-07
16.6609; 0.000100475; 0.1264; 0.0109004; 0.0175297; 1.08534e-07
16.6943; 0.000100209; 0.1264; 0.0109004; 0.0175297; 1.08534e-07
16.7299; 9.98662e-05; 0.1264; 0.0109004; 0.0175297; 1.08534e-07
16.7598; 9.96236e-05; 0.1264; 0.0109004; 0.0175297; 1.08534e-07
16.7808; 9.9457e-05; 0.1264; 0.0109004; 0.0175297; 1.08534e-07
16.8115; 9.9212e-05; 0.1264; 0.0109004; 0.0175297; 1.08534e-07
16.8513; 9.88653e-05; 0.1264; 0.0109004; 0.0175297; 1.08534e-07
16.8779; 9.86798e-05; 0.1264; 0.0109004; 0.0175297; 1.08534e-07
16.9009; 9.84122e-05; 0.1264; 0.0109004; 0.0175297; 1.08534e-07
16.9332; 9.81627e-05; 0.1264; 0.0109004; 0.0175297; 1.08534e-07
16.9554; 9.80236e-05; 0.1264; 0.0109004; 0.0175297; 1.08534e-07
16.9931; 9.76997e-05; 0.1264; 0.0109004; 0.0175297; 1.08534e-07
17.0195; 9.74656e-05; 0.1264; 0.0109004; 0.0175297; 1.08534e-07
17.0425; 9.72395e-05; 0.1264; 0.0109004; 0.0175297; 1.08534e-07
17.0692; 9.70281e-05; 0.1264; 0.0109004; 0.0175297; 1.08534e-07
17.098; 9.68204e-05; 0.1264; 0.0109004; 0.0175297; 1.08534e-07
17.122; 9.66729e-05; 0.1264; 0.0109004; 0.0175297; 1.08534e-07
17.151; 9.63814e-05; 0.1264; 0.0109004; 0.0175297; 1.08534e-07
17.1817; 9.61073e-05; 0.126399; 0.0109004; 0.0175297; 1.08534e-07
17.215; 9.58581e-05; 0.126399; 0.0109004; 0.0175297; 1.08534e-07
17.2566; 9.55912e-05; 0.126399; 0.0109004; 0.0175297; 1.08534e-07
17.2983; 9.51988e-05; 0.126399; 0.0109004; 0.0175297; 1.08534e-07
17.3304; 9.49202e-05; 0.126399; 0.0109004; 0.0175297; 1.08534e-07
17.3515; 9.47336e-05; 0.126399; 0.0109004; 0.0175297; 1.08534e-07
17.3767; 9.45338e-05; 0.126399; 0.0109004; 0.0175297; 1.08534e-07
17.3973; 9.43721e-05; 0.126399; 0.0109004; 0.0175297; 1.08534e-07
17.4232; 9.43812e-05; 0.126399; 0.0109004; 0.0175297; 1.08534e-07
17.4637; 9.38787e-05; 0.126399; 0.0109004; 0.0175297; 1.08534e-07
17.4921; 9.36068e-05; 0.126399; 0.0109004; 0.0175297; 1.08534e-07
17.5145; 9.34083e-05; 0.126399; 0.0109004; 0.0175297; 1.08534e-07
17.5331; 9.32867e-05; 0.126399; 0.0109004; 0.0175297; 1.08534e-07
17.5561; 9.31196e-05; 0.126399; 0.0109004; 0.0175297; 1.08534e-07
17.5823; 9.28919e-05; 0.126399; 0.0109004; 0.0175297; 1.08534e-07
17.6221; 9.26025e-05; 0.126399; 0.0109004; 0.0175297; 1.08534e-07
17.6557; 9.23478e-05; 0.126399; 0.0109004; 0.0175297; 1.08534e-07
17.6872; 9.20449e-05; 0.126399; 0.0109004; 0.0175297; 1.08534e-07
17.7149; 9.18114e-05; 0.126399; 0.0109004; 0.0175297; 1.08534e-07
17.7449; 9.15978e-05; 0.126399; 0.0109004; 0.0175297; 1.08534e-07
17.7686; 9.14081e-05; 0.126399; 0.0109004; 0.0175297; 1.08534e-07
17.8046; 9.11315e-05; 0.126399; 0.0109004; 0.0175297; 1.08534e-07
17.8297; 9.09111e-05; 0.126399; 0.0109004; 0.0175297; 1.08534e-07
17.8659; 9.06413e-05; 0.126399; 0.0109004; 0.0175297; 1.08534e-07
17.8964; 9.048e-05; 0.126399; 0.0109004; 0.0175297; 1.08534e-07
17.9206; 9.0195e-05; 0.126399; 0.0109004; 0.0175297; 1.08534e-07
17.9483; 9.0089e-05; 0.126399; 0.0109004; 0.0175297; 1.08534e-07
17.9767; 8.97524e-05; 0.126399; 0.0109004; 0.0175297; 1.08534e-07
18.0055; 8.95359e-05; 0.126399; 0.0109004; 0.0175297; 1.08534e-07
18.0335; 8.93237e-05; 0.126399; 0.0109004; 0.0175297; 1.08534e-07
18.0624; 8.91012e-05; 0.126399; 0.0109004; 0.0175297; 1.08534e-07
18.093; 8.88942e-05; 0.126399; 0.0109004; 0.0175297; 1.08534e-07
18.1264; 8.86117e-05; 0.126399; 0.0109004; 0.0175297; 1.08534e-07
18.1497; 8.8466e-05; 0.126398; 0.0109004; 0.0175297; 1.08534e-07
18.1699; 8.82518e-05; 0.126398; 0.0109004; 0.0175297; 1.08534e-07
18.2014; 8.80514e-05; 0.126398; 0.0109004; 0.0175297; 1.08534e-07
18.2362; 8.77902e-05; 0.126398; 0.0109004; 0.0175297; 1.08534e-07
18.2645; 8.75279e-05; 0.126398; 0.0109004; 0.0175297; 1.08534e-07
18.2951; 8.73203e-05; 0.126398; 0.0109004; 0.0175297; 1.08534e-07
18.3194; 8.71329e-05; 0.126398; 0.0109004; 0.0175297; 1.08534e-07
18.3579; 8.69221e-05; 0.126398; 0.0109004; 0.0175297; 1.08534e-07
18.3918; 8.66304e-05; 0.126398; 0.0109004; 0.0175297; 1.08534e-07
18.4172; 8.63585e-05; 0.126398; 0.0109004; 0.0175297; 1.08534e-07
18.4379; 8.62294e-05; 0.126398; 0.0109004; 0.0175297; 1.08534e-07
18.4629; 8.60565e-05; 0.126398; 0.0109004; 0.0175297; 1.08534e-07
18.4951; 8.58262e-05; 0.126398; 0.0109004; 0.0175297; 1.08534e-07
18.5295; 8.55406e-05; 0.126398; 0.0109004; 0.0175297; 1.08534e-07
18.5548; 8.53369e-05; 0.126398; 0.0109004; 0.0175297; 1.08534e-07
18.5748; 8.52083e-05; 0.126398; 0.0109004; 0.0175297; 1.08534e-07
18.6077; 8.49956e-05; 0.126398; 0.0109004; 0.0175297; 1.08534e-07
18.6307; 8.47614e-05; 0.126398; 0.0109004; 0.0175297; 1.08534e-07
18.6505; 8.46062e-05; 0.126398; 0.0109004; 0.0175297; 1.08534e-07
18.6847; 8.44229e-05; 0.126398; 0.0109004; 0.0175297; 1.08534e-07
18.7094; 8.41675e-05; 0.126398; 0.0109004; 0.0175297; 1.08534e-07
18.7442; 8.39144e-05; 0.126398; 0.0109004; 0.0175297; 1.08534e-07
18.7784; 8.36771e-05; 0.126398; 0.0109004; 0.0175297; 1.08534e-07
18.8008; 8.35442e-05; 0.126398; 0.0109004; 0.0175297; 1.08534e-07
18.821; 8.3433e-05; 0.126398; 0.0109004; 0.0175297; 1.08534e-07
18.8538; 8.32205e-05; 0.126398; 0.0109004; 0.0175297; 1.08534e-07
18.8849; 8.28596e-05; 0.126398; 0.0109004; 0.0175297; 1.08534e-07
18.915; 8.27437e-05; 0.126398; 0.0109004; 0.0175297; 1.08534e-07
18.9547; 8.23786e-05; 0.126398; 0.0109004; 0.0175297; 1.08534e-07
18.9801; 8.21627e-05; 0.126398; 0.0109004; 0.0175297; 1.08534e-07
19.0081; 8.20582e-05; 0.126398; 0.0109004; 0.0175297; 1.08534e-07
19.0385; 8.18394e-05; 0.126398; 0.0109004; 0.0175297; 1.08534e-07
19.0618; 8.15651e-05; 0.126398; 0.0109004; 0.0175297; 1.08534e-07
19.0897; 8.14724e-05; 0.126398; 0.0109004; 0.0175297; 1.08534e-07
19.1172; 8.11791e-05; 0.126398; 0.0109004; 0.0175297; 1.08534e-07
19.1431; 8.09857e-05; 0.126398; 0.0109004; 0.0175297; 1.08534e-07
19.1697; 8.07636e-05; 0.126398; 0.0109004; 0.0175297; 1.08534e-07
19.1951; 8.07261e-05; 0.126398; 0.0109004; 0.0175297; 1.08534e-07
19.2188; 8.04275e-05; 0.126398; 0.0109004; 0.0175297; 1.08534e-07
19.245; 8.02963e-05; 0.126397; 0.0109004; 0.0175297; 1.08534e-07
19.2735; 8.01032e-05; 0.126397; 0.0109004; 0.0175297; 1.08534e-07
19.2943; 7.99067e-05; 0.126397; 0.0109004; 0.0175297; 1.08534e-07
19.3263; 7.9825e-05; 0.126397; 0.0109004; 0.0175297; 1.08534e-07
19.3506; 7.94516e-05; 0.126397; 0.0109004; 0.0175297; 1.08534e-07
19.3806; 7.92455e-05; 0.126397; 0.0109004; 0.0175297; 1.08534e-07
19.4116; 7.90315e-05; 0.126397; 0.0109004; 0.0175297; 1.08534e-07
19.455; 7.8756e-05; 0.126397; 0.0109004; 0.0175297; 1.08534e-07
19.4893; 7.84991e-05; 0.126397; 0.0109004; 0.0175297; 1.08534e-07
19.5213; 7.82841e-05; 0.126397; 0.0109004; 0.0175297; 1.08534e-07
19.5454; 7.82783e-05; 0.126397; 0.0109004; 0.0175297; 1.08534e-07
19.5738; 7.79094e-05; 0.126397; 0.0109004; 0.0175297; 1.08534e-07
19.5946; 7.78241e-05; 0.126397; 0.0109004; 0.0175297; 1.08534e-07
19.6289; 7.75369e-05; 0.126397; 0.0109004; 0.0175297; 1.08534e-07
19.6552; 7.73254e-05; 0.126397; 0.0109004; 0.0175297; 1.08534e-07
19.6858; 7.70932e-05; 0.126397; 0.0109004; 0.0175297; 1.08534e-07
19.7079; 7.6907e-05; 0.126397; 0.0109004; 0.0175297; 1.08534e-07
19.7415; 7.66951e-05; 0.126397; 0.0109004; 0.0175297; 1.08534e-07
19.765; 7.64986e-05; 0.126397; 0.0109004; 0.0175297; 1.08534e-07
19.7988; 7.62779e-05; 0.126397; 0.0109004; 0.0175297; 1.08534e-07
19.8241; 7.60895e-05; 0.126397; 0.0109004; 0.0175297; 1.08534e-07
19.8495; 7.59078e-05; 0.126397; 0.0109004; 0.0175297; 1.08534e-07
19.8772; 7.57242e-05; 0.126397; 0.0109004; 0.0175297; 1.08534e-07
19.9057; 7.55192e-05; 0.126397; 0.0109004; 0.0175297; 1.08534e-07
19.935; 7.53181e-05; 0.126397; 0.0109004; 0.0175297; 1.08534e-07
19.9651; 7.51131e-05; 0.126397; 0.0109004; 0.0175297; 1.08534e-07
19.9937; 7.50562e-05; 0.126397; 0.0109004; 0.0175297; 1.08534e-07
20.0156; 7.4836e-05; 0.126397; 0.0109004; 0.0175297; 1.08534e-07
20.0352; 7.46994e-05; 0.126397; 0.0109004; 0.0175297; 1.08534e-07
20.0603; 7.44821e-05; 0.126397; 0.0109004; 0.0175297; 1.08534e-07
20.0904; 7.42976e-05; 0.126397; 0.0109004; 0.0175297; 1.08534e-07
20.1123; 7.40842e-05; 0.126397; 0.0109004; 0.0175297; 1.08534e-07
20.1355; 7.40283e-05; 0.126397; 0.0109004; 0.0175297; 1.08534e-07
20.1614; 7.383e-05; 0.126397; 0.0109004; 0.0175297; 1.08534e-07
20.1829; 7.35949e-05; 0.126397; 0.0109004; 0.0175297; 1.08534e-07
20.2065; 7.34455e-05; 0.126397; 0.0109004; 0.0175297; 1.08534e-07
20.2335; 7.33343e-05; 0.126397; 0.0109004; 0.0175297; 1.08534e-07
20.2549; 7.31082e-05; 0.126397; 0.0109004; 0.0175297; 1.08534e-07
20.2805; 7.29884e-05; 0.126397; 0.0109004; 0.0175297; 1.08534e-07
20.3098; 7.29245e-05; 0.126397; 0.0109004; 0.0175297; 1.08534e-07
20.333; 7.2822e-05; 0.126397; 0.0109004; 0.0175297; 1.08534e-07
20.3598; 7.23982e-05; 0.126397; 0.0109004; 0.0175297; 1.08534e-07
20.3806; 7.23999e-05; 0.126397; 0.0109004; 0.0175297; 1.08534e-07
20.3999; 7.22257e-05; 0.126397; 0.0109004; 0.0175297; 1.08534e-07
20.4249; 7.19664e-05; 0.126396; 0.0109004; 0.0175297; 1.08534e-07
20.4628; 7.18366e-05; 0.126396; 0.0109004; 0.0175297; 1.08534e-07
20.4893; 7.15483e-05; 0.126396; 0.0109004; 0.0175297; 1.08534e-07
20.5256; 7.13001e-05; 0.126396; 0.0109004; 0.0175297; 1.08534e-07
20.5568; 7.12034e-05; 0.126396; 0.0109004; 0.0175297; 1.08534e-07
20.5801; 7.10527e-05; 0.126396; 0.0109004; 0.0175297; 1.08534e-07
20.6007; 7.08009e-05; 0.126396; 0.0109004; 0.0175297; 1.08534e-07
20.6254; 7.06548e-05; 0.126396; 0.0109004; 0.0175297; 1.08534e-07
20.6565; 7.04291e-05; 0.126396; 0.0109004; 0.0175297; 1.08534e-07
20.6856; 7.02311e-05; 0.126396; 0.0109004; 0.0175297; 1.08534e-07
20.7064; 7.02852e-05; 0.126396; 0.0109004; 0.0175297; 1.08534e-07
20.7333; 6.99974e-05; 0.126396; 0.0109004; 0.0175297; 1.08534e-07
20.7564; 6.97416e-05; 0.126396; 0.0109004; 0.0175297; 1.08534e-07
20.7899; 6.95505e-05; 0.126396; 0.0109004; 0.0175297; 1.08534e-07
20.817; 6.94613e-05; 0.126396; 0.0109004; 0.0175297; 1.08534e-07
20.8413; 6.91906e-05; 0.126396; 0.0109004; 0.0175297; 1.08534e-07
20.8733; 6.91819e-05; 0.126396; 0.0109004; 0.0175297; 1.08534e-07
20.9008; 6.9073e-05; 0.126396; 0.0109004; 0.0175297; 1.08534e-07
20.9175; 6.87497e-05; 0.126396; 0.0109004; 0.0175297; 1.08534e-07
20.9382; 6.879e-05; 0.126396; 0.0109004; 0.0175297; 1.08534e-07
20.9625; 6.84093e-05; 0.126396; 0.0109004; 0.0175297; 1.08534e-07
20.9861; 6.82712e-05; 0.126396; 0.0109004; 0.0175297; 1.08534e-07
21.0118; 6.80716e-05; 0.126396; 0.0109004; 0.0175297; 1.08534e-07
21.0315; 6.79394e-05; 0.126396; 0.0109004; 0.0175297; 1.08534e-07
21.0543; 6.79634e-05; 0.126396; 0.0109004; 0.0175297; 1.08534e-07
21.0733; 6.76688e-05; 0.126396; 0.0109004; 0.0175297; 1.08534e-07
21.0961; 6.75502e-05; 0.126396; 0.0109004; 0.0175297; 1.08534e-07
21.1142; 6.7396e-05; 0.126396; 0.0109004; 0.0175297; 1.08534e-07
21.144; 6.72216e-05; 0.126396; 0.0109004; 0.0175297; 1.08534e-07
21.1819; 6.70119e-05; 0.126396; 0.0109004; 0.0175297; 1.08534e-07
21.219; 6.6822e-05; 0.126396; 0.0109004; 0.0175297; 1.08534e-07
21.2439; 6.6581e-05; 0.126396; 0.0109004; 0.0175297; 1.08534e-07
21.2713; 6.649e-05; 0.126396; 0.0109004; 0.0175297; 1.08534e-07
21.3013; 6.6368e-05; 0.126396; 0.0109004; 0.0175297; 1.08534e-07
21.3241; 6.60729e-05; 0.126396; 0.0109004; 0.0175297; 1.08534e-07
21.3587; 6.58878e-05; 0.126396; 0.0109004; 0.0175297; 1.08534e-07
21.3912; 6.56747e-05; 0.126396; 0.0109004; 0.0175297; 1.08534e-07
21.4215; 6.54703e-05; 0.126396; 0.0109004; 0.0175297; 1.08534e-07
21.4567; 6.5234e-05; 0.126396; 0.0109004; 0.0175297; 1.08534e-07
21.4803; 6.50644e-05; 0.126396; 0.0109004; 0.0175297; 1.08534e-07
21.513; 6.48789e-05; 0.126396; 0.0109004; 0.0175297; 1.08534e-07
21.5503; 6.46578e-05; 0.126396; 0.0109004; 0.0175297; 1.08534e-07
21.591; 6.44038e-05; 0.126396; 0.0109004; 0.0175297; 1.08534e-07
21.6117; 6.45291e-05; 0.126396; 0.0109004; 0.0175297; 1.08534e-07
21.6363; 6.40863e-05; 0.126396; 0.0109004; 0.0175297; 1.08534e-07
21.6618; 6.39691e-05; 0.126396; 0.0109004; 0.0175297; 1.08534e-07
21.6821; 6.3884e-05; 0.126396; 0.0109004; 0.0175297; 1.08534e-07
21.715; 6.36181e-05; 0.126396; 0.0109004; 0.0175297; 1.08534e-07
21.7461; 6.35017e-05; 0.126396; 0.0109004; 0.0175297; 1.08534e-07
21.7843; 6.31911e-05; 0.126395; 0.0109004; 0.0175297; 1.08534e-07
21.8186; 6.29956e-05; 0.126395; 0.0109004; 0.0175297; 1.08534e-07
21.8443; 6.28489e-05; 0.126395; 0.0109004; 0.0175297; 1.08534e-07
21.8723; 6.2631e-05; 0.126395; 0.0109004; 0.0175297; 1.08534e-07
21.8938; 6.25802e-05; 0.126395; 0.0109004; 0.0175297; 1.08534e-07
21.9291; 6.23094e-05; 0.126395; 0.0109004; 0.0175297; 1.08534e-07
21.9575; 6.21204e-05; 0.126395; 0.0109004; 0.0175297; 1.08534e-07
21.9807; 6.2168e-05; 0.126395; 0.0109004; 0.0175297; 1.08534e-07
22.0154; 6.17605e-05; 0.126395; 0.0109004; 0.0175297; 1.08534e-07
22.0451; 6.16434e-05; 0.126395; 0.0109004; 0.0175297; 1.08534e-07
22.0733; 6.14533e-05; 0.126395; 0.0109004; 0.0175297; 1.08534e-07
22.1106; 6.13268e-05; 0.126395; 0.0109004; 0.0175297; 1.08534e-07
22.1293; 6.11167e-05; 0.126395; 0.0109004; 0.0175297; 1.08534e-07
22.1535; 6.09278e-05; 0.126395; 0.0109004; 0.0175297; 1.08534e-07
22.1727; 6.07984e-05; 0.126395; 0.0109004; 0.0175297; 1.08534e-07
22.19; 6.07866e-05; 0.126395; 0.0109004; 0.0175297; 1.08534e-07
22.2194; 6.06054e-05; 0.126395; 0.0109004; 0.0175297; 1.08534e-07
22.2418; 6.04232e-05; 0.126395; 0.0109004; 0.0175297; 1.08534e-07
22.277; 6.01803e-05; 0.126395; 0.0109004; 0.0175297; 1.08534e-07
22.2969; 6.03014e-05; 0.126395; 0.0109004; 0.0175297; 1.08534e-07
22.329; 5.99151e-05; 0.126395; 0.0109004; 0.0175297; 1.08534e-07
22.3525; 5.98407e-05; 0.126395; 0.0109004; 0.0175297; 1.08534e-07
22.3876; 5.98639e-05; 0.126395; 0.0109004; 0.0175297; 1.08534e-07
22.411; 5.93675e-05; 0.126395; 0.0109004; 0.0175297; 1.08534e-07
22.4408; 5.9196e-05; 0.126395; 0.0109004; 0.0175297; 1.08534e-07
22.4733; 5.90186e-05; 0.126395; 0.0109004; 0.0175297; 1.08534e-07
22.5072; 5.89037e-05; 0.126395; 0.0109004; 0.0175297; 1.08534e-07
22.5367; 5.86253e-05; 0.126395; 0.0109004; 0.0175297; 1.08534e-07
22.5643; 5.85308e-05; 0.126395; 0.0109004; 0.0175297; 1.08534e-07
22.6005; 5.83577e-05; 0.126395; 0.0109004; 0.0175297; 1.08534e-07
22.6242; 5.81271e-05; 0.126395; 0.0109004; 0.0175297; 1.08534e-07
22.654; 5.79475e-05; 0.126395; 0.0109004; 0.0175297; 1.08534e-07
22.6768; 5.78038e-05; 0.126395; 0.0109004; 0.0175297; 1.08534e-07
22.7018; 5.77195e-05; 0.126395; 0.0109004; 0.0175297; 1.08534e-07
22.7291; 5.75454e-05; 0.126395; 0.0109004; 0.0175297; 1.08534e-07
22.7572; 5.73521e-05; 0.126395; 0.0109004; 0.0175297; 1.08534e-07
22.7861; 5.7249e-05; 0.126395; 0.0109004; 0.0175297; 1.08534e-07
22.8158; 5.70403e-05; 0.126395; 0.0109004; 0.0175297; 1.08534e-07
22.8464; 5.68263e-05; 0.126395; 0.0109004; 0.0175297; 1.08534e-07
22.875; 5.67044e-05; 0.126395; 0.0109004; 0.0175297; 1.08534e-07
22.9046; 5.65061e-05; 0.126395; 0.0109004; 0.0175297; 1.08534e-07
22.9262; 5.65728e-05; 0.126395; 0.0109004; 0.0175297; 1.08534e-07
22.96; 5.61855e-05; 0.126395; 0.0109004; 0.0175297; 1.08534e-07
22.9887; 5.60742e-05; 0.126395; 0.0109004; 0.0175297; 1.08534e-07
23.0159; 5.58981e-05; 0.126395; 0.0109004; 0.0175297; 1.08534e-07
23.0423; 5.57022e-05; 0.126395; 0.0109004; 0.0175297; 1.08534e-07
23.0711; 5.55682e-05; 0.126395; 0.0109004; 0.0175297; 1.08534e-07
23.0912; 5.54673e-05; 0.126395; 0.0109004; 0.0175297; 1.08534e-07
23.1228; 5.53559e-05; 0.126395; 0.0109004; 0.0175297; 1.08534e-07
23.1538; 5.51309e-05; 0.126395; 0.0109004; 0.0175297; 1.08534e-07
23.1843; 5.48976e-05; 0.126395; 0.0109004; 0.0175297; 1.08534e-07
23.2117; 5.47376e-05; 0.126395; 0.0109004; 0.0175297; 1.08534e-07
23.2272; 5.46953e-05; 0.126395; 0.0109004; 0.0175297; 1.08534e-07
23.2535; 5.45353e-05; 0.126395; 0.0109004; 0.0175297; 1.08534e-07
23.29; 5.43217e-05; 0.126395; 0.0109004; 0.0175297; 1.08534e-07
23.3145; 5.4183e-05; 0.126394; 0.0109004; 0.0175297; 1.08534e-07
23.3481; 5.41145e-05; 0.126394; 0.0109004; 0.0175297; 1.08534e-07
23.3706; 5.38425e-05; 0.126394; 0.0109004; 0.0175297; 1.08534e-07
23.4017; 5.36836e-05; 0.126394; 0.0109004; 0.0175297; 1.08534e-07
23.4226; 5.35488e-05; 0.126394; 0.0109004; 0.0175297; 1.08534e-07
23.4456; 5.35063e-05; 0.126394; 0.0109004; 0.0175297; 1.08534e-07
23.4644; 5.35585e-05; 0.126394; 0.0109004; 0.0175297; 1.08534e-07
23.4878; 5.31989e-05; 0.126394; 0.0109004; 0.0175297; 1.08534e-07
23.5218; 5.30264e-05; 0.126394; 0.0109004; 0.0175297; 1.08534e-07
23.5538; 5.2968e-05; 0.126394; 0.0109004; 0.0175297; 1.08534e-07
23.5867; 5.29863e-05; 0.126394; 0.0109004; 0.0175297; 1.08534e-07
23.623; 5.25052e-05; 0.126394; 0.0109004; 0.0175297; 1.08534e-07
23.6432; 5.23487e-05; 0.126394; 0.0109004; 0.0175297; 1.08534e-07
23.6725; 5.21906e-05; 0.126394; 0.0109004; 0.0175297; 1.08534e-07
23.7082; 5.2012e-05; 0.126394; 0.0109004; 0.0175297; 1.08534e-07
23.7321; 5.18584e-05; 0.126394; 0.0109004; 0.0175297; 1.08534e-07
23.7652; 5.17757e-05; 0.126394; 0.0109004; 0.0175297; 1.08534e-07
23.7838; 5.16402e-05; 0.126394; 0.0109004; 0.0175297; 1.08534e-07
23.8144; 5.14444e-05; 0.126394; 0.0109004; 0.0175297; 1.08534e-07
23.8357; 5.14171e-05; 0.126394; 0.0109004; 0.0175297; 1.08534e-07
23.8541; 5.12293e-05; 0.126394; 0.0109004; 0.0175297; 1.08534e-07
23.883; 5.1049e-05; 0.126394; 0.0109004; 0.0175297; 1.08534e-07
23.9113; 5.09628e-05; 0.126394; 0.0109004; 0.0175297; 1.08534e-07
23.9321; 5.09207e-05; 0.126394; 0.0109004; 0.0175297; 1.08534e-07
23.9569; 5.0789e-05; 0.126394; 0.0109004; 0.0175297; 1.08534e-07
23.9853; 5.06028e-05; 0.126394; 0.0109004; 0.0175297; 1.08534e-07
24.0227; 5.03787e-05; 0.126394; 0.0109004; 0.0175297; 1.08534e-07
24.0563; 5.01323e-05; 0.126394; 0.0109004; 0.0175297; 1.08534e-07
24.0738; 5.02806e-05; 0.126394; 0.0109004; 0.0175297; 1.08534e-07
24.1024; 4.99391e-05; 0.126394; 0.0109004; 0.0175297; 1.08534e-07
24.1251; 4.97645e-05; 0.126394; 0.0109004; 0.0175297; 1.08534e-07
24.1579; 4.96028e-05; 0.126394; 0.0109004; 0.0175297; 1.08534e-07
24.1798; 4.94924e-05; 0.126394; 0.0109004; 0.0175297; 1.08534e-07
24.1972; 4.93874e-05; 0.126394; 0.0109004; 0.0175297; 1.08534e-07
24.2258; 4.9299e-05; 0.126394; 0.0109004; 0.0175297; 1.08534e-07
24.2489; 4.91528e-05; 0.126394; 0.0109004; 0.0175297; 1.08534e-07
24.2766; 4.91279e-05; 0.126394; 0.0109004; 0.0175297; 1.08534e-07
24.3081; 4.8804e-05; 0.126394; 0.0109004; 0.0175297; 1.08534e-07
24.339; 4.8652e-05; 0.126394; 0.0109004; 0.0175297; 1.08534e-07
24.3725; 4.84807e-05; 0.126394; 0.0109004; 0.0175297; 1.08534e-07
24.405; 4.83385e-05; 0.126394; 0.0109004; 0.0175297; 1.08534e-07
24.4321; 4.81849e-05; 0.126394; 0.0109004; 0.0175297; 1.08534e-07
24.46; 4.8011e-05; 0.126394; 0.0109004; 0.0175297; 1.08534e-07
24.4853; 4.79457e-05; 0.126394; 0.0109004; 0.0175297; 1.08534e-07
24.5109; 4.77771e-05; 0.126394; 0.0109004; 0.0175297; 1.08534e-07
24.5284; 4.78227e-05; 0.126394; 0.0109004; 0.0175297; 1.08534e-07
24.5501; 4.75597e-05; 0.126394; 0.0109004; 0.0175297; 1.08534e-07
24.5748; 4.75423e-05; 0.126394; 0.0109004; 0.0175297; 1.08534e-07
24.6059; 4.72686e-05; 0.126394; 0.0109004; 0.0175297; 1.08534e-07
24.6275; 4.71463e-05; 0.126394; 0.0109004; 0.0175297; 1.08534e-07
24.6556; 4.70174e-05; 0.126394; 0.0109004; 0.0175297; 1.08534e-07
24.6828; 4.69067e-05; 0.126394; 0.0109004; 0.0175297; 1.08534e-07
24.7186; 4.67409e-05; 0.126394; 0.0109004; 0.0175297; 1.08534e-07
24.7488; 4.66343e-05; 0.126394; 0.0109004; 0.0175297; 1.08534e-07
24.7798; 4.6575e-05; 0.126394; 0.0109004; 0.0175297; 1.08534e-07
24.7999; 4.63594e-05; 0.126394; 0.0109004; 0.0175297; 1.08534e-07
24.8241; 4.62309e-05; 0.126394; 0.0109004; 0.0175297; 1.08534e-07
24.8425; 4.63246e-05; 0.126394; 0.0109004; 0.0175297; 1.08534e-07
24.8712; 4.59589e-05; 0.126394; 0.0109004; 0.0175297; 1.08534e-07
24.9009; 4.57918e-05; 0.126394; 0.0109004; 0.0175297; 1.08534e-07
24.927; 4.5644e-05; 0.126394; 0.0109004; 0.0175297; 1.08534e-07
24.954; 4.55459e-05; 0.126394; 0.0109004; 0.0175297; 1.08534e-07
24.9719; 4.56878e-05; 0.126394; 0.0109004; 0.0175297; 1.08534e-07
25.0022; 4.53089e-05; 0.126394; 0.0109004; 0.0175297; 1.08534e-07
25.0317; 4.51544e-05; 0.126394; 0.0109004; 0.0175297; 1.08534e-07
25.0677; 4.50779e-05; 0.126394; 0.0109004; 0.0175297; 1.08534e-07
25.1007; 4.48514e-05; 0.126394; 0.0109004; 0.0175297; 1.08534e-07
25.1402; 4.46057e-05; 0.126394; 0.0109004; 0.0175297; 1.08534e-07
25.1616; 4.45207e-05; 0.126393; 0.0109004; 0.0175297; 1.08534e-07
25.1895; 4.44669e-05; 0.126393; 0.0109004; 0.0175297; 1.08534e-07
25.2117; 4.42708e-05; 0.126393; 0.0109004; 0.0175297; 1.08534e-07
25.2453; 4.41248e-05; 0.126393; 0.0109004; 0.0175297; 1.08534e-07
25.2688; 4.40418e-05; 0.126393; 0.0109004; 0.0175297; 1.08534e-07
25.3027; 4.38075e-05; 0.126393; 0.0109004; 0.0175297; 1.08534e-07
25.3254; 4.3684e-05; 0.126393; 0.0109004; 0.0175297; 1.08534e-07
25.3496; 4.35681e-05; 0.126393; 0.0109004; 0.0175297; 1.08534e-07
25.3745; 4.34455e-05; 0.126393; 0.0109004; 0.0175297; 1.08534e-07
25.3982; 4.34146e-05; 0.126393; 0.0109004; 0.0175297; 1.08534e-07
25.4222; 4.32795e-05; 0.126393; 0.0109004; 0.0175297; 1.08534e-07
25.4598; 4.30508e-05; 0.126393; 0.0109004; 0.0175297; 1.08534e-07
25.4826; 4.29228e-05; 0.126393; 0.0109004; 0.0175297; 1.08534e-07
25.5007; 4.28469e-05; 0.126393; 0.0109004; 0.0175297; 1.08534e-07
25.5304; 4.29571e-05; 0.126393; 0.0109004; 0.0175297; 1.08534e-07
25.5522; 4.25932e-05; 0.126393; 0.0109004; 0.0175297; 1.08534e-07
25.5839; 4.24646e-05; 0.126393; 0.0109004; 0.0175297; 1.08534e-07
25.606; 4.23443e-05; 0.126393; 0.0109004; 0.0175297; 1.08534e-07
25.6304; 4.23149e-05; 0.126393; 0.0109004; 0.0175297; 1.08534e-07
25.657; 4.21563e-05; 0.126393; 0.0109004; 0.0175297; 1.08534e-07
25.6874; 4.19595e-05; 0.126393; 0.0109004; 0.0175297; 1.08534e-07
25.7215; 4.19114e-05; 0.126393; 0.0109004; 0.0175297; 1.08534e-07
25.7535; 4.16582e-05; 0.126393; 0.0109004; 0.0175297; 1.08534e-07
25.7839; 4.15904e-05; 0.126393; 0.0109004; 0.0175297; 1.08534e-07
25.8189; 4.1356e-05; 0.126393; 0.0109004; 0.0175297; 1.08534e-07
25.8401; 4.12594e-05; 0.126393; 0.0109004; 0.0175297; 1.08534e-07
25.8707; 4.11071e-05; 0.126393; 0.0109004; 0.0175297; 1.08534e-07
25.8944; 4.10395e-05; 0.126393; 0.0109004; 0.0175297; 1.08534e-07
25.9124; 4.09209e-05; 0.126393; 0.0109004; 0.0175297; 1.08534e-07
25.9408; 4.0774e-05; 0.126393; 0.0109004; 0.0175297; 1.08534e-07
25.9647; 4.0767e-05; 0.126393; 0.0109004; 0.0175297; 1.08534e-07
25.9907; 4.0592e-05; 0.126393; 0.0109004; 0.0175297; 1.08534e-07
26.0106; 4.04836e-05; 0.126393; 0.0109004; 0.0175297; 1.08534e-07
26.0394; 4.032e-05; 0.126393; 0.0109004; 0.0175297; 1.08534e-07
26.0636; 4.03428e-05; 0.126393; 0.0109004; 0.0175297; 1.08534e-07
26.09; 4.02086e-05; 0.126393; 0.0109004; 0.0175297; 1.08534e-07
26.1102; 4.00516e-05; 0.126393; 0.0109004; 0.0175297; 1.08534e-07
26.1324; 3.99288e-05; 0.126393; 0.0109004; 0.0175297; 1.08534e-07
26.1566; 3.98267e-05; 0.126393; 0.0109004; 0.0175297; 1.08534e-07
26.1751; 3.96903e-05; 0.126393; 0.0109004; 0.0175297; 1.08534e-07
26.2019; 3.9578e-05; 0.126393; 0.0109004; 0.0175297; 1.08534e-07
26.2259; 3.94657e-05; 0.126393; 0.0109004; 0.0175297; 1.08534e-07
26.2507; 3.95924e-05; 0.126393; 0.0109004; 0.0175297; 1.08534e-07
26.2737; 3.92483e-05; 0.126393; 0.0109004; 0.0175297; 1.08534e-07
26.2936; 3.91632e-05; 0.126393; 0.0109004; 0.0175297; 1.08534e-07
26.3148; 3.90599e-05; 0.126393; 0.0109004; 0.0175297; 1.08534e-07
26.3366; 3.90038e-05; 0.126393; 0.0109004; 0.0175297; 1.08534e-07
26.367; 3.88518e-05; 0.126393; 0.0109004; 0.0175297; 1.08534e-07
26.3944; 3.87115e-05; 0.126393; 0.0109004; 0.0175297; 1.08534e-07
26.4203; 3.87034e-05; 0.126393; 0.0109004; 0.0175297; 1.08534e-07
26.4401; 3.85123e-05; 0.126393; 0.0109004; 0.0175297; 1.08534e-07
26.4612; 3.84067e-05; 0.126393; 0.0109004; 0.0175297; 1.08534e-07
26.484; 3.83096e-05; 0.126393; 0.0109004; 0.0175297; 1.08534e-07
26.5062; 3.82769e-05; 0.126393; 0.0109004; 0.0175297; 1.08534e-07
26.5291; 3.81996e-05; 0.126393; 0.0109004; 0.0175297; 1.08534e-07
26.5533; 3.81944e-05; 0.126393; 0.0109004; 0.0175297; 1.08534e-07
26.5785; 3.79977e-05; 0.126393; 0.0109004; 0.0175297; 1.08534e-07
26.597; 3.78369e-05; 0.126393; 0.0109004; 0.0175297; 1.08534e-07
26.625; 3.7782e-05; 0.126393; 0.0109004; 0.0175297; 1.08534e-07
26.6464; 3.75975e-05; 0.126393; 0.0109004; 0.0175297; 1.08534e-07
26.6634; 3.76007e-05; 0.126393; 0.0109004; 0.0175297; 1.08534e-07
26.69; 3.74048e-05; 0.126393; 0.0109004; 0.0175297; 1.08534e-07
26.7208; 3.73292e-05; 0.126393; 0.0109004; 0.0175297; 1.08534e-07
26.7424; 3.72476e-05; 0.126393; 0.0109004; 0.0175297; 1.08534e-07
26.7596; 3.71171e-05; 0.126393; 0.0109004; 0.0175297; 1.08534e-07
26.7792; 3.7027e-05; 0.126393; 0.0109004; 0.0175297; 1.08534e-07
26.8001; 3.69236e-05; 0.126393; 0.0109004; 0.0175297; 1.08534e-07
26.8216; 3.68645e-05; 0.126393; 0.0109004; 0.0175297; 1.08534e-07
26.8437; 3.674e-05; 0.126393; 0.0109004; 0.0175297; 1.08534e-07
26.8665; 3.66399e-05; 0.126393; 0.0109004; 0.0175297; 1.08534e-07
26.8839; 3.65773e-05; 0.126393; 0.0109004; 0.0175297; 1.08534e-07
26.9103; 3.65228e-05; 0.126393; 0.0109004; 0.0175297; 1.08534e-07
26.9305; 3.64406e-05; 0.126393; 0.0109004; 0.0175297; 1.08534e-07
26.9526; 3.62788e-05; 0.126393; 0.0109004; 0.0175297; 1.08534e-07
26.9702; 3.62813e-05; 0.126393; 0.0109004; 0.0175297; 1.08534e-07
26.9919; 3.62519e-05; 0.126393; 0.0109004; 0.0175297; 1.08534e-07
27.0106; 3.60424e-05; 0.126393; 0.0109004; 0.0175297; 1.08534e-07
27.0389; 3.59861e-05; 0.126393; 0.0109004; 0.0175297; 1.08534e-07
27.0596; 3.58853e-05; 0.126393; 0.0109004; 0.0175297; 1.08534e-07
27.0815; 3.57355e-05; 0.126393; 0.0109004; 0.0175297; 1.08534e-07
27.1032; 3.57209e-05; 0.126393; 0.0109004; 0.0175297; 1.08534e-07
27.1242; 3.55359e-05; 0.126393; 0.0109004; 0.0175297; 1.08534e-07
27.1482; 3.54421e-05; 0.126393; 0.0109004; 0.0175297; 1.08534e-07
27.175; 3.53827e-05; 0.126393; 0.0109004; 0.0175297; 1.08534e-07
27.1954; 3.52341e-05; 0.126393; 0.0109004; 0.0175297; 1.08534e-07
27.2116; 3.5163e-05; 0.126393; 0.0109004; 0.0175297; 1.08534e-07
27.2251; 3.57293e-05; 0.126393; 0.0109004; 0.0175297; 1.08534e-07
27.2497; 3.51432e-05; 0.126393; 0.0109004; 0.0175297; 1.08534e-07
27.2685; 3.49361e-05; 0.126393; 0.0109004; 0.0175297; 1.08534e-07
27.2957; 3.48425e-05; 0.126393; 0.0109004; 0.0175297; 1.08534e-07
27.322; 3.47732e-05; 0.126393; 0.0109004; 0.0175297; 1.08534e-07
27.3441; 3.46149e-05; 0.126393; 0.0109004; 0.0175297; 1.08534e-07
27.3694; 3.4582e-05; 0.126393; 0.0109004; 0.0175297; 1.08534e-07
27.3993; 3.44157e-05; 0.126393; 0.0109004; 0.0175297; 1.08534e-07
27.419; 3.43092e-05; 0.126393; 0.0109004; 0.0175297; 1.08534e-07
27.4406; 3.42222e-05; 0.126393; 0.0109004; 0.0175297; 1.08534e-07
27.4631; 3.4121e-05; 0.126393; 0.0109004; 0.0175297; 1.08534e-07
27.4834; 3.4033e-05; 0.126393; 0.0109004; 0.0175297; 1.08534e-07
27.5052; 3.39608e-05; 0.126392; 0.0109004; 0.0175297; 1.08534e-07
27.5367; 3.38265e-05; 0.126392; 0.0109004; 0.0175297; 1.08534e-07
27.56; 3.37741e-05; 0.126392; 0.0109004; 0.0175297; 1.08534e-07
27.5836; 3.36448e-05; 0.126392; 0.0109004; 0.0175297; 1.08534e-07
27.6081; 3.35729e-05; 0.126392; 0.0109004; 0.0175297; 1.08534e-07
27.6261; 3.34696e-05; 0.126392; 0.0109004; 0.0175297; 1.08534e-07
27.6423; 3.3534e-05; 0.126392; 0.0109004; 0.0175297; 1.08534e-07
27.6699; 3.32879e-05; 0.126392; 0.0109004; 0.0175297; 1.08534e-07
27.6941; 3.31806e-05; 0.126392; 0.0109004; 0.0175297; 1.08534e-07
27.711; 3.31338e-05; 0.126392; 0.0109004; 0.0175297; 1.08534e-07
27.7388; 3.30043e-05; 0.126392; 0.0109004; 0.0175297; 1.08534e-07
27.7623; 3.29478e-05; 0.126392; 0.0109004; 0.0175297; 1.08534e-07
27.7881; 3.30705e-05; 0.126392; 0.0109004; 0.0175297; 1.08534e-07
27.8085; 3.27221e-05; 0.126392; 0.0109004; 0.0175297; 1.08534e-07
27.8319; 3.26573e-05; 0.126392; 0.0109004; 0.0175297; 1.08534e-07
27.8568; 3.25535e-05; 0.126392; 0.0109004; 0.0175297; 1.08534e-07
27.8761; 3.25328e-05; 0.126392; 0.0109004; 0.0175297; 1.08534e-07
27.8927; 3.26374e-05; 0.126392; 0.0109004; 0.0175297; 1.08534e-07
27.9142; 3.23054e-05; 0.126392; 0.0109004; 0.0175297; 1.08534e-07
27.9453; 3.22262e-05; 0.126392; 0.0109004; 0.0175297; 1.08534e-07
27.9759; 3.21916e-05; 0.126392; 0.0109004; 0.0175297; 1.08534e-07
28.0035; 3.20053e-05; 0.126392; 0.0109004; 0.0175297; 1.08534e-07
28.0238; 3.1872e-05; 0.126392; 0.0109004; 0.0175297; 1.08534e-07
28.0545; 3.17883e-05; 0.126392; 0.0109004; 0.0175297; 1.08534e-07
28.0759; 3.16632e-05; 0.126392; 0.0109004; 0.0175297; 1.08534e-07
28.0929; 3.15926e-05; 0.126392; 0.0109004; 0.0175297; 1.08534e-07
28.1209; 3.15501e-05; 0.126392; 0.0109004; 0.0175297; 1.08534e-07
28.1423; 3.14272e-05; 0.126392; 0.0109004; 0.0175297; 1.08534e-07
28.1658; 3.1452e-05; 0.126392; 0.0109004; 0.0175297; 1.08534e-07
28.1845; 3.16103e-05; 0.126392; 0.0109004; 0.0175297; 1.08534e-07
28.2065; 3.11567e-05; 0.126392; 0.0109004; 0.0175297; 1.08534e-07
28.2233; 3.10886e-05; 0.126392; 0.0109004; 0.0175297; 1.08534e-07
28.2434; 3.10064e-05; 0.126392; 0.0109004; 0.0175297; 1.08534e-07
28.2663; 3.09562e-05; 0.126392; 0.0109004; 0.0175297; 1.08534e-07
28.2916; 3.11807e-05; 0.126392; 0.0109004; 0.0175297; 1.08534e-07
28.3116; 3.08895e-05; 0.126392; 0.0109004; 0.0175297; 1.08534e-07
28.3364; 3.07034e-05; 0.126392; 0.0109004; 0.0175297; 1.08534e-07
28.3639; 3.05681e-05; 0.126392; 0.0109004; 0.0175297; 1.08534e-07
28.3831; 3.05056e-05; 0.126392; 0.0109004; 0.0175297; 1.08534e-07
28.4054; 3.03847e-05; 0.126392; 0.0109004; 0.0175297; 1.08534e-07
28.4294; 3.03682e-05; 0.126392; 0.0109004; 0.0175297; 1.08534e-07
28.4484; 3.02229e-05; 0.126392; 0.0109004; 0.0175297; 1.08534e-07
28.4693; 3.01461e-05; 0.126392; 0.0109004; 0.0175297; 1.08534e-07
28.4933; 3.01576e-05; 0.126392; 0.0109004; 0.0175297; 1.08534e-07
28.5106; 3.00329e-05; 0.126392; 0.0109004; 0.0175297; 1.08534e-07
28.5392; 2.98977e-05; 0.126392; 0.0109004; 0.0175297; 1.08534e-07
28.5642; 2.98449e-05; 0.126392; 0.0109004; 0.0175297; 1.08534e-07
28.5841; 2.97069e-05; 0.126392; 0.0109004; 0.0175297; 1.08534e-07
28.6068; 2.96562e-05; 0.126392; 0.0109004; 0.0175297; 1.08534e-07
28.6296; 2.95871e-05; 0.126392; 0.0109004; 0.0175297; 1.08534e-07
28.6546; 2.94813e-05; 0.126392; 0.0109004; 0.0175297; 1.08534e-07
28.6736; 2.93735e-05; 0.126392; 0.0109004; 0.0175297; 1.08534e-07
28.6887; 2.9316e-05; 0.126392; 0.0109004; 0.0175297; 1.08534e-07
28.7147; 2.93879e-05; 0.126392; 0.0109004; 0.0175297; 1.08534e-07
28.7336; 2.9303e-05; 0.126392; 0.0109004; 0.0175297; 1.08534e-07
28.7554; 2.90684e-05; 0.126392; 0.0109004; 0.0175297; 1.08534e-07
28.7677; 2.90345e-05; 0.126392; 0.0109004; 0.0175297; 1.08534e-07
28.7896; 2.90169e-05; 0.126392; 0.0109004; 0.0175297; 1.08534e-07
28.8084; 2.8872e-05; 0.126392; 0.0109004; 0.0175297; 1.08534e-07
28.824; 2.91625e-05; 0.126392; 0.0109004; 0.0175297; 1.08534e-07
28.8433; 2.87434e-05; 0.126392; 0.0109004; 0.0175297; 1.08534e-07
28.8654; 2.87137e-05; 0.126392; 0.0109004; 0.0175297; 1.08534e-07
28.8813; 2.8625e-05; 0.126392; 0.0109004; 0.0175297; 1.08534e-07
28.9004; 2.8531e-05; 0.126392; 0.0109004; 0.0175297; 1.08534e-07
28.916; 2.88206e-05; 0.126392; 0.0109004; 0.0175297; 1.08534e-07
28.9363; 2.84069e-05; 0.126392; 0.0109004; 0.0175297; 1.08534e-07
28.9524; 2.83619e-05; 0.126392; 0.0109004; 0.0175297; 1.08534e-07
28.9788; 2.84234e-05; 0.126392; 0.0109004; 0.0175297; 1.08534e-07
29.006; 2.82395e-05; 0.126392; 0.0109004; 0.0175297; 1.08534e-07
29.0257; 2.80741e-05; 0.126392; 0.0109004; 0.0175297; 1.08534e-07
29.0469; 2.80379e-05; 0.126392; 0.0109004; 0.0175297; 1.08534e-07
29.0775; 2.78991e-05; 0.126392; 0.0109004; 0.0175297; 1.08534e-07
29.0981; 2.78233e-05; 0.126392; 0.0109004; 0.0175297; 1.08534e-07
29.1136; 2.82246e-05; 0.126392; 0.0109004; 0.0175297; 1.08534e-07
29.14; 2.77143e-05; 0.126392; 0.0109004; 0.0175297; 1.08534e-07
29.1585; 2.76004e-05; 0.126392; 0.0109004; 0.0175297; 1.08534e-07
29.1851; 2.75951e-05; 0.126392; 0.0109004; 0.0175297; 1.08534e-07
29.2189; 2.74071e-05; 0.126392; 0.0109004; 0.0175297; 1.08534e-07
29.2404; 2.74183e-05; 0.126392; 0.0109004; 0.0175297; 1.08534e-07
29.2662; 2.72177e-05; 0.126392; 0.0109004; 0.0175297; 1.08534e-07
29.2976; 2.71218e-05; 0.126392; 0.0109004; 0.0175297; 1.08534e-07
29.3145; 2.70359e-05; 0.126392; 0.0109004; 0.0175297; 1.08534e-07
29.3357; 2.71232e-05; 0.126392; 0.0109004; 0.0175297; 1.08534e-07
29.3505; 2.69117e-05; 0.126392; 0.0109004; 0.0175297; 1.08534e-07
29.3683; 2.68472e-05; 0.126392; 0.0109004; 0.0175297; 1.08534e-07
29.3885; 2.68087e-05; 0.126392; 0.0109004; 0.0175297; 1.08534e-07
29.4163; 2.6686e-05; 0.126392; 0.0109004; 0.0175297; 1.08534e-07
29.434; 2.66166e-05; 0.126392; 0.0109004; 0.0175297; 1.08534e-07
29.4487; 2.70008e-05; 0.126392; 0.0109004; 0.0175297; 1.08534e-07
29.4748; 2.67937e-05; 0.126392; 0.0109004; 0.0175297; 1.08534e-07
29.4938; 2.64369e-05; 0.126392; 0.0109004; 0.0175297; 1.08534e-07
29.5149; 2.63332e-05; 0.126392; 0.0109004; 0.0175297; 1.08534e-07
29.5354; 2.62652e-05; 0.126392; 0.0109004; 0.0175297; 1.08534e-07
29.551; 2.62836e-05; 0.126392; 0.0109004; 0.0175297; 1.08534e-07
29.5755; 2.62743e-05; 0.126392; 0.0109004; 0.0175297; 1.08534e-07
29.5996; 2.61175e-05; 0.126392; 0.0109004; 0.0175297; 1.08534e-07
29.6245; 2.59642e-05; 0.126392; 0.0109004; 0.0175297; 1.08534e-07
29.6418; 2.6166e-05; 0.126392; 0.0109004; 0.0175297; 1.08534e-07
29.6619; 2.58285e-05; 0.126392; 0.0109004; 0.0175297; 1.08534e-07
29.6826; 2.57565e-05; 0.126392; 0.0109004; 0.0175297; 1.08534e-07
29.71; 2.56809e-05; 0.126392; 0.0109004; 0.0175297; 1.08534e-07
29.7418; 2.55875e-05; 0.126392; 0.0109004; 0.0175297; 1.08534e-07
29.7641; 2.55054e-05; 0.126392; 0.0109004; 0.0175297; 1.08534e-07
29.795; 2.53816e-05; 0.126392; 0.0109004; 0.0175297; 1.08534e-07
29.821; 2.52859e-05; 0.126392; 0.0109004; 0.0175297; 1.08534e-07
29.8441; 2.523e-05; 0.126392; 0.0109004; 0.0175297; 1.08534e-07
29.8675; 2.52103e-05; 0.126392; 0.0109004; 0.0175297; 1.08534e-07
29.886; 2.50646e-05; 0.126392; 0.0109004; 0.0175297; 1.08534e-07
29.9128; 2.4976e-05; 0.126392; 0.0109004; 0.0175297; 1.08534e-07
29.9471; 2.50661e-05; 0.126392; 0.0109004; 0.0175297; 1.08534e-07
29.9644; 2.47983e-05; 0.126392; 0.0109004; 0.0175297; 1.08534e-07
29.9829; 2.47317e-05; 0.126392; 0.0109004; 0.0175297; 1.08534e-07
30.0028; 2.47665e-05; 0.126392; 0.0109004; 0.0175297; 1.08534e-07
30.0186; 2.46586e-05; 0.126392; 0.0109004; 0.0175297; 1.08534e-07
30.0369; 2.455e-05; 0.126392; 0.0109004; 0.0175297; 1.08534e-07
30.0566; 2.45367e-05; 0.126392; 0.0109004; 0.0175297; 1.08534e-07
30.0758; 2.44214e-05; 0.126392; 0.0109004; 0.0175297; 1.08534e-07
30.0965; 2.44413e-05; 0.126392; 0.0109004; 0.0175297; 1.08534e-07
30.1178; 2.42835e-05; 0.126392; 0.0109004; 0.0175297; 1.08534e-07
30.1394; 2.43686e-05; 0.126392; 0.0109004; 0.0175297; 1.08534e-07
30.1623; 2.42021e-05; 0.126392; 0.0109004; 0.0175297; 1.08534e-07
30.1871; 2.44455e-05; 0.126392; 0.0109004; 0.0175297; 1.08534e-07
30.2067; 2.40335e-05; 0.126392; 0.0109004; 0.0175297; 1.08534e-07
30.2365; 2.39389e-05; 0.126392; 0.0109004; 0.0175297; 1.08534e-07
30.2635; 2.38252e-05; 0.126392; 0.0109004; 0.0175297; 1.08534e-07
30.2895; 2.3727e-05; 0.126392; 0.0109004; 0.0175297; 1.08534e-07
30.3226; 2.36516e-05; 0.126392; 0.0109004; 0.0175297; 1.08534e-07
30.3448; 2.3691e-05; 0.126392; 0.0109004; 0.0175297; 1.08534e-07
30.3624; 2.35901e-05; 0.126392; 0.0109004; 0.0175297; 1.08534e-07
30.39; 2.36505e-05; 0.126392; 0.0109004; 0.0175297; 1.08534e-07
30.4204; 2.33097e-05; 0.126392; 0.0109004; 0.0175297; 1.08534e-07
30.4538; 2.32043e-05; 0.126392; 0.0109004; 0.0175297; 1.08534e-07
30.4738; 2.31276e-05; 0.126392; 0.0109004; 0.0175297; 1.08534e-07
30.5041; 2.30589e-05; 0.126392; 0.0109004; 0.0175297; 1.08534e-07
30.5352; 2.29407e-05; 0.126392; 0.0109004; 0.0175297; 1.08534e-07
30.5711; 2.28205e-05; 0.126392; 0.0109004; 0.0175297; 1.08534e-07
30.599; 2.30203e-05; 0.126392; 0.0109004; 0.0175297; 1.08534e-07
30.6264; 2.26398e-05; 0.126392; 0.0109004; 0.0175297; 1.08534e-07
30.6519; 2.26748e-05; 0.126392; 0.0109004; 0.0175297; 1.08534e-07
30.6715; 2.24891e-05; 0.126392; 0.0109004; 0.0175297; 1.08534e-07
30.6916; 2.24356e-05; 0.126392; 0.0109004; 0.0175297; 1.08534e-07
30.7116; 2.26642e-05; 0.126392; 0.0109004; 0.0175297; 1.08534e-07
30.7335; 2.24615e-05; 0.126392; 0.0109004; 0.0175297; 1.08534e-07
30.765; 2.22057e-05; 0.126391; 0.0109004; 0.0175297; 1.08534e-07
30.7861; 2.21503e-05; 0.126391; 0.0109004; 0.0175297; 1.08534e-07
30.8153; 2.21002e-05; 0.126391; 0.0109004; 0.0175297; 1.08534e-07
30.8357; 2.20064e-05; 0.126391; 0.0109004; 0.0175297; 1.08534e-07
30.8621; 2.1924e-05; 0.126391; 0.0109004; 0.0175297; 1.08534e-07
30.8834; 2.18247e-05; 0.126391; 0.0109004; 0.0175297; 1.08534e-07
30.9054; 2.18255e-05; 0.126391; 0.0109004; 0.0175297; 1.08534e-07
30.9347; 2.19284e-05; 0.126391; 0.0109004; 0.0175297; 1.08534e-07
30.9533; 2.17158e-05; 0.126391; 0.0109004; 0.0175297; 1.08534e-07
30.9838; 2.16319e-05; 0.126391; 0.0109004; 0.0175297; 1.08534e-07
31.001; 2.17552e-05; 0.126391; 0.0109004; 0.0175297; 1.08534e-07
31.0164; 2.17784e-05; 0.126391; 0.0109004; 0.0175297; 1.08534e-07
31.0406; 2.13531e-05; 0.126391; 0.0109004; 0.0175297; 1.08534e-07
31.0574; 2.15077e-05; 0.126391; 0.0109004; 0.0175297; 1.08534e-07
31.0852; 2.12187e-05; 0.126391; 0.0109004; 0.0175297; 1.08534e-07
31.1172; 2.11207e-05; 0.126391; 0.0109004; 0.0175297; 1.08534e-07
31.1425; -0.0001872; 0.126391; 0.0109004; 0.0175297; 1.08534e-07
31.1527; 2.10293e-05; 0.126391; 0.0109004; 0.0175297; 1.08534e-07
31.1679; 2.11027e-05; 0.126391; 0.0109004; 0.0175297; 1.08534e-07
31.1781; 2.11135e-05; 0.126391; 0.0109004; 0.0175297; 1.08534e-07
31.1928; 2.09009e-05; 0.126391; 0.0109004; 0.0175297; 1.08534e-07
31.2025; 2.08511e-05; 0.126391; 0.0109004; 0.0175297; 1.08534e-07
31.2141; 2.09621e-05; 0.126391; 0.0109004; 0.0175297; 1.08534e-07
31.2274; 2.07769e-05; 0.126391; 0.0109004; 0.0175297; 1.08534e-07
31.2413; 2.07386e-05; 0.126391; 0.0109004; 0.0175297; 1.08534e-07
31.2566; 2.06851e-05; 0.126391; 0.0109004; 0.0175297; 1.08534e-07
31.27; 2.07059e-05; 0.126391; 0.0109004; 0.0175297; 1.08534e-07
31.2801; 2.08013e-05; 0.126391; 0.0109004; 0.0175297; 1.08534e-07
31.2891; 2.05843e-05; 0.126391; 0.0109004; 0.0175297; 1.08534e-07
31.3001; 2.0639e-05; 0.126391; 0.0109004; 0.0175297; 1.08534e-07
31.3134; 2.05115e-05; 0.126391; 0.0109004; 0.0175297; 1.08534e-07
31.3259; 2.05983e-05; 0.126391; 0.0109004; 0.0175297; 1.08534e-07
31.3385; 2.04588e-05; 0.126391; 0.0109004; 0.0175297; 1.08534e-07
31.3485; 2.04068e-05; 0.126391; 0.0109004; 0.0175297; 1.08534e-07
31.3605; 2.03793e-05; 0.126391; 0.0109004; 0.0175297; 1.08534e-07
31.3742; 2.0335e-05; 0.126391; 0.0109004; 0.0175297; 1.08534e-07
31.389; 2.05007e-05; 0.126391; 0.0109004; 0.0175297; 1.08534e-07
31.4042; 2.02406e-05; 0.126391; 0.0109004; 0.0175297; 1.08534e-07
31.4167; 2.03047e-05; 0.126391; 0.0109004; 0.0175297; 1.08534e-07
31.4293; 2.01666e-05; 0.126391; 0.0109004; 0.0175297; 1.08534e-07
31.4442; 2.0123e-05; 0.126391; 0.0109004; 0.0175297; 1.08534e-07
31.4603; 2.0074e-05; 0.126391; 0.0109004; 0.0175297; 1.08534e-07
31.4761; 2.00352e-05; 0.126391; 0.0109004; 0.0175297; 1.08534e-07
31.4866; 1.99987e-05; 0.126391; 0.0109004; 0.0175297; 1.08534e-07
31.5029; 2.02369e-05; 0.126391; 0.0109004; 0.0175297; 1.08534e-07
31.5174; 1.99279e-05; 0.126391; 0.0109004; 0.0175297; 1.08534e-07
31.5283; 2.0063e-05; 0.126391; 0.0109004; 0.0175297; 1.08534e-07
31.5413; 1.99386e-05; 0.126391; 0.0109004; 0.0175297; 1.08534e-07
31.5559; 1.97931e-05; 0.126391; 0.0109004; 0.0175297; 1.08534e-07
31.5724; 1.9879e-05; 0.126391; 0.0109004; 0.0175297; 1.08534e-07
31.5833; 1.97683e-05; 0.126391; 0.0109004; 0.0175297; 1.08534e-07
31.5998; 1.99673e-05; 0.126391; 0.0109004; 0.0175297; 1.08534e-07
31.6103; 1.96328e-05; 0.126391; 0.0109004; 0.0175297; 1.08534e-07
31.6228; 1.9692e-05; 0.126391; 0.0109004; 0.0175297; 1.08534e-07
31.6368; 1.95595e-05; 0.126391; 0.0109004; 0.0175297; 1.08534e-07
31.6479; 1.95196e-05; 0.126391; 0.0109004; 0.0175297; 1.08534e-07
31.6632; 1.94766e-05; 0.126391; 0.0109004; 0.0175297; 1.08534e-07
31.6744; 1.95078e-05; 0.126391; 0.0109004; 0.0175297; 1.08534e-07
31.6919; 1.94065e-05; 0.126391; 0.0109004; 0.0175297; 1.08534e-07
31.7066; 1.93493e-05; 0.126391; 0.0109004; 0.0175297; 1.08534e-07
31.7178; 1.93619e-05; 0.126391; 0.0109004; 0.0175297; 1.08534e-07
31.7344; 1.93784e-05; 0.126391; 0.0109004; 0.0175297; 1.08534e-07
31.7477; 1.93542e-05; 0.126391; 0.0109004; 0.0175297; 1.08534e-07
31.7591; 1.91967e-05; 0.126391; 0.0109004; 0.0175297; 1.08534e-07
31.777; 1.91565e-05; 0.126391; 0.0109004; 0.0175297; 1.08534e-07
31.789; 1.91292e-05; 0.126391; 0.0109004; 0.0175297; 1.08534e-07
31.8058; 1.91322e-05; 0.126391; 0.0109004; 0.0175297; 1.08534e-07
31.8169; 1.90277e-05; 0.126391; 0.0109004; 0.0175297; 1.08534e-07
31.8269; 1.90105e-05; 0.126391; 0.0109004; 0.0175297; 1.08534e-07
31.8447; -0.000260243; 0.126391; 0.0109005; 0.0175298; 1.08534e-07
31.8637; 1.89056e-05; 0.126391; 0.0109005; 0.0175298; 1.08534e-07
31.8771; 1.89394e-05; 0.126391; 0.0109005; 0.0175298; 1.08534e-07
31.8918; 1.88667e-05; 0.126391; 0.0109005; 0.0175298; 1.08534e-07
31.9034; 1.957e-05; 0.126391; 0.0109005; 0.0175298; 1.08534e-07
31.9166; 1.96168e-05; 0.126391; 0.0109005; 0.0175298; 1.08534e-07
31.9256; 4.78555; 0.125917; 0.0108595; 0.017464; 1.08534e-07
31.9256; 3.2183; 0.125917; 0.0108595; 0.017464; 1.08534e-07
31.9256; 23057.7; 0.125665; 0.0108378; 0.017429; 1.08534e-07
31.9256; -0.000261233; 0.125665; 0.0108378; 0.017429; 1.08534e-07
31.9256; 2.09026e-05; 0.125665; 0.0108378; 0.017429; 1.08534e-07
31.9256; 1.08491e-05; 0.125665; 0.0108378; 0.017429; 1.08534e-07
31.9256; -0.000138264; 0.125665; 0.0108378; 0.017429; 1.08534e-07
31.9256; -3.57193e-05; 0.125665; 0.0108378; 0.017429; 1.08534e-07
31.9256; 0.000226954; 0.125665; 0.0108378; 0.017429; 1.08534e-07
31.9256; -0.000908261; 0.125665; 0.0108378; 0.017429; 1.08534e-07
31.9256; -0.00677755; 0.125665; 0.0108378; 0.017429; 1.08534e-07
31.9256; -0.0211599; 0.125665; 0.0108378; 0.017429; 1.08534e-07
31.9256; 93.2145; 0.125665; 0.0108378; 0.017429; 1.08534e-07
31.9256; 48.2643; 0.125665; 0.0108378; 0.017429; 1.08534e-07
31.9256; -0.0816615; 0.125665; 0.0108378; 0.017429; 1.08534e-07
31.9256; 22.0448; 0.125665; 0.0108378; 0.017429; 1.08534e-07
31.9256; -0.160305; 0.125665; 0.0108378; 0.017429; 1.08534e-07
31.9256; 24.3118; 0.125665; 0.0108378; 0.017429; 1.08534e-07
31.9256; 3.02671; 0.125665; 0.0108378; 0.017429; 1.08534e-07
31.9256; -0.259; 0.125665; 0.0108378; 0.017429; 1.08534e-07
31.9256; 31.313; 0.125665; 0.0108378; 0.017429; 1.08534e-07
31.9256; 27.4388; 0.125665; 0.0108378; 0.017429; 1.08534e-07
31.9256; -0.38713; 0.125665; 0.0108378; 0.017429; 1.08534e-07
31.9256; 85.6783; 0.125665; 0.0108378; 0.017429; 1.08534e-07
31.9256; -0.44143; 0.125665; 0.0108378; 0.017429; 1.08534e-07
31.9256; -0.474884; 0.125665; 0.0108378; 0.017429; 1.08534e-07
31.9256; -0.594193; 0.125665; 0.0108378; 0.017429; 1.08534e-07
31.9256; 2.86916; 0.125665; 0.0108378; 0.017429; 1.08534e-07
31.9256; -1.23893; 0.125665; 0.0108378; 0.017429; 1.08534e-07
31.9256; -2.38552; 0.125665; 0.0108378; 0.017429; 1.08534e-07
31.9256; -3.54589; 0.125665; 0.0108378; 0.017429; 1.08534e-07
31.9256; -4.39335; 0.125665; 0.0108378; 0.017429; 1.08534e-07
31.9256; -6.16306; 0.125665; 0.0108378; 0.017429; 1.08534e-07
31.9256; -9.35515; 0.125665; 0.0108378; 0.017429; 1.08534e-07
31.9256; -10.1945; 0.125665; 0.0108378; 0.017429; 1.08534e-07
31.9256; -10.9521; 0.125665; 0.0108378; 0.017429; 1.08534e-07
31.9256; -11.8667; 0.125665; 0.0108378; 0.017429; 1.08534e-07
31.9256; -12.8845; 0.125665; 0.0108378; 0.017429; 1.08534e-07
31.9256; -14.0041; 0.125665; 0.0108378; 0.017429; 1.08534e-07
31.9256; 89.8458; 0.125665; 0.0108378; 0.017429; 1.08534e-07
31.9256; -16.247; 0.125665; 0.0108378; 0.017429; 1.08534e-07
31.9256; -17.7969; 0.125665; 0.0108378; 0.017429; 1.08534e-07
31.9256; -17.9001; 0.125665; 0.0108378; 0.017429; 1.08534e-07
31.9256; -17.9101; 0.125665; 0.0108378; 0.017429; 1.08534e-07
31.9256; -18.0084; 0.125665; 0.0108378; 0.017429; 1.08534e-07
31.9256; -17.82; 0.125665; 0.0108378; 0.017429; 1.08534e-07
31.9256; -17.9186; 0.125665; 0.0108378; 0.017429; 1.08534e-07
31.9256; -17.8096; 0.125665; 0.0108378; 0.017429; 1.08534e-07
31.9256; -17.9702; 0.125665; 0.0108378; 0.017429; 1.08534e-07
31.9256; -17.8451; 0.125665; 0.0108378; 0.017429; 1.08534e-07
31.9256; -17.9571; 0.125665; 0.0108378; 0.017429; 1.08534e-07
31.9256; -17.8508; 0.125665; 0.0108378; 0.017429; 1.08534e-07
31.9256; -18.0096; 0.125665; 0.0108378; 0.017429; 1.08534e-07
31.9256; -17.8781; 0.125665; 0.0108378; 0.017429; 1.08534e-07
31.9256; -17.9238; 0.125665; 0.0108378; 0.017429; 1.08534e-07
31.9256; -17.9093; 0.125665; 0.0108378; 0.017429; 1.08534e-07
31.9256; -18.0135; 0.125665; 0.0108378; 0.017429; 1.08534e-07
31.9256; -17.9074; 0.125665; 0.0108378; 0.017429; 1.08534e-07
31.9256; -17.7841; 0.125665; 0.0108378; 0.017429; 1.08534e-07
31.9256; -17.9791; 0.125665; 0.0108378; 0.017429; 1.08534e-07
31.9256; -17.8933; 0.125665; 0.0108378; 0.017429; 1.08534e-07
31.9256; -17.9787; 0.125665; 0.0108378; 0.017429; 1.08534e-07
31.9256; -17.8507; 0.125665; 0.0108378; 0.017429; 1.08534e-07
31.9256; -17.8728; 0.125665; 0.0108378; 0.017429; 1.08534e-07
31.9256; -17.9218; 0.125665; 0.0108378; 0.017429; 1.08534e-07
31.9256; -17.9021; 0.125665; 0.0108378; 0.017429; 1.08534e-07
31.9256; -17.9004; 0.125665; 0.0108378; 0.017429; 1.08534e-07
31.9256; -17.9559; 0.125665; 0.0108378; 0.017429; 1.08534e-07
31.9256; -17.9502; 0.125665; 0.0108378; 0.017429; 1.08534e-07
31.9256; -17.906; 0.125665; 0.0108378; 0.017429; 1.08534e-07
31.9256; -17.8971; 0.125665; 0.0108378; 0.017429; 1.08534e-07
31.9256; -17.9785; 0.125665; 0.0108378; 0.017429; 1.08534e-07
31.9256; -17.9166; 0.125665; 0.0108378; 0.017429; 1.08534e-07
31.9256; -17.9514; 0.125665; 0.0108378; 0.017429; 1.08534e-07
31.9256; -17.9018; 0.125665; 0.0108378; 0.017429; 1.08534e-07
31.9256; -17.8705; 0.125665; 0.0108378; 0.017429; 1.08534e-07
31.9256; -17.9369; 0.125665; 0.0108378; 0.017429; 1.08534e-07
31.9256; -17.7913; 0.125665; 0.0108378; 0.017429; 1.08534e-07
31.9256; -17.9541; 0.125665; 0.0108378; 0.017429; 1.08534e-07
31.9256; -18.0205; 0.125665; 0.0108378; 0.017429; 1.08534e-07
31.9256; -17.901; 0.125665; 0.0108378; 0.017429; 1.08534e-07
31.9256; -17.9363; 0.125665; 0.0108378; 0.017429; 1.08534e-07
31.9256; -17.9505; 0.125665; 0.0108378; 0.017429; 1.08534e-07
31.9256; -17.8432; 0.125665; 0.0108378; 0.017429; 1.08534e-07
31.9256; -18.0693; 0.125665; 0.0108378; 0.017429; 1.08534e-07
31.9256; -17.7862; 0.125665; 0.0108378; 0.017429; 1.08534e-07
31.9256; -17.9845; 0.125665; 0.0108378; 0.017429; 1.08534e-07
31.9256; -17.7927; 0.125665; 0.0108378; 0.017429; 1.08534e-07
31.9256; -17.9843; 0.125665; 0.0108378; 0.017429; 1.08534e-07
31.9256; -17.8972; 0.125665; 0.0108378; 0.017429; 1.08534e-07
31.9256; -17.8431; 0.125665; 0.0108378; 0.017429; 1.08534e-07
31.9256; -17.8569; 0.125665; 0.0108378; 0.017429; 1.08534e-07
31.9256; -17.9781; 0.125665; 0.0108378; 0.017429; 1.08534e-07
31.9256; -17.9668; 0.125665; 0.0108378; 0.017429; 1.08534e-07
31.9256; -17.9504; 0.125665; 0.0108378; 0.017429; 1.08534e-07
31.9256; -17.863; 0.125665; 0.0108378; 0.017429; 1.08534e-07
31.9256; -17.9128; 0.125665; 0.0108378; 0.017429; 1.08534e-07
31.9256; -17.8425; 0.125665; 0.0108378; 0.017429; 1.08534e-07
31.9256; -17.8932; 0.125665; 0.0108378; 0.017429; 1.08534e-07
31.9256; -18.0893; 0.125665; 0.0108378; 0.017429; 1.08534e-07
31.9256; -17.6149; 0.125665; 0.0108378; 0.017429; 1.08534e-07
31.9256; -17.5834; 0.125665; 0.0108378; 0.017429; 1.08534e-07
31.9256; -17.5521; 0.125665; 0.0108378; 0.017429; 1.08534e-07
31.9256; -17.6276; 0.125665; 0.0108378; 0.017429; 1.08534e-07
31.9256; -17.7335; 0.125665; 0.0108378; 0.017429; 1.08534e-07
31.9256; -17.8913; 0.125665; 0.0108378; 0.017429; 1.08534e-07
31.9256; -17.978; 0.125665; 0.0108378; 0.017429; 1.08534e-07
31.9256; -17.9995; 0.125665; 0.0108378; 0.017429; 1.08534e-07
31.9256; -18.0131; 0.125665; 0.0108378; 0.017429; 1.08534e-07
31.9256; -18.0218; 0.125665; 0.0108378; 0.017429; 1.08534e-07
31.9256; -18.0102; 0.125665; 0.0108378; 0.017429; 1.08534e-07
31.9256; -17.9016; 0.125665; 0.0108378; 0.017429; 1.08534e-07
31.9256; -18.1268; 0.125665; 0.0108378; 0.017429; 1.08534e-07
31.9256; -17.8648; 0.125665; 0.0108378; 0.017429; 1.08534e-07
31.9256; -18.0235; 0.125665; 0.0108378; 0.017429; 1.08534e-07
31.9256; -18.0343; 0.125665; 0.0108378; 0.017429; 1.08534e-07
31.9256; -18.016; 0.125665; 0.0108378; 0.017429; 1.08534e-07
31.9256; -18.016; 0.125665; 0.0108378; 0.017429; 1.08534e-07
31.9256; -18.0253; 0.125665; 0.0108378; 0.017429; 1.08534e-07
31.9256; -17.949; 0.125665; 0.0108378; 0.017429; 1.08534e-07
31.9256; -18.0604; 0.125665; 0.0108378; 0.017429; 1.08534e-07
31.9256; -18.0673; 0.125665; 0.0108378; 0.017429; 1.08534e-07
31.9256; -18.0311; 0.125665; 0.0108378; 0.017429; 1.08534e-07
31.9256; -18.0263; 0.125665; 0.0108378; 0.017429; 1.08534e-07
31.9256; -18.0196; 0.125665; 0.0108378; 0.017429; 1.08534e-07
31.9256; -17.995; 0.125665; 0.0108378; 0.017429; 1.08534e-07
31.9256; -18.0263; 0.125665; 0.0108378; 0.017429; 1.08534e-07
31.9256; -18.0178; 0.125665; 0.0108378; 0.017429; 1.08534e-07
31.9256; -18.0091; 0.125665; 0.0108378; 0.017429; 1.08534e-07
31.9256; -18.0561; 0.125665; 0.0108378; 0.017429; 1.08534e-07
31.9256; -17.8484; 0.125665; 0.0108378; 0.017429; 1.08534e-07
31.9256; -18.4246; 0.125665; 0.0108378; 0.017429; 1.08534e-07
31.9256; inf; 0.125665; 0.0108378; 0.017429; 1.08534e-07
31.9256; -inf; 0.125665; 0.0108378; 0.017429; 1.08534e-07
31.9256; inf; 0.125665; 0.0108378; 0.017429; 1.08534e-07
31.9256; inf; 0.125665; 0.0108378; 0.017429; 1.08534e-07
31.9256; -nan; 0.125665; 0.0108378; 0.017429; 1.08534e-07
31.9256; -nan; 0.125665; 0.0108378; 0.017429; 1.08534e-07
31.9256; -nan; 0.125665; 0.0108378; 0.017429; 1.08534e-07
31.9256; -nan; 0.125665; 0.0108378; 0.017429; 1.08534e-07
31.9256; -nan; 0.125665; 0.0108378; 0.017429; 1.08534e-07
