<?xml version="1.0"?>
<VTKFile type="Collection"
         version="0.1"
         byte_order="LittleEndian"
         compressor="vtkZLibDataCompressor">
 <Collection>
   <DataSet timestep="0" file="NaClReac-00001.vtu"/>
   <DataSet timestep="0.001" file="NaClReac-00002.vtu"/>
   <DataSet timestep="0.05" file="NaClReac-00003.vtu"/>
   <DataSet timestep="0.7334833800005707" file="NaClReac-00004.vtu"/>
   <DataSet timestep="1.134942663935009" file="NaClReac-00005.vtu"/>
   <DataSet timestep="1.50394256225911" file="NaClReac-00006.vtu"/>
   <DataSet timestep="1.891752435728241" file="NaClReac-00007.vtu"/>
   <DataSet timestep="2.23997801256102" file="NaClReac-00008.vtu"/>
   <DataSet timestep="2.496984934310186" file="NaClReac-00009.vtu"/>
   <DataSet timestep="2.823747803612125" file="NaClReac-00010.vtu"/>
   <DataSet timestep="3.15545033624252" file="NaClReac-00011.vtu"/>
   <DataSet timestep="3.418044561377735" file="NaClReac-00012.vtu"/>
   <DataSet timestep="3.750817826338822" file="NaClReac-00013.vtu"/>
   <DataSet timestep="4.108010674945889" file="NaClReac-00014.vtu"/>
   <DataSet timestep="4.484777641084557" file="NaClReac-00015.vtu"/>
   <DataSet timestep="4.82934464105646" file="NaClReac-00016.vtu"/>
   <DataSet timestep="5.145211117971932" file="NaClReac-00017.vtu"/>
   <DataSet timestep="5.442404088598437" file="NaClReac-00018.vtu"/>
   <DataSet timestep="5.821846313856084" file="NaClReac-00019.vtu"/>
   <DataSet timestep="6.144735018624546" file="NaClReac-00020.vtu"/>
   <DataSet timestep="6.53110223353394" file="NaClReac-00021.vtu"/>
   <DataSet timestep="6.887160909707281" file="NaClReac-00022.vtu"/>
   <DataSet timestep="7.228321840476418" file="NaClReac-00023.vtu"/>
   <DataSet timestep="7.570391163660633" file="NaClReac-00024.vtu"/>
   <DataSet timestep="7.907141117077732" file="NaClReac-00025.vtu"/>
   <DataSet timestep="8.30460873324636" file="NaClReac-00026.vtu"/>
   <DataSet timestep="8.620705333024379" file="NaClReac-00027.vtu"/>
   <DataSet timestep="8.901764666753163" file="NaClReac-00028.vtu"/>
   <DataSet timestep="9.201012178194459" file="NaClReac-00029.vtu"/>
   <DataSet timestep="9.547924114485911" file="NaClReac-00030.vtu"/>
   <DataSet timestep="9.856182879944109" file="NaClReac-00031.vtu"/>
   <DataSet timestep="10.14010788376429" file="NaClReac-00032.vtu"/>
   <DataSet timestep="10.29432624211343" file="NaClReac-00033.vtu"/>
   <DataSet timestep="10.34780009244774" file="NaClReac-00034.vtu"/>
   <DataSet timestep="10.40865034877165" file="NaClReac-00035.vtu"/>
   <DataSet timestep="10.47805676434037" file="NaClReac-00036.vtu"/>
   <DataSet timestep="10.58402814216958" file="NaClReac-00037.vtu"/>
   <DataSet timestep="10.73751079908851" file="NaClReac-00038.vtu"/>
   <DataSet timestep="10.79738513031652" file="NaClReac-00039.vtu"/>
   <DataSet timestep="10.86143425257795" file="NaClReac-00040.vtu"/>
   <DataSet timestep="10.92326422915035" file="NaClReac-00041.vtu"/>
   <DataSet timestep="10.98823794549313" file="NaClReac-00042.vtu"/>
   <DataSet timestep="11.05678971680146" file="NaClReac-00043.vtu"/>
   <DataSet timestep="11.13086721577474" file="NaClReac-00044.vtu"/>
   <DataSet timestep="11.21576244140852" file="NaClReac-00045.vtu"/>
   <DataSet timestep="11.45750254960508" file="NaClReac-00046.vtu"/>
   <DataSet timestep="11.67443213602582" file="NaClReac-00047.vtu"/>
   <DataSet timestep="11.84992816241208" file="NaClReac-00048.vtu"/>
   <DataSet timestep="12.01960614353878" file="NaClReac-00049.vtu"/>
   <DataSet timestep="12.1894573100984" file="NaClReac-00050.vtu"/>
   <DataSet timestep="12.38181324445522" file="NaClReac-00051.vtu"/>
   <DataSet timestep="12.62054190188202" file="NaClReac-00052.vtu"/>
   <DataSet timestep="12.89697619961035" file="NaClReac-00053.vtu"/>
   <DataSet timestep="13.15868990259605" file="NaClReac-00054.vtu"/>
   <DataSet timestep="13.39601023203361" file="NaClReac-00055.vtu"/>
   <DataSet timestep="13.6599943583962" file="NaClReac-00056.vtu"/>
   <DataSet timestep="13.92315940313511" file="NaClReac-00057.vtu"/>
   <DataSet timestep="14.18809092174335" file="NaClReac-00058.vtu"/>
   <DataSet timestep="14.45444984719394" file="NaClReac-00059.vtu"/>
   <DataSet timestep="14.72846882205999" file="NaClReac-00060.vtu"/>
   <DataSet timestep="15.00218478565871" file="NaClReac-00061.vtu"/>
   <DataSet timestep="15.29951470723204" file="NaClReac-00062.vtu"/>
   <DataSet timestep="15.55513259883153" file="NaClReac-00063.vtu"/>
   <DataSet timestep="15.84591336947632" file="NaClReac-00064.vtu"/>
   <DataSet timestep="16.1365150576901" file="NaClReac-00065.vtu"/>
   <DataSet timestep="16.42243918703131" file="NaClReac-00066.vtu"/>
   <DataSet timestep="16.69429518592758" file="NaClReac-00067.vtu"/>
   <DataSet timestep="16.99312475377621" file="NaClReac-00068.vtu"/>
   <DataSet timestep="17.29830695155419" file="NaClReac-00069.vtu"/>
   <DataSet timestep="17.55608884148183" file="NaClReac-00070.vtu"/>
   <DataSet timestep="17.86592328616139" file="NaClReac-00071.vtu"/>
   <DataSet timestep="18.14974618364752" file="NaClReac-00072.vtu"/>
   <DataSet timestep="18.43793879862858" file="NaClReac-00073.vtu"/>
   <DataSet timestep="18.70941505876955" file="NaClReac-00074.vtu"/>
   <DataSet timestep="19.00805608680472" file="NaClReac-00075.vtu"/>
   <DataSet timestep="19.27346315605838" file="NaClReac-00076.vtu"/>
   <DataSet timestep="19.57379444712218" file="NaClReac-00077.vtu"/>
   <DataSet timestep="19.84947711936755" file="NaClReac-00078.vtu"/>
   <DataSet timestep="20.11226737817701" file="NaClReac-00079.vtu"/>
   <DataSet timestep="20.35982840159065" file="NaClReac-00080.vtu"/>
   <DataSet timestep="20.62544763915954" file="NaClReac-00081.vtu"/>
   <DataSet timestep="20.90080925574177" file="NaClReac-00082.vtu"/>
   <DataSet timestep="21.11421319608163" file="NaClReac-00083.vtu"/>
   <DataSet timestep="21.42152516248536" file="NaClReac-00084.vtu"/>
   <DataSet timestep="21.71502703243494" file="NaClReac-00085.vtu"/>
   <DataSet timestep="22.01542034361686" file="NaClReac-00086.vtu"/>
   <DataSet timestep="22.27702928846632" file="NaClReac-00087.vtu"/>
   <DataSet timestep="22.56427018750152" file="NaClReac-00088.vtu"/>
   <DataSet timestep="22.8463600081439" file="NaClReac-00089.vtu"/>
   <DataSet timestep="23.12276604771005" file="NaClReac-00090.vtu"/>
   <DataSet timestep="23.40174455399639" file="NaClReac-00091.vtu"/>
   <DataSet timestep="23.67250782302662" file="NaClReac-00092.vtu"/>
   <DataSet timestep="23.93209747419565" file="NaClReac-00093.vtu"/>
   <DataSet timestep="24.19719394805764" file="NaClReac-00094.vtu"/>
   <DataSet timestep="24.48527973207299" file="NaClReac-00095.vtu"/>
   <DataSet timestep="24.74877484714525" file="NaClReac-00096.vtu"/>
   <DataSet timestep="25.00220572535818" file="NaClReac-00097.vtu"/>
   <DataSet timestep="25.30269529311434" file="NaClReac-00098.vtu"/>
   <DataSet timestep="25.55215892874664" file="NaClReac-00099.vtu"/>
   <DataSet timestep="25.84007961065549" file="NaClReac-00100.vtu"/>
   <DataSet timestep="26.08996893210753" file="NaClReac-00101.vtu"/>
   <DataSet timestep="26.31479717224156" file="NaClReac-00102.vtu"/>
   <DataSet timestep="26.5532957420012" file="NaClReac-00103.vtu"/>
   <DataSet timestep="26.77921163929364" file="NaClReac-00104.vtu"/>
   <DataSet timestep="26.99193048710845" file="NaClReac-00105.vtu"/>
   <DataSet timestep="27.21162218332313" file="NaClReac-00106.vtu"/>
   <DataSet timestep="27.44059881224782" file="NaClReac-00107.vtu"/>
   <DataSet timestep="27.66988677785443" file="NaClReac-00108.vtu"/>
   <DataSet timestep="27.89268668632459" file="NaClReac-00109.vtu"/>
   <DataSet timestep="28.14231714453873" file="NaClReac-00110.vtu"/>
   <DataSet timestep="28.36388470315324" file="NaClReac-00111.vtu"/>
   <DataSet timestep="28.58409828887707" file="NaClReac-00112.vtu"/>
   <DataSet timestep="28.78957590450665" file="NaClReac-00113.vtu"/>
   <DataSet timestep="28.97884574265257" file="NaClReac-00114.vtu"/>
   <DataSet timestep="29.21889139516535" file="NaClReac-00115.vtu"/>
   <DataSet timestep="29.43400319705969" file="NaClReac-00116.vtu"/>
   <DataSet timestep="29.64184893045283" file="NaClReac-00117.vtu"/>
   <DataSet timestep="29.88603039471737" file="NaClReac-00118.vtu"/>
   <DataSet timestep="30.09650357694673" file="NaClReac-00119.vtu"/>
   <DataSet timestep="30.34482106324618" file="NaClReac-00120.vtu"/>
   <DataSet timestep="30.62644572160319" file="NaClReac-00121.vtu"/>
   <DataSet timestep="30.86211134056246" file="NaClReac-00122.vtu"/>
   <DataSet timestep="31.08521833254764" file="NaClReac-00123.vtu"/>
   <DataSet timestep="31.24125455957471" file="NaClReac-00124.vtu"/>
   <DataSet timestep="31.36047873060862" file="NaClReac-00125.vtu"/>
   <DataSet timestep="31.50291635772794" file="NaClReac-00126.vtu"/>
   <DataSet timestep="31.63677857210347" file="NaClReac-00127.vtu"/>
   <DataSet timestep="31.77698280454374" file="NaClReac-00128.vtu"/>
   <DataSet timestep="31.916564307719" file="NaClReac-00129.vtu"/>
   <DataSet timestep="31.92558556467265" file="NaClReac-00130.vtu"/>
   <DataSet timestep="31.92558583272046" file="NaClReac-00131.vtu"/>
   <DataSet timestep="31.92558606874924" file="NaClReac-00132.vtu"/>
   <DataSet timestep="31.92558631403882" file="NaClReac-00133.vtu"/>
   <DataSet timestep="31.92558633662778" file="NaClReac-00134.vtu"/>
   <DataSet timestep="31.92558633663679" file="NaClReac-00135.vtu"/>
   <DataSet timestep="31.92558633664503" file="NaClReac-00136.vtu"/>
   <DataSet timestep="31.92558633665256" file="NaClReac-00137.vtu"/>
   <DataSet timestep="31.92558633665984" file="NaClReac-00138.vtu"/>
   <DataSet timestep="31.92558633666663" file="NaClReac-00139.vtu"/>
   <DataSet timestep="31.9255863369431" file="NaClReac-00140.vtu"/>
   <DataSet timestep="31.92558633697466" file="NaClReac-00141.vtu"/>
   <DataSet timestep="31.92558633699731" file="NaClReac-00142.vtu"/>
   <DataSet timestep="31.92558633699761" file="NaClReac-00143.vtu"/>
 </Collection>
</VTKFile>
