<?xml version="1.0"?>
<VTKFile type="UnstructuredGrid" version="0.1" byte_order="LittleEndian">
  <UnstructuredGrid>
    <Piece NumberOfCells="540" NumberOfPoints="589">
      <PointData Scalars="temperature" Vectors="v">
        <DataArray type="Float32" Name="temperature" NumberOfComponents="1" format="ascii">
          304.269 304.441 297.006 302.742 304.513 303.331 304.573 303.656 304.623 303.869 304.666 304.021
          304.705 304.139 304.74 304.236 304.771 304.319 304.801 304.391 304.828 304.456 304.853 304.515
          304.877 304.569 304.899 304.618 304.92 304.663 304.939 304.704 304.958 304.742 304.975 304.777
          304.991 304.81 305.007 304.844 305.022 304.88 305.037 304.922 305.052 304.973 305.065 305.034
          305.077 305.102 305.087 305.169 305.093 305.22 305.094 305.234 305.09 305.194 305.081 305.132
          305.073 305.15 291.372 299.304 301.759 302.486 302.93 303.229 303.452 303.627 303.773 303.899
          304.01 304.109 304.198 304.28 304.353 304.42 304.48 304.536 304.589 304.642 304.7 304.769
          304.855 304.964 305.091 305.225 305.336 305.387 305.335 305.213 305.15 287.657 295.145 299.351
          300.954 301.743 302.247 302.609 302.886 303.112 303.303 303.469 303.617 303.75 303.87 303.978
          304.075 304.163 304.244 304.319 304.393 304.473 304.568 304.688 304.841 305.029 305.237 305.426
          305.541 305.509 305.339 305.15 285.6 291.233 296.186 298.856 300.211 301.013 301.565 301.977
          302.306 302.578 302.813 303.019 303.204 303.371 303.521 303.656 303.777 303.888 303.989 304.087
          304.19 304.309 304.46 304.655 304.901 305.186 305.468 305.674 305.701 305.502 305.15 284.767
          288.22 292.756 296.145 298.207 299.442 300.26 300.854 301.316 301.693 302.013 302.292 302.54
          302.763 302.963 303.143 303.306 303.452 303.585 303.711 303.839 303.982 304.16 304.393 304.692
          305.053 305.436 305.756 305.879 305.685 305.15 284.7 286.36 289.708 293.103 295.697 297.445
          298.621 299.459 300.097 300.608 301.036 301.404 301.729 302.021 302.283 302.518 302.729 302.919
          303.092 303.251 303.407 303.576 303.779 304.043 304.387 304.818 305.303 305.754 306.007 305.856
          305.15 284.984 285.553 287.525 290.249 292.897 295.022 296.589 297.732 298.597 299.28 299.843
          300.323 300.743 301.117 301.453 301.754 302.026 302.27 302.49 302.691 302.882 303.079 303.307
          303.595 303.976 304.467 305.048 305.636 306.044 305.984 305.15 285.344 285.477 286.374 288.113
          290.278 292.404 294.216 295.654 296.777 297.669 298.399 299.016 299.551 300.024 300.448 300.83
          301.173 301.482 301.761 302.013 302.248 302.48 302.735 303.047 303.455 303.993 304.657 305.377
          305.955 306.034 305.15 285.637 285.762 286.09 286.954 288.35 290.049 291.779 293.345 294.674
          295.775 296.69 297.464 298.133 298.723 299.25 299.725 300.153 300.54 300.889 301.205 301.494
          301.771 302.06 302.397 302.829 303.401 304.132 304.969 305.72 305.983 305.15 285.858 286.137
          286.334 286.698 287.401 288.459 289.765 291.159 292.501 293.713 294.776 295.7 296.507 297.222
          297.862 298.441 298.964 299.44 299.871 300.263 300.62 300.954 301.287 301.656 302.111 302.709
          303.489 304.423 305.337 305.816 305.15 286.065 286.498 286.794 287.036 287.361 287.881 288.641
          289.607 290.695 291.809 292.882 293.875 294.78 295.599 296.343 297.023 297.644 298.213 298.733
          299.209 299.645 300.049 300.439 300.848 301.329 301.947 302.759 303.764 304.823 305.538 305.15
          286.355 286.89 287.328 287.66 287.927 288.206 288.576 289.093 289.769 290.571 291.448 292.346
          293.227 294.07 294.865 295.61 296.307 296.955 297.558 298.116 298.633 299.112 299.568 300.026
          300.535 301.165 301.989 303.037 304.213 305.165 305.15 286.815 287.435 287.981 288.445 288.819
          289.118 289.377 289.653 289.996 290.44 290.989 291.626 292.321 293.046 293.777 294.5 295.204
          295.882 296.529 297.143 297.722 298.267 298.782 299.287 299.819 300.446 301.253 302.304 303.555
          304.729 305.15 287.569 288.296 288.932 289.495 289.989 290.406 290.746 291.02 291.26 291.504
          291.789 292.138 292.557 293.043 293.58 294.155 294.754 295.366 295.977 296.58 297.167 297.733
          298.277 298.804 299.338 299.932 300.674 301.663 302.924 304.273 305.15 288.823 289.706 290.444
          291.083 291.65 292.156 292.598 292.971 293.273 293.516 293.723 293.921 294.138 294.392 294.693
          295.043 295.441 295.879 296.349 296.84 297.344 297.85 298.352 298.845 299.334 299.849 300.46
          301.285 302.435 303.859 305.15 291.088 292.15 292.963 293.645 294.232 294.751 295.214 295.627
          295.985 296.284 296.526 296.718 296.876 297.021 297.169 297.336 297.531 297.762 298.029 298.33
          298.66 299.013 299.381 299.755 300.131 300.512 300.931 301.477 302.31 303.594 305.15 295.306
          296.8 297.425 297.959 298.416 298.811 299.16 299.473 299.752 299.999 300.211 300.387 300.527
          300.638 300.729 300.808 300.886 300.971 301.07 301.186 301.324 301.48 301.654 301.842 302.038
          302.238 302.443 302.677 303.028 303.71 305.15 296.139 305.15 305.15 305.15 305.15 305.15
          305.15 305.15 305.15 305.15 305.15 305.15 305.15 305.15 305.15 305.15 305.15 305.15
          305.15 305.15 305.15 305.15 305.15 305.15 305.15 305.15 305.15 305.15 305.15 305.15
          305.15
        </DataArray>
        <DataArray type="Float32" Name="pg" NumberOfComponents="1" format="ascii">
          264813 264813 264813 264813 264813 264813 264813 264813 264813 264813 264813 264813
          264813 264813 264813 264813 264813 264813 264813 264813 264813 264813 264813 264813
          264813 264813 264813 264813 264813 264813 264813 264813 264813 264813 264813 264813
          264813 264813 264813 264813 264813 264813 264813 264813 264813 264813 264813 264813
          264813 264813 264813 264813 264813 264813 264813 264813 264813 264813 264813 264813
          264813 264813 264813 264813 264813 264813 264813 264813 264813 264813 264813 264813
          264813 264813 264813 264813 264813 264813 264813 264813 264813 264813 264813 264813
          264813 264813 264813 264813 264813 264813 264813 264813 264813 264813 264813 264813
          264813 264813 264813 264813 264813 264813 264813 264813 264813 264813 264813 264813
          264813 264813 264813 264813 264813 264813 264813 264813 264813 264813 264813 264813
          264813 264813 264813 264813 264813 264813 264813 264813 264813 264813 264813 264813
          264813 264813 264813 264813 264813 264813 264813 264813 264813 264813 264813 264813
          264813 264813 264813 264813 264813 264813 264813 264813 264813 264813 264813 264813
          264813 264813 264813 264813 264813 264813 264813 264813 264813 264813 264813 264813
          264813 264813 264813 264813 264813 264813 264813 264813 264813 264813 264813 264813
          264813 264813 264813 264813 264813 264813 264813 264813 264813 264813 264813 264813
          264813 264813 264813 264813 264813 264813 264813 264813 264813 264813 264813 264813
          264813 264813 264813 264813 264813 264813 264813 264813 264813 264813 264813 264813
          264813 264813 264813 264813 264813 264813 264813 264813 264813 264813 264813 264813
          264813 264813 264813 264813 264813 264813 264813 264813 264813 264813 264813 264813
          264813 264813 264813 264813 264813 264813 264813 264813 264813 264813 264813 264813
          264813 264813 264813 264813 264813 264813 264813 264813 264813 264813 264813 264813
          264813 264813 264813 264813 264813 264813 264813 264813 264813 264813 264813 264813
          264813 264813 264813 264813 264813 264813 264813 264813 264813 264813 264813 264813
          264813 264813 264813 264813 264813 264813 264813 264813 264813 264813 264813 264813
          264813 264813 264813 264813 264813 264813 264813 264813 264813 264813 264813 264813
          264813 264813 264813 264813 264813 264813 264813 264813 264813 264813 264813 264813
          264813 264813 264813 264813 264813 264813 264813 264813 264813 264813 264813 264813
          264813 264813 264813 264813 264813 264813 264813 264813 264813 264813 264813 264813
          264813 264813 264813 264813 264813 264813 264813 264813 264813 264813 264813 264813
          264813 264813 264813 264813 264813 264813 264813 264813 264813 264813 264813 264813
          264813 264813 264813 264813 264813 264813 264813 264813 264813 264813 264813 264813
          264813 264813 264813 264813 264813 264813 264813 264813 264813 264813 264813 264813
          264813 264813 264813 264813 264813 264813 264813 264813 264813 264813 264813 264813
          264813 264813 264813 264813 264813 264813 264813 264813 264813 264813 264813 264813
          264813 264813 264813 264813 264813 264813 264813 264813 264813 264813 264813 264813
          264813 264813 264813 264813 264813 264813 264813 264813 264813 264813 264813 264813
          264813 264813 264813 264813 264813 264813 264813 264813 264813 264813 264813 264813
          264813 264813 264813 264813 264813 264813 264813 264813 264813 264813 264813 264813
          264813 264813 264813 264813 264813 264813 264813 264813 264813 264813 264813 264813
          264813 264813 264813 264813 264813 264813 264813 264813 264813 264813 264813 264813
          264813 264813 264813 264813 264813 264813 264813 264813 264813 264813 264813 264813
          264813 264813 264813 264813 264813 264813 264813 264813 264813 264813 264813 264813
          264813 264813 264813 264813 264813 264813 264813 264813 264813 264813 264813 264813
          264813 264813 264813 264813 264813 264813 264813 264813 264813 264813 264813 264813
          264813 264813 264813 264813 264813 264813 264813 264813 264813 264813 264813 264813
          264813 264813 264813 264813 264813 264813 264813 264813 264813 264813 264813 264813
          264813 264813 264813 264813 264813 264813 264813 264813 264813 264813 264813 264813
          264813 264813 264813 264813 264813 264813 264813 264813 264813 264813 264813 264813
          264813
        </DataArray>
        <DataArray type="Float32" Name="delP" NumberOfComponents="1" format="ascii">
          164813 164813 164813 164813 164813 164813 164813 164813 164813 164813 164813 164813
          164813 164813 164813 164813 164813 164813 164813 164813 164813 164813 164813 164813
          164813 164813 164813 164813 164813 164813 164813 164813 164813 164813 164813 164813
          164813 164813 164813 164813 164813 164813 164813 164813 164813 164813 164813 164813
          164813 164813 164813 164813 164813 164813 164813 164813 164813 164813 164813 164813
          164813 164813 164813 164813 164813 164813 164813 164813 164813 164813 164813 164813
          164813 164813 164813 164813 164813 164813 164813 164813 164813 164813 164813 164813
          164813 164813 164813 164813 164813 164813 164813 164813 164813 164813 164813 164813
          164813 164813 164813 164813 164813 164813 164813 164813 164813 164813 164813 164813
          164813 164813 164813 164813 164813 164813 164813 164813 164813 164813 164813 164813
          164813 164813 164813 164813 164813 164813 164813 164813 164813 164813 164813 164813
          164813 164813 164813 164813 164813 164813 164813 164813 164813 164813 164813 164813
          164813 164813 164813 164813 164813 164813 164813 164813 164813 164813 164813 164813
          164813 164813 164813 164813 164813 164813 164813 164813 164813 164813 164813 164813
          164813 164813 164813 164813 164813 164813 164813 164813 164813 164813 164813 164813
          164813 164813 164813 164813 164813 164813 164813 164813 164813 164813 164813 164813
          164813 164813 164813 164813 164813 164813 164813 164813 164813 164813 164813 164813
          164813 164813 164813 164813 164813 164813 164813 164813 164813 164813 164813 164813
          164813 164813 164813 164813 164813 164813 164813 164813 164813 164813 164813 164813
          164813 164813 164813 164813 164813 164813 164813 164813 164813 164813 164813 164813
          164813 164813 164813 164813 164813 164813 164813 164813 164813 164813 164813 164813
          164813 164813 164813 164813 164813 164813 164813 164813 164813 164813 164813 164813
          164813 164813 164813 164813 164813 164813 164813 164813 164813 164813 164813 164813
          164813 164813 164813 164813 164813 164813 164813 164813 164813 164813 164813 164813
          164813 164813 164813 164813 164813 164813 164813 164813 164813 164813 164813 164813
          164813 164813 164813 164813 164813 164813 164813 164813 164813 164813 164813 164813
          164813 164813 164813 164813 164813 164813 164813 164813 164813 164813 164813 164813
          164813 164813 164813 164813 164813 164813 164813 164813 164813 164813 164813 164813
          164813 164813 164813 164813 164813 164813 164813 164813 164813 164813 164813 164813
          164813 164813 164813 164813 164813 164813 164813 164813 164813 164813 164813 164813
          164813 164813 164813 164813 164813 164813 164813 164813 164813 164813 164813 164813
          164813 164813 164813 164813 164813 164813 164813 164813 164813 164813 164813 164813
          164813 164813 164813 164813 164813 164813 164813 164813 164813 164813 164813 164813
          164813 164813 164813 164813 164813 164813 164813 164813 164813 164813 164813 164813
          164813 164813 164813 164813 164813 164813 164813 164813 164813 164813 164813 164813
          164813 164813 164813 164813 164813 164813 164813 164813 164813 164813 164813 164813
          164813 164813 164813 164813 164813 164813 164813 164813 164813 164813 164813 164813
          164813 164813 164813 164813 164813 164813 164813 164813 164813 164813 164813 164813
          164813 164813 164813 164813 164813 164813 164813 164813 164813 164813 164813 164813
          164813 164813 164813 164813 164813 164813 164813 164813 164813 164813 164813 164813
          164813 164813 164813 164813 164813 164813 164813 164813 164813 164813 164813 164813
          164813 164813 164813 164813 164813 164813 164813 164813 164813 164813 164813 164813
          164813 164813 164813 164813 164813 164813 164813 164813 164813 164813 164813 164813
          164813 164813 164813 164813 164813 164813 164813 164813 164813 164813 164813 164813
          164813 164813 164813 164813 164813 164813 164813 164813 164813 164813 164813 164813
          164813 164813 164813 164813 164813 164813 164813 164813 164813 164813 164813 164813
          164813 164813 164813 164813 164813 164813 164813 164813 164813 164813 164813 164813
          164813 164813 164813 164813 164813 164813 164813 164813 164813 164813 164813 164813
          164813 164813 164813 164813 164813 164813 164813 164813 164813 164813 164813 164813
          164813
        </DataArray>
        <DataArray type="Float32" Name="xH2Og" NumberOfComponents="1" format="ascii">
          0.0146076 0.0150685 0.0110901 0.0143079 0.015154 0.0146165 0.0152066 0.0147624 0.0152606 0.0148705 0.0153093 0.014957
          0.0153416 0.0150201 0.0153792 0.015077 0.0154093 0.0151257 0.0154369 0.0151677 0.0154626 0.0152055 0.0154865 0.0152397
          0.0155083 0.0152704 0.0155295 0.0152988 0.0155466 0.0153227 0.0155662 0.0153462 0.0155821 0.0153664 0.0155965 0.0153834
          0.0156089 0.015397 0.0156222 0.0154091 0.0156302 0.0154147 0.0156419 0.0154178 0.0156461 0.0154099 0.0156461 0.0153872
          0.0156436 0.0153464 0.0156271 0.0152707 0.0156049 0.015149 0.0155521 0.0149394 0.0155154 0.0146178 0.0152915 0.0140551
          0.0147314 0.0062 0.0080601 0.0126607 0.0139126 0.0142138 0.0144008 0.014538 0.0146402 0.0147237 0.0147945 0.0148547
          0.0149074 0.0149544 0.014996 0.0150334 0.0150653 0.0150944 0.0151197 0.0151406 0.0151566 0.0151686 0.0151729 0.0151696
          0.0151515 0.0151102 0.0150367 0.0149097 0.0147027 0.0143594 0.0138044 0.0128597 0.0062 0.00569654 0.0104698 0.0127871
          0.0135116 0.0138259 0.0140348 0.014188 0.0143074 0.014406 0.014489 0.0145604 0.0146231 0.0146783 0.014727 0.0147688
          0.0148055 0.0148372 0.0148633 0.014883 0.0148965 0.0149009 0.0148938 0.0148681 0.0148128 0.0147134 0.0145448 0.014269
          0.0138181 0.0130826 0.0118476 0.0062 0.004019 0.00813266 0.0111675 0.0125298 0.0131017 0.0134218 0.0136446 0.0138128
          0.0139477 0.0140596 0.0141547 0.0142371 0.0143091 0.0143721 0.0144263 0.014473 0.0145129 0.0145458 0.0145709 0.0145879
          0.0145941 0.0145859 0.0145561 0.0144917 0.0143745 0.0141754 0.0138487 0.0133183 0.012454 0.0110161 0.0062 0.0029633
          0.00600442 0.00918237 0.0111618 0.0121448 0.0126577 0.0129837 0.0132195 0.0134031 0.0135525 0.0136779 0.0137853 0.0138784
          0.0139595 0.0140293 0.0140889 0.0141396 0.0141815 0.0142141 0.0142367 0.0142469 0.0142408 0.0142105 0.0141426 0.014016
          0.0137989 0.0134402 0.0128584 0.0119132 0.0103512 0.0062 0.00241151 0.00433199 0.00710905 0.00942479 0.0108667 0.0116766
          0.0121654 0.0124996 0.0127505 0.0129499 0.0131146 0.013254 0.013374 0.0134779 0.0135674 0.0136438 0.0137084 0.0137622
          0.0138048 0.0138357 0.0138527 0.0138519 0.0138254 0.0137597 0.0136326 0.0134101 0.0130382 0.0124323 0.011448 0.00982832
          0.0062 0.00221725 0.00321894 0.00525913 0.00749579 0.00925484 0.0104088 0.0111333 0.0116138 0.0119606 0.0122285 0.0124453
          0.0126264 0.0127807 0.0129137 0.0130284 0.0131263 0.0132091 0.0132784 0.0133344 0.0133767 0.0134037 0.0134117 0.0133935
          0.013336 0.0132169 0.0130016 0.0126347 0.0120298 0.0110424 0.00941982 0.0062 0.00223953 0.00263168 0.00387218 0.00566598
          0.00744293 0.00884794 0.00983631 0.0105139 0.0109961 0.0113589 0.0116461 0.011882 0.0120809 0.0122511 0.0123977 0.0125231
          0.0126295 0.012719 0.0127925 0.0128502 0.0128909 0.0129119 0.0129066 0.0128632 0.0127603 0.012564 0.0122186 0.0116373
          0.0106771 0.00909467 0.0062 0.00236202 0.0024429 0.00303661 0.00421496 0.00569399 0.00711973 0.00828898 0.00916974 0.00981935
          0.010308 0.0106892 0.0109975 0.0112542 0.0114721 0.0116591 0.0118195 0.0119562 0.0120718 0.0121681 0.0122459 0.012305
          0.0123434 0.012356 0.0123326 0.0122537 0.0120867 0.0117776 0.0112398 0.0103332 0.00882599 0.0062 0.00251102 0.00249329
          0.00269156 0.00330204 0.00429906 0.00548324 0.00663764 0.007631 0.00842965 0.00905666 0.009552 0.00995141 0.0102812 0.0105592
          0.0107968 0.011001 0.0111757 0.0113245 0.01145 0.0115538 0.0116365 0.0116976 0.0117334 0.0117357 0.0116878 0.0115594
          0.0112988 0.0108215 0.00999106 0.00858768 0.0062 0.00265207 0.00264855 0.00268202 0.0029124 0.00343671 0.00422264 0.00514776
          0.0060781 0.00692277 0.00764467 0.00824477 0.00874092 0.00915432 0.00950317 0.00980123 0.0100579 0.0102786 0.0104681 0.0106297
          0.0107659 0.0108784 0.0109677 0.0110321 0.0110658 0.0110551 0.0109731 0.0107714 0.010369 0.00963462 0.00836063 0.0062
          0.00278676 0.00283162 0.00284515 0.00290439 0.00310725 0.00350823 0.00409139 0.00478945 0.00552193 0.00622494 0.00686227 0.00742158
          0.00790527 0.00832227 0.00868285 0.00899604 0.00926807 0.00950385 0.00970737 0.0098818 0.0100295 0.0101523 0.0102502 0.01032
          0.0103515 0.0103217 0.0101869 0.00987092 0.00924947 0.0081277 0.0062 0.00293478 0.00302446 0.00307466 0.00310539 0.00316737
          0.00331922 0.00359739 0.00400183 0.00450186 0.00505296 0.00561283 0.00615051 0.00664817 0.00709862 0.00750149 0.00785995 0.00817756
          0.00845753 0.00870311 0.00891727 0.0091026 0.00926142 0.00939518 0.00950312 0.00957881 0.00960435 0.00954161 0.009321 0.00882708
          0.0078789 0.0062 0.00313143 0.00325234 0.00334239 0.00340201 0.00344494 0.00350042 0.00360314 0.00377936 0.00403812 0.00437089
          0.00475737 0.00517316 0.00559587 0.00600842 0.00639972 0.00676402 0.00709893 0.0074032 0.00767699 0.00792133 0.00813767 0.0083278
          0.00849351 0.00863563 0.00875144 0.00882911 0.0088383 0.00871775 0.00836231 0.00760665 0.0062 0.00342476 0.00356807 0.0036834
          0.00377364 0.00384022 0.00389046 0.00393932 0.00400625 0.00410925 0.00425978 0.00446042 0.00470573 0.00498492 0.00528509 0.00559386
          0.00590109 0.00619967 0.00648397 0.00675009 0.00699573 0.00721981 0.00742223 0.00760364 0.00776499 0.00790603 0.00802132 0.0080914
          0.00806816 0.0078578 0.00731017 0.0062 0.00390358 0.00406113 0.00418034 0.00427998 0.00436136 0.00442553 0.00447548 0.00451769
          0.00456171 0.00461816 0.00469626 0.0048018 0.00493633 0.00509752 0.00528022 0.00547793 0.00568423 0.00589329 0.00609978 0.00629941
          0.00648898 0.00666631 0.00683019 0.00698031 0.00711683 0.00723872 0.00733848 0.00738932 0.00732127 0.00699266 0.0062 0.00468902
          0.00490046 0.00497575 0.00504443 0.0051052 0.0051575 0.00520098 0.00523605 0.00526446 0.00528956 0.00531585 0.00534813 0.00539047
          0.00544554 0.00551419 0.00559565 0.0056879 0.00578834 0.00589413 0.00600233 0.00611028 0.00621571 0.00631683 0.00641243 0.00650196
          0.00658542 0.00666229 0.00672694 0.00675379 0.00665771 0.0062 0.00485694 0.0062 0.0062 0.0062 0.0062 0.0062
          0.0062 0.0062 0.0062 0.0062 0.0062 0.0062 0.0062 0.0062 0.0062 0.0062 0.0062 0.0062
          0.0062 0.0062 0.0062 0.0062 0.0062 0.0062 0.0062 0.0062 0.0062 0.0062 0.0062 0.0062
          0.0062
        </DataArray>
        <DataArray type="Float32" Name="xAirg" NumberOfComponents="1" format="ascii">
          0.985392 0.984932 0.98891 0.985692 0.984846 0.985384 0.984793 0.985238 0.984739 0.98513 0.984691 0.985043
          0.984658 0.98498 0.984621 0.984923 0.984591 0.984874 0.984563 0.984832 0.984537 0.984794 0.984514 0.98476
          0.984492 0.98473 0.98447 0.984701 0.984453 0.984677 0.984434 0.984654 0.984418 0.984634 0.984403 0.984617
          0.984391 0.984603 0.984378 0.984591 0.98437 0.984585 0.984358 0.984582 0.984354 0.98459 0.984354 0.984613
          0.984356 0.984654 0.984373 0.984729 0.984395 0.984851 0.984448 0.985061 0.984485 0.985382 0.984709 0.985945
          0.985269 0.9938 0.99194 0.987339 0.986087 0.985786 0.985599 0.985462 0.98536 0.985276 0.985206 0.985145
          0.985093 0.985046 0.985004 0.984967 0.984935 0.984906 0.98488 0.984859 0.984843 0.984831 0.984827 0.98483
          0.984848 0.98489 0.984963 0.98509 0.985297 0.985641 0.986196 0.98714 0.9938 0.994303 0.98953 0.987213
          0.986488 0.986174 0.985965 0.985812 0.985693 0.985594 0.985511 0.98544 0.985377 0.985322 0.985273 0.985231
          0.985195 0.985163 0.985137 0.985117 0.985103 0.985099 0.985106 0.985132 0.985187 0.985287 0.985455 0.985731
          0.986182 0.986917 0.988152 0.9938 0.995981 0.991867 0.988832 0.98747 0.986898 0.986578 0.986355 0.986187
          0.986052 0.98594 0.985845 0.985763 0.985691 0.985628 0.985574 0.985527 0.985487 0.985454 0.985429 0.985412
          0.985406 0.985414 0.985444 0.985508 0.985626 0.985825 0.986151 0.986682 0.987546 0.988984 0.9938 0.997037
          0.993996 0.990818 0.988838 0.987855 0.987342 0.987016 0.986781 0.986597 0.986447 0.986322 0.986215 0.986122
          0.986041 0.985971 0.985911 0.98586 0.985819 0.985786 0.985763 0.985753 0.985759 0.985789 0.985857 0.985984
          0.986201 0.98656 0.987142 0.988087 0.989649 0.9938 0.997589 0.995668 0.992891 0.990575 0.989133 0.988323
          0.987835 0.9875 0.98725 0.98705 0.986885 0.986746 0.986626 0.986522 0.986433 0.986356 0.986292 0.986238
          0.986195 0.986164 0.986147 0.986148 0.986175 0.98624 0.986367 0.98659 0.986962 0.987568 0.988552 0.990172
          0.9938 0.997783 0.996781 0.994741 0.992504 0.990745 0.989591 0.988867 0.988386 0.988039 0.987772 0.987555
          0.987374 0.987219 0.987086 0.986972 0.986874 0.986791 0.986722 0.986666 0.986623 0.986596 0.986588 0.986607
          0.986664 0.986783 0.986998 0.987365 0.98797 0.988958 0.99058 0.9938 0.99776 0.997368 0.996128 0.994334
          0.992557 0.991152 0.990164 0.989486 0.989004 0.988641 0.988354 0.988118 0.987919 0.987749 0.987602 0.987477
          0.98737 0.987281 0.987207 0.98715 0.987109 0.987088 0.987093 0.987137 0.98724 0.987436 0.987781 0.988363
          0.989323 0.990905 0.9938 0.997638 0.997557 0.996963 0.995785 0.994306 0.99288 0.991711 0.99083 0.990181
          0.989692 0.989311 0.989002 0.988746 0.988528 0.988341 0.988181 0.988044 0.987928 0.987832 0.987754 0.987695
          0.987657 0.987644 0.987667 0.987746 0.987913 0.988222 0.98876 0.989667 0.991174 0.9938 0.997489 0.997507
          0.997308 0.996698 0.995701 0.994517 0.993362 0.992369 0.99157 0.990943 0.990448 0.990049 0.989719 0.989441
          0.989203 0.988999 0.988824 0.988675 0.98855 0.988446 0.988363 0.988302 0.988267 0.988264 0.988312 0.988441
          0.988701 0.989178 0.990009 0.991412 0.9938 0.997348 0.997351 0.997318 0.997088 0.996563 0.995777 0.994852
          0.993922 0.993077 0.992355 0.991755 0.991259 0.990846 0.990497 0.990199 0.989942 0.989721 0.989532 0.98937
          0.989234 0.989122 0.989032 0.988968 0.988934 0.988945 0.989027 0.989229 0.989631 0.990365 0.991639 0.9938
          0.997213 0.997168 0.997155 0.997096 0.996893 0.996492 0.995909 0.995211 0.994478 0.993775 0.993138 0.992578
          0.992095 0.991678 0.991317 0.991004 0.990732 0.990496 0.990293 0.990118 0.98997 0.989848 0.98975 0.98968
          0.989649 0.989678 0.989813 0.990129 0.990751 0.991872 0.9938 0.997065 0.996976 0.996925 0.996895 0.996833
          0.996681 0.996403 0.995998 0.995498 0.994947 0.994387 0.99385 0.993352 0.992901 0.992499 0.99214 0.991822
          0.991542 0.991297 0.991083 0.990897 0.990739 0.990605 0.990497 0.990421 0.990396 0.990458 0.990679 0.991173
          0.992121 0.9938 0.996869 0.996748 0.996658 0.996598 0.996555 0.9965 0.996397 0.996221 0.995962 0.995629
          0.995243 0.994827 0.994404 0.993992 0.9936 0.993236 0.992901 0.992597 0.992323 0.992079 0.991862 0.991672
          0.991507 0.991364 0.991249 0.991171 0.991162 0.991282 0.991638 0.992393 0.9938 0.996575 0.996432 0.996317
          0.996226 0.99616 0.99611 0.996061 0.995994 0.995891 0.99574 0.99554 0.995294 0.995015 0.994715 0.994406
          0.994099 0.9938 0.993516 0.99325 0.993004 0.99278 0.992578 0.992396 0.992235 0.992094 0.991979 0.991909
          0.991932 0.992142 0.99269 0.9938 0.996096 0.995939 0.99582 0.99572 0.995639 0.995574 0.995525 0.995482
          0.995438 0.995382 0.995304 0.995198 0.995064 0.994902 0.99472 0.994522 0.994316 0.994107 0.9939 0.993701
          0.993511 0.993334 0.99317 0.99302 0.992883 0.992761 0.992662 0.992611 0.992679 0.993007 0.9938 0.995311
          0.9951 0.995024 0.994956 0.994895 0.994843 0.994799 0.994764 0.994736 0.99471 0.994684 0.994652 0.99461
          0.994554 0.994486 0.994404 0.994312 0.994212 0.994106 0.993998 0.99389 0.993784 0.993683 0.993588 0.993498
          0.993415 0.993338 0.993273 0.993246 0.993342 0.9938 0.995143 0.9938 0.9938 0.9938 0.9938 0.9938
          0.9938 0.9938 0.9938 0.9938 0.9938 0.9938 0.9938 0.9938 0.9938 0.9938 0.9938 0.9938
          0.9938 0.9938 0.9938 0.9938 0.9938 0.9938 0.9938 0.9938 0.9938 0.9938 0.9938 0.9938
          0.9938
        </DataArray>
        <DataArray type="Float32" Name="h" NumberOfComponents="1" format="ascii">
          53278.1 54154.7 40447.2 51236.4 54359.7 52316.1 54502.3 52874.5 54636.1 53260.2 54754.9 53548.8
          54843.8 53767.8 54937.1 53954.9 55015.9 54114.8 55088.2 54254 55155.5 54379.1 55218.1 54492.3
          55275.8 54594.7 55331.2 54688.8 55378.8 54771.6 55428.8 54849.9 55472 54919.8 55512 54982.1
          55547.8 55037.6 55584.4 55090.8 55612.4 55137.3 55645.6 55185.9 55666.9 55227 55681 55256
          55690 55265 55675.1 55219.9 55647.7 55087.3 55568.7 54783.8 55508.9 54254.9 55159.4 53336.9
          54301 41482.1 30128.2 45181.9 49617.2 50827.8 51572.8 52091 52477.3 52786.5 53045.6 53267.3
          53462.3 53636.6 53793 53934.1 54059 54172.4 54274 54363.7 54442.8 54516 54582.7 54649.5
          54712.2 54762.2 54783.1 54729.4 54531.1 54062.9 53167.5 51609.9 41482.1 22844.8 37594 45421.1
          48176.4 49469.7 50309.3 50916.6 51386.1 51770.1 52094 52374.9 52623.3 52845.1 53043.4 53219.2
          53376.2 53516.1 53639.3 53747.3 53844.8 53934.3 54022 54108.1 54184.1 54228.5 54188.4 53966.7
          53401.6 52254.1 50207.4 41482.1 18305.6 30091.5 39712.1 44520.5 46787.2 48102.1 49011.5 49694.1
          50238.9 50691.4 51079 51418.3 51719.5 51987.9 52225.7 52436.4 52623.4 52787.9 52931.5 53059
          53174.9 53286.7 53398.1 53504.1 53582 53576.1 53372.9 52781.4 51499.1 49116.9 41482.1 15934.6
          23871.6 33212.4 39660.9 43269 45321.1 46661 47632.7 48389.1 49006 49527.5 49979.4 50378
          50732.2 51046 51323.2 51568.3 51783.8 51971.8 52136.7 52284.7 52424.7 52563.9 52702.6 52821.5
          52867.3 52720.2 52169.6 50864.2 48298.4 41482.1 15072.4 19535.8 27015.6 33929.4 38756.8 41778
          43730.8 45101.9 46140.9 46971.6 47663.3 48256.1 48774.8 49234.1 49641.2 50000.6 50317.8 50596.8
          50840.2 51052.6 51240.5 51414.6 51585.3 51759.2 51924.2 52034.5 51973.6 51521.7 50290.7 47683
          41482.1 15081.2 17103.9 22073.1 28140.7 33465.7 37376.3 40079.1 41982.5 43398.5 44509.1 45419.1
          46189.2 46857.1 47445.4 47966.9 48427.5 48833.9 49191.8 49504.7 49777.3 50016.3 50233.3 50441.7
          50654.4 50869 51051.7 51097.9 50789.2 49714.1 47196.5 41482.1 15479.1 16179.5 18884.7 23268.7
          28093.2 32354.4 35691.7 38187.4 40069.7 41536.2 42723.2 43715.9 44568.6 45315 45975.4 46559.6
          47075.9 47531.5 47931.2 48280.1 48584.8 48857.3 49113.2 49371.2 49639.2 49899.1 50064 49927.5
          49069.4 46756.2 41482.1 15952.4 16196.1 17386.6 19973.6 23552.6 27382.9 30884.8 33803.1 36140.4
          38006.1 39522.1 40784.2 41860.9 42797.8 43624.5 44357.2 45006.1 45580.8 46087.5 46532.1 46920.9
          47265.9 47583.7 47897.5 48225.6 48566 48854.5 48905.6 48307.6 46297.8 41482.1 16392.5 16649.3
          17136.2 18390.2 20552.2 23357.4 26385.3 29277.2 31837.7 34016.9 35849.6 37398.5 38725.1 39879
          40896.6 41800.8 42604.6 43319.9 43954.9 44516.1 45010.1 45447.9 45846.5 46231.5 46629.8 47055.1
          47467.6 47710.1 47396.3 45766.5 41482.1 16805.6 17240.9 17589.9 18169.2 19259.7 20931.5 23055.4
          25404.4 27759.3 29967.9 31958.4 33717.3 35263.7 36627.8 37840.3 38925.4 39897.1 40768.3 41548.3
          42244.6 42863.5 43415.1 43914.9 44389 44869.9 45384.7 45918.7 46348.6 46329.6 45138.5 41482.1
          17295.8 17904.2 18368.5 18791.7 19358.2 20224.3 21450.1 22996.1 24757.4 26609.4 28445.2 30192.5
          31814 33299.1 34652.6 35886.4 37009.7 38030.3 38955.9 39792.8 40546.9 41225.9 41842.6 42420.4
          42993.3 43598.6 44245.4 44849.3 45121 44404.8 41482.1 17977.3 18737.5 19365.9 19882 20353
          20877.6 21547.4 22418 23498.9 24758.7 26141.1 27583 29028.7 30437.2 31783.7 33057.3 34253
          35367.1 36399.1 37350.6 38223.5 39021.7 39753.1 40434.8 41096.8 41780.8 42517.6 43267.1 43809.3
          43583.2 41482.1 19029.1 19944.2 20722.3 21382.5 21947.2 22453 22948.6 23485.8 24108.9 24845.7
          25703.5 26670.6 27721.9 28826.5 29954.3 31081.9 32192.8 33271.4 34306 35288.7 36214.2 37080
          37886.4 38640.9 39363.1 40090 40866.9 41702.2 42461.7 42705.9 41482.1 20731.5 21839.1 22758.7
          23541.7 24216.8 24805.5 25327.3 25804.7 26263.7 26733 27239.5 27803.8 28436.9 29139.4 29903.4
          30716.1 31564.6 32434.8 33311.1 34179.9 35029.6 35850.6 36635.8 37382.1 38094.9 38795.6 39527.7
          40338.9 41202 41835.8 41482.1 23736.8 25050.2 26053.2 26894.9 27612.8 28235.4 28781.8 29264.7
          29694.5 30082.8 30444.3 30796.5 31157.9 31544.2 31966.8 32431 32937.2 33483.4 34063.6 34668.7
          35289.1 35914.6 36535.4 37142.9 37731.6 38304.3 38883.1 39518 40269 41087.7 41482.1 29190.9
          31026.6 31775.9 32422.1 32977.9 33459.1 33879.5 34249.9 34577.3 34866.4 35121.7 35348.7 35555.3
          35750.8 35945.5 36148.3 36366 36602.7 36861.6 37142.9 37444.4 37762.2 38091.5 38426.3 38760.9
          39090.2 39414.8 39751.6 40150.2 40702.5 41482.1 30288.2 41482.1 41482.1 41482.1 41482.1 41482.1
          41482.1 41482.1 41482.1 41482.1 41482.1 41482.1 41482.1 41482.1 41482.1 41482.1 41482.1 41482.1
          41482.1 41482.1 41482.1 41482.1 41482.1 41482.1 41482.1 41482.1 41482.1 41482.1 41482.1 41482.1
          41482.1
        </DataArray>
        <DataArray type="Float32" Name="rho" NumberOfComponents="1" format="ascii">
          3.01472 3.0125 3.09256 3.03028 3.01169 3.02403 3.01103 3.02064 3.01047 3.01839 3.00999 3.01679
          3.00958 3.01554 3.00919 3.01452 3.00884 3.01364 3.00852 3.01287 3.00822 3.01219 3.00795 3.01156
          3.00769 3.011 3.00744 3.01048 3.00722 3.01001 3.00701 3.00958 3.00681 3.00918 3.00662 3.00882
          3.00644 3.00847 3.00627 3.00813 3.00611 3.00776 3.00595 3.00734 3.00581 3.00685 3.00567 3.00627
          3.00556 3.00565 3.00548 3.00507 3.00545 3.00472 3.00549 3.00482 3.00557 3.00557 3.00592 3.00683
          3.00664 3.01558 3.15596 3.06699 3.0406 3.03295 3.02828 3.02514 3.02281 3.02096 3.01943 3.01811
          3.01695 3.01592 3.01498 3.01413 3.01337 3.01268 3.01205 3.01147 3.01093 3.01039 3.00982 3.00914
          3.00831 3.00728 3.00611 3.00494 3.00408 3.00397 3.00511 3.00738 3.01558 3.19958 3.11279 3.06636
          3.04919 3.04086 3.03555 3.03175 3.02883 3.02646 3.02446 3.02272 3.02118 3.0198 3.01855 3.01743
          3.01642 3.01551 3.01468 3.01391 3.01316 3.01237 3.01144 3.01028 3.00883 3.00709 3.00524 3.00368
          3.00307 3.00421 3.00729 3.01558 3.22467 3.15738 3.10103 3.07174 3.05722 3.0487 3.04287 3.03851
          3.03506 3.0322 3.02974 3.02758 3.02565 3.02392 3.02236 3.02097 3.01971 3.01858 3.01754 3.01655
          3.01553 3.01435 3.01289 3.01103 3.00873 3.00615 3.00375 3.00233 3.00305 3.00663 3.01558 3.23539
          3.19296 3.13972 3.10146 3.07888 3.06558 3.05685 3.05054 3.04566 3.04168 3.03831 3.03539 3.03279
          3.03046 3.02838 3.02651 3.02483 3.02333 3.02196 3.02068 3.0194 3.01798 3.01625 3.01402 3.01121
          3.00789 3.00453 3.00204 3.0019 3.00559 3.01558 3.23683 3.21573 3.17524 3.13572 3.10651 3.08731
          3.07458 3.06559 3.05878 3.05335 3.04883 3.04494 3.04152 3.03846 3.03573 3.03328 3.03109 3.02912
          3.02735 3.02572 3.02415 3.02247 3.02048 3.01793 3.01466 3.01065 3.00629 3.00254 3.00118 3.0045
          3.01558 3.23384 3.22617 3.20158 3.16885 3.13812 3.11415 3.09686 3.0844 3.07507 3.06774 3.06173
          3.05662 3.05218 3.04824 3.04471 3.04155 3.03872 3.03619 3.03392 3.03185 3.02991 3.02793 3.02568
          3.02286 3.01922 3.01459 3.00927 3.00417 3.00128 3.00371 3.01558 3.22973 3.22774 3.21613 3.19455
          3.16859 3.1439 3.12336 3.10738 3.09505 3.08536 3.07747 3.07085 3.06514 3.06011 3.05562 3.0516
          3.048 3.04477 3.04187 3.03926 3.03685 3.0345 3.03195 3.02888 3.02492 3.01979 3.0136 3.00716
          3.00257 3.00359 3.01558 3.22627 3.22476 3.22034 3.20921 3.19189 3.17149 3.15129 3.13343 3.11853
          3.10635 3.09632 3.0879 3.08067 3.07434 3.06871 3.06366 3.05913 3.05506 3.0514 3.04811 3.04512
          3.04228 3.03936 3.036 3.03176 3.02623 3.01931 3.01163 3.00526 3.00439 3.01558 3.22359 3.22048
          3.21801 3.21318 3.20412 3.19094 3.17517 3.15879 3.14335 3.12963 3.11777 3.10756 3.09871 3.09093
          3.08401 3.07779 3.0722 3.06715 3.06259 3.05847 3.05475 3.05128 3.04787 3.04414 3.03961 3.03375
          3.02625 3.01751 3.00942 3.0063 3.01558 3.22109 3.21622 3.21286 3.20988 3.20561 3.19887 3.18933
          3.17757 3.16468 3.15173 3.13948 3.12828 3.1182 3.10915 3.10099 3.09359 3.08688 3.08077 3.07521
          3.07016 3.06557 3.06133 3.05729 3.05309 3.04823 3.04208 3.03416 3.02457 3.0149 3.0093 3.01558
          3.21766 3.21161 3.2067 3.20293 3.19971 3.19613 3.19133 3.18477 3.17647 3.16686 3.15658 3.14621
          3.13618 3.1267 3.11785 3.10962 3.10199 3.09494 3.08843 3.08245 3.07694 3.07187 3.06708 3.06232
          3.05709 3.05073 3.04256 3.0324 3.02139 3.01324 3.01558 3.21232 3.20528 3.19914 3.19396 3.18975
          3.18627 3.18308 3.17957 3.1752 3.16969 3.16304 3.15549 3.14739 3.13907 3.13079 3.12269 3.11486
          3.10739 3.10032 3.09367 3.08743 3.08161 3.07614 3.07082 3.06528 3.05886 3.05074 3.04039 3.02842
          3.01783 3.01558 3.20366 3.19544 3.18829 3.18202 3.17655 3.17192 3.16809 3.16489 3.16198 3.15894
          3.15539 3.15113 3.1461 3.1404 3.13419 3.12764 3.12088 3.11407 3.10731 3.10071 3.09433 3.08822
          3.0824 3.07679 3.07117 3.065 3.05743 3.04754 3.03527 3.02267 3.01558 3.1894 3.1795 3.17129
          3.16422 3.15798 3.15245 3.14763 3.14355 3.1402 3.13742 3.13497 3.13256 3.12992 3.12687 3.12331
          3.11924 3.11469 3.10974 3.1045 3.09907 3.09356 3.08806 3.08266 3.07739 3.0722 3.06679 3.06047
          3.05212 3.04075 3.02713 3.01558 3.16401 3.15231 3.14343 3.13601 3.12965 3.12408 3.11911 3.1147
          3.11088 3.10768 3.10506 3.10292 3.10111 3.09941 3.09765 3.09568 3.09341 3.09077 3.08776 3.08441
          3.08078 3.07694 3.07297 3.06895 3.06496 3.06093 3.05655 3.05095 3.04262 3.03013 3.01558 3.11789
          3.10195 3.09534 3.08971 3.08491 3.08077 3.07712 3.07387 3.07097 3.06842 3.06622 3.06439 3.06291
          3.06171 3.06071 3.05981 3.05891 3.05793 3.05681 3.0555 3.05398 3.05227 3.0504 3.04839 3.04631
          3.0442 3.04205 3.03962 3.03607 3.02936 3.01558 3.10893 3.01558 3.01558 3.01558 3.01558 3.01558
          3.01558 3.01558 3.01558 3.01558 3.01558 3.01558 3.01558 3.01558 3.01558 3.01558 3.01558 3.01558
          3.01558 3.01558 3.01558 3.01558 3.01558 3.01558 3.01558 3.01558 3.01558 3.01558 3.01558 3.01558
          3.01558
        </DataArray>
        <DataArray type="Float32" Name="mu" NumberOfComponents="1" format="ascii">
          1.85279e-05 1.85359e-05 1.81843e-05 1.84559e-05 1.85393e-05 1.84837e-05 1.85422e-05 1.8499e-05 1.85445e-05 1.8509e-05 1.85466e-05 1.85162e-05
          1.85484e-05 1.85217e-05 1.855e-05 1.85263e-05 1.85515e-05 1.85302e-05 1.85529e-05 1.85336e-05 1.85541e-05 1.85367e-05 1.85553e-05 1.85394e-05
          1.85564e-05 1.8542e-05 1.85575e-05 1.85443e-05 1.85585e-05 1.85464e-05 1.85594e-05 1.85483e-05 1.85602e-05 1.85501e-05 1.85611e-05 1.85517e-05
          1.85618e-05 1.85533e-05 1.85626e-05 1.85549e-05 1.85633e-05 1.85566e-05 1.8564e-05 1.85586e-05 1.85647e-05 1.8561e-05 1.85653e-05 1.85638e-05
          1.85659e-05 1.8567e-05 1.85663e-05 1.85702e-05 1.85666e-05 1.85726e-05 1.85667e-05 1.85732e-05 1.85665e-05 1.85714e-05 1.8566e-05 1.85684e-05
          1.85656e-05 1.85693e-05 1.79152e-05 1.82934e-05 1.84095e-05 1.84438e-05 1.84648e-05 1.84789e-05 1.84894e-05 1.84977e-05 1.85045e-05 1.85104e-05
          1.85157e-05 1.85203e-05 1.85245e-05 1.85284e-05 1.85318e-05 1.8535e-05 1.85378e-05 1.85404e-05 1.85429e-05 1.85454e-05 1.85481e-05 1.85514e-05
          1.85554e-05 1.85605e-05 1.85665e-05 1.85728e-05 1.8578e-05 1.85804e-05 1.8578e-05 1.85723e-05 1.85693e-05 1.77365e-05 1.80957e-05 1.82956e-05
          1.83715e-05 1.84088e-05 1.84326e-05 1.84496e-05 1.84627e-05 1.84734e-05 1.84824e-05 1.84902e-05 1.84972e-05 1.85034e-05 1.85091e-05 1.85141e-05
          1.85187e-05 1.85229e-05 1.85267e-05 1.85302e-05 1.85337e-05 1.85374e-05 1.85419e-05 1.85475e-05 1.85548e-05 1.85636e-05 1.85734e-05 1.85823e-05
          1.85876e-05 1.85862e-05 1.85782e-05 1.85693e-05 1.76371e-05 1.79085e-05 1.81453e-05 1.82722e-05 1.83364e-05 1.83743e-05 1.84004e-05 1.84199e-05
          1.84354e-05 1.84482e-05 1.84593e-05 1.8469e-05 1.84777e-05 1.84856e-05 1.84926e-05 1.8499e-05 1.85047e-05 1.85099e-05 1.85147e-05 1.85193e-05
          1.85241e-05 1.85297e-05 1.85368e-05 1.8546e-05 1.85576e-05 1.8571e-05 1.85842e-05 1.85939e-05 1.85952e-05 1.85858e-05 1.85693e-05 1.75967e-05
          1.77636e-05 1.79815e-05 1.81433e-05 1.82413e-05 1.82999e-05 1.83387e-05 1.83668e-05 1.83886e-05 1.84064e-05 1.84215e-05 1.84347e-05 1.84464e-05
          1.84569e-05 1.84664e-05 1.84749e-05 1.84825e-05 1.84894e-05 1.84957e-05 1.85016e-05 1.85076e-05 1.85144e-05 1.85228e-05 1.85337e-05 1.85478e-05
          1.85647e-05 1.85827e-05 1.85978e-05 1.86035e-05 1.85944e-05 1.85693e-05 1.75935e-05 1.76738e-05 1.78352e-05 1.79981e-05 1.8122e-05 1.82051e-05
          1.8261e-05 1.83008e-05 1.8331e-05 1.83552e-05 1.83754e-05 1.83928e-05 1.84082e-05 1.84219e-05 1.84343e-05 1.84454e-05 1.84553e-05 1.84643e-05
          1.84724e-05 1.84799e-05 1.84873e-05 1.84953e-05 1.85048e-05 1.85172e-05 1.85334e-05 1.85537e-05 1.85765e-05 1.85977e-05 1.86095e-05 1.86024e-05
          1.85693e-05 1.76072e-05 1.76348e-05 1.77301e-05 1.78613e-05 1.79883e-05 1.80898e-05 1.81644e-05 1.82188e-05 1.82599e-05 1.82923e-05 1.83189e-05
          1.83417e-05 1.83615e-05 1.83792e-05 1.83951e-05 1.84093e-05 1.84221e-05 1.84337e-05 1.8444e-05 1.84535e-05 1.84625e-05 1.84718e-05 1.84825e-05
          1.84962e-05 1.85141e-05 1.85372e-05 1.85645e-05 1.85921e-05 1.86112e-05 1.86084e-05 1.85693e-05 1.76247e-05 1.76311e-05 1.76745e-05 1.77585e-05
          1.78627e-05 1.79646e-05 1.80513e-05 1.81199e-05 1.81734e-05 1.82158e-05 1.82505e-05 1.82797e-05 1.83051e-05 1.83275e-05 1.83476e-05 1.83656e-05
          1.83818e-05 1.83965e-05 1.84096e-05 1.84216e-05 1.84326e-05 1.84436e-05 1.84556e-05 1.84703e-05 1.84895e-05 1.85149e-05 1.85461e-05 1.85799e-05
          1.86071e-05 1.86108e-05 1.85693e-05 1.76388e-05 1.76449e-05 1.76608e-05 1.77026e-05 1.77699e-05 1.78517e-05 1.79347e-05 1.80097e-05 1.80732e-05
          1.81257e-05 1.81693e-05 1.82061e-05 1.82379e-05 1.82658e-05 1.82908e-05 1.83133e-05 1.83336e-05 1.83519e-05 1.83684e-05 1.83834e-05 1.8397e-05
          1.84101e-05 1.84237e-05 1.84397e-05 1.846e-05 1.8487e-05 1.85214e-05 1.85608e-05 1.85961e-05 1.86084e-05 1.85693e-05 1.76496e-05 1.7663e-05
          1.76726e-05 1.76902e-05 1.77241e-05 1.77751e-05 1.7838e-05 1.7905e-05 1.79693e-05 1.80273e-05 1.8078e-05 1.81221e-05 1.81606e-05 1.81945e-05
          1.8225e-05 1.82524e-05 1.82773e-05 1.82998e-05 1.83203e-05 1.83388e-05 1.83557e-05 1.83715e-05 1.83873e-05 1.84047e-05 1.84262e-05 1.84544e-05
          1.84911e-05 1.85351e-05 1.85781e-05 1.86006e-05 1.85693e-05 1.76595e-05 1.76805e-05 1.76948e-05 1.77065e-05 1.77222e-05 1.77473e-05 1.77839e-05
          1.78304e-05 1.78827e-05 1.79361e-05 1.79875e-05 1.8035e-05 1.80782e-05 1.81173e-05 1.81527e-05 1.81851e-05 1.82146e-05 1.82416e-05 1.82663e-05
          1.82889e-05 1.83096e-05 1.83287e-05 1.83471e-05 1.83665e-05 1.83892e-05 1.84184e-05 1.84567e-05 1.85041e-05 1.85539e-05 1.85875e-05 1.85693e-05
          1.76736e-05 1.76995e-05 1.77206e-05 1.77366e-05 1.77495e-05 1.77629e-05 1.77808e-05 1.78057e-05 1.78382e-05 1.78768e-05 1.79188e-05 1.79619e-05
          1.80041e-05 1.80443e-05 1.80823e-05 1.81178e-05 1.8151e-05 1.81819e-05 1.82105e-05 1.8237e-05 1.82616e-05 1.82843e-05 1.83059e-05 1.83276e-05
          1.83517e-05 1.83815e-05 1.84204e-05 1.84699e-05 1.85252e-05 1.857e-05 1.85693e-05 1.76958e-05 1.77258e-05 1.77521e-05 1.77745e-05 1.77925e-05
          1.78069e-05 1.78194e-05 1.78326e-05 1.78491e-05 1.78705e-05 1.78968e-05 1.79274e-05 1.79607e-05 1.79954e-05 1.80304e-05 1.80649e-05 1.80985e-05
          1.81308e-05 1.81616e-05 1.81908e-05 1.82183e-05 1.82442e-05 1.82687e-05 1.82926e-05 1.83178e-05 1.83475e-05 1.83856e-05 1.84353e-05 1.84943e-05
          1.85495e-05 1.85693e-05 1.77322e-05 1.77673e-05 1.77979e-05 1.7825e-05 1.78488e-05 1.78688e-05 1.78851e-05 1.78983e-05 1.79098e-05 1.79215e-05
          1.79352e-05 1.79519e-05 1.7972e-05 1.79952e-05 1.80209e-05 1.80484e-05 1.8077e-05 1.81062e-05 1.81353e-05 1.8164e-05 1.8192e-05 1.82189e-05
          1.82447e-05 1.82697e-05 1.8295e-05 1.83231e-05 1.83583e-05 1.8405e-05 1.84645e-05 1.8528e-05 1.85693e-05 1.77927e-05 1.78352e-05 1.78706e-05
          1.79013e-05 1.79285e-05 1.79528e-05 1.7974e-05 1.79918e-05 1.80062e-05 1.80179e-05 1.80277e-05 1.80372e-05 1.80476e-05 1.80597e-05 1.80741e-05
          1.80908e-05 1.81097e-05 1.81306e-05 1.8153e-05 1.81764e-05 1.82004e-05 1.82244e-05 1.82482e-05 1.82716e-05 1.82948e-05 1.83192e-05 1.83481e-05
          1.83871e-05 1.84414e-05 1.85085e-05 1.85693e-05 1.79016e-05 1.79525e-05 1.79914e-05 1.80241e-05 1.80521e-05 1.80768e-05 1.8099e-05 1.81186e-05
          1.81357e-05 1.81499e-05 1.81614e-05 1.81706e-05 1.81781e-05 1.8185e-05 1.8192e-05 1.82e-05 1.82093e-05 1.82202e-05 1.82329e-05 1.82472e-05
          1.82629e-05 1.82796e-05 1.8297e-05 1.83148e-05 1.83326e-05 1.83506e-05 1.83704e-05 1.83962e-05 1.84356e-05 1.84961e-05 1.85693e-05 1.81033e-05
          1.81745e-05 1.82042e-05 1.82296e-05 1.82513e-05 1.827e-05 1.82866e-05 1.83014e-05 1.83146e-05 1.83263e-05 1.83364e-05 1.83447e-05 1.83513e-05
          1.83566e-05 1.83608e-05 1.83646e-05 1.83683e-05 1.83723e-05 1.8377e-05 1.83825e-05 1.8389e-05 1.83964e-05 1.84046e-05 1.84135e-05 1.84227e-05
          1.84321e-05 1.84418e-05 1.84529e-05 1.84694e-05 1.85016e-05 1.85693e-05 1.8143e-05 1.85693e-05 1.85693e-05 1.85693e-05 1.85693e-05 1.85693e-05
          1.85693e-05 1.85693e-05 1.85693e-05 1.85693e-05 1.85693e-05 1.85693e-05 1.85693e-05 1.85693e-05 1.85693e-05 1.85693e-05 1.85693e-05 1.85693e-05
          1.85693e-05 1.85693e-05 1.85693e-05 1.85693e-05 1.85693e-05 1.85693e-05 1.85693e-05 1.85693e-05 1.85693e-05 1.85693e-05 1.85693e-05 1.85693e-05
          1.85693e-05
        </DataArray>
        <DataArray type="Float32" Name="v" NumberOfComponents="3" format="ascii">
          0.0024342 0.000400472 0 0.0013489 -5.02877e-06 0 0.01 0 0 0.00647314 0.000575678 0
          0.000345242 3.62073e-05 0 0.00264846 0.000225983 0 0.00036723 1.65821e-05 0 0.00212483 3.06524e-05 0
          0.000243848 1.24929e-05 0 0.00149043 5.41768e-05 0 0.000215362 8.31076e-06 0 0.00129397 1.71906e-05 0
          0.000181028 4.92257e-06 0 0.00108519 1.45849e-05 0 0.000166013 2.80111e-06 0 0.000993646 5.22072e-06 0
          0.000151686 7.57314e-07 0 0.000905542 1.91529e-06 0 0.000144525 -8.55306e-07 0 0.000861494 -2.16432e-06 0
          0.000137777 -2.21987e-06 0 0.000820294 -4.3694e-06 0 0.000134544 -3.38154e-06 0 0.000799861 -6.5952e-06 0
          0.000131266 -4.3936e-06 0 0.000780119 -8.10633e-06 0 0.000130113 -5.13218e-06 0 0.000772314 -9.36117e-06 0
          0.000128597 -5.91848e-06 0 0.000763558 -1.05024e-05 0 0.000128776 -6.32142e-06 0 0.000763865 -1.11999e-05 0
          0.000128364 -6.7551e-06 0 0.000762144 -1.20282e-05 0 0.000129867 -6.96068e-06 0 0.000770437 -1.24813e-05 0
          0.000130553 -7.07476e-06 0 0.000775778 -1.32377e-05 0 0.000134098 -6.74548e-06 0 0.000796223 -1.32553e-05 0
          0.000136532 -6.37165e-06 0 0.000812682 -1.41445e-05 0 0.000143986 -5.06548e-06 0 0.000856299 -1.34042e-05 0
          0.000149756 -3.17892e-06 0 0.000893658 -1.43891e-05 0 0.000165664 3.97979e-08 0 0.000987484 -1.17623e-05 0
          0.000177914 5.70605e-06 0 0.00106624 -1.44822e-05 0 0.000216073 1.36401e-05 0 0.00128754 -2.85281e-06 0
          0.000236704 3.06552e-05 0 0.00145335 -2.68877e-05 0 0.000373933 3.7665e-05 0 0.00211499 4.34789e-05 0
          0.000311407 0.000164738 0 0.00253343 -0.000169324 0 0.00138233 -0.000286097 0 0.00631294 -8.28294e-05 0
          0.00262324 0.00442559 0 0.01 0 0 0.01 0 0 0.00804143 0.00220364 0
          0.00495129 0.000993825 0 0.00361672 0.000209824 0 0.00280466 0.000231556 0 0.00237479 8.79834e-05 0
          0.00205736 7.50545e-05 0 0.00187034 3.59556e-05 0 0.00172593 2.51805e-05 0 0.00163757 9.98865e-06 0
          0.00156797 3.4491e-06 0 0.00152654 -3.70333e-06 0 0.00149314 -7.70097e-06 0 0.00147625 -1.14025e-05 0
          0.00146222 -1.42582e-05 0 0.00146057 -1.64164e-05 0 0.00145966 -1.90738e-05 0 0.00147223 -2.08356e-05 0
          0.00148533 -2.44911e-05 0 0.00151858 -2.64105e-05 0 0.00155435 -3.29147e-05 0 0.00162569 -3.54402e-05 0
          0.00170503 -4.88598e-05 0 0.00185462 -5.1378e-05 0 0.00202509 -8.67691e-05 0 0.00235408 -7.92749e-05 0
          0.00274517 -0.000216391 0 0.00357692 -0.000130617 0 0.00477668 -0.000916831 0 0.00782481 -0.00164846 0
          0.01 0 0 0.01 0 0 0.0092516 0.00245682 0 0.00720127 0.00153266 0
          0.00534976 0.000577819 0 0.00424363 0.000408124 0 0.00360484 0.000215028 0 0.00313757 0.00015275 0
          0.00285632 8.83597e-05 0 0.00263806 5.93839e-05 0 0.0025034 3.1804e-05 0 0.00239705 1.68672e-05 0
          0.00233285 3.42738e-06 0 0.00228169 -4.94572e-06 0 0.0022548 -1.20512e-05 0 0.00223363 -1.76551e-05 0
          0.00223024 -2.21162e-05 0 0.00222966 -2.73658e-05 0 0.00224811 -3.15455e-05 0 0.00226958 -3.89481e-05 0
          0.00231938 -4.4745e-05 0 0.00237595 -5.7991e-05 0 0.00248273 -6.79965e-05 0 0.0026058 -9.46645e-05 0
          0.00282746 -0.00011339 0 0.00308861 -0.000175758 0 0.00356292 -0.000212378 0 0.00415808 -0.000401736 0
          0.00526251 -0.000491179 0 0.00698154 -0.00142073 0 0.00901145 -0.00191923 0 0.01 0 0
          0.01 0 0 0.00971978 0.0033805 0 0.00841604 0.00238921 0 0.00675914 0.00114748 0
          0.00557525 0.000763773 0 0.00479479 0.000429085 0 0.00424342 0.000305364 0 0.00387512 0.000183769 0
          0.00360565 0.000128144 0 0.00342457 7.50867e-05 0 0.00329012 4.66445e-05 0 0.0032021 2.08371e-05 0
          0.0031369 4.98362e-06 0 0.00309884 -8.70249e-06 0 0.00307247 -1.92358e-05 0 0.00306586 -2.80212e-05 0
          0.00306704 -3.81165e-05 0 0.00308907 -4.66212e-05 0 0.00312035 -6.11894e-05 0 0.00318227 -7.35235e-05 0
          0.00326132 -9.99086e-05 0 0.00339371 -0.000121755 0 0.0035619 -0.000175123 0 0.00383102 -0.000217123 0
          0.00417824 -0.000338519 0 0.00472977 -0.000428812 0 0.00546722 -0.000759214 0 0.00663487 -0.00103876 0
          0.00819774 -0.00221663 0 0.00950748 -0.00282956 0 0.01 0 0 0.01 0 0
          0.0101981 0.00311417 0 0.00963978 0.00278259 0 0.00818308 0.00169049 0 0.00698155 0.00111575 0
          0.00608984 0.000695627 0 0.00544228 0.000480692 0 0.0049954 0.000310677 0 0.00466293 0.000213777 0
          0.0044371 0.000134893 0 0.00426709 8.61169e-05 0 0.0041552 4.6319e-05 0 0.00407156 1.95942e-05 0
          0.00402238 -2.20388e-06 0 0.00398833 -1.95606e-05 0 0.0039794 -3.4188e-05 0 0.00398103 -5.04363e-05 0
          0.00400885 -6.53568e-05 0 0.00404926 -8.82847e-05 0 0.00412756 -0.000110787 0 0.00422823 -0.000151361 0
          0.00439357 -0.000192178 0 0.00460395 -0.000271427 0 0.00493217 -0.000351879 0 0.00535549 -0.000520815 0
          0.00599615 -0.000695739 0 0.0068457 -0.00110406 0 0.00802453 -0.00155527 0 0.00942574 -0.00256853 0
          0.0100078 -0.00264511 0 0.01 0 0 0.01 0 0 0.0102366 0.00350641 0
          0.0100621 0.003371 0 0.00910251 0.00235087 0 0.0080989 0.00162858 0 0.0072423 0.00106066 0
          0.00658797 0.00074593 0 0.00610223 0.000493868 0 0.00574205 0.000346562 0 0.00548344 0.000225233 0
          0.00529288 0.000149753 0 0.00516081 8.74362e-05 0 0.00506546 4.55832e-05 0 0.0050057 1.09639e-05 0
          0.00496709 -1.64627e-05 0 0.00495449 -4.0039e-05 0 0.00495784 -6.58222e-05 0 0.00498802 -9.0024e-05 0
          0.00503727 -0.000126253 0 0.0051246 -0.000162599 0 0.00524386 -0.000226024 0 0.00542625 -0.000291196 0
          0.00566818 -0.000412733 0 0.00601923 -0.000538928 0 0.00648184 -0.000787582 0 0.00712367 -0.00105185 0
          0.0079486 -0.00159527 0 0.00893571 -0.00217679 0 0.00988496 -0.00312001 0 0.0100939 -0.00308259 0
          0.01 0 0 0.01 0 0 0.010411 0.00295526 0 0.0106168 0.00340052 0
          0.0100012 0.00274682 0 0.00921544 0.00203346 0 0.00842455 0.001425 0 0.00778101 0.00101547 0
          0.00727486 0.000702668 0 0.00688831 0.000495122 0 0.00660408 0.000334604 0 0.00639055 0.000225216 0
          0.00624097 0.000139574 0 0.0061313 7.82829e-05 0 0.0060622 2.92207e-05 0 0.00601692 -1.08664e-05 0
          0.00600189 -4.54109e-05 0 0.00600518 -8.23858e-05 0 0.00603947 -0.000118743 0 0.00609553 -0.000169342 0
          0.00619431 -0.00022415 0 0.00632846 -0.00031022 0 0.00653029 -0.000407275 0 0.00679532 -0.000565803 0
          0.00716828 -0.000747922 0 0.00765086 -0.00105087 0 0.00827897 -0.00140128 0 0.00904869 -0.00197268 0
          0.00982433 -0.00255466 0 0.010459 -0.00315975 0 0.0102935 -0.00264075 0 0.01 0 0
          0.01 0 0 0.0103097 0.00304497 0 0.0106219 0.00362267 0 0.0104099 0.00319078 0
          0.00992952 0.00251338 0 0.00934231 0.00185187 0 0.00880763 0.00136098 0 0.00835124 0.000966065 0
          0.0079891 0.000694371 0 0.00770869 0.00047916 0 0.00749654 0.000330306 0 0.00734146 0.000211853 0
          0.00722905 0.000126466 0 0.00715465 5.71379e-05 0 0.00710769 4.00762e-07 0 0.0070895 -4.91222e-05 0
          0.00709351 -0.000101591 0 0.00712668 -0.000153609 0 0.00718594 -0.000224514 0 0.00728422 -0.000301627 0
          0.00742227 -0.000419608 0 0.00761898 -0.000552656 0 0.00787987 -0.000762664 0 0.00822507 -0.00100208 0
          0.00866231 -0.00137909 0 0.00918296 -0.00180217 0 0.00976453 -0.00242091 0 0.0102459 -0.00298503 0
          0.0105038 -0.00339187 0 0.0102315 -0.0027851 0 0.01 0 0 0.01 0 0
          0.0103669 0.00241366 0 0.0108277 0.00331771 0 0.0108634 0.0032304 0 0.0106421 0.002735 0
          0.0102354 0.00215317 0 0.00982189 0.00164051 0 0.00943153 0.00121216 0 0.00910649 0.000886339 0
          0.00884246 0.000629996 0 0.00863688 0.000440371 0 0.00848273 0.000292225 0 0.00836872 0.00018025 0
          0.0082921 9.053e-05 0 0.00824269 1.53427e-05 0 0.00822283 -5.05653e-05 0 0.00822547 -0.000119298 0
          0.00825796 -0.000189237 0 0.00831656 -0.000279627 0 0.0084132 -0.000381919 0 0.00854787 -0.000527139 0
          0.00873486 -0.000697896 0 0.00897846 -0.000943599 0 0.0092847 -0.0012324 0 0.009659 -0.00163572 0
          0.0100592 -0.00208389 0 0.010469 -0.00262881 0 0.0106984 -0.00304641 0 0.0107233 -0.00313249 0
          0.0103036 -0.00224495 0 0.01 0 0 0.01 0 0 0.0102508 0.00236272 0
          0.0106831 0.00325174 0 0.0109309 0.00333332 0 0.0109572 0.0029642 0 0.0108001 0.00244387 0
          0.01057 0.00193379 0 0.0103145 0.00147488 0 0.0100803 0.00110662 0 0.00987559 0.000804469 0
          0.00970946 0.000574752 0 0.00957831 0.000390884 0 0.00947996 0.000249884 0 0.0094103 0.000135039 0
          0.00936574 3.82318e-05 0 0.00934486 -4.75139e-05 0 0.00934597 -0.000136266 0 0.00937076 -0.000226653 0
          0.00942053 -0.000341233 0 0.00949878 -0.000470095 0 0.00961007 -0.000648326 0 0.0097559 -0.000855124 0
          0.00994255 -0.00114212 0 0.0101581 -0.00147051 0 0.0104029 -0.00190318 0 0.0106221 -0.00235733 0
          0.0107926 -0.00284991 0 0.010784 -0.00316564 0 0.0106048 -0.00309148 0 0.01021 -0.00222795 0
          0.01 0 0 0.01 0 0 0.0102725 0.00176023 0 0.0107436 0.00273623 0
          0.0111079 0.00301569 0 0.011317 0.00284902 0 0.0113429 0.00247884 0 0.011276 0.00204399 0
          0.0111443 0.00162251 0 0.0110043 0.00125195 0 0.010865 0.000938171 0 0.0107455 0.000684248 0
          0.0106448 0.000478647 0 0.0105665 0.000314272 0 0.0105083 0.000179793 0 0.0104696 6.42062e-05 0
          0.0104494 -3.9011e-05 0 0.0104471 -0.000144472 0 0.0104634 -0.000253328 0 0.0104995 -0.000385661 0
          0.0105557 -0.000536813 0 0.0106358 -0.000733961 0 0.0107339 -0.000964844 0 0.0108556 -0.00126231 0
          0.0109758 -0.00159924 0 0.0110977 -0.00199974 0 0.0111543 -0.00239579 0 0.0111471 -0.00274867 0
          0.0109612 -0.00288768 0 0.0106671 -0.00262205 0 0.0102337 -0.00168454 0 0.01 0 0
          0.01 0 0 0.0101837 0.00164366 0 0.0105873 0.00248871 0 0.0110142 0.00281713 0
          0.0113521 0.00274954 0 0.0115652 0.00247503 0 0.0116737 0.00210663 0 0.0117029 0.00172238 0
          0.0116893 0.00136635 0 0.0116504 0.00105072 0 0.0116056 0.000786016 0 0.0115593 0.000564203 0
          0.0115196 0.000382351 0 0.0114855 0.000230015 0 0.0114613 9.73561e-05 0 0.0114442 -2.24355e-05 0
          0.0114379 -0.00014438 0 0.0114385 -0.000269793 0 0.0114506 -0.000419482 0 0.0114676 -0.000588133 0
          0.0114944 -0.000802206 0 0.0115176 -0.00104731 0 0.0115404 -0.00135108 0 0.0115345 -0.00168246 0
          0.0114988 -0.00205249 0 0.0113839 -0.00239373 0 0.0111947 -0.00265587 0 0.0108834 -0.00270811 0
          0.010521 -0.0023918 0 0.0101526 -0.00158056 0 0.01 0 0 0.01 0 0
          0.0101983 0.0010999 0 0.0106001 0.00186863 0 0.0110522 0.00224335 0 0.0114685 0.00230293 0
          0.0117899 0.00216225 0 0.0120248 0.00190769 0 0.012172 0.00161101 0 0.0122643 0.00131352 0
          0.0123099 0.00103856 0 0.0123333 0.000796367 0 0.0123371 0.000588087 0 0.012335 0.000410726 0
          0.0123252 0.000259007 0 0.0123157 0.000123885 0 0.0123027 -4.91261e-08 0 0.012292 -0.000125627 0
          0.0122775 -0.000255754 0 0.0122646 -0.000406168 0 0.0122432 -0.000575673 0 0.0122188 -0.00078073 0
          0.0121726 -0.001013 0 0.0121101 -0.00128303 0 0.0119987 -0.00156777 0 0.0118466 -0.00185592 0
          0.0116078 -0.0020956 0 0.0113098 -0.00222882 0 0.0109188 -0.00216758 0 0.0105244 -0.00180572 0
          0.0101591 -0.00107199 0 0.01 0 0 0.01 0 0 0.0101387 0.000942875 0
          0.0104713 0.00152068 0 0.0109023 0.00184094 0 0.0113391 0.00192664 0 0.0117365 0.00185114 0
          0.0120674 0.00167043 0 0.0123273 0.00144056 0 0.0125233 0.00119791 0 0.0126633 0.000965239 0
          0.0127627 0.000755164 0 0.0128271 0.000570318 0 0.0128696 0.000409877 0 0.0128905 0.000269793 0
          0.0128994 0.000142752 0 0.0128924 2.45468e-05 0 0.0128768 -9.61964e-05 0 0.0128446 -0.000221242 0
          0.0128019 -0.000364324 0 0.0127361 -0.000523266 0 0.012652 -0.000711131 0 0.0125311 -0.000918847 0
          0.0123773 -0.00115166 0 0.0121665 -0.00138808 0 0.0119057 -0.00161239 0 0.0115736 -0.00178497 0
          0.0111964 -0.00185532 0 0.0107801 -0.00177401 0 0.0103954 -0.00146365 0 0.0100983 -0.000915892 0
          0.01 0 0 0.01 0 0 0.0101506 0.000466484 0 0.0104586 0.000881565 0
          0.0108536 0.00114348 0 0.0112749 0.00126274 0 0.0116757 0.00126045 0 0.0120371 0.00117681 0
          0.0123389 0.00104134 0 0.0125872 0.000886114 0 0.0127765 0.00072738 0 0.0129222 0.000579719 0
          0.0130231 0.000446259 0 0.0130948 0.000328984 0 0.0131349 0.000224849 0 0.013156 0.000129626 0
          0.0131522 3.93581e-05 0 0.0131333 -5.30242e-05 0 0.0130891 -0.000150119 0 0.0130274 -0.000259456 0
          0.0129334 -0.000380931 0 0.0128141 -0.000519871 0 0.0126499 -0.000670859 0 0.0124493 -0.000831665 0
          0.01219 -0.000987356 0 0.0118873 -0.00112082 0 0.0115246 -0.00120541 0 0.0111362 -0.00120694 0
          0.0107281 -0.00109831 0 0.010368 -0.000845678 0 0.010096 -0.000457548 0 0.01 0 0
          0.01 0 0 0.010102 0.000306463 0 0.0103236 0.000539296 0 0.0106356 0.000694335 0
          0.0109844 0.000776474 0 0.0113421 0.000785042 0 0.0116796 0.000743895 0 0.0119804 0.000667109 0
          0.0122379 0.000574942 0 0.012446 0.000477357 0 0.0126112 0.000384766 0 0.0127317 0.000300059 0
          0.0128193 0.000225271 0 0.0128715 0.000159018 0 0.0129002 9.84839e-05 0 0.0128997 4.12778e-05 0
          0.0128799 -1.75384e-05 0 0.0128312 -7.94697e-05 0 0.0127611 -0.000149627 0 0.012656 -0.00022733 0
          0.0125223 -0.000315796 0 0.0123443 -0.000410986 0 0.0121296 -0.000510357 0 0.0118652 -0.000604966 0
          0.0115645 -0.000681937 0 0.0112254 -0.000728186 0 0.0108747 -0.000719926 0 0.0105315 -0.000650319 0
          0.0102405 -0.00049896 0 0.0100476 -0.000294457 0 0.01 0 0 0.01 0 0
          0.0101152 -3.17463e-05 0 0.0102482 5.31974e-05 0 0.0104251 0.000109689 0 0.0106462 0.000161456 0
          0.0108705 0.000178803 0 0.0110968 0.000187482 0 0.0112969 0.00017555 0 0.0114776 0.000161014 0
          0.011622 0.000138046 0 0.0117428 0.000117341 0 0.0118293 9.50231e-05 0 0.0118961 7.64073e-05 0
          0.0119343 5.83338e-05 0 0.0119581 4.27976e-05 0 0.0119574 2.72394e-05 0 0.0119449 1.19497e-05 0
          0.0119082 -4.76965e-06 0 0.0118586 -2.32883e-05 0 0.0117808 -4.3866e-05 0 0.0116859 -6.68294e-05 0
          0.0115573 -9.04082e-05 0 0.0114076 -0.00011408 0 0.0112222 -0.000133129 0 0.0110192 -0.000145945 0
          0.0107911 -0.000144496 0 0.0105644 -0.000127942 0 0.0103439 -8.76251e-05 0 0.0101631 -3.19306e-05 0
          0.0100373 3.26721e-05 0 0.01 0 0 0.01 0 0 0.01 0 0
          0.01 0 0 0.01 0 0 0.01 0 0 0.01 0 0
          0.01 0 0 0.01 0 0 0.01 0 0 0.01 0 0
          0.01 0 0 0.01 0 0 0.01 0 0 0.01 0 0
          0.01 0 0 0.01 0 0 0.01 0 0 0.01 0 0
          0.01 0 0 0.01 0 0 0.01 0 0 0.01 0 0
          0.01 0 0 0.01 0 0 0.01 0 0 0.01 0 0
          0.01 0 0 0.01 0 0 0.01 0 0 0.01 0 0
          0.01 0 0
        </DataArray>
      </PointData>
      <Points>
        <DataArray type="Float32" Name="Coordinates" NumberOfComponents="3" format="ascii">
          0 0.035 0 0.000333333 0.035 0 0 0.035081 0 0.000333333 0.035081 0
          0.000666667 0.035 0 0.000666667 0.035081 0 0.001 0.035 0 0.001 0.035081 0
          0.00133333 0.035 0 0.00133333 0.035081 0 0.00166667 0.035 0 0.00166667 0.035081 0
          0.002 0.035 0 0.002 0.035081 0 0.00233333 0.035 0 0.00233333 0.035081 0
          0.00266667 0.035 0 0.00266667 0.035081 0 0.003 0.035 0 0.003 0.035081 0
          0.00333333 0.035 0 0.00333333 0.035081 0 0.00366667 0.035 0 0.00366667 0.035081 0
          0.004 0.035 0 0.004 0.035081 0 0.00433333 0.035 0 0.00433333 0.035081 0
          0.00466667 0.035 0 0.00466667 0.035081 0 0.005 0.035 0 0.005 0.035081 0
          0.00533333 0.035 0 0.00533333 0.035081 0 0.00566667 0.035 0 0.00566667 0.035081 0
          0.006 0.035 0 0.006 0.035081 0 0.00633333 0.035 0 0.00633333 0.035081 0
          0.00666667 0.035 0 0.00666667 0.035081 0 0.007 0.035 0 0.007 0.035081 0
          0.00733333 0.035 0 0.00733333 0.035081 0 0.00766667 0.035 0 0.00766667 0.035081 0
          0.008 0.035 0 0.008 0.035081 0 0.00833333 0.035 0 0.00833333 0.035081 0
          0.00866667 0.035 0 0.00866667 0.035081 0 0.009 0.035 0 0.009 0.035081 0
          0.00933333 0.035 0 0.00933333 0.035081 0 0.00966667 0.035 0 0.00966667 0.035081 0
          0.01 0.035 0 0.01 0.035081 0 0 0.0351725 0 0.000333333 0.0351725 0
          0.000666667 0.0351725 0 0.001 0.0351725 0 0.00133333 0.0351725 0 0.00166667 0.0351725 0
          0.002 0.0351725 0 0.00233333 0.0351725 0 0.00266667 0.0351725 0 0.003 0.0351725 0
          0.00333333 0.0351725 0 0.00366667 0.0351725 0 0.004 0.0351725 0 0.00433333 0.0351725 0
          0.00466667 0.0351725 0 0.005 0.0351725 0 0.00533333 0.0351725 0 0.00566667 0.0351725 0
          0.006 0.0351725 0 0.00633333 0.0351725 0 0.00666667 0.0351725 0 0.007 0.0351725 0
          0.00733333 0.0351725 0 0.00766667 0.0351725 0 0.008 0.0351725 0 0.00833333 0.0351725 0
          0.00866667 0.0351725 0 0.009 0.0351725 0 0.00933333 0.0351725 0 0.00966667 0.0351725 0
          0.01 0.0351725 0 0 0.035276 0 0.000333333 0.035276 0 0.000666667 0.035276 0
          0.001 0.035276 0 0.00133333 0.035276 0 0.00166667 0.035276 0 0.002 0.035276 0
          0.00233333 0.035276 0 0.00266667 0.035276 0 0.003 0.035276 0 0.00333333 0.035276 0
          0.00366667 0.035276 0 0.004 0.035276 0 0.00433333 0.035276 0 0.00466667 0.035276 0
          0.005 0.035276 0 0.00533333 0.035276 0 0.00566667 0.035276 0 0.006 0.035276 0
          0.00633333 0.035276 0 0.00666667 0.035276 0 0.007 0.035276 0 0.00733333 0.035276 0
          0.00766667 0.035276 0 0.008 0.035276 0 0.00833333 0.035276 0 0.00866667 0.035276 0
          0.009 0.035276 0 0.00933333 0.035276 0 0.00966667 0.035276 0 0.01 0.035276 0
          0 0.0353929 0 0.000333333 0.0353929 0 0.000666667 0.0353929 0 0.001 0.0353929 0
          0.00133333 0.0353929 0 0.00166667 0.0353929 0 0.002 0.0353929 0 0.00233333 0.0353929 0
          0.00266667 0.0353929 0 0.003 0.0353929 0 0.00333333 0.0353929 0 0.00366667 0.0353929 0
          0.004 0.0353929 0 0.00433333 0.0353929 0 0.00466667 0.0353929 0 0.005 0.0353929 0
          0.00533333 0.0353929 0 0.00566667 0.0353929 0 0.006 0.0353929 0 0.00633333 0.0353929 0
          0.00666667 0.0353929 0 0.007 0.0353929 0 0.00733333 0.0353929 0 0.00766667 0.0353929 0
          0.008 0.0353929 0 0.00833333 0.0353929 0 0.00866667 0.0353929 0 0.009 0.0353929 0
          0.00933333 0.0353929 0 0.00966667 0.0353929 0 0.01 0.0353929 0 0 0.0355249 0
          0.000333333 0.0355249 0 0.000666667 0.0355249 0 0.001 0.0355249 0 0.00133333 0.0355249 0
          0.00166667 0.0355249 0 0.002 0.0355249 0 0.00233333 0.0355249 0 0.00266667 0.0355249 0
          0.003 0.0355249 0 0.00333333 0.0355249 0 0.00366667 0.0355249 0 0.004 0.0355249 0
          0.00433333 0.0355249 0 0.00466667 0.0355249 0 0.005 0.0355249 0 0.00533333 0.0355249 0
          0.00566667 0.0355249 0 0.006 0.0355249 0 0.00633333 0.0355249 0 0.00666667 0.0355249 0
          0.007 0.0355249 0 0.00733333 0.0355249 0 0.00766667 0.0355249 0 0.008 0.0355249 0
          0.00833333 0.0355249 0 0.00866667 0.0355249 0 0.009 0.0355249 0 0.00933333 0.0355249 0
          0.00966667 0.0355249 0 0.01 0.0355249 0 0 0.0356742 0 0.000333333 0.0356742 0
          0.000666667 0.0356742 0 0.001 0.0356742 0 0.00133333 0.0356742 0 0.00166667 0.0356742 0
          0.002 0.0356742 0 0.00233333 0.0356742 0 0.00266667 0.0356742 0 0.003 0.0356742 0
          0.00333333 0.0356742 0 0.00366667 0.0356742 0 0.004 0.0356742 0 0.00433333 0.0356742 0
          0.00466667 0.0356742 0 0.005 0.0356742 0 0.00533333 0.0356742 0 0.00566667 0.0356742 0
          0.006 0.0356742 0 0.00633333 0.0356742 0 0.00666667 0.0356742 0 0.007 0.0356742 0
          0.00733333 0.0356742 0 0.00766667 0.0356742 0 0.008 0.0356742 0 0.00833333 0.0356742 0
          0.00866667 0.0356742 0 0.009 0.0356742 0 0.00933333 0.0356742 0 0.00966667 0.0356742 0
          0.01 0.0356742 0 0 0.0358428 0 0.000333333 0.0358428 0 0.000666667 0.0358428 0
          0.001 0.0358428 0 0.00133333 0.0358428 0 0.00166667 0.0358428 0 0.002 0.0358428 0
          0.00233333 0.0358428 0 0.00266667 0.0358428 0 0.003 0.0358428 0 0.00333333 0.0358428 0
          0.00366667 0.0358428 0 0.004 0.0358428 0 0.00433333 0.0358428 0 0.00466667 0.0358428 0
          0.005 0.0358428 0 0.00533333 0.0358428 0 0.00566667 0.0358428 0 0.006 0.0358428 0
          0.00633333 0.0358428 0 0.00666667 0.0358428 0 0.007 0.0358428 0 0.00733333 0.0358428 0
          0.00766667 0.0358428 0 0.008 0.0358428 0 0.00833333 0.0358428 0 0.00866667 0.0358428 0
          0.009 0.0358428 0 0.00933333 0.0358428 0 0.00966667 0.0358428 0 0.01 0.0358428 0
          0 0.0360334 0 0.000333333 0.0360334 0 0.000666667 0.0360334 0 0.001 0.0360334 0
          0.00133333 0.0360334 0 0.00166667 0.0360334 0 0.002 0.0360334 0 0.00233333 0.0360334 0
          0.00266667 0.0360334 0 0.003 0.0360334 0 0.00333333 0.0360334 0 0.00366667 0.0360334 0
          0.004 0.0360334 0 0.00433333 0.0360334 0 0.00466667 0.0360334 0 0.005 0.0360334 0
          0.00533333 0.0360334 0 0.00566667 0.0360334 0 0.006 0.0360334 0 0.00633333 0.0360334 0
          0.00666667 0.0360334 0 0.007 0.0360334 0 0.00733333 0.0360334 0 0.00766667 0.0360334 0
          0.008 0.0360334 0 0.00833333 0.0360334 0 0.00866667 0.0360334 0 0.009 0.0360334 0
          0.00933333 0.0360334 0 0.00966667 0.0360334 0 0.01 0.0360334 0 0 0.0362487 0
          0.000333333 0.0362487 0 0.000666667 0.0362487 0 0.001 0.0362487 0 0.00133333 0.0362487 0
          0.00166667 0.0362487 0 0.002 0.0362487 0 0.00233333 0.0362487 0 0.00266667 0.0362487 0
          0.003 0.0362487 0 0.00333333 0.0362487 0 0.00366667 0.0362487 0 0.004 0.0362487 0
          0.00433333 0.0362487 0 0.00466667 0.0362487 0 0.005 0.0362487 0 0.00533333 0.0362487 0
          0.00566667 0.0362487 0 0.006 0.0362487 0 0.00633333 0.0362487 0 0.00666667 0.0362487 0
          0.007 0.0362487 0 0.00733333 0.0362487 0 0.00766667 0.0362487 0 0.008 0.0362487 0
          0.00833333 0.0362487 0 0.00866667 0.0362487 0 0.009 0.0362487 0 0.00933333 0.0362487 0
          0.00966667 0.0362487 0 0.01 0.0362487 0 0 0.0364921 0 0.000333333 0.0364921 0
          0.000666667 0.0364921 0 0.001 0.0364921 0 0.00133333 0.0364921 0 0.00166667 0.0364921 0
          0.002 0.0364921 0 0.00233333 0.0364921 0 0.00266667 0.0364921 0 0.003 0.0364921 0
          0.00333333 0.0364921 0 0.00366667 0.0364921 0 0.004 0.0364921 0 0.00433333 0.0364921 0
          0.00466667 0.0364921 0 0.005 0.0364921 0 0.00533333 0.0364921 0 0.00566667 0.0364921 0
          0.006 0.0364921 0 0.00633333 0.0364921 0 0.00666667 0.0364921 0 0.007 0.0364921 0
          0.00733333 0.0364921 0 0.00766667 0.0364921 0 0.008 0.0364921 0 0.00833333 0.0364921 0
          0.00866667 0.0364921 0 0.009 0.0364921 0 0.00933333 0.0364921 0 0.00966667 0.0364921 0
          0.01 0.0364921 0 0 0.0367671 0 0.000333333 0.0367671 0 0.000666667 0.0367671 0
          0.001 0.0367671 0 0.00133333 0.0367671 0 0.00166667 0.0367671 0 0.002 0.0367671 0
          0.00233333 0.0367671 0 0.00266667 0.0367671 0 0.003 0.0367671 0 0.00333333 0.0367671 0
          0.00366667 0.0367671 0 0.004 0.0367671 0 0.00433333 0.0367671 0 0.00466667 0.0367671 0
          0.005 0.0367671 0 0.00533333 0.0367671 0 0.00566667 0.0367671 0 0.006 0.0367671 0
          0.00633333 0.0367671 0 0.00666667 0.0367671 0 0.007 0.0367671 0 0.00733333 0.0367671 0
          0.00766667 0.0367671 0 0.008 0.0367671 0 0.00833333 0.0367671 0 0.00866667 0.0367671 0
          0.009 0.0367671 0 0.00933333 0.0367671 0 0.00966667 0.0367671 0 0.01 0.0367671 0
          0 0.0370778 0 0.000333333 0.0370778 0 0.000666667 0.0370778 0 0.001 0.0370778 0
          0.00133333 0.0370778 0 0.00166667 0.0370778 0 0.002 0.0370778 0 0.00233333 0.0370778 0
          0.00266667 0.0370778 0 0.003 0.0370778 0 0.00333333 0.0370778 0 0.00366667 0.0370778 0
          0.004 0.0370778 0 0.00433333 0.0370778 0 0.00466667 0.0370778 0 0.005 0.0370778 0
          0.00533333 0.0370778 0 0.00566667 0.0370778 0 0.006 0.0370778 0 0.00633333 0.0370778 0
          0.00666667 0.0370778 0 0.007 0.0370778 0 0.00733333 0.0370778 0 0.00766667 0.0370778 0
          0.008 0.0370778 0 0.00833333 0.0370778 0 0.00866667 0.0370778 0 0.009 0.0370778 0
          0.00933333 0.0370778 0 0.00966667 0.0370778 0 0.01 0.0370778 0 0 0.0374289 0
          0.000333333 0.0374289 0 0.000666667 0.0374289 0 0.001 0.0374289 0 0.00133333 0.0374289 0
          0.00166667 0.0374289 0 0.002 0.0374289 0 0.00233333 0.0374289 0 0.00266667 0.0374289 0
          0.003 0.0374289 0 0.00333333 0.0374289 0 0.00366667 0.0374289 0 0.004 0.0374289 0
          0.00433333 0.0374289 0 0.00466667 0.0374289 0 0.005 0.0374289 0 0.00533333 0.0374289 0
          0.00566667 0.0374289 0 0.006 0.0374289 0 0.00633333 0.0374289 0 0.00666667 0.0374289 0
          0.007 0.0374289 0 0.00733333 0.0374289 0 0.00766667 0.0374289 0 0.008 0.0374289 0
          0.00833333 0.0374289 0 0.00866667 0.0374289 0 0.009 0.0374289 0 0.00933333 0.0374289 0
          0.00966667 0.0374289 0 0.01 0.0374289 0 0 0.0378256 0 0.000333333 0.0378256 0
          0.000666667 0.0378256 0 0.001 0.0378256 0 0.00133333 0.0378256 0 0.00166667 0.0378256 0
          0.002 0.0378256 0 0.00233333 0.0378256 0 0.00266667 0.0378256 0 0.003 0.0378256 0
          0.00333333 0.0378256 0 0.00366667 0.0378256 0 0.004 0.0378256 0 0.00433333 0.0378256 0
          0.00466667 0.0378256 0 0.005 0.0378256 0 0.00533333 0.0378256 0 0.00566667 0.0378256 0
          0.006 0.0378256 0 0.00633333 0.0378256 0 0.00666667 0.0378256 0 0.007 0.0378256 0
          0.00733333 0.0378256 0 0.00766667 0.0378256 0 0.008 0.0378256 0 0.00833333 0.0378256 0
          0.00866667 0.0378256 0 0.009 0.0378256 0 0.00933333 0.0378256 0 0.00966667 0.0378256 0
          0.01 0.0378256 0 0 0.038274 0 0.000333333 0.038274 0 0.000666667 0.038274 0
          0.001 0.038274 0 0.00133333 0.038274 0 0.00166667 0.038274 0 0.002 0.038274 0
          0.00233333 0.038274 0 0.00266667 0.038274 0 0.003 0.038274 0 0.00333333 0.038274 0
          0.00366667 0.038274 0 0.004 0.038274 0 0.00433333 0.038274 0 0.00466667 0.038274 0
          0.005 0.038274 0 0.00533333 0.038274 0 0.00566667 0.038274 0 0.006 0.038274 0
          0.00633333 0.038274 0 0.00666667 0.038274 0 0.007 0.038274 0 0.00733333 0.038274 0
          0.00766667 0.038274 0 0.008 0.038274 0 0.00833333 0.038274 0 0.00866667 0.038274 0
          0.009 0.038274 0 0.00933333 0.038274 0 0.00966667 0.038274 0 0.01 0.038274 0
          0 0.0387806 0 0.000333333 0.0387806 0 0.000666667 0.0387806 0 0.001 0.0387806 0
          0.00133333 0.0387806 0 0.00166667 0.0387806 0 0.002 0.0387806 0 0.00233333 0.0387806 0
          0.00266667 0.0387806 0 0.003 0.0387806 0 0.00333333 0.0387806 0 0.00366667 0.0387806 0
          0.004 0.0387806 0 0.00433333 0.0387806 0 0.00466667 0.0387806 0 0.005 0.0387806 0
          0.00533333 0.0387806 0 0.00566667 0.0387806 0 0.006 0.0387806 0 0.00633333 0.0387806 0
          0.00666667 0.0387806 0 0.007 0.0387806 0 0.00733333 0.0387806 0 0.00766667 0.0387806 0
          0.008 0.0387806 0 0.00833333 0.0387806 0 0.00866667 0.0387806 0 0.009 0.0387806 0
          0.00933333 0.0387806 0 0.00966667 0.0387806 0 0.01 0.0387806 0 0 0.0393531 0
          0.000333333 0.0393531 0 0.000666667 0.0393531 0 0.001 0.0393531 0 0.00133333 0.0393531 0
          0.00166667 0.0393531 0 0.002 0.0393531 0 0.00233333 0.0393531 0 0.00266667 0.0393531 0
          0.003 0.0393531 0 0.00333333 0.0393531 0 0.00366667 0.0393531 0 0.004 0.0393531 0
          0.00433333 0.0393531 0 0.00466667 0.0393531 0 0.005 0.0393531 0 0.00533333 0.0393531 0
          0.00566667 0.0393531 0 0.006 0.0393531 0 0.00633333 0.0393531 0 0.00666667 0.0393531 0
          0.007 0.0393531 0 0.00733333 0.0393531 0 0.00766667 0.0393531 0 0.008 0.0393531 0
          0.00833333 0.0393531 0 0.00866667 0.0393531 0 0.009 0.0393531 0 0.00933333 0.0393531 0
          0.00966667 0.0393531 0 0.01 0.0393531 0 0 0.04 0 0.000333333 0.04 0
          0.000666667 0.04 0 0.001 0.04 0 0.00133333 0.04 0 0.00166667 0.04 0
          0.002 0.04 0 0.00233333 0.04 0 0.00266667 0.04 0 0.003 0.04 0
          0.00333333 0.04 0 0.00366667 0.04 0 0.004 0.04 0 0.00433333 0.04 0
          0.00466667 0.04 0 0.005 0.04 0 0.00533333 0.04 0 0.00566667 0.04 0
          0.006 0.04 0 0.00633333 0.04 0 0.00666667 0.04 0 0.007 0.04 0
          0.00733333 0.04 0 0.00766667 0.04 0 0.008 0.04 0 0.00833333 0.04 0
          0.00866667 0.04 0 0.009 0.04 0 0.00933333 0.04 0 0.00966667 0.04 0
          0.01 0.04 0
        </DataArray>
      </Points>
      <Cells>
        <DataArray type="Int32" Name="connectivity" NumberOfComponents="1" format="ascii">
          0 1 3 2 1 4 5 3 4 6 7 5
          6 8 9 7 8 10 11 9 10 12 13 11
          12 14 15 13 14 16 17 15 16 18 19 17
          18 20 21 19 20 22 23 21 22 24 25 23
          24 26 27 25 26 28 29 27 28 30 31 29
          30 32 33 31 32 34 35 33 34 36 37 35
          36 38 39 37 38 40 41 39 40 42 43 41
          42 44 45 43 44 46 47 45 46 48 49 47
          48 50 51 49 50 52 53 51 52 54 55 53
          54 56 57 55 56 58 59 57 58 60 61 59
          2 3 63 62 3 5 64 63 5 7 65 64
          7 9 66 65 9 11 67 66 11 13 68 67
          13 15 69 68 15 17 70 69 17 19 71 70
          19 21 72 71 21 23 73 72 23 25 74 73
          25 27 75 74 27 29 76 75 29 31 77 76
          31 33 78 77 33 35 79 78 35 37 80 79
          37 39 81 80 39 41 82 81 41 43 83 82
          43 45 84 83 45 47 85 84 47 49 86 85
          49 51 87 86 51 53 88 87 53 55 89 88
          55 57 90 89 57 59 91 90 59 61 92 91
          62 63 94 93 63 64 95 94 64 65 96 95
          65 66 97 96 66 67 98 97 67 68 99 98
          68 69 100 99 69 70 101 100 70 71 102 101
          71 72 103 102 72 73 104 103 73 74 105 104
          74 75 106 105 75 76 107 106 76 77 108 107
          77 78 109 108 78 79 110 109 79 80 111 110
          80 81 112 111 81 82 113 112 82 83 114 113
          83 84 115 114 84 85 116 115 85 86 117 116
          86 87 118 117 87 88 119 118 88 89 120 119
          89 90 121 120 90 91 122 121 91 92 123 122
          93 94 125 124 94 95 126 125 95 96 127 126
          96 97 128 127 97 98 129 128 98 99 130 129
          99 100 131 130 100 101 132 131 101 102 133 132
          102 103 134 133 103 104 135 134 104 105 136 135
          105 106 137 136 106 107 138 137 107 108 139 138
          108 109 140 139 109 110 141 140 110 111 142 141
          111 112 143 142 112 113 144 143 113 114 145 144
          114 115 146 145 115 116 147 146 116 117 148 147
          117 118 149 148 118 119 150 149 119 120 151 150
          120 121 152 151 121 122 153 152 122 123 154 153
          124 125 156 155 125 126 157 156 126 127 158 157
          127 128 159 158 128 129 160 159 129 130 161 160
          130 131 162 161 131 132 163 162 132 133 164 163
          133 134 165 164 134 135 166 165 135 136 167 166
          136 137 168 167 137 138 169 168 138 139 170 169
          139 140 171 170 140 141 172 171 141 142 173 172
          142 143 174 173 143 144 175 174 144 145 176 175
          145 146 177 176 146 147 178 177 147 148 179 178
          148 149 180 179 149 150 181 180 150 151 182 181
          151 152 183 182 152 153 184 183 153 154 185 184
          155 156 187 186 156 157 188 187 157 158 189 188
          158 159 190 189 159 160 191 190 160 161 192 191
          161 162 193 192 162 163 194 193 163 164 195 194
          164 165 196 195 165 166 197 196 166 167 198 197
          167 168 199 198 168 169 200 199 169 170 201 200
          170 171 202 201 171 172 203 202 172 173 204 203
          173 174 205 204 174 175 206 205 175 176 207 206
          176 177 208 207 177 178 209 208 178 179 210 209
          179 180 211 210 180 181 212 211 181 182 213 212
          182 183 214 213 183 184 215 214 184 185 216 215
          186 187 218 217 187 188 219 218 188 189 220 219
          189 190 221 220 190 191 222 221 191 192 223 222
          192 193 224 223 193 194 225 224 194 195 226 225
          195 196 227 226 196 197 228 227 197 198 229 228
          198 199 230 229 199 200 231 230 200 201 232 231
          201 202 233 232 202 203 234 233 203 204 235 234
          204 205 236 235 205 206 237 236 206 207 238 237
          207 208 239 238 208 209 240 239 209 210 241 240
          210 211 242 241 211 212 243 242 212 213 244 243
          213 214 245 244 214 215 246 245 215 216 247 246
          217 218 249 248 218 219 250 249 219 220 251 250
          220 221 252 251 221 222 253 252 222 223 254 253
          223 224 255 254 224 225 256 255 225 226 257 256
          226 227 258 257 227 228 259 258 228 229 260 259
          229 230 261 260 230 231 262 261 231 232 263 262
          232 233 264 263 233 234 265 264 234 235 266 265
          235 236 267 266 236 237 268 267 237 238 269 268
          238 239 270 269 239 240 271 270 240 241 272 271
          241 242 273 272 242 243 274 273 243 244 275 274
          244 245 276 275 245 246 277 276 246 247 278 277
          248 249 280 279 249 250 281 280 250 251 282 281
          251 252 283 282 252 253 284 283 253 254 285 284
          254 255 286 285 255 256 287 286 256 257 288 287
          257 258 289 288 258 259 290 289 259 260 291 290
          260 261 292 291 261 262 293 292 262 263 294 293
          263 264 295 294 264 265 296 295 265 266 297 296
          266 267 298 297 267 268 299 298 268 269 300 299
          269 270 301 300 270 271 302 301 271 272 303 302
          272 273 304 303 273 274 305 304 274 275 306 305
          275 276 307 306 276 277 308 307 277 278 309 308
          279 280 311 310 280 281 312 311 281 282 313 312
          282 283 314 313 283 284 315 314 284 285 316 315
          285 286 317 316 286 287 318 317 287 288 319 318
          288 289 320 319 289 290 321 320 290 291 322 321
          291 292 323 322 292 293 324 323 293 294 325 324
          294 295 326 325 295 296 327 326 296 297 328 327
          297 298 329 328 298 299 330 329 299 300 331 330
          300 301 332 331 301 302 333 332 302 303 334 333
          303 304 335 334 304 305 336 335 305 306 337 336
          306 307 338 337 307 308 339 338 308 309 340 339
          310 311 342 341 311 312 343 342 312 313 344 343
          313 314 345 344 314 315 346 345 315 316 347 346
          316 317 348 347 317 318 349 348 318 319 350 349
          319 320 351 350 320 321 352 351 321 322 353 352
          322 323 354 353 323 324 355 354 324 325 356 355
          325 326 357 356 326 327 358 357 327 328 359 358
          328 329 360 359 329 330 361 360 330 331 362 361
          331 332 363 362 332 333 364 363 333 334 365 364
          334 335 366 365 335 336 367 366 336 337 368 367
          337 338 369 368 338 339 370 369 339 340 371 370
          341 342 373 372 342 343 374 373 343 344 375 374
          344 345 376 375 345 346 377 376 346 347 378 377
          347 348 379 378 348 349 380 379 349 350 381 380
          350 351 382 381 351 352 383 382 352 353 384 383
          353 354 385 384 354 355 386 385 355 356 387 386
          356 357 388 387 357 358 389 388 358 359 390 389
          359 360 391 390 360 361 392 391 361 362 393 392
          362 363 394 393 363 364 395 394 364 365 396 395
          365 366 397 396 366 367 398 397 367 368 399 398
          368 369 400 399 369 370 401 400 370 371 402 401
          372 373 404 403 373 374 405 404 374 375 406 405
          375 376 407 406 376 377 408 407 377 378 409 408
          378 379 410 409 379 380 411 410 380 381 412 411
          381 382 413 412 382 383 414 413 383 384 415 414
          384 385 416 415 385 386 417 416 386 387 418 417
          387 388 419 418 388 389 420 419 389 390 421 420
          390 391 422 421 391 392 423 422 392 393 424 423
          393 394 425 424 394 395 426 425 395 396 427 426
          396 397 428 427 397 398 429 428 398 399 430 429
          399 400 431 430 400 401 432 431 401 402 433 432
          403 404 435 434 404 405 436 435 405 406 437 436
          406 407 438 437 407 408 439 438 408 409 440 439
          409 410 441 440 410 411 442 441 411 412 443 442
          412 413 444 443 413 414 445 444 414 415 446 445
          415 416 447 446 416 417 448 447 417 418 449 448
          418 419 450 449 419 420 451 450 420 421 452 451
          421 422 453 452 422 423 454 453 423 424 455 454
          424 425 456 455 425 426 457 456 426 427 458 457
          427 428 459 458 428 429 460 459 429 430 461 460
          430 431 462 461 431 432 463 462 432 433 464 463
          434 435 466 465 435 436 467 466 436 437 468 467
          437 438 469 468 438 439 470 469 439 440 471 470
          440 441 472 471 441 442 473 472 442 443 474 473
          443 444 475 474 444 445 476 475 445 446 477 476
          446 447 478 477 447 448 479 478 448 449 480 479
          449 450 481 480 450 451 482 481 451 452 483 482
          452 453 484 483 453 454 485 484 454 455 486 485
          455 456 487 486 456 457 488 487 457 458 489 488
          458 459 490 489 459 460 491 490 460 461 492 491
          461 462 493 492 462 463 494 493 463 464 495 494
          465 466 497 496 466 467 498 497 467 468 499 498
          468 469 500 499 469 470 501 500 470 471 502 501
          471 472 503 502 472 473 504 503 473 474 505 504
          474 475 506 505 475 476 507 506 476 477 508 507
          477 478 509 508 478 479 510 509 479 480 511 510
          480 481 512 511 481 482 513 512 482 483 514 513
          483 484 515 514 484 485 516 515 485 486 517 516
          486 487 518 517 487 488 519 518 488 489 520 519
          489 490 521 520 490 491 522 521 491 492 523 522
          492 493 524 523 493 494 525 524 494 495 526 525
          496 497 528 527 497 498 529 528 498 499 530 529
          499 500 531 530 500 501 532 531 501 502 533 532
          502 503 534 533 503 504 535 534 504 505 536 535
          505 506 537 536 506 507 538 537 507 508 539 538
          508 509 540 539 509 510 541 540 510 511 542 541
          511 512 543 542 512 513 544 543 513 514 545 544
          514 515 546 545 515 516 547 546 516 517 548 547
          517 518 549 548 518 519 550 549 519 520 551 550
          520 521 552 551 521 522 553 552 522 523 554 553
          523 524 555 554 524 525 556 555 525 526 557 556
          527 528 559 558 528 529 560 559 529 530 561 560
          530 531 562 561 531 532 563 562 532 533 564 563
          533 534 565 564 534 535 566 565 535 536 567 566
          536 537 568 567 537 538 569 568 538 539 570 569
          539 540 571 570 540 541 572 571 541 542 573 572
          542 543 574 573 543 544 575 574 544 545 576 575
          545 546 577 576 546 547 578 577 547 548 579 578
          548 549 580 579 549 550 581 580 550 551 582 581
          551 552 583 582 552 553 584 583 553 554 585 584
          554 555 586 585 555 556 587 586 556 557 588 587
        </DataArray>
        <DataArray type="Int32" Name="offsets" NumberOfComponents="1" format="ascii">
          4 8 12 16 20 24 28 32 36 40 44 48
          52 56 60 64 68 72 76 80 84 88 92 96
          100 104 108 112 116 120 124 128 132 136 140 144
          148 152 156 160 164 168 172 176 180 184 188 192
          196 200 204 208 212 216 220 224 228 232 236 240
          244 248 252 256 260 264 268 272 276 280 284 288
          292 296 300 304 308 312 316 320 324 328 332 336
          340 344 348 352 356 360 364 368 372 376 380 384
          388 392 396 400 404 408 412 416 420 424 428 432
          436 440 444 448 452 456 460 464 468 472 476 480
          484 488 492 496 500 504 508 512 516 520 524 528
          532 536 540 544 548 552 556 560 564 568 572 576
          580 584 588 592 596 600 604 608 612 616 620 624
          628 632 636 640 644 648 652 656 660 664 668 672
          676 680 684 688 692 696 700 704 708 712 716 720
          724 728 732 736 740 744 748 752 756 760 764 768
          772 776 780 784 788 792 796 800 804 808 812 816
          820 824 828 832 836 840 844 848 852 856 860 864
          868 872 876 880 884 888 892 896 900 904 908 912
          916 920 924 928 932 936 940 944 948 952 956 960
          964 968 972 976 980 984 988 992 996 1000 1004 1008
          1012 1016 1020 1024 1028 1032 1036 1040 1044 1048 1052 1056
          1060 1064 1068 1072 1076 1080 1084 1088 1092 1096 1100 1104
          1108 1112 1116 1120 1124 1128 1132 1136 1140 1144 1148 1152
          1156 1160 1164 1168 1172 1176 1180 1184 1188 1192 1196 1200
          1204 1208 1212 1216 1220 1224 1228 1232 1236 1240 1244 1248
          1252 1256 1260 1264 1268 1272 1276 1280 1284 1288 1292 1296
          1300 1304 1308 1312 1316 1320 1324 1328 1332 1336 1340 1344
          1348 1352 1356 1360 1364 1368 1372 1376 1380 1384 1388 1392
          1396 1400 1404 1408 1412 1416 1420 1424 1428 1432 1436 1440
          1444 1448 1452 1456 1460 1464 1468 1472 1476 1480 1484 1488
          1492 1496 1500 1504 1508 1512 1516 1520 1524 1528 1532 1536
          1540 1544 1548 1552 1556 1560 1564 1568 1572 1576 1580 1584
          1588 1592 1596 1600 1604 1608 1612 1616 1620 1624 1628 1632
          1636 1640 1644 1648 1652 1656 1660 1664 1668 1672 1676 1680
          1684 1688 1692 1696 1700 1704 1708 1712 1716 1720 1724 1728
          1732 1736 1740 1744 1748 1752 1756 1760 1764 1768 1772 1776
          1780 1784 1788 1792 1796 1800 1804 1808 1812 1816 1820 1824
          1828 1832 1836 1840 1844 1848 1852 1856 1860 1864 1868 1872
          1876 1880 1884 1888 1892 1896 1900 1904 1908 1912 1916 1920
          1924 1928 1932 1936 1940 1944 1948 1952 1956 1960 1964 1968
          1972 1976 1980 1984 1988 1992 1996 2000 2004 2008 2012 2016
          2020 2024 2028 2032 2036 2040 2044 2048 2052 2056 2060 2064
          2068 2072 2076 2080 2084 2088 2092 2096 2100 2104 2108 2112
          2116 2120 2124 2128 2132 2136 2140 2144 2148 2152 2156 2160
        </DataArray>
        <DataArray type="UInt8" Name="types" NumberOfComponents="1" format="ascii">
          9 9 9 9 9 9 9 9 9 9 9 9
          9 9 9 9 9 9 9 9 9 9 9 9
          9 9 9 9 9 9 9 9 9 9 9 9
          9 9 9 9 9 9 9 9 9 9 9 9
          9 9 9 9 9 9 9 9 9 9 9 9
          9 9 9 9 9 9 9 9 9 9 9 9
          9 9 9 9 9 9 9 9 9 9 9 9
          9 9 9 9 9 9 9 9 9 9 9 9
          9 9 9 9 9 9 9 9 9 9 9 9
          9 9 9 9 9 9 9 9 9 9 9 9
          9 9 9 9 9 9 9 9 9 9 9 9
          9 9 9 9 9 9 9 9 9 9 9 9
          9 9 9 9 9 9 9 9 9 9 9 9
          9 9 9 9 9 9 9 9 9 9 9 9
          9 9 9 9 9 9 9 9 9 9 9 9
          9 9 9 9 9 9 9 9 9 9 9 9
          9 9 9 9 9 9 9 9 9 9 9 9
          9 9 9 9 9 9 9 9 9 9 9 9
          9 9 9 9 9 9 9 9 9 9 9 9
          9 9 9 9 9 9 9 9 9 9 9 9
          9 9 9 9 9 9 9 9 9 9 9 9
          9 9 9 9 9 9 9 9 9 9 9 9
          9 9 9 9 9 9 9 9 9 9 9 9
          9 9 9 9 9 9 9 9 9 9 9 9
          9 9 9 9 9 9 9 9 9 9 9 9
          9 9 9 9 9 9 9 9 9 9 9 9
          9 9 9 9 9 9 9 9 9 9 9 9
          9 9 9 9 9 9 9 9 9 9 9 9
          9 9 9 9 9 9 9 9 9 9 9 9
          9 9 9 9 9 9 9 9 9 9 9 9
          9 9 9 9 9 9 9 9 9 9 9 9
          9 9 9 9 9 9 9 9 9 9 9 9
          9 9 9 9 9 9 9 9 9 9 9 9
          9 9 9 9 9 9 9 9 9 9 9 9
          9 9 9 9 9 9 9 9 9 9 9 9
          9 9 9 9 9 9 9 9 9 9 9 9
          9 9 9 9 9 9 9 9 9 9 9 9
          9 9 9 9 9 9 9 9 9 9 9 9
          9 9 9 9 9 9 9 9 9 9 9 9
          9 9 9 9 9 9 9 9 9 9 9 9
          9 9 9 9 9 9 9 9 9 9 9 9
          9 9 9 9 9 9 9 9 9 9 9 9
          9 9 9 9 9 9 9 9 9 9 9 9
          9 9 9 9 9 9 9 9 9 9 9 9
          9 9 9 9 9 9 9 9 9 9 9 9
        </DataArray>
      </Cells>
    </Piece>
  </UnstructuredGrid>
</VTKFile>
