<?xml version="1.0"?>
<VTKFile type="UnstructuredGrid" version="0.1" byte_order="LittleEndian">
  <UnstructuredGrid>
    <Piece NumberOfCells="540" NumberOfPoints="589">
      <PointData Scalars="temperature" Vectors="v">
        <DataArray type="Float32" Name="temperature" NumberOfComponents="1" format="ascii">
          304.205 304.386 296.5 302.562 304.463 303.194 304.526 303.538 304.579 303.763 304.625 303.923
          304.665 304.049 304.702 304.151 304.736 304.239 304.767 304.316 304.796 304.385 304.823 304.447
          304.848 304.504 304.871 304.555 304.893 304.603 304.914 304.646 304.933 304.686 304.951 304.722
          304.969 304.756 304.985 304.789 305.001 304.824 305.016 304.863 305.031 304.909 305.046 304.967
          305.06 305.035 305.071 305.107 305.08 305.17 305.083 305.202 305.082 305.18 305.075 305.124
          305.069 305.15 290.586 298.906 301.508 302.279 302.75 303.065 303.301 303.487 303.641 303.774
          303.891 303.996 304.09 304.176 304.254 304.324 304.388 304.446 304.499 304.551 304.605 304.667
          304.744 304.843 304.966 305.106 305.239 305.323 305.306 305.204 305.15 286.708 294.523 298.943
          300.637 301.47 302.003 302.385 302.679 302.918 303.12 303.295 303.452 303.592 303.718 303.832
          303.935 304.028 304.112 304.189 304.262 304.336 304.42 304.526 304.664 304.841 305.052 305.267
          305.428 305.454 305.323 305.15 284.556 290.426 295.599 298.399 299.827 300.672 301.255 301.691
          302.038 302.326 302.574 302.792 302.988 303.163 303.321 303.463 303.592 303.707 303.812 303.909
          304.006 304.113 304.244 304.417 304.644 304.925 305.232 305.495 305.602 305.47 305.15 283.656
          287.275 291.999 295.531 297.688 298.985 299.847 300.474 300.961 301.36 301.697 301.992 302.254
          302.489 302.7 302.89 303.061 303.215 303.353 303.48 303.603 303.733 303.889 304.092 304.362
          304.709 305.11 305.493 305.718 305.625 305.15 283.527 285.311 288.808 292.335 295.031 296.854
          298.087 298.968 299.64 300.179 300.63 301.019 301.362 301.669 301.945 302.193 302.415 302.616
          302.796 302.959 303.112 303.269 303.448 303.677 303.983 304.388 304.879 305.391 305.763 305.754
          305.15 283.748 284.414 286.509 289.348 292.09 294.291 295.92 297.114 298.021 298.74 299.333
          299.839 300.281 300.675 301.029 301.346 301.632 301.889 302.12 302.328 302.52 302.708 302.913
          303.165 303.5 303.951 304.523 305.164 305.702 305.826 305.15 284.052 284.253 285.253 287.097
          289.349 291.542 293.413 294.902 296.072 297.005 297.771 298.419 298.982 299.479 299.926 300.327
          300.688 301.013 301.306 301.57 301.81 302.038 302.274 302.551 302.911 303.399 304.039 304.797
          305.508 305.808 305.15 284.302 284.461 284.867 285.829 287.312 289.078 290.858 292.469 293.841
          294.983 295.937 296.746 297.447 298.065 298.619 299.117 299.566 299.972 300.34 300.671 300.971
          301.25 301.528 301.836 302.221 302.739 303.433 304.292 305.171 305.682 305.15 284.499 284.778
          285.02 285.464 286.255 287.389 288.75 290.184 291.56 292.807 293.905 294.863 295.703 296.449
          297.117 297.722 298.271 298.769 299.221 299.632 300.005 300.349 300.68 301.03 301.446 301.991
          302.727 303.668 304.7 305.443 305.15 284.691 285.104 285.411 285.702 286.103 286.706 287.537
          288.554 289.678 290.821 291.921 292.943 293.876 294.723 295.495 296.202 296.848 297.441 297.985
          298.483 298.94 299.36 299.758 300.16 300.614 301.187 301.954 302.957 304.12 305.104 305.15
          284.969 285.48 285.907 286.256 286.572 286.923 287.374 287.962 288.693 289.534 290.439 291.361
          292.265 293.13 293.947 294.715 295.435 296.106 296.731 297.312 297.851 298.352 298.823 299.287
          299.784 300.382 301.166 302.206 303.47 304.687 305.15 285.408 286.016 286.551 287.014 287.409
          287.754 288.083 288.437 288.857 289.364 289.961 290.633 291.354 292.099 292.847 293.586 294.307
          295.003 295.668 296.301 296.901 297.466 298.002 298.521 299.055 299.664 300.441 301.48 302.804
          304.227 305.15 286.135 286.873 287.515 288.082 288.585 289.027 289.411 289.75 290.066 290.39
          290.747 291.155 291.622 292.14 292.702 293.294 293.906 294.529 295.152 295.767 296.368 296.951
          297.513 298.057 298.601 299.19 299.912 300.887 302.202 303.773 305.15 287.37 288.297 289.071
          289.738 290.327 290.854 291.325 291.739 292.098 292.412 292.695 292.969 293.253 293.563 293.908
          294.29 294.708 295.161 295.641 296.139 296.65 297.165 297.677 298.182 298.682 299.201 299.802
          300.613 301.792 303.393 305.15 289.67 290.828 291.716 292.458 293.091 293.646 294.142 294.587
          294.982 295.328 295.625 295.879 296.103 296.31 296.514 296.728 296.959 297.215 297.499 297.811
          298.148 298.505 298.876 299.255 299.637 300.023 300.44 300.976 301.815 303.209 305.15 294.127
          295.806 296.529 297.138 297.653 298.095 298.48 298.822 299.128 299.401 299.641 299.849 300.026
          300.177 300.306 300.423 300.534 300.646 300.765 300.897 301.044 301.206 301.383 301.572 301.77
          301.972 302.178 302.409 302.755 303.47 305.15 295.026 305.15 305.15 305.15 305.15 305.15
          305.15 305.15 305.15 305.15 305.15 305.15 305.15 305.15 305.15 305.15 305.15 305.15
          305.15 305.15 305.15 305.15 305.15 305.15 305.15 305.15 305.15 305.15 305.15 305.15
          305.15
        </DataArray>
        <DataArray type="Float32" Name="pg" NumberOfComponents="1" format="ascii">
          293882 293882 293882 293882 293882 293882 293882 293882 293882 293882 293882 293882
          293882 293882 293882 293882 293882 293882 293882 293882 293882 293882 293882 293882
          293882 293882 293882 293882 293882 293882 293882 293882 293882 293882 293882 293882
          293882 293882 293882 293882 293882 293882 293882 293882 293882 293882 293882 293882
          293882 293882 293882 293882 293882 293882 293882 293882 293882 293882 293882 293882
          293882 293882 293882 293882 293882 293882 293882 293882 293882 293882 293882 293882
          293882 293882 293882 293882 293882 293882 293882 293882 293882 293882 293882 293882
          293882 293882 293882 293882 293882 293882 293882 293882 293882 293882 293882 293882
          293882 293882 293882 293882 293882 293882 293882 293882 293882 293882 293882 293882
          293882 293882 293882 293882 293882 293882 293882 293882 293882 293882 293882 293882
          293882 293882 293882 293882 293882 293882 293882 293882 293882 293882 293882 293882
          293882 293882 293882 293882 293882 293882 293882 293882 293882 293882 293882 293882
          293882 293882 293882 293882 293882 293882 293882 293882 293882 293882 293882 293882
          293882 293882 293882 293882 293882 293882 293882 293882 293882 293882 293882 293882
          293882 293882 293882 293882 293882 293882 293882 293882 293882 293882 293882 293882
          293882 293882 293882 293882 293882 293882 293882 293882 293882 293882 293882 293882
          293882 293882 293882 293882 293882 293882 293882 293882 293882 293882 293882 293882
          293882 293882 293882 293882 293882 293882 293882 293882 293882 293882 293882 293882
          293882 293882 293882 293882 293882 293882 293882 293882 293882 293882 293882 293882
          293882 293882 293882 293882 293882 293882 293882 293882 293882 293882 293882 293882
          293882 293882 293882 293882 293882 293882 293882 293882 293882 293882 293882 293882
          293882 293882 293882 293882 293882 293882 293882 293882 293882 293882 293882 293882
          293882 293882 293882 293882 293882 293882 293882 293882 293882 293882 293882 293882
          293882 293882 293882 293882 293882 293882 293882 293882 293882 293882 293882 293882
          293882 293882 293882 293882 293882 293882 293882 293882 293882 293882 293882 293882
          293882 293882 293882 293882 293882 293882 293882 293882 293882 293882 293882 293882
          293882 293882 293882 293882 293882 293882 293882 293882 293882 293882 293882 293882
          293882 293882 293882 293882 293882 293882 293882 293882 293882 293882 293882 293882
          293882 293882 293882 293882 293882 293882 293882 293882 293882 293882 293882 293882
          293882 293882 293882 293882 293882 293882 293882 293882 293882 293882 293882 293882
          293882 293882 293882 293882 293882 293882 293882 293882 293882 293882 293882 293882
          293882 293882 293882 293882 293882 293882 293882 293882 293882 293882 293882 293882
          293882 293882 293882 293882 293882 293882 293882 293882 293882 293882 293882 293882
          293882 293882 293882 293882 293882 293882 293882 293882 293882 293882 293882 293882
          293882 293882 293882 293882 293882 293882 293882 293882 293882 293882 293882 293882
          293882 293882 293882 293882 293882 293882 293882 293882 293882 293882 293882 293882
          293882 293882 293882 293882 293882 293882 293882 293882 293882 293882 293882 293882
          293882 293882 293882 293882 293882 293882 293882 293882 293882 293882 293882 293882
          293882 293882 293882 293882 293882 293882 293882 293882 293882 293882 293882 293882
          293882 293882 293882 293882 293882 293882 293882 293882 293882 293882 293882 293882
          293882 293882 293882 293882 293882 293882 293882 293882 293882 293882 293882 293882
          293882 293882 293882 293882 293882 293882 293882 293882 293882 293882 293882 293882
          293882 293882 293882 293882 293882 293882 293882 293882 293882 293882 293882 293882
          293882 293882 293882 293882 293882 293882 293882 293882 293882 293882 293882 293882
          293882 293882 293882 293882 293882 293882 293882 293882 293882 293882 293882 293882
          293882 293882 293882 293882 293882 293882 293882 293882 293882 293882 293882 293882
          293882 293882 293882 293882 293882 293882 293882 293882 293882 293882 293882 293882
          293882 293882 293882 293882 293882 293882 293882 293882 293882 293882 293882 293882
          293882 293882 293882 293882 293882 293882 293882 293882 293882 293882 293882 293882
          293882
        </DataArray>
        <DataArray type="Float32" Name="delP" NumberOfComponents="1" format="ascii">
          193882 193882 193882 193882 193882 193882 193882 193882 193882 193882 193882 193882
          193882 193882 193882 193882 193882 193882 193882 193882 193882 193882 193882 193882
          193882 193882 193882 193882 193882 193882 193882 193882 193882 193882 193882 193882
          193882 193882 193882 193882 193882 193882 193882 193882 193882 193882 193882 193882
          193882 193882 193882 193882 193882 193882 193882 193882 193882 193882 193882 193882
          193882 193882 193882 193882 193882 193882 193882 193882 193882 193882 193882 193882
          193882 193882 193882 193882 193882 193882 193882 193882 193882 193882 193882 193882
          193882 193882 193882 193882 193882 193882 193882 193882 193882 193882 193882 193882
          193882 193882 193882 193882 193882 193882 193882 193882 193882 193882 193882 193882
          193882 193882 193882 193882 193882 193882 193882 193882 193882 193882 193882 193882
          193882 193882 193882 193882 193882 193882 193882 193882 193882 193882 193882 193882
          193882 193882 193882 193882 193882 193882 193882 193882 193882 193882 193882 193882
          193882 193882 193882 193882 193882 193882 193882 193882 193882 193882 193882 193882
          193882 193882 193882 193882 193882 193882 193882 193882 193882 193882 193882 193882
          193882 193882 193882 193882 193882 193882 193882 193882 193882 193882 193882 193882
          193882 193882 193882 193882 193882 193882 193882 193882 193882 193882 193882 193882
          193882 193882 193882 193882 193882 193882 193882 193882 193882 193882 193882 193882
          193882 193882 193882 193882 193882 193882 193882 193882 193882 193882 193882 193882
          193882 193882 193882 193882 193882 193882 193882 193882 193882 193882 193882 193882
          193882 193882 193882 193882 193882 193882 193882 193882 193882 193882 193882 193882
          193882 193882 193882 193882 193882 193882 193882 193882 193882 193882 193882 193882
          193882 193882 193882 193882 193882 193882 193882 193882 193882 193882 193882 193882
          193882 193882 193882 193882 193882 193882 193882 193882 193882 193882 193882 193882
          193882 193882 193882 193882 193882 193882 193882 193882 193882 193882 193882 193882
          193882 193882 193882 193882 193882 193882 193882 193882 193882 193882 193882 193882
          193882 193882 193882 193882 193882 193882 193882 193882 193882 193882 193882 193882
          193882 193882 193882 193882 193882 193882 193882 193882 193882 193882 193882 193882
          193882 193882 193882 193882 193882 193882 193882 193882 193882 193882 193882 193882
          193882 193882 193882 193882 193882 193882 193882 193882 193882 193882 193882 193882
          193882 193882 193882 193882 193882 193882 193882 193882 193882 193882 193882 193882
          193882 193882 193882 193882 193882 193882 193882 193882 193882 193882 193882 193882
          193882 193882 193882 193882 193882 193882 193882 193882 193882 193882 193882 193882
          193882 193882 193882 193882 193882 193882 193882 193882 193882 193882 193882 193882
          193882 193882 193882 193882 193882 193882 193882 193882 193882 193882 193882 193882
          193882 193882 193882 193882 193882 193882 193882 193882 193882 193882 193882 193882
          193882 193882 193882 193882 193882 193882 193882 193882 193882 193882 193882 193882
          193882 193882 193882 193882 193882 193882 193882 193882 193882 193882 193882 193882
          193882 193882 193882 193882 193882 193882 193882 193882 193882 193882 193882 193882
          193882 193882 193882 193882 193882 193882 193882 193882 193882 193882 193882 193882
          193882 193882 193882 193882 193882 193882 193882 193882 193882 193882 193882 193882
          193882 193882 193882 193882 193882 193882 193882 193882 193882 193882 193882 193882
          193882 193882 193882 193882 193882 193882 193882 193882 193882 193882 193882 193882
          193882 193882 193882 193882 193882 193882 193882 193882 193882 193882 193882 193882
          193882 193882 193882 193882 193882 193882 193882 193882 193882 193882 193882 193882
          193882 193882 193882 193882 193882 193882 193882 193882 193882 193882 193882 193882
          193882 193882 193882 193882 193882 193882 193882 193882 193882 193882 193882 193882
          193882 193882 193882 193882 193882 193882 193882 193882 193882 193882 193882 193882
          193882 193882 193882 193882 193882 193882 193882 193882 193882 193882 193882 193882
          193882 193882 193882 193882 193882 193882 193882 193882 193882 193882 193882 193882
          193882
        </DataArray>
        <DataArray type="Float32" Name="xH2Og" NumberOfComponents="1" format="ascii">
          0.0131283 0.0135335 0.00985494 0.0128126 0.0136141 0.0131052 0.0136669 0.0132478 0.0137166 0.0133509 0.0137616 0.0134322
          0.0137936 0.0134933 0.0138286 0.0135474 0.013856 0.0135927 0.0138869 0.013636 0.0139092 0.0136719 0.0139314 0.0137039
          0.0139529 0.0137339 0.013971 0.0137599 0.0139878 0.0137828 0.0140059 0.0138053 0.0140207 0.0138246 0.0140349 0.0138416
          0.0140506 0.0138583 0.0140597 0.0138691 0.0140697 0.0138769 0.0140779 0.0138807 0.0140831 0.0138772 0.0140848 0.0138628
          0.0140834 0.0138331 0.0140714 0.0137749 0.0140552 0.0136781 0.0140124 0.0135054 0.0139853 0.0132377 0.013801 0.0127671
          0.013363 0.0062 0.00707345 0.0112721 0.0124381 0.0127292 0.0129094 0.0130399 0.013138 0.0132179 0.0132848 0.0133445
          0.0133959 0.0134405 0.0134809 0.0135163 0.013547 0.0135753 0.0136 0.0136209 0.0136398 0.0136527 0.01366 0.0136607
          0.0136504 0.0136231 0.0135698 0.0134726 0.0133081 0.0130263 0.0125628 0.0117698 0.0062 0.00494216 0.00924909 0.0113797
          0.0120648 0.0123678 0.0125679 0.0127145 0.0128291 0.012923 0.0130038 0.0130736 0.013134 0.0131875 0.0132345 0.013275
          0.0133109 0.0133422 0.0133685 0.0133907 0.0134068 0.0134151 0.0134143 0.0133996 0.013363 0.0132919 0.0131643 0.0129469
          0.0125793 0.0119664 0.0109287 0.0062 0.00346398 0.00712216 0.00987581 0.0111401 0.0116847 0.0119918 0.0122052 0.0123665
          0.0124956 0.0126036 0.0126962 0.0127761 0.012846 0.0129072 0.0129601 0.013006 0.0130456 0.0130789 0.0131063 0.0131266
          0.0131377 0.0131376 0.0131212 0.0130792 0.0129967 0.0128484 0.0125939 0.0121655 0.0114487 0.0102408 0.0062 0.002562
          0.00521829 0.00805943 0.0098655 0.0107847 0.0112731 0.0115851 0.0118111 0.0119869 0.0121306 0.0122521 0.0123564 0.0124469
          0.012526 0.0125942 0.012653 0.0127035 0.0127459 0.0127805 0.0128068 0.0128227 0.0128256 0.0128105 0.0127675 0.0126802
          0.0125213 0.0122462 0.0117818 0.0110036 0.00969319 0.0062 0.00211284 0.00375317 0.00619468 0.00827138 0.00959369 0.0103529
          0.0108174 0.0111367 0.0113768 0.0115682 0.011727 0.0118621 0.0119787 0.0120801 0.0121678 0.0122431 0.0123076 0.0123619
          0.0124064 0.0124408 0.0124638 0.0124725 0.0124618 0.0124224 0.0123371 0.012178 0.011898 0.0114214 0.0106186 0.0092636
          0.0062 0.00197308 0.00280435 0.0045637 0.00653296 0.00811409 0.00917417 0.00985264 0.010308 0.0106386 0.0108948 0.011103
          0.0112778 0.0114275 0.0115571 0.0116693 0.0117658 0.0118482 0.011918 0.0119756 0.0120213 0.012054 0.0120715 0.012069
          0.0120377 0.0119611 0.0118114 0.0115414 0.0110739 0.0102781 0.0089271 0.0062 0.00201182 0.00232458 0.00337062 0.00491882
          0.00648299 0.00774551 0.00865209 0.00928434 0.00973943 0.0100843 0.0103587 0.0105852 0.0107772 0.0109424 0.0110855 0.0112088
          0.0113143 0.0114041 0.011479 0.0115396 0.0115856 0.0116154 0.0116249 0.0116064 0.0115447 0.0114135 0.0111664 0.0107267
          0.00996413 0.00865581 0.0062 0.00212669 0.00218797 0.00267628 0.00367158 0.00494527 0.00619686 0.00724407 0.00804816 0.00865086
          0.00910958 0.00947053 0.00976434 0.0100104 0.0102207 0.0104023 0.0105592 0.010694 0.0108093 0.0109065 0.0109869 0.0110505
          0.0110967 0.0111225 0.0111217 0.011081 0.0109761 0.0107631 0.0103669 0.00965976 0.00842599 0.0062 0.00225783 0.00224911
          0.00241013 0.00291506 0.00375467 0.00476951 0.0057773 0.00666119 0.00738484 0.00796195 0.00842362 0.00879957 0.00911256 0.00937833
          0.00960722 0.00980538 0.00997642 0.0101236 0.0102492 0.0103547 0.0104412 0.0105087 0.0105557 0.0105776 0.0105634 0.0104918
          0.010322 0.0099821 0.00934854 0.00821507 0.0062 0.002381 0.0023931 0.0024272 0.00261739 0.00305085 0.00370901 0.00449603
          0.00530133 0.00604576 0.00669312 0.00723971 0.00769771 0.00808363 0.00841249 0.00869604 0.00894238 0.00915624 0.00934168 0.00950162
          0.00963828 0.00975321 0.00984744 0.0099207 0.00997028 0.00998796 0.00995548 0.00983624 0.00956294 0.00901835 0.00800745 0.0062
          0.002503 0.00256013 0.00258677 0.00264434 0.00281436 0.00314574 0.00363096 0.00421934 0.00484642 0.00545837 0.00602242 0.00652518
          0.00696613 0.00735108 0.0076878 0.00798349 0.00824305 0.00847048 0.00866908 0.00884144 0.00898963 0.00911533 0.00921942 0.00930097
          0.00935452 0.00936545 0.00930197 0.00910285 0.00865935 0.00778991 0.0062 0.00264458 0.00274258 0.00280528 0.00284792 0.0029108
          0.00304198 0.00327338 0.00360851 0.00402605 0.004492 0.00497237 0.00544087 0.00588116 0.0062855 0.00665212 0.00698263 0.00727923
          0.00754396 0.00777911 0.00798685 0.00816914 0.00832787 0.00846456 0.00857969 0.00867043 0.00872618 0.0087208 0.00860061 0.00826762
          0.00755613 0.0062 0.00284049 0.00296975 0.00306978 0.00314177 0.00319669 0.00325754 0.00335215 0.0035026 0.0037182 0.00399462
          0.00431774 0.00466924 0.00503138 0.00538989 0.0057349 0.00606079 0.00636471 0.00664481 0.00690044 0.00713183 0.00733969 0.0075251
          0.00768937 0.00783357 0.00795694 0.00805311 0.00810265 0.00806115 0.00784343 0.00730244 0.0062 0.00314017 0.00329639 0.00342275
          0.00352403 0.0036027 0.00366508 0.00372293 0.00379149 0.00388529 0.00401437 0.00418229 0.00438644 0.00461972 0.00487285 0.00513636
          0.00540212 0.00566419 0.0059175 0.00615827 0.00638396 0.00659307 0.00678492 0.00695952 0.00711737 0.00725864 0.0073807 0.00747208
          0.00750057 0.007396 0.00703193 0.0062 0.0036411 0.00381938 0.00395376 0.00406566 0.00415803 0.00423312 0.00429406 0.0043461
          0.00439665 0.00445403 0.00452576 0.00461709 0.00473029 0.00486464 0.0050171 0.0051833 0.00535861 0.00553862 0.00571906 0.00589625
          0.00606724 0.0062298 0.00638247 0.00652447 0.00665558 0.00677528 0.0068795 0.00695187 0.00694519 0.0067536 0.0062 0.00448835
          0.00473338 0.00482408 0.0049046 0.00497475 0.00503502 0.00508587 0.00512814 0.00516344 0.00519439 0.00522444 0.00525739 0.00529662
          0.00534462 0.00540264 0.00547063 0.00554754 0.00563175 0.00572135 0.00581421 0.00590823 0.00600151 0.00609245 0.0061798 0.00626279
          0.00634113 0.00641451 0.00647991 0.00652189 0.00648448 0.0062 0.00467076 0.0062 0.0062 0.0062 0.0062 0.0062
          0.0062 0.0062 0.0062 0.0062 0.0062 0.0062 0.0062 0.0062 0.0062 0.0062 0.0062 0.0062
          0.0062 0.0062 0.0062 0.0062 0.0062 0.0062 0.0062 0.0062 0.0062 0.0062 0.0062 0.0062
          0.0062
        </DataArray>
        <DataArray type="Float32" Name="xAirg" NumberOfComponents="1" format="ascii">
          0.986872 0.986467 0.990145 0.987187 0.986386 0.986895 0.986333 0.986752 0.986283 0.986649 0.986238 0.986568
          0.986206 0.986507 0.986171 0.986453 0.986144 0.986407 0.986113 0.986364 0.986091 0.986328 0.986069 0.986296
          0.986047 0.986266 0.986029 0.98624 0.986012 0.986217 0.985994 0.986195 0.985979 0.986175 0.985965 0.986158
          0.985949 0.986142 0.98594 0.986131 0.98593 0.986123 0.985922 0.986119 0.985917 0.986123 0.985915 0.986137
          0.985917 0.986167 0.985929 0.986225 0.985945 0.986322 0.985988 0.986495 0.986015 0.986762 0.986199 0.987233
          0.986637 0.9938 0.992927 0.988728 0.987562 0.987271 0.987091 0.98696 0.986862 0.986782 0.986715 0.986656
          0.986604 0.98656 0.986519 0.986484 0.986453 0.986425 0.9864 0.986379 0.98636 0.986347 0.98634 0.986339
          0.98635 0.986377 0.98643 0.986527 0.986692 0.986974 0.987437 0.98823 0.9938 0.995058 0.990751 0.98862
          0.987935 0.987632 0.987432 0.987285 0.987171 0.987077 0.986996 0.986926 0.986866 0.986812 0.986766 0.986725
          0.986689 0.986658 0.986632 0.986609 0.986593 0.986585 0.986586 0.9866 0.986637 0.986708 0.986836 0.987053
          0.987421 0.988034 0.989071 0.9938 0.996536 0.992878 0.990124 0.98886 0.988315 0.988008 0.987795 0.987633
          0.987504 0.987396 0.987304 0.987224 0.987154 0.987093 0.98704 0.986994 0.986954 0.986921 0.986894 0.986873
          0.986862 0.986862 0.986879 0.986921 0.987003 0.987152 0.987406 0.987835 0.988551 0.989759 0.9938 0.997438
          0.994782 0.991941 0.990134 0.989215 0.988727 0.988415 0.988189 0.988013 0.987869 0.987748 0.987644 0.987553
          0.987474 0.987406 0.987347 0.987297 0.987254 0.987219 0.987193 0.987177 0.987174 0.98719 0.987233 0.98732
          0.987479 0.987754 0.988218 0.988996 0.990307 0.9938 0.997887 0.996247 0.993805 0.991729 0.990406 0.989647
          0.989183 0.988863 0.988623 0.988432 0.988273 0.988138 0.988021 0.98792 0.987832 0.987757 0.987692 0.987638
          0.987594 0.987559 0.987536 0.987528 0.987538 0.987578 0.987663 0.987822 0.988102 0.988579 0.989381 0.990736
          0.9938 0.998027 0.997196 0.995436 0.993467 0.991886 0.990826 0.990147 0.989692 0.989361 0.989105 0.988897
          0.988722 0.988573 0.988443 0.988331 0.988234 0.988152 0.988082 0.988024 0.987979 0.987946 0.987929 0.987931
          0.987962 0.988039 0.988189 0.988459 0.988926 0.989722 0.991073 0.9938 0.997988 0.997675 0.996629 0.995081
          0.993517 0.992254 0.991348 0.990716 0.990261 0.989916 0.989641 0.989415 0.989223 0.989058 0.988914 0.988791
          0.988686 0.988596 0.988521 0.98846 0.988414 0.988385 0.988375 0.988394 0.988455 0.988587 0.988834 0.989273
          0.990036 0.991344 0.9938 0.997873 0.997812 0.997324 0.996328 0.995055 0.993803 0.992756 0.991952 0.991349
          0.99089 0.990529 0.990236 0.98999 0.989779 0.989598 0.989441 0.989306 0.989191 0.989093 0.989013 0.98895
          0.988903 0.988878 0.988878 0.988919 0.989024 0.989237 0.989633 0.99034 0.991574 0.9938 0.997742 0.997751
          0.99759 0.997085 0.996245 0.99523 0.994223 0.993339 0.992615 0.992038 0.991576 0.9912 0.990887 0.990622
          0.990393 0.990195 0.990024 0.989876 0.989751 0.989645 0.989559 0.989491 0.989444 0.989422 0.989437 0.989508
          0.989678 0.990018 0.990651 0.991785 0.9938 0.997619 0.997607 0.997573 0.997383 0.996949 0.996291 0.995504
          0.994699 0.993954 0.993307 0.99276 0.992302 0.991916 0.991588 0.991304 0.991058 0.990844 0.990658 0.990498
          0.990362 0.990247 0.990153 0.990079 0.99003 0.990012 0.990045 0.990164 0.990437 0.990982 0.991993 0.9938
          0.997497 0.99744 0.997413 0.997356 0.997186 0.996854 0.996369 0.995781 0.995154 0.994542 0.993978 0.993475
          0.993034 0.992649 0.992312 0.992016 0.991757 0.99153 0.991331 0.991159 0.99101 0.990885 0.990781 0.990699
          0.990645 0.990635 0.990698 0.990897 0.991341 0.99221 0.9938 0.997355 0.997257 0.997195 0.997152 0.997089
          0.996958 0.996727 0.996391 0.995974 0.995508 0.995028 0.994559 0.994119 0.993715 0.993348 0.993017 0.992721
          0.992456 0.992221 0.992013 0.991831 0.991672 0.991535 0.99142 0.99133 0.991274 0.991279 0.991399 0.991732
          0.992444 0.9938 0.99716 0.99703 0.99693 0.996858 0.996803 0.996742 0.996648 0.996497 0.996282 0.996005
          0.995682 0.995331 0.994969 0.99461 0.994265 0.993939 0.993635 0.993355 0.9931 0.992868 0.99266 0.992475
          0.992311 0.992166 0.992043 0.991947 0.991897 0.991939 0.992157 0.992698 0.9938 0.99686 0.996704 0.996577
          0.996476 0.996397 0.996335 0.996277 0.996208 0.996115 0.995986 0.995818 0.995614 0.99538 0.995127 0.994864
          0.994598 0.994336 0.994083 0.993842 0.993616 0.993407 0.993215 0.993041 0.992883 0.992741 0.992619 0.992528
          0.992499 0.992604 0.992968 0.9938 0.996359 0.996181 0.996046 0.995934 0.995842 0.995767 0.995706 0.995654
          0.995603 0.995546 0.995474 0.995383 0.99527 0.995135 0.994983 0.994817 0.994641 0.994461 0.994281 0.994104
          0.993933 0.99377 0.993618 0.993476 0.993344 0.993225 0.99312 0.993048 0.993055 0.993246 0.9938 0.995512
          0.995267 0.995176 0.995095 0.995025 0.994965 0.994914 0.994872 0.994837 0.994806 0.994776 0.994743 0.994703
          0.994655 0.994597 0.994529 0.994452 0.994368 0.994279 0.994186 0.994092 0.993998 0.993908 0.99382 0.993737
          0.993659 0.993585 0.99352 0.993478 0.993515 0.9938 0.995329 0.9938 0.9938 0.9938 0.9938 0.9938
          0.9938 0.9938 0.9938 0.9938 0.9938 0.9938 0.9938 0.9938 0.9938 0.9938 0.9938 0.9938
          0.9938 0.9938 0.9938 0.9938 0.9938 0.9938 0.9938 0.9938 0.9938 0.9938 0.9938 0.9938
          0.9938
        </DataArray>
        <DataArray type="Float32" Name="h" NumberOfComponents="1" format="ascii">
          50864.1 51661.6 37984.1 48681.9 51862.7 49778.5 52008.5 50349.8 52138.1 50739.4 52253.5 51028.3
          52344 51250.5 52434.9 51438.6 52511.1 51597.9 52590 51743 52653.7 51868.6 52715.1 51981.5
          52773.6 52085.7 52825.3 52178.8 52873.5 52262.5 52922.2 52341.4 52964.7 52411.7 53005.1 52475.2
          53046.8 52535.8 53077.5 52586.5 53109.2 52634.2 53137.5 52680.4 53161 52723.7 53178.7 52761.7
          53190.7 52787.5 53184.8 52775.4 53169.1 52694.9 53108.6 52467.5 53066.2 52040.8 52781.6 51274.3
          52114.9 41432.1 27784.9 42582.3 47025.4 48263.3 49022.4 49546.5 49938.5 50252 50513.3 50740.9
          50939.8 51115.9 51275.1 51417.5 51544.4 51660.1 51763.7 51855.6 51939.7 52013 52079.9 52145.2
          52209.9 52271.7 52319.4 52318.7 52208.2 51870.5 51154.9 49855.1 41432.1 20710.4 35041.3 42781
          45562.1 46881.3 47734.4 48351.6 48828.8 49218.2 49549 49836.4 50089.4 50315.6 50517.5 50696.9
          50857.9 51001.6 51128.4 51241.7 51341.5 51431.3 51517.9 51605.3 51693.5 51770.3 51797.4 51692.8
          51306.6 50409.5 48711.8 41432.1 16391.4 27691.3 37080.1 41859.8 44153 45489.6 46414.3 47108.6
          47662.5 48123.8 48520.2 48866.9 49174.9 49449.2 49692.6 49909.3 50102.1 50272.1 50421.9 50553.7
          50671.1 50782 50893.8 51010.1 51121.4 51190.3 51124.9 50752.4 49782.9 47828.9 41432.1 14191.5
          21690.6 30682.6 36994.5 40593.1 42665.9 44025.8 45013.4 45782.8 46411.3 46943.9 47406 47813.9
          48176.7 48498.5 48783.7 49036.9 49260.3 49456.1 49627.4 49778.6 49918.6 50057.2 50203.3 50352.5
          50473.7 50475 50172.4 49232.4 47164.5 41432.1 13422.4 17575.6 24677.1 31340.8 36075.8 39087.8
          41055.9 42444.8 43499.9 44345.1 45050.4 45656 46186.7 46657.4 47075.2 47445 47772.8 48062.2
          48315.7 48536.9 48730.6 48906.3 49076.3 49254.4 49443.8 49623.8 49711.7 49524.1 48699.3 46651.3
          41432.1 13448.7 15307.4 19962.7 25723.5 30857.4 34690.5 37378.9 39291.1 40722.2 41848.5 42773.9
          43559 44241.3 44843.6 45378.5 45852 46271.7 46642.8 46968.6 47252.9 47500.9 47722.3 47931.2
          48145.9 48378.2 48620.6 48807.2 48765.7 48123.7 46218.5 41432.1 13812.2 14461.1 16970.3 21076.7
          25651.8 29752.5 33014.1 35486.2 37369.5 38846.8 40048 41056 41924.3 42686.5 43362.6 43962.2
          44494.1 44965.6 45381.3 45745.3 46062.9 46343.9 46603.1 46862.9 47143.3 47451.4 47742.3 47864.5
          47451.1 45791.8 41432.1 14230 14478.3 15586.8 17988.9 21335.6 24957.6 28315 31152.8 33455.2
          35312 36832.3 38105.1 39195.4 40147.6 40990.8 41740.3 42406.6 42999.4 43524.8 43987.9 44393.9
          44752.3 45078.2 45396.3 45734.2 46112.9 46510.7 46803.3 46646.6 45317.6 41432.1 14616.4 14886.9
          15362.6 16534.8 18543.3 21160.9 24013.3 26771 29244.8 31376.2 33187.7 34731.5 36062.4 37226.1
          38257 39176.8 39997.9 40732.2 41387.4 41969.9 42484.9 42941.5 43354.4 43748.8 44157.8 44614.8
          45120.7 45582.7 45694.2 44755.8 41432.1 14987 15423.8 15784.3 16351.5 17380 18938.5 20919.1
          23124.1 25356.7 27474.7 29405.4 31129.4 32658.6 34017.5 35232.9 36326.7 37311.4 38199 38998.3
          39716.3 40358.6 40933.3 41453.6 41943.7 42439.3 42982.9 43596.5 44221.8 44602.1 44095.8 41432.1
          15442.9 16043.7 16516.3 16953.2 17518.6 18351.7 19507.9 20956.6 22609.3 24357.8 26106.2 27786.4
          29360.7 30815.2 32151.3 33378.4 34502.8 35531.2 36469.9 37324.9 38100.8 38804.2 39445.5 40045.3
          40637.9 41271.2 41985.6 42759.4 43396.5 43342 41432.1 16091.8 16850.2 17484.5 18016.3 18508.6
          19048.7 19716.7 20561.1 21591.8 22784.1 24091.5 25460.1 26840.8 28195.8 29501.2 30745.4 31922.8
          33028.2 34060.1 35018.9 35905.9 36723.9 37478.7 38184.4 38869.1 39579.8 40371.6 41261.9 42126.1
          42520.9 41432.1 17111.8 18047.8 18845.3 19526.5 20117.7 20655.1 21182.9 21745.8 22380.7 23111.4
          23945.1 24873.6 25877.5 26931.6 28010.6 29094.4 30168.8 31219.6 32235.5 33208.4 34133.1 35006.1
          35826.9 36600 37342.4 38091.4 38908 39848.8 40873.7 41675.4 41432.1 18799 19968.2 20939.3
          21765.3 22479 23106.6 23670.3 24192.2 24695.1 25202.6 25736.5 26313.9 26945.1 27632.1 28370.2
          29150.3 29963.5 30799.2 31644.8 32488.8 33320.8 34132.3 34916.1 35668 36390.8 37104.2 37857.4
          38731.8 39785.6 40881.6 41432.1 21865.5 23304.8 24405.3 25324.6 26105.3 26781 27375.5 27905.2
          28382.7 28819.3 29227.6 29621.8 30016.6 30425.5 30858.5 31321.4 31816.2 32343.6 32900.5 33481.2
          34078.5 34684.4 35290.8 35889.8 36475.3 37048.5 37631.2 38287.5 39136.8 40278 41432.1 27645.3
          29717.6 30588.7 31328.8 31958 32497.9 32966.3 33377.8 33742.1 34066.5 34356.4 34617.4 34856.3
          35080.8 35299.2 35519.3 35746.9 35986.1 36241.3 36513.9 36803.6 37108.2 37424.5 37748 38073.7
          38396.8 38716.8 39051.2 39467.7 40142.7 41432.1 28829.6 41432.1 41432.1 41432.1 41432.1 41432.1
          41432.1 41432.1 41432.1 41432.1 41432.1 41432.1 41432.1 41432.1 41432.1 41432.1 41432.1 41432.1
          41432.1 41432.1 41432.1 41432.1 41432.1 41432.1 41432.1 41432.1 41432.1 41432.1 41432.1 41432.1
          41432.1
        </DataArray>
        <DataArray type="Float32" Name="rho" NumberOfComponents="1" format="ascii">
          3.34824 3.34574 3.43951 3.36683 3.3448 3.35944 3.34403 3.35545 3.34339 3.35283 3.34283 3.35096
          3.34234 3.3495 3.3419 3.3483 3.34149 3.34728 3.34111 3.34638 3.34077 3.34558 3.34045 3.34486
          3.34014 3.34419 3.33986 3.34359 3.3396 3.34304 3.33935 3.34254 3.33912 3.34208 3.3389 3.34166
          3.33869 3.34127 3.3385 3.34089 3.33832 3.3405 3.33814 3.34007 3.33797 3.33956 3.33781 3.33895
          3.33766 3.33825 3.33755 3.33752 3.33747 3.33696 3.33749 3.33683 3.33754 3.33741 3.33784 3.33861
          3.33846 3.34662 3.5132 3.40999 3.37908 3.37008 3.36462 3.36095 3.35821 3.35605 3.35426 3.35272
          3.35136 3.35015 3.34906 3.34807 3.34718 3.34637 3.34564 3.34497 3.34436 3.34377 3.34317 3.34249
          3.34166 3.34061 3.33933 3.33792 3.33668 3.33611 3.33688 3.33899 3.34662 3.56359 3.46339 3.40943
          3.38935 3.37959 3.37337 3.36892 3.3655 3.36273 3.36039 3.35835 3.35655 3.35493 3.35348 3.35217
          3.35099 3.34992 3.34896 3.34809 3.34727 3.34644 3.34551 3.34437 3.34291 3.34105 3.3389 3.33683
          3.33552 3.33601 3.33875 3.34662 3.59254 3.51506 3.44997 3.41595 3.39899 3.38904 3.38221 3.37712
          3.37307 3.36972 3.36684 3.36431 3.36205 3.36003 3.35821 3.35658 3.35511 3.3538 3.35261 3.35151
          3.35042 3.34925 3.34782 3.34597 3.34359 3.34068 3.33765 3.33531 3.33505 3.33801 3.34662 3.60516
          3.55617 3.4949 3.45077 3.42458 3.40909 3.39889 3.39151 3.38579 3.38113 3.37719 3.37377 3.37073
          3.368 3.36557 3.36338 3.36142 3.35966 3.35809 3.35665 3.35527 3.35383 3.35213 3.34995 3.34708
          3.34347 3.33942 3.33582 3.33435 3.33701 3.34662 3.60742 3.58264 3.53599 3.4906 3.45697 3.43476
          3.41995 3.40947 3.40151 3.39515 3.38986 3.3853 3.3813 3.37773 3.37453 3.37167 3.3691 3.3668
          3.36474 3.36289 3.36116 3.35941 3.35744 3.35496 3.35169 3.34744 3.34239 3.33739 3.33434 3.33614
          3.34662 3.6048 3.59523 3.56657 3.52894 3.49373 3.46622 3.44626 3.43181 3.42094 3.41238 3.40535
          3.39938 3.39418 3.38956 3.38544 3.38175 3.37844 3.37547 3.37282 3.37044 3.36826 3.36615 3.36387
          3.36111 3.3575 3.35271 3.34675 3.34031 3.33543 3.33579 3.34662 3.60089 3.59791 3.58388 3.55878
          3.529 3.50078 3.47728 3.45889 3.44463 3.43336 3.42417 3.41644 3.40977 3.40389 3.39864 3.39394
          3.38973 3.38595 3.38257 3.37953 3.37679 3.3742 3.37155 3.36848 3.36456 3.35931 3.35256 3.34478
          3.33795 3.33633 3.34662 3.59756 3.59547 3.58968 3.57625 3.55608 3.5327 3.50968 3.48929 3.47222
          3.45817 3.44655 3.43677 3.42835 3.42097 3.4144 3.40851 3.40322 3.39846 3.39418 3.39034 3.38688
          3.38368 3.38053 3.37708 3.37283 3.36719 3.35977 3.35078 3.34202 3.33799 3.34662 3.59489 3.59139
          3.58811 3.58185 3.57082 3.55538 3.53727 3.51861 3.50105 3.48538 3.47176 3.45998 3.44974 3.44072
          3.43268 3.42545 3.41893 3.41304 3.40772 3.40291 3.39856 3.39459 3.39079 3.38682 3.38217 3.37615
          3.36816 3.35815 3.34758 3.34086 3.34662 3.5923 3.58708 3.58318 3.57927 3.57367 3.56527 3.55391
          3.5403 3.52558 3.51086 3.49691 3.48411 3.47255 3.46213 3.45271 3.44416 3.43638 3.42928 3.42282
          3.41693 3.41157 3.40666 3.40204 3.39741 3.39226 3.38584 3.3774 3.36656 3.35439 3.34484 3.34662
          3.58863 3.58214 3.57675 3.57231 3.56814 3.56333 3.55709 3.54903 3.53921 3.52811 3.51637 3.50457
          3.49315 3.48234 3.47222 3.46278 3.45401 3.44589 3.43837 3.43142 3.42502 3.41911 3.41358 3.40819
          3.40247 3.39568 3.38692 3.37552 3.36202 3.3497 3.34662 3.58292 3.57517 3.56841 3.5626 3.55762
          3.55318 3.54881 3.544 3.5383 3.53147 3.52356 3.51479 3.50551 3.49604 3.48662 3.47741 3.46851
          3.45998 3.45189 3.44424 3.43705 3.43031 3.42396 3.41786 3.41165 3.40464 3.39585 3.3843 3.36992
          3.35505 3.34662 3.57355 3.56419 3.55609 3.54899 3.54274 3.53724 3.53242 3.52809 3.52395 3.51966
          3.51491 3.50951 3.50342 3.49672 3.48956 3.48209 3.47443 3.46672 3.45907 3.45157 3.4443 3.4373
          3.4306 3.42415 3.41776 3.4109 3.40262 3.39165 3.37717 3.3604 3.34662 3.55779 3.54614 3.53648
          3.5282 3.52094 3.51448 3.50872 3.50365 3.49922 3.4953 3.49169 3.48816 3.48447 3.48046 3.47603
          3.47117 3.4659 3.46025 3.45432 3.44821 3.442 3.43579 3.42965 3.42364 3.41773 3.41165 3.40468
          3.39547 3.38233 3.36495 3.34662 3.52887 3.51458 3.50371 3.49468 3.487 3.48031 3.47437 3.46906
          3.46434 3.46021 3.45664 3.45354 3.45079 3.4482 3.44563 3.44293 3.44002 3.43683 3.43331 3.42949
          3.42539 3.42109 3.41664 3.41213 3.40761 3.40307 3.39821 3.39207 3.38265 3.36734 3.34662 3.47429
          3.45425 3.44571 3.43855 3.4325 3.42734 3.42285 3.41887 3.41533 3.41218 3.4094 3.40699 3.40493
          3.40317 3.40162 3.40022 3.39886 3.39749 3.39603 3.39442 3.39264 3.3907 3.38859 3.38635 3.38403
          3.38166 3.37927 3.37659 3.37268 3.36478 3.34662 3.46347 3.34662 3.34662 3.34662 3.34662 3.34662
          3.34662 3.34662 3.34662 3.34662 3.34662 3.34662 3.34662 3.34662 3.34662 3.34662 3.34662 3.34662
          3.34662 3.34662 3.34662 3.34662 3.34662 3.34662 3.34662 3.34662 3.34662 3.34662 3.34662 3.34662
          3.34662
        </DataArray>
        <DataArray type="Float32" Name="mu" NumberOfComponents="1" format="ascii">
          1.85249e-05 1.85334e-05 1.81602e-05 1.84474e-05 1.8537e-05 1.84772e-05 1.854e-05 1.84934e-05 1.85424e-05 1.85041e-05 1.85446e-05 1.85116e-05
          1.85465e-05 1.85175e-05 1.85482e-05 1.85223e-05 1.85498e-05 1.85264e-05 1.85513e-05 1.85301e-05 1.85526e-05 1.85333e-05 1.85539e-05 1.85362e-05
          1.85551e-05 1.85389e-05 1.85562e-05 1.85413e-05 1.85572e-05 1.85436e-05 1.85582e-05 1.85456e-05 1.85591e-05 1.85475e-05 1.856e-05 1.85492e-05
          1.85608e-05 1.85508e-05 1.85615e-05 1.85523e-05 1.85623e-05 1.8554e-05 1.8563e-05 1.85558e-05 1.85637e-05 1.8558e-05 1.85644e-05 1.85607e-05
          1.8565e-05 1.85639e-05 1.85656e-05 1.85673e-05 1.8566e-05 1.85702e-05 1.85662e-05 1.85717e-05 1.85661e-05 1.85707e-05 1.85658e-05 1.85681e-05
          1.85655e-05 1.85693e-05 1.78774e-05 1.82745e-05 1.83977e-05 1.84341e-05 1.84563e-05 1.84712e-05 1.84823e-05 1.8491e-05 1.84983e-05 1.85046e-05
          1.85101e-05 1.8515e-05 1.85195e-05 1.85235e-05 1.85271e-05 1.85304e-05 1.85334e-05 1.85362e-05 1.85387e-05 1.85411e-05 1.85437e-05 1.85466e-05
          1.85502e-05 1.85549e-05 1.85606e-05 1.85672e-05 1.85735e-05 1.85774e-05 1.85766e-05 1.85718e-05 1.85693e-05 1.76906e-05 1.8066e-05 1.82763e-05
          1.83565e-05 1.83959e-05 1.84211e-05 1.84391e-05 1.8453e-05 1.84642e-05 1.84737e-05 1.8482e-05 1.84894e-05 1.8496e-05 1.85019e-05 1.85073e-05
          1.85121e-05 1.85165e-05 1.85205e-05 1.85241e-05 1.85275e-05 1.8531e-05 1.8535e-05 1.85399e-05 1.85464e-05 1.85547e-05 1.85647e-05 1.85748e-05
          1.85824e-05 1.85836e-05 1.85774e-05 1.85693e-05 1.75865e-05 1.78698e-05 1.81173e-05 1.82505e-05 1.83182e-05 1.83582e-05 1.83857e-05 1.84063e-05
          1.84227e-05 1.84363e-05 1.8448e-05 1.84583e-05 1.84675e-05 1.84758e-05 1.84832e-05 1.84899e-05 1.8496e-05 1.85014e-05 1.85063e-05 1.85109e-05
          1.85155e-05 1.85205e-05 1.85267e-05 1.85348e-05 1.85455e-05 1.85587e-05 1.85731e-05 1.85855e-05 1.85905e-05 1.85843e-05 1.85693e-05 1.75429e-05
          1.77181e-05 1.79452e-05 1.8114e-05 1.82167e-05 1.82783e-05 1.83191e-05 1.83488e-05 1.83719e-05 1.83907e-05 1.84066e-05 1.84205e-05 1.84329e-05
          1.8444e-05 1.8454e-05 1.84629e-05 1.8471e-05 1.84782e-05 1.84847e-05 1.84907e-05 1.84965e-05 1.85026e-05 1.851e-05 1.85195e-05 1.85322e-05
          1.85486e-05 1.85674e-05 1.85854e-05 1.8596e-05 1.85916e-05 1.85693e-05 1.75366e-05 1.76231e-05 1.7792e-05 1.79614e-05 1.80902e-05 1.81771e-05
          1.82357e-05 1.82775e-05 1.83093e-05 1.83348e-05 1.83562e-05 1.83746e-05 1.83908e-05 1.84053e-05 1.84183e-05 1.843e-05 1.84405e-05 1.845e-05
          1.84585e-05 1.84662e-05 1.84734e-05 1.84808e-05 1.84892e-05 1.85e-05 1.85144e-05 1.85334e-05 1.85566e-05 1.85806e-05 1.85981e-05 1.85977e-05
          1.85693e-05 1.75473e-05 1.75796e-05 1.7681e-05 1.7818e-05 1.79496e-05 1.80549e-05 1.81326e-05 1.81894e-05 1.82325e-05 1.82666e-05 1.82948e-05
          1.83187e-05 1.83397e-05 1.83583e-05 1.83751e-05 1.83901e-05 1.84035e-05 1.84157e-05 1.84266e-05 1.84364e-05 1.84454e-05 1.84543e-05 1.8464e-05
          1.84759e-05 1.84917e-05 1.85129e-05 1.85398e-05 1.85699e-05 1.85952e-05 1.8601e-05 1.85693e-05 1.75621e-05 1.75718e-05 1.76203e-05 1.77094e-05
          1.7818e-05 1.79234e-05 1.80129e-05 1.80841e-05 1.81398e-05 1.81842e-05 1.82207e-05 1.82514e-05 1.82781e-05 1.83017e-05 1.83228e-05 1.83418e-05
          1.83589e-05 1.83743e-05 1.83881e-05 1.84006e-05 1.84119e-05 1.84227e-05 1.84339e-05 1.84469e-05 1.84639e-05 1.84869e-05 1.8517e-05 1.85527e-05
          1.85861e-05 1.86002e-05 1.85693e-05 1.75742e-05 1.75819e-05 1.76016e-05 1.76482e-05 1.77198e-05 1.78049e-05 1.78905e-05 1.79678e-05 1.80334e-05
          1.80879e-05 1.81334e-05 1.81719e-05 1.82053e-05 1.82346e-05 1.82609e-05 1.82845e-05 1.83058e-05 1.83251e-05 1.83424e-05 1.83581e-05 1.83723e-05
          1.83855e-05 1.83986e-05 1.84132e-05 1.84314e-05 1.84558e-05 1.84885e-05 1.85289e-05 1.85703e-05 1.85943e-05 1.85693e-05 1.75838e-05 1.75973e-05
          1.7609e-05 1.76305e-05 1.76688e-05 1.77235e-05 1.77892e-05 1.78581e-05 1.79242e-05 1.7984e-05 1.80364e-05 1.80822e-05 1.81223e-05 1.81578e-05
          1.81896e-05 1.82183e-05 1.82444e-05 1.8268e-05 1.82895e-05 1.83089e-05 1.83266e-05 1.83429e-05 1.83586e-05 1.83751e-05 1.83948e-05 1.84205e-05
          1.84552e-05 1.84996e-05 1.85481e-05 1.85831e-05 1.85693e-05 1.75931e-05 1.76131e-05 1.76279e-05 1.7642e-05 1.76614e-05 1.76906e-05 1.77307e-05
          1.77797e-05 1.78338e-05 1.78888e-05 1.79415e-05 1.79904e-05 1.80351e-05 1.80755e-05 1.81123e-05 1.8146e-05 1.81768e-05 1.8205e-05 1.82308e-05
          1.82545e-05 1.82761e-05 1.8296e-05 1.83149e-05 1.8334e-05 1.83554e-05 1.83825e-05 1.84188e-05 1.84661e-05 1.85208e-05 1.85671e-05 1.85693e-05
          1.76065e-05 1.76312e-05 1.76519e-05 1.76688e-05 1.76841e-05 1.7701e-05 1.77228e-05 1.77512e-05 1.77864e-05 1.78269e-05 1.78704e-05 1.79147e-05
          1.7958e-05 1.79994e-05 1.80385e-05 1.80752e-05 1.81095e-05 1.81415e-05 1.81712e-05 1.81988e-05 1.82245e-05 1.82482e-05 1.82706e-05 1.82926e-05
          1.83161e-05 1.83444e-05 1.83815e-05 1.84306e-05 1.84902e-05 1.85475e-05 1.85693e-05 1.76278e-05 1.76572e-05 1.76831e-05 1.77054e-05 1.77245e-05
          1.77412e-05 1.7757e-05 1.77741e-05 1.77943e-05 1.78187e-05 1.78474e-05 1.78797e-05 1.79143e-05 1.795e-05 1.79859e-05 1.80212e-05 1.80557e-05
          1.80889e-05 1.81206e-05 1.81508e-05 1.81793e-05 1.82062e-05 1.82316e-05 1.82563e-05 1.82816e-05 1.83105e-05 1.83472e-05 1.83963e-05 1.84589e-05
          1.85259e-05 1.85693e-05 1.7663e-05 1.76986e-05 1.77296e-05 1.7757e-05 1.77812e-05 1.78025e-05 1.7821e-05 1.78373e-05 1.78525e-05 1.7868e-05
          1.78852e-05 1.79048e-05 1.79272e-05 1.7952e-05 1.79789e-05 1.80072e-05 1.80365e-05 1.80663e-05 1.8096e-05 1.81253e-05 1.8154e-05 1.81817e-05
          1.82084e-05 1.82342e-05 1.826e-05 1.8288e-05 1.83222e-05 1.83684e-05 1.84304e-05 1.85045e-05 1.85693e-05 1.77226e-05 1.77673e-05 1.78046e-05
          1.78367e-05 1.7865e-05 1.78903e-05 1.79129e-05 1.79328e-05 1.795e-05 1.7965e-05 1.79786e-05 1.79917e-05 1.80053e-05 1.80201e-05 1.80366e-05
          1.80548e-05 1.80748e-05 1.80964e-05 1.81193e-05 1.8143e-05 1.81674e-05 1.81918e-05 1.82162e-05 1.82402e-05 1.82639e-05 1.82885e-05 1.8317e-05
          1.83554e-05 1.84111e-05 1.84866e-05 1.85693e-05 1.78335e-05 1.78891e-05 1.79317e-05 1.79672e-05 1.79976e-05 1.80241e-05 1.80478e-05 1.8069e-05
          1.80879e-05 1.81044e-05 1.81185e-05 1.81307e-05 1.81413e-05 1.81512e-05 1.81609e-05 1.81711e-05 1.81821e-05 1.81942e-05 1.82077e-05 1.82226e-05
          1.82385e-05 1.82555e-05 1.82731e-05 1.82911e-05 1.83092e-05 1.83275e-05 1.83472e-05 1.83725e-05 1.84122e-05 1.8478e-05 1.85693e-05 1.80471e-05
          1.81272e-05 1.81616e-05 1.81906e-05 1.8215e-05 1.8236e-05 1.82543e-05 1.82705e-05 1.82851e-05 1.8298e-05 1.83094e-05 1.83192e-05 1.83276e-05
          1.83347e-05 1.83409e-05 1.83464e-05 1.83516e-05 1.83569e-05 1.83626e-05 1.83688e-05 1.83757e-05 1.83834e-05 1.83918e-05 1.84007e-05 1.84101e-05
          1.84196e-05 1.84293e-05 1.84402e-05 1.84566e-05 1.84903e-05 1.85693e-05 1.809e-05 1.85693e-05 1.85693e-05 1.85693e-05 1.85693e-05 1.85693e-05
          1.85693e-05 1.85693e-05 1.85693e-05 1.85693e-05 1.85693e-05 1.85693e-05 1.85693e-05 1.85693e-05 1.85693e-05 1.85693e-05 1.85693e-05 1.85693e-05
          1.85693e-05 1.85693e-05 1.85693e-05 1.85693e-05 1.85693e-05 1.85693e-05 1.85693e-05 1.85693e-05 1.85693e-05 1.85693e-05 1.85693e-05 1.85693e-05
          1.85693e-05
        </DataArray>
        <DataArray type="Float32" Name="v" NumberOfComponents="3" format="ascii">
          0.00243543 0.000329851 0 0.00134903 -8.15205e-06 0 0.01 0 0 0.0064718 0.000560631 0
          0.0003447 2.51144e-05 0 0.00264712 0.000216894 0 0.000367077 8.54515e-06 0 0.00212326 2.20996e-05 0
          0.000243699 4.84681e-06 0 0.00148971 4.64767e-05 0 0.000215266 1.20457e-06 0 0.00129329 9.94938e-06 0
          0.000181025 -1.65507e-06 0 0.00108513 7.88532e-06 0 0.000166025 -3.51138e-06 0 0.000993711 -1.2043e-06 0
          0.000151791 -5.40052e-06 0 0.000906085 -4.33459e-06 0 0.000144617 -6.59432e-06 0 0.000862013 -8.00254e-06 0
          0.000137973 -7.94269e-06 0 0.000821359 -1.01794e-05 0 0.000134687 -8.95612e-06 0 0.000800732 -1.2261e-05 0
          0.000131519 -9.79493e-06 0 0.0007815 -1.35939e-05 0 0.000130291 -1.05653e-05 0 0.000773429 -1.48841e-05 0
          0.000128892 -1.12127e-05 0 0.000765171 -1.58769e-05 0 0.000128968 -1.16337e-05 0 0.000765092 -1.66051e-05 0
          0.000128696 -1.20438e-05 0 0.000763968 -1.73912e-05 0 0.000130052 -1.23462e-05 0 0.000771658 -1.796e-05 0
          0.000130915 -1.23257e-05 0 0.000777777 -1.8563e-05 0 0.000134267 -1.24222e-05 0 0.000797455 -1.90311e-05 0
          0.000136935 -1.2078e-05 0 0.000814923 -1.99183e-05 0 0.00014412 -1.14412e-05 0 0.000857528 -1.99025e-05 0
          0.000150248 -1.02145e-05 0 0.000896434 -2.14707e-05 0 0.000165716 -8.12081e-06 0 0.000988647 -2.01067e-05 0
          0.000178629 -4.26328e-06 0 0.00107029 -2.44483e-05 0 0.000215962 1.22576e-06 0 0.00128884 -1.57204e-05 0
          0.000238212 1.44311e-05 0 0.00146142 -4.26874e-05 0 0.000373501 1.58012e-05 0 0.0021183 1.85057e-05 0
          0.000315954 0.000133906 0 0.0025572 -0.000188668 0 0.00138395 -0.000334328 0 0.00634629 -0.000206512 0
          0.00260993 0.00396634 0 0.01 0 0 0.01 0 0 0.0080393 0.00219464 0
          0.0049488 0.000984043 0 0.00361456 0.000201292 0 0.00280321 0.000223589 0 0.00237378 8.05607e-05 0
          0.00205715 6.81253e-05 0 0.00187053 2.93137e-05 0 0.00172683 1.87263e-05 0 0.00163866 3.91396e-06 0
          0.00156983 -2.5244e-06 0 0.00152827 -9.53645e-06 0 0.00149561 -1.33353e-05 0 0.00147844 -1.70776e-05 0
          0.00146511 -1.97454e-05 0 0.00146302 -2.1978e-05 0 0.00146291 -2.45175e-05 0 0.00147475 -2.64662e-05 0
          0.00148886 -2.99017e-05 0 0.0015212 -3.23618e-05 0 0.0015583 -3.87566e-05 0 0.00162844 -4.221e-05 0
          0.00170983 -5.5949e-05 0 0.00185757 -6.02143e-05 0 0.00203187 -9.66543e-05 0 0.00235794 -9.33374e-05 0
          0.00275813 -0.000232271 0 0.00358598 -0.000158545 0 0.00481471 -0.000944898 0 0.00787063 -0.00176536 0
          0.01 0 0 0.01 0 0 0.00925066 0.00245038 0 0.00719894 0.001524 0
          0.00534726 0.000569052 0 0.00424197 0.0004 0 0.00360359 0.000207309 0 0.00313744 0.000145545 0
          0.00285672 8.14424e-05 0 0.00263946 5.2715e-05 0 0.00250509 2.54804e-05 0 0.00239976 1.06793e-05 0
          0.00233554 -2.6074e-06 0 0.00228527 -1.07481e-05 0 0.00225819 -1.78971e-05 0 0.00223784 -2.32763e-05 0
          0.00223403 -2.78428e-05 0 0.00223436 -3.2907e-05 0 0.00225208 -3.7336e-05 0 0.00227469 -4.4465e-05 0
          0.00232357 -5.08902e-05 0 0.00238166 -6.39437e-05 0 0.00248727 -7.50677e-05 0 0.00261265 -0.000101853 0
          0.00283261 -0.000122755 0 0.00309799 -0.000185766 0 0.00357021 -0.000227678 0 0.00417504 -0.000418136 0
          0.00527973 -0.000522906 0 0.00702623 -0.00145512 0 0.0090576 -0.00202587 0 0.01 0 0
          0.01 0 0 0.00971866 0.00337846 0 0.0084138 0.00238226 0 0.00675675 0.00113922 0
          0.00557349 0.000755454 0 0.0047936 0.000421106 0 0.00424338 0.000297773 0 0.00387584 0.000176477 0
          0.00360752 0.000121116 0 0.00342699 6.8377e-05 0 0.00329366 4.01834e-05 0 0.00320581 1.44966e-05 0
          0.00314162 -1.06405e-06 0 0.00310346 -1.47926e-05 0 0.00307802 -2.50315e-05 0 0.00307108 -3.39743e-05 0
          0.00307321 -4.37806e-05 0 0.0030946 -5.26309e-05 0 0.00312705 -6.68411e-05 0 0.00318818 -7.99516e-05 0
          0.00326882 -0.00010602 0 0.00340021 -0.000129283 0 0.0035708 -0.000182494 0 0.00383853 -0.000227288 0
          0.00419008 -0.00034887 0 0.00474029 -0.000445819 0 0.0054874 -0.000777114 0 0.0066576 -0.00107519 0
          0.00824276 -0.00225835 0 0.00954975 -0.0029241 0 0.01 0 0 0.01 0 0
          0.0101983 0.00311257 0 0.00963877 0.0027775 0 0.00818128 0.00168297 0 0.00698031 0.00110759 0
          0.00608899 0.000687379 0 0.00544271 0.000472749 0 0.00499662 0.000302961 0 0.00466552 0.000206378 0
          0.00444031 0.000127778 0 0.00427161 7.9306e-05 0 0.00416002 3.9667e-05 0 0.00407751 1.32577e-05 0
          0.00402835 -8.55795e-06 0 0.00399529 -2.55662e-05 0 0.00398609 -4.03724e-05 0 0.00398874 -5.62515e-05 0
          0.00401603 -7.15931e-05 0 0.00405766 -9.41056e-05 0 0.00413529 -0.000117523 0 0.00423762 -0.000157709 0
          0.00440216 -0.000200209 0 0.00461499 -0.00027915 0 0.00494223 -0.000362903 0 0.00536969 -0.000531808 0
          0.00600998 -0.000714388 0 0.00686811 -0.00112373 0 0.00805098 -0.00159513 0 0.00946624 -0.00261261 0
          0.0100422 -0.00272604 0 0.01 0 0 0.01 0 0 0.0102365 0.00350751 0
          0.0100615 0.00336771 0 0.00910133 0.00234473 0 0.00809814 0.00162082 0 0.00724204 0.00105241 0
          0.00658891 0.000737638 0 0.0061041 0.000485711 0 0.00574535 0.000338691 0 0.00548757 0.000217617 0
          0.00529837 0.000142538 0 0.00516679 8.03567e-05 0 0.00507264 3.89308e-05 0 0.00501302 4.2528e-06 0
          0.00497547 -2.26991e-05 0 0.00496273 -4.65122e-05 0 0.00496711 -7.18145e-05 0 0.00499688 -9.6542e-05 0
          0.00504736 -0.000132277 0 0.00513418 -0.000169734 0 0.00525511 -0.000232687 0 0.00543695 -0.000299888 0
          0.00568125 -0.000420982 0 0.00603166 -0.000551074 0 0.006498 -0.00079958 0 0.00713983 -0.00107239 0
          0.0079716 -0.00161727 0 0.00896181 -0.00221896 0 0.00991793 -0.00316522 0 0.0101205 -0.00315002 0
          0.01 0 0 0.01 0 0 0.0104117 0.00295604 0 0.0106173 0.00339834 0
          0.0100012 0.00274152 0 0.00921584 0.00202623 0 0.0084253 0.00141678 0 0.00778299 0.001007 0
          0.00727772 0.000694109 0 0.00689269 0.000486836 0 0.00660931 0.000326509 0 0.00639726 0.000217573 0
          0.00624824 0.000132079 0 0.00613985 7.12763e-05 0 0.00607101 2.2175e-05 0 0.00602683 -1.7365e-05 0
          0.00601171 -5.21556e-05 0 0.00601608 -8.85696e-05 0 0.00605006 -0.000125529 0 0.00610735 -0.000175589 0
          0.00620578 -0.00023168 0 0.00634157 -0.000317265 0 0.00654309 -0.000416642 0 0.00681033 -0.000574742 0
          0.00718301 -0.000761202 0 0.00766857 -0.00106406 0 0.00829686 -0.00142336 0 0.00907073 -0.00199622 0
          0.00984791 -0.00259645 0 0.010483 -0.00320155 0 0.0103116 -0.00269466 0 0.01 0 0
          0.01 0 0 0.0103097 0.00304752 0 0.0106222 0.00362196 0 0.0104104 0.00318681 0
          0.00993066 0.00250667 0 0.00934403 0.00184384 0 0.00881054 0.00135236 0 0.00835515 0.000957208 0
          0.00799452 0.000685688 0 0.0077151 0.000470608 0 0.00750443 0.000322252 0 0.00735006 0.000203919 0
          0.00723897 0.000119119 0 0.00716492 4.97515e-05 0 0.00711907 -6.34885e-06 0 0.00710093 -5.61441e-05 0
          0.00710596 -0.000107958 0 0.00713897 -0.000160669 0 0.00719939 -0.000230982 0 0.00729749 -0.000309572 0
          0.00743704 -0.000427075 0 0.00763365 -0.000562761 0 0.00789642 -0.000772428 0 0.0082415 -0.00101658 0
          0.00868071 -0.00139368 0 0.00920103 -0.00182558 0 0.00978381 -0.00244568 0 0.0102644 -0.00302487 0
          0.0105184 -0.00342945 0 0.0102425 -0.0028269 0 0.01 0 0 0.01 0 0
          0.0103673 0.00241516 0 0.0108285 0.00331727 0 0.0108647 0.00322693 0 0.0106444 0.00272871 0
          0.0102386 0.00214501 0 0.00982633 0.00163165 0 0.00943692 0.00120292 0 0.00911339 0.000877326 0
          0.00885032 0.000621055 0 0.00864626 0.000431985 0 0.00849286 0.000283938 0 0.00838018 0.000172625 0
          0.00830397 8.28773e-05 0 0.00825567 8.41669e-06 0 0.00823588 -5.7776e-05 0 0.00823953 -0.000125783 0
          0.00827192 -0.000196477 0 0.00833158 -0.000286252 0 0.00842814 -0.000390154 0 0.00856411 -0.000534958 0
          0.00875114 -0.000708564 0 0.00899618 -0.000954109 0 0.00930237 -0.00124781 0 0.00967741 -0.00165136 0
          0.0100766 -0.00210767 0 0.0104846 -0.00265322 0 0.0107112 -0.00308202 0 0.0107296 -0.00316345 0
          0.0103081 -0.0022757 0 0.01 0 0 0.01 0 0 0.0102505 0.00236458 0
          0.0106832 0.00325176 0 0.0109318 0.00333068 0 0.0109595 0.00295857 0 0.010804 0.0024359 0
          0.0105754 0.00192464 0 0.0103212 0.00146518 0 0.0100885 0.00109717 0 0.00988481 0.000795142 0
          0.00972017 0.000566085 0 0.00958986 0.000382337 0 0.00949282 0.00024209 0 0.00942365 0.000127239 0
          0.00938015 3.1215e-05 0 0.00935945 -5.47949e-05 0 0.00936144 -0.000142764 0 0.00938622 -0.000233944 0
          0.00943683 -0.000347896 0 0.00951506 -0.00047845 0 0.00962727 -0.000656348 0 0.00977317 -0.000866123 0
          0.00996064 -0.00115319 0 0.010176 -0.00148643 0 0.0104202 -0.00191952 0 0.0106375 -0.00238068 0
          0.0108038 -0.00287329 0 0.0107909 -0.00319635 0 0.0106041 -0.00311644 0 0.0102097 -0.00224975 0
          0.01 0 0 0.01 0 0 0.0102725 0.00176004 0 0.010744 0.00273494 0
          0.0111094 0.0030123 0 0.01132 0.00284345 0 0.0113476 0.00247089 0 0.0112828 0.00203468 0
          0.0111526 0.00161223 0 0.0110143 0.00124189 0 0.010876 0.000928246 0 0.0107579 0.000675192 0
          0.0106579 0.000469826 0 0.0105809 0.000306378 0 0.0105231 0.000171954 0 0.0104855 5.72966e-05 0
          0.0104654 -4.61716e-05 0 0.0104639 -0.000150786 0 0.0104801 -0.000260422 0 0.0105169 -0.00039212 0
          0.0105729 -0.000544933 0 0.0106536 -0.000741822 0 0.0107517 -0.000975627 0 0.0108734 -0.00127334 0
          0.0109931 -0.00161474 0 0.0111133 -0.00201565 0 0.0111673 -0.00241725 0 0.0111542 -0.00276932 0
          0.0109633 -0.00291236 0 0.0106613 -0.00264051 0 0.0102297 -0.00169897 0 0.01 0 0
          0.01 0 0 0.0101835 0.00164262 0 0.0105876 0.0024863 0 0.0110156 0.00281285 0
          0.011355 0.00274375 0 0.0115699 0.00246733 0 0.0116806 0.0020977 0 0.0117118 0.00171217 0
          0.0117001 0.00135603 0 0.0116625 0.0010403 0 0.0116192 0.000776488 0 0.0115736 0.000555032 0
          0.0115351 0.000374297 0 0.0115015 0.000222189 0 0.0114781 9.06043e-05 0 0.0114612 -2.93168e-05 0
          0.0114554 -0.000150333 0 0.011456 -0.000276433 0 0.0114683 -0.000425487 0 0.0114851 -0.00059565 0
          0.0115119 -0.000809529 0 0.0115348 -0.00105731 0 0.011557 -0.00136144 0 0.0115501 -0.00169667 0
          0.0115118 -0.00206713 0 0.0113939 -0.00241239 0 0.0111979 -0.00267333 0 0.0108815 -0.00272706 0
          0.0105119 -0.00240509 0 0.0101463 -0.00158953 0 0.01 0 0 0.01 0 0
          0.0101989 0.00109664 0 0.0106016 0.00186373 0 0.0110552 0.00223664 0 0.0114728 0.0022956 0
          0.0117956 0.00215384 0 0.0120324 0.00189898 0 0.0121814 0.00160128 0 0.0122758 0.0013037 0
          0.012323 0.00102825 0 0.0123479 0.0007867 0 0.0123526 0.000578596 0 0.0123515 0.000402411 0
          0.0123421 0.000251042 0 0.0123332 0.0001172 0 0.0123202 -6.66962e-06 0 0.0123098 -0.000131155 0
          0.0122951 -0.000261765 0 0.0122822 -0.000411466 0 0.0122604 -0.000582188 0 0.0122355 -0.00078701 0
          0.0121886 -0.00102148 0 0.0121248 -0.00129178 0 0.0120122 -0.00157953 0 0.0118569 -0.00186793 0
          0.0116151 -0.00211023 0 0.0113105 -0.00224198 0 0.0109147 -0.00218061 0 0.0105138 -0.00181406 0
          0.0101516 -0.00107672 0 0.01 0 0 0.01 0 0 0.0101396 0.000938354 0
          0.0104735 0.00151411 0 0.010906 0.00183232 0 0.0113442 0.00191799 0 0.0117427 0.00184205 0
          0.0120749 0.00166204 0 0.0123361 0.00143191 0 0.0125339 0.00118963 0 0.0126755 0.000956487 0
          0.0127766 0.000746748 0 0.0128422 0.000561668 0 0.0128858 0.000402004 0 0.0129072 0.000262102 0
          0.0129166 0.000136217 0 0.0129096 1.82184e-05 0 0.0128941 -0.000101396 0 0.0128616 -0.000226623 0
          0.0128184 -0.000368902 0 0.012752 -0.000528639 0 0.0126668 -0.00071619 0 0.012545 -0.000925442 0
          0.0123894 -0.0011584 0 0.012177 -0.00139685 0 0.011913 -0.00162133 0 0.0115782 -0.00179535 0
          0.0111952 -0.00186451 0 0.010775 -0.00178209 0 0.0103848 -0.00146834 0 0.0100905 -0.000917476 0
          0.01 0 0 0.01 0 0 0.0101532 0.000460272 0 0.0104633 0.000873024 0
          0.0108601 0.00113295 0 0.0112827 0.00125273 0 0.0116842 0.00125049 0 0.0120463 0.00116837 0
          0.0123483 0.00103344 0 0.0125975 0.000879462 0 0.0127876 0.000720783 0 0.0129346 0.000573692 0
          0.0130365 0.000439836 0 0.0131094 0.000322952 0 0.0131501 0.000218567 0 0.0131718 0.000124054 0
          0.0131681 3.37964e-05 0 0.0131491 -5.76618e-05 0 0.0131045 -0.000154773 0 0.013042 -0.000263278 0
          0.0129472 -0.0003851 0 0.0128266 -0.000523561 0 0.0126613 -0.000675348 0 0.0124586 -0.000836024 0
          0.0121978 -0.000992766 0 0.0118922 -0.00112621 0 0.0115272 -0.00121136 0 0.0111345 -0.00121205 0
          0.0107236 -0.00110209 0 0.0103591 -0.000847304 0 0.010089 -0.000456826 0 0.01 0 0
          0.01 0 0 0.0101053 0.000298799 0 0.0103298 0.000530755 0 0.0106432 0.000684165 0
          0.0109929 0.000767719 0 0.0113505 0.000776552 0 0.0116882 0.00073718 0 0.0119886 0.00066116 0
          0.0122463 0.000570532 0 0.0124543 0.000473466 0 0.0126202 0.000381744 0 0.0127413 0.000296948 0
          0.0128299 0.000222447 0 0.0128828 0.000155819 0 0.0129122 9.54609e-05 0 0.012912 3.79292e-05 0
          0.0128924 -2.05223e-05 0 0.0128434 -8.26182e-05 0 0.0127726 -0.000152284 0 0.0126668 -0.000230144 0
          0.0125317 -0.000318186 0 0.0123526 -0.000413626 0 0.0121359 -0.000512754 0 0.0118701 -0.000607648 0
          0.011567 -0.000684528 0 0.0112265 -0.000730693 0 0.0108729 -0.000722185 0 0.0105282 -0.000651278 0
          0.0102343 -0.00049918 0 0.0100422 -0.000292221 0 0.01 0 0 0.01 0 0
          0.0101229 -3.86504e-05 0 0.0102586 4.69587e-05 0 0.0104344 0.000102879 0 0.0106557 0.000156191 0
          0.0108785 0.000173757 0 0.0111046 0.000183776 0 0.0113034 0.000172241 0 0.0114839 0.000158798 0
          0.0116275 0.000136173 0 0.0117484 0.000116238 0 0.0118347 9.40183e-05 0 0.011902 7.58007e-05 0
          0.0119403 5.75815e-05 0 0.0119646 4.21961e-05 0 0.0119642 2.63722e-05 0 0.0119519 1.12048e-05 0
          0.0119151 -5.70787e-06 0 0.0118652 -2.40537e-05 0 0.0117871 -4.4737e-05 0 0.0116914 -6.75028e-05 0
          0.0115621 -9.11082e-05 0 0.0114111 -0.000114613 0 0.011225 -0.000133596 0 0.0110205 -0.000146329 0
          0.0107916 -0.000144616 0 0.0105637 -0.000128099 0 0.0103426 -8.7065e-05 0 0.010161 -3.14613e-05 0
          0.0100348 3.45059e-05 0 0.01 0 0 0.01 0 0 0.01 0 0
          0.01 0 0 0.01 0 0 0.01 0 0 0.01 0 0
          0.01 0 0 0.01 0 0 0.01 0 0 0.01 0 0
          0.01 0 0 0.01 0 0 0.01 0 0 0.01 0 0
          0.01 0 0 0.01 0 0 0.01 0 0 0.01 0 0
          0.01 0 0 0.01 0 0 0.01 0 0 0.01 0 0
          0.01 0 0 0.01 0 0 0.01 0 0 0.01 0 0
          0.01 0 0 0.01 0 0 0.01 0 0 0.01 0 0
          0.01 0 0
        </DataArray>
      </PointData>
      <Points>
        <DataArray type="Float32" Name="Coordinates" NumberOfComponents="3" format="ascii">
          0 0.035 0 0.000333333 0.035 0 0 0.035081 0 0.000333333 0.035081 0
          0.000666667 0.035 0 0.000666667 0.035081 0 0.001 0.035 0 0.001 0.035081 0
          0.00133333 0.035 0 0.00133333 0.035081 0 0.00166667 0.035 0 0.00166667 0.035081 0
          0.002 0.035 0 0.002 0.035081 0 0.00233333 0.035 0 0.00233333 0.035081 0
          0.00266667 0.035 0 0.00266667 0.035081 0 0.003 0.035 0 0.003 0.035081 0
          0.00333333 0.035 0 0.00333333 0.035081 0 0.00366667 0.035 0 0.00366667 0.035081 0
          0.004 0.035 0 0.004 0.035081 0 0.00433333 0.035 0 0.00433333 0.035081 0
          0.00466667 0.035 0 0.00466667 0.035081 0 0.005 0.035 0 0.005 0.035081 0
          0.00533333 0.035 0 0.00533333 0.035081 0 0.00566667 0.035 0 0.00566667 0.035081 0
          0.006 0.035 0 0.006 0.035081 0 0.00633333 0.035 0 0.00633333 0.035081 0
          0.00666667 0.035 0 0.00666667 0.035081 0 0.007 0.035 0 0.007 0.035081 0
          0.00733333 0.035 0 0.00733333 0.035081 0 0.00766667 0.035 0 0.00766667 0.035081 0
          0.008 0.035 0 0.008 0.035081 0 0.00833333 0.035 0 0.00833333 0.035081 0
          0.00866667 0.035 0 0.00866667 0.035081 0 0.009 0.035 0 0.009 0.035081 0
          0.00933333 0.035 0 0.00933333 0.035081 0 0.00966667 0.035 0 0.00966667 0.035081 0
          0.01 0.035 0 0.01 0.035081 0 0 0.0351725 0 0.000333333 0.0351725 0
          0.000666667 0.0351725 0 0.001 0.0351725 0 0.00133333 0.0351725 0 0.00166667 0.0351725 0
          0.002 0.0351725 0 0.00233333 0.0351725 0 0.00266667 0.0351725 0 0.003 0.0351725 0
          0.00333333 0.0351725 0 0.00366667 0.0351725 0 0.004 0.0351725 0 0.00433333 0.0351725 0
          0.00466667 0.0351725 0 0.005 0.0351725 0 0.00533333 0.0351725 0 0.00566667 0.0351725 0
          0.006 0.0351725 0 0.00633333 0.0351725 0 0.00666667 0.0351725 0 0.007 0.0351725 0
          0.00733333 0.0351725 0 0.00766667 0.0351725 0 0.008 0.0351725 0 0.00833333 0.0351725 0
          0.00866667 0.0351725 0 0.009 0.0351725 0 0.00933333 0.0351725 0 0.00966667 0.0351725 0
          0.01 0.0351725 0 0 0.035276 0 0.000333333 0.035276 0 0.000666667 0.035276 0
          0.001 0.035276 0 0.00133333 0.035276 0 0.00166667 0.035276 0 0.002 0.035276 0
          0.00233333 0.035276 0 0.00266667 0.035276 0 0.003 0.035276 0 0.00333333 0.035276 0
          0.00366667 0.035276 0 0.004 0.035276 0 0.00433333 0.035276 0 0.00466667 0.035276 0
          0.005 0.035276 0 0.00533333 0.035276 0 0.00566667 0.035276 0 0.006 0.035276 0
          0.00633333 0.035276 0 0.00666667 0.035276 0 0.007 0.035276 0 0.00733333 0.035276 0
          0.00766667 0.035276 0 0.008 0.035276 0 0.00833333 0.035276 0 0.00866667 0.035276 0
          0.009 0.035276 0 0.00933333 0.035276 0 0.00966667 0.035276 0 0.01 0.035276 0
          0 0.0353929 0 0.000333333 0.0353929 0 0.000666667 0.0353929 0 0.001 0.0353929 0
          0.00133333 0.0353929 0 0.00166667 0.0353929 0 0.002 0.0353929 0 0.00233333 0.0353929 0
          0.00266667 0.0353929 0 0.003 0.0353929 0 0.00333333 0.0353929 0 0.00366667 0.0353929 0
          0.004 0.0353929 0 0.00433333 0.0353929 0 0.00466667 0.0353929 0 0.005 0.0353929 0
          0.00533333 0.0353929 0 0.00566667 0.0353929 0 0.006 0.0353929 0 0.00633333 0.0353929 0
          0.00666667 0.0353929 0 0.007 0.0353929 0 0.00733333 0.0353929 0 0.00766667 0.0353929 0
          0.008 0.0353929 0 0.00833333 0.0353929 0 0.00866667 0.0353929 0 0.009 0.0353929 0
          0.00933333 0.0353929 0 0.00966667 0.0353929 0 0.01 0.0353929 0 0 0.0355249 0
          0.000333333 0.0355249 0 0.000666667 0.0355249 0 0.001 0.0355249 0 0.00133333 0.0355249 0
          0.00166667 0.0355249 0 0.002 0.0355249 0 0.00233333 0.0355249 0 0.00266667 0.0355249 0
          0.003 0.0355249 0 0.00333333 0.0355249 0 0.00366667 0.0355249 0 0.004 0.0355249 0
          0.00433333 0.0355249 0 0.00466667 0.0355249 0 0.005 0.0355249 0 0.00533333 0.0355249 0
          0.00566667 0.0355249 0 0.006 0.0355249 0 0.00633333 0.0355249 0 0.00666667 0.0355249 0
          0.007 0.0355249 0 0.00733333 0.0355249 0 0.00766667 0.0355249 0 0.008 0.0355249 0
          0.00833333 0.0355249 0 0.00866667 0.0355249 0 0.009 0.0355249 0 0.00933333 0.0355249 0
          0.00966667 0.0355249 0 0.01 0.0355249 0 0 0.0356742 0 0.000333333 0.0356742 0
          0.000666667 0.0356742 0 0.001 0.0356742 0 0.00133333 0.0356742 0 0.00166667 0.0356742 0
          0.002 0.0356742 0 0.00233333 0.0356742 0 0.00266667 0.0356742 0 0.003 0.0356742 0
          0.00333333 0.0356742 0 0.00366667 0.0356742 0 0.004 0.0356742 0 0.00433333 0.0356742 0
          0.00466667 0.0356742 0 0.005 0.0356742 0 0.00533333 0.0356742 0 0.00566667 0.0356742 0
          0.006 0.0356742 0 0.00633333 0.0356742 0 0.00666667 0.0356742 0 0.007 0.0356742 0
          0.00733333 0.0356742 0 0.00766667 0.0356742 0 0.008 0.0356742 0 0.00833333 0.0356742 0
          0.00866667 0.0356742 0 0.009 0.0356742 0 0.00933333 0.0356742 0 0.00966667 0.0356742 0
          0.01 0.0356742 0 0 0.0358428 0 0.000333333 0.0358428 0 0.000666667 0.0358428 0
          0.001 0.0358428 0 0.00133333 0.0358428 0 0.00166667 0.0358428 0 0.002 0.0358428 0
          0.00233333 0.0358428 0 0.00266667 0.0358428 0 0.003 0.0358428 0 0.00333333 0.0358428 0
          0.00366667 0.0358428 0 0.004 0.0358428 0 0.00433333 0.0358428 0 0.00466667 0.0358428 0
          0.005 0.0358428 0 0.00533333 0.0358428 0 0.00566667 0.0358428 0 0.006 0.0358428 0
          0.00633333 0.0358428 0 0.00666667 0.0358428 0 0.007 0.0358428 0 0.00733333 0.0358428 0
          0.00766667 0.0358428 0 0.008 0.0358428 0 0.00833333 0.0358428 0 0.00866667 0.0358428 0
          0.009 0.0358428 0 0.00933333 0.0358428 0 0.00966667 0.0358428 0 0.01 0.0358428 0
          0 0.0360334 0 0.000333333 0.0360334 0 0.000666667 0.0360334 0 0.001 0.0360334 0
          0.00133333 0.0360334 0 0.00166667 0.0360334 0 0.002 0.0360334 0 0.00233333 0.0360334 0
          0.00266667 0.0360334 0 0.003 0.0360334 0 0.00333333 0.0360334 0 0.00366667 0.0360334 0
          0.004 0.0360334 0 0.00433333 0.0360334 0 0.00466667 0.0360334 0 0.005 0.0360334 0
          0.00533333 0.0360334 0 0.00566667 0.0360334 0 0.006 0.0360334 0 0.00633333 0.0360334 0
          0.00666667 0.0360334 0 0.007 0.0360334 0 0.00733333 0.0360334 0 0.00766667 0.0360334 0
          0.008 0.0360334 0 0.00833333 0.0360334 0 0.00866667 0.0360334 0 0.009 0.0360334 0
          0.00933333 0.0360334 0 0.00966667 0.0360334 0 0.01 0.0360334 0 0 0.0362487 0
          0.000333333 0.0362487 0 0.000666667 0.0362487 0 0.001 0.0362487 0 0.00133333 0.0362487 0
          0.00166667 0.0362487 0 0.002 0.0362487 0 0.00233333 0.0362487 0 0.00266667 0.0362487 0
          0.003 0.0362487 0 0.00333333 0.0362487 0 0.00366667 0.0362487 0 0.004 0.0362487 0
          0.00433333 0.0362487 0 0.00466667 0.0362487 0 0.005 0.0362487 0 0.00533333 0.0362487 0
          0.00566667 0.0362487 0 0.006 0.0362487 0 0.00633333 0.0362487 0 0.00666667 0.0362487 0
          0.007 0.0362487 0 0.00733333 0.0362487 0 0.00766667 0.0362487 0 0.008 0.0362487 0
          0.00833333 0.0362487 0 0.00866667 0.0362487 0 0.009 0.0362487 0 0.00933333 0.0362487 0
          0.00966667 0.0362487 0 0.01 0.0362487 0 0 0.0364921 0 0.000333333 0.0364921 0
          0.000666667 0.0364921 0 0.001 0.0364921 0 0.00133333 0.0364921 0 0.00166667 0.0364921 0
          0.002 0.0364921 0 0.00233333 0.0364921 0 0.00266667 0.0364921 0 0.003 0.0364921 0
          0.00333333 0.0364921 0 0.00366667 0.0364921 0 0.004 0.0364921 0 0.00433333 0.0364921 0
          0.00466667 0.0364921 0 0.005 0.0364921 0 0.00533333 0.0364921 0 0.00566667 0.0364921 0
          0.006 0.0364921 0 0.00633333 0.0364921 0 0.00666667 0.0364921 0 0.007 0.0364921 0
          0.00733333 0.0364921 0 0.00766667 0.0364921 0 0.008 0.0364921 0 0.00833333 0.0364921 0
          0.00866667 0.0364921 0 0.009 0.0364921 0 0.00933333 0.0364921 0 0.00966667 0.0364921 0
          0.01 0.0364921 0 0 0.0367671 0 0.000333333 0.0367671 0 0.000666667 0.0367671 0
          0.001 0.0367671 0 0.00133333 0.0367671 0 0.00166667 0.0367671 0 0.002 0.0367671 0
          0.00233333 0.0367671 0 0.00266667 0.0367671 0 0.003 0.0367671 0 0.00333333 0.0367671 0
          0.00366667 0.0367671 0 0.004 0.0367671 0 0.00433333 0.0367671 0 0.00466667 0.0367671 0
          0.005 0.0367671 0 0.00533333 0.0367671 0 0.00566667 0.0367671 0 0.006 0.0367671 0
          0.00633333 0.0367671 0 0.00666667 0.0367671 0 0.007 0.0367671 0 0.00733333 0.0367671 0
          0.00766667 0.0367671 0 0.008 0.0367671 0 0.00833333 0.0367671 0 0.00866667 0.0367671 0
          0.009 0.0367671 0 0.00933333 0.0367671 0 0.00966667 0.0367671 0 0.01 0.0367671 0
          0 0.0370778 0 0.000333333 0.0370778 0 0.000666667 0.0370778 0 0.001 0.0370778 0
          0.00133333 0.0370778 0 0.00166667 0.0370778 0 0.002 0.0370778 0 0.00233333 0.0370778 0
          0.00266667 0.0370778 0 0.003 0.0370778 0 0.00333333 0.0370778 0 0.00366667 0.0370778 0
          0.004 0.0370778 0 0.00433333 0.0370778 0 0.00466667 0.0370778 0 0.005 0.0370778 0
          0.00533333 0.0370778 0 0.00566667 0.0370778 0 0.006 0.0370778 0 0.00633333 0.0370778 0
          0.00666667 0.0370778 0 0.007 0.0370778 0 0.00733333 0.0370778 0 0.00766667 0.0370778 0
          0.008 0.0370778 0 0.00833333 0.0370778 0 0.00866667 0.0370778 0 0.009 0.0370778 0
          0.00933333 0.0370778 0 0.00966667 0.0370778 0 0.01 0.0370778 0 0 0.0374289 0
          0.000333333 0.0374289 0 0.000666667 0.0374289 0 0.001 0.0374289 0 0.00133333 0.0374289 0
          0.00166667 0.0374289 0 0.002 0.0374289 0 0.00233333 0.0374289 0 0.00266667 0.0374289 0
          0.003 0.0374289 0 0.00333333 0.0374289 0 0.00366667 0.0374289 0 0.004 0.0374289 0
          0.00433333 0.0374289 0 0.00466667 0.0374289 0 0.005 0.0374289 0 0.00533333 0.0374289 0
          0.00566667 0.0374289 0 0.006 0.0374289 0 0.00633333 0.0374289 0 0.00666667 0.0374289 0
          0.007 0.0374289 0 0.00733333 0.0374289 0 0.00766667 0.0374289 0 0.008 0.0374289 0
          0.00833333 0.0374289 0 0.00866667 0.0374289 0 0.009 0.0374289 0 0.00933333 0.0374289 0
          0.00966667 0.0374289 0 0.01 0.0374289 0 0 0.0378256 0 0.000333333 0.0378256 0
          0.000666667 0.0378256 0 0.001 0.0378256 0 0.00133333 0.0378256 0 0.00166667 0.0378256 0
          0.002 0.0378256 0 0.00233333 0.0378256 0 0.00266667 0.0378256 0 0.003 0.0378256 0
          0.00333333 0.0378256 0 0.00366667 0.0378256 0 0.004 0.0378256 0 0.00433333 0.0378256 0
          0.00466667 0.0378256 0 0.005 0.0378256 0 0.00533333 0.0378256 0 0.00566667 0.0378256 0
          0.006 0.0378256 0 0.00633333 0.0378256 0 0.00666667 0.0378256 0 0.007 0.0378256 0
          0.00733333 0.0378256 0 0.00766667 0.0378256 0 0.008 0.0378256 0 0.00833333 0.0378256 0
          0.00866667 0.0378256 0 0.009 0.0378256 0 0.00933333 0.0378256 0 0.00966667 0.0378256 0
          0.01 0.0378256 0 0 0.038274 0 0.000333333 0.038274 0 0.000666667 0.038274 0
          0.001 0.038274 0 0.00133333 0.038274 0 0.00166667 0.038274 0 0.002 0.038274 0
          0.00233333 0.038274 0 0.00266667 0.038274 0 0.003 0.038274 0 0.00333333 0.038274 0
          0.00366667 0.038274 0 0.004 0.038274 0 0.00433333 0.038274 0 0.00466667 0.038274 0
          0.005 0.038274 0 0.00533333 0.038274 0 0.00566667 0.038274 0 0.006 0.038274 0
          0.00633333 0.038274 0 0.00666667 0.038274 0 0.007 0.038274 0 0.00733333 0.038274 0
          0.00766667 0.038274 0 0.008 0.038274 0 0.00833333 0.038274 0 0.00866667 0.038274 0
          0.009 0.038274 0 0.00933333 0.038274 0 0.00966667 0.038274 0 0.01 0.038274 0
          0 0.0387806 0 0.000333333 0.0387806 0 0.000666667 0.0387806 0 0.001 0.0387806 0
          0.00133333 0.0387806 0 0.00166667 0.0387806 0 0.002 0.0387806 0 0.00233333 0.0387806 0
          0.00266667 0.0387806 0 0.003 0.0387806 0 0.00333333 0.0387806 0 0.00366667 0.0387806 0
          0.004 0.0387806 0 0.00433333 0.0387806 0 0.00466667 0.0387806 0 0.005 0.0387806 0
          0.00533333 0.0387806 0 0.00566667 0.0387806 0 0.006 0.0387806 0 0.00633333 0.0387806 0
          0.00666667 0.0387806 0 0.007 0.0387806 0 0.00733333 0.0387806 0 0.00766667 0.0387806 0
          0.008 0.0387806 0 0.00833333 0.0387806 0 0.00866667 0.0387806 0 0.009 0.0387806 0
          0.00933333 0.0387806 0 0.00966667 0.0387806 0 0.01 0.0387806 0 0 0.0393531 0
          0.000333333 0.0393531 0 0.000666667 0.0393531 0 0.001 0.0393531 0 0.00133333 0.0393531 0
          0.00166667 0.0393531 0 0.002 0.0393531 0 0.00233333 0.0393531 0 0.00266667 0.0393531 0
          0.003 0.0393531 0 0.00333333 0.0393531 0 0.00366667 0.0393531 0 0.004 0.0393531 0
          0.00433333 0.0393531 0 0.00466667 0.0393531 0 0.005 0.0393531 0 0.00533333 0.0393531 0
          0.00566667 0.0393531 0 0.006 0.0393531 0 0.00633333 0.0393531 0 0.00666667 0.0393531 0
          0.007 0.0393531 0 0.00733333 0.0393531 0 0.00766667 0.0393531 0 0.008 0.0393531 0
          0.00833333 0.0393531 0 0.00866667 0.0393531 0 0.009 0.0393531 0 0.00933333 0.0393531 0
          0.00966667 0.0393531 0 0.01 0.0393531 0 0 0.04 0 0.000333333 0.04 0
          0.000666667 0.04 0 0.001 0.04 0 0.00133333 0.04 0 0.00166667 0.04 0
          0.002 0.04 0 0.00233333 0.04 0 0.00266667 0.04 0 0.003 0.04 0
          0.00333333 0.04 0 0.00366667 0.04 0 0.004 0.04 0 0.00433333 0.04 0
          0.00466667 0.04 0 0.005 0.04 0 0.00533333 0.04 0 0.00566667 0.04 0
          0.006 0.04 0 0.00633333 0.04 0 0.00666667 0.04 0 0.007 0.04 0
          0.00733333 0.04 0 0.00766667 0.04 0 0.008 0.04 0 0.00833333 0.04 0
          0.00866667 0.04 0 0.009 0.04 0 0.00933333 0.04 0 0.00966667 0.04 0
          0.01 0.04 0
        </DataArray>
      </Points>
      <Cells>
        <DataArray type="Int32" Name="connectivity" NumberOfComponents="1" format="ascii">
          0 1 3 2 1 4 5 3 4 6 7 5
          6 8 9 7 8 10 11 9 10 12 13 11
          12 14 15 13 14 16 17 15 16 18 19 17
          18 20 21 19 20 22 23 21 22 24 25 23
          24 26 27 25 26 28 29 27 28 30 31 29
          30 32 33 31 32 34 35 33 34 36 37 35
          36 38 39 37 38 40 41 39 40 42 43 41
          42 44 45 43 44 46 47 45 46 48 49 47
          48 50 51 49 50 52 53 51 52 54 55 53
          54 56 57 55 56 58 59 57 58 60 61 59
          2 3 63 62 3 5 64 63 5 7 65 64
          7 9 66 65 9 11 67 66 11 13 68 67
          13 15 69 68 15 17 70 69 17 19 71 70
          19 21 72 71 21 23 73 72 23 25 74 73
          25 27 75 74 27 29 76 75 29 31 77 76
          31 33 78 77 33 35 79 78 35 37 80 79
          37 39 81 80 39 41 82 81 41 43 83 82
          43 45 84 83 45 47 85 84 47 49 86 85
          49 51 87 86 51 53 88 87 53 55 89 88
          55 57 90 89 57 59 91 90 59 61 92 91
          62 63 94 93 63 64 95 94 64 65 96 95
          65 66 97 96 66 67 98 97 67 68 99 98
          68 69 100 99 69 70 101 100 70 71 102 101
          71 72 103 102 72 73 104 103 73 74 105 104
          74 75 106 105 75 76 107 106 76 77 108 107
          77 78 109 108 78 79 110 109 79 80 111 110
          80 81 112 111 81 82 113 112 82 83 114 113
          83 84 115 114 84 85 116 115 85 86 117 116
          86 87 118 117 87 88 119 118 88 89 120 119
          89 90 121 120 90 91 122 121 91 92 123 122
          93 94 125 124 94 95 126 125 95 96 127 126
          96 97 128 127 97 98 129 128 98 99 130 129
          99 100 131 130 100 101 132 131 101 102 133 132
          102 103 134 133 103 104 135 134 104 105 136 135
          105 106 137 136 106 107 138 137 107 108 139 138
          108 109 140 139 109 110 141 140 110 111 142 141
          111 112 143 142 112 113 144 143 113 114 145 144
          114 115 146 145 115 116 147 146 116 117 148 147
          117 118 149 148 118 119 150 149 119 120 151 150
          120 121 152 151 121 122 153 152 122 123 154 153
          124 125 156 155 125 126 157 156 126 127 158 157
          127 128 159 158 128 129 160 159 129 130 161 160
          130 131 162 161 131 132 163 162 132 133 164 163
          133 134 165 164 134 135 166 165 135 136 167 166
          136 137 168 167 137 138 169 168 138 139 170 169
          139 140 171 170 140 141 172 171 141 142 173 172
          142 143 174 173 143 144 175 174 144 145 176 175
          145 146 177 176 146 147 178 177 147 148 179 178
          148 149 180 179 149 150 181 180 150 151 182 181
          151 152 183 182 152 153 184 183 153 154 185 184
          155 156 187 186 156 157 188 187 157 158 189 188
          158 159 190 189 159 160 191 190 160 161 192 191
          161 162 193 192 162 163 194 193 163 164 195 194
          164 165 196 195 165 166 197 196 166 167 198 197
          167 168 199 198 168 169 200 199 169 170 201 200
          170 171 202 201 171 172 203 202 172 173 204 203
          173 174 205 204 174 175 206 205 175 176 207 206
          176 177 208 207 177 178 209 208 178 179 210 209
          179 180 211 210 180 181 212 211 181 182 213 212
          182 183 214 213 183 184 215 214 184 185 216 215
          186 187 218 217 187 188 219 218 188 189 220 219
          189 190 221 220 190 191 222 221 191 192 223 222
          192 193 224 223 193 194 225 224 194 195 226 225
          195 196 227 226 196 197 228 227 197 198 229 228
          198 199 230 229 199 200 231 230 200 201 232 231
          201 202 233 232 202 203 234 233 203 204 235 234
          204 205 236 235 205 206 237 236 206 207 238 237
          207 208 239 238 208 209 240 239 209 210 241 240
          210 211 242 241 211 212 243 242 212 213 244 243
          213 214 245 244 214 215 246 245 215 216 247 246
          217 218 249 248 218 219 250 249 219 220 251 250
          220 221 252 251 221 222 253 252 222 223 254 253
          223 224 255 254 224 225 256 255 225 226 257 256
          226 227 258 257 227 228 259 258 228 229 260 259
          229 230 261 260 230 231 262 261 231 232 263 262
          232 233 264 263 233 234 265 264 234 235 266 265
          235 236 267 266 236 237 268 267 237 238 269 268
          238 239 270 269 239 240 271 270 240 241 272 271
          241 242 273 272 242 243 274 273 243 244 275 274
          244 245 276 275 245 246 277 276 246 247 278 277
          248 249 280 279 249 250 281 280 250 251 282 281
          251 252 283 282 252 253 284 283 253 254 285 284
          254 255 286 285 255 256 287 286 256 257 288 287
          257 258 289 288 258 259 290 289 259 260 291 290
          260 261 292 291 261 262 293 292 262 263 294 293
          263 264 295 294 264 265 296 295 265 266 297 296
          266 267 298 297 267 268 299 298 268 269 300 299
          269 270 301 300 270 271 302 301 271 272 303 302
          272 273 304 303 273 274 305 304 274 275 306 305
          275 276 307 306 276 277 308 307 277 278 309 308
          279 280 311 310 280 281 312 311 281 282 313 312
          282 283 314 313 283 284 315 314 284 285 316 315
          285 286 317 316 286 287 318 317 287 288 319 318
          288 289 320 319 289 290 321 320 290 291 322 321
          291 292 323 322 292 293 324 323 293 294 325 324
          294 295 326 325 295 296 327 326 296 297 328 327
          297 298 329 328 298 299 330 329 299 300 331 330
          300 301 332 331 301 302 333 332 302 303 334 333
          303 304 335 334 304 305 336 335 305 306 337 336
          306 307 338 337 307 308 339 338 308 309 340 339
          310 311 342 341 311 312 343 342 312 313 344 343
          313 314 345 344 314 315 346 345 315 316 347 346
          316 317 348 347 317 318 349 348 318 319 350 349
          319 320 351 350 320 321 352 351 321 322 353 352
          322 323 354 353 323 324 355 354 324 325 356 355
          325 326 357 356 326 327 358 357 327 328 359 358
          328 329 360 359 329 330 361 360 330 331 362 361
          331 332 363 362 332 333 364 363 333 334 365 364
          334 335 366 365 335 336 367 366 336 337 368 367
          337 338 369 368 338 339 370 369 339 340 371 370
          341 342 373 372 342 343 374 373 343 344 375 374
          344 345 376 375 345 346 377 376 346 347 378 377
          347 348 379 378 348 349 380 379 349 350 381 380
          350 351 382 381 351 352 383 382 352 353 384 383
          353 354 385 384 354 355 386 385 355 356 387 386
          356 357 388 387 357 358 389 388 358 359 390 389
          359 360 391 390 360 361 392 391 361 362 393 392
          362 363 394 393 363 364 395 394 364 365 396 395
          365 366 397 396 366 367 398 397 367 368 399 398
          368 369 400 399 369 370 401 400 370 371 402 401
          372 373 404 403 373 374 405 404 374 375 406 405
          375 376 407 406 376 377 408 407 377 378 409 408
          378 379 410 409 379 380 411 410 380 381 412 411
          381 382 413 412 382 383 414 413 383 384 415 414
          384 385 416 415 385 386 417 416 386 387 418 417
          387 388 419 418 388 389 420 419 389 390 421 420
          390 391 422 421 391 392 423 422 392 393 424 423
          393 394 425 424 394 395 426 425 395 396 427 426
          396 397 428 427 397 398 429 428 398 399 430 429
          399 400 431 430 400 401 432 431 401 402 433 432
          403 404 435 434 404 405 436 435 405 406 437 436
          406 407 438 437 407 408 439 438 408 409 440 439
          409 410 441 440 410 411 442 441 411 412 443 442
          412 413 444 443 413 414 445 444 414 415 446 445
          415 416 447 446 416 417 448 447 417 418 449 448
          418 419 450 449 419 420 451 450 420 421 452 451
          421 422 453 452 422 423 454 453 423 424 455 454
          424 425 456 455 425 426 457 456 426 427 458 457
          427 428 459 458 428 429 460 459 429 430 461 460
          430 431 462 461 431 432 463 462 432 433 464 463
          434 435 466 465 435 436 467 466 436 437 468 467
          437 438 469 468 438 439 470 469 439 440 471 470
          440 441 472 471 441 442 473 472 442 443 474 473
          443 444 475 474 444 445 476 475 445 446 477 476
          446 447 478 477 447 448 479 478 448 449 480 479
          449 450 481 480 450 451 482 481 451 452 483 482
          452 453 484 483 453 454 485 484 454 455 486 485
          455 456 487 486 456 457 488 487 457 458 489 488
          458 459 490 489 459 460 491 490 460 461 492 491
          461 462 493 492 462 463 494 493 463 464 495 494
          465 466 497 496 466 467 498 497 467 468 499 498
          468 469 500 499 469 470 501 500 470 471 502 501
          471 472 503 502 472 473 504 503 473 474 505 504
          474 475 506 505 475 476 507 506 476 477 508 507
          477 478 509 508 478 479 510 509 479 480 511 510
          480 481 512 511 481 482 513 512 482 483 514 513
          483 484 515 514 484 485 516 515 485 486 517 516
          486 487 518 517 487 488 519 518 488 489 520 519
          489 490 521 520 490 491 522 521 491 492 523 522
          492 493 524 523 493 494 525 524 494 495 526 525
          496 497 528 527 497 498 529 528 498 499 530 529
          499 500 531 530 500 501 532 531 501 502 533 532
          502 503 534 533 503 504 535 534 504 505 536 535
          505 506 537 536 506 507 538 537 507 508 539 538
          508 509 540 539 509 510 541 540 510 511 542 541
          511 512 543 542 512 513 544 543 513 514 545 544
          514 515 546 545 515 516 547 546 516 517 548 547
          517 518 549 548 518 519 550 549 519 520 551 550
          520 521 552 551 521 522 553 552 522 523 554 553
          523 524 555 554 524 525 556 555 525 526 557 556
          527 528 559 558 528 529 560 559 529 530 561 560
          530 531 562 561 531 532 563 562 532 533 564 563
          533 534 565 564 534 535 566 565 535 536 567 566
          536 537 568 567 537 538 569 568 538 539 570 569
          539 540 571 570 540 541 572 571 541 542 573 572
          542 543 574 573 543 544 575 574 544 545 576 575
          545 546 577 576 546 547 578 577 547 548 579 578
          548 549 580 579 549 550 581 580 550 551 582 581
          551 552 583 582 552 553 584 583 553 554 585 584
          554 555 586 585 555 556 587 586 556 557 588 587
        </DataArray>
        <DataArray type="Int32" Name="offsets" NumberOfComponents="1" format="ascii">
          4 8 12 16 20 24 28 32 36 40 44 48
          52 56 60 64 68 72 76 80 84 88 92 96
          100 104 108 112 116 120 124 128 132 136 140 144
          148 152 156 160 164 168 172 176 180 184 188 192
          196 200 204 208 212 216 220 224 228 232 236 240
          244 248 252 256 260 264 268 272 276 280 284 288
          292 296 300 304 308 312 316 320 324 328 332 336
          340 344 348 352 356 360 364 368 372 376 380 384
          388 392 396 400 404 408 412 416 420 424 428 432
          436 440 444 448 452 456 460 464 468 472 476 480
          484 488 492 496 500 504 508 512 516 520 524 528
          532 536 540 544 548 552 556 560 564 568 572 576
          580 584 588 592 596 600 604 608 612 616 620 624
          628 632 636 640 644 648 652 656 660 664 668 672
          676 680 684 688 692 696 700 704 708 712 716 720
          724 728 732 736 740 744 748 752 756 760 764 768
          772 776 780 784 788 792 796 800 804 808 812 816
          820 824 828 832 836 840 844 848 852 856 860 864
          868 872 876 880 884 888 892 896 900 904 908 912
          916 920 924 928 932 936 940 944 948 952 956 960
          964 968 972 976 980 984 988 992 996 1000 1004 1008
          1012 1016 1020 1024 1028 1032 1036 1040 1044 1048 1052 1056
          1060 1064 1068 1072 1076 1080 1084 1088 1092 1096 1100 1104
          1108 1112 1116 1120 1124 1128 1132 1136 1140 1144 1148 1152
          1156 1160 1164 1168 1172 1176 1180 1184 1188 1192 1196 1200
          1204 1208 1212 1216 1220 1224 1228 1232 1236 1240 1244 1248
          1252 1256 1260 1264 1268 1272 1276 1280 1284 1288 1292 1296
          1300 1304 1308 1312 1316 1320 1324 1328 1332 1336 1340 1344
          1348 1352 1356 1360 1364 1368 1372 1376 1380 1384 1388 1392
          1396 1400 1404 1408 1412 1416 1420 1424 1428 1432 1436 1440
          1444 1448 1452 1456 1460 1464 1468 1472 1476 1480 1484 1488
          1492 1496 1500 1504 1508 1512 1516 1520 1524 1528 1532 1536
          1540 1544 1548 1552 1556 1560 1564 1568 1572 1576 1580 1584
          1588 1592 1596 1600 1604 1608 1612 1616 1620 1624 1628 1632
          1636 1640 1644 1648 1652 1656 1660 1664 1668 1672 1676 1680
          1684 1688 1692 1696 1700 1704 1708 1712 1716 1720 1724 1728
          1732 1736 1740 1744 1748 1752 1756 1760 1764 1768 1772 1776
          1780 1784 1788 1792 1796 1800 1804 1808 1812 1816 1820 1824
          1828 1832 1836 1840 1844 1848 1852 1856 1860 1864 1868 1872
          1876 1880 1884 1888 1892 1896 1900 1904 1908 1912 1916 1920
          1924 1928 1932 1936 1940 1944 1948 1952 1956 1960 1964 1968
          1972 1976 1980 1984 1988 1992 1996 2000 2004 2008 2012 2016
          2020 2024 2028 2032 2036 2040 2044 2048 2052 2056 2060 2064
          2068 2072 2076 2080 2084 2088 2092 2096 2100 2104 2108 2112
          2116 2120 2124 2128 2132 2136 2140 2144 2148 2152 2156 2160
        </DataArray>
        <DataArray type="UInt8" Name="types" NumberOfComponents="1" format="ascii">
          9 9 9 9 9 9 9 9 9 9 9 9
          9 9 9 9 9 9 9 9 9 9 9 9
          9 9 9 9 9 9 9 9 9 9 9 9
          9 9 9 9 9 9 9 9 9 9 9 9
          9 9 9 9 9 9 9 9 9 9 9 9
          9 9 9 9 9 9 9 9 9 9 9 9
          9 9 9 9 9 9 9 9 9 9 9 9
          9 9 9 9 9 9 9 9 9 9 9 9
          9 9 9 9 9 9 9 9 9 9 9 9
          9 9 9 9 9 9 9 9 9 9 9 9
          9 9 9 9 9 9 9 9 9 9 9 9
          9 9 9 9 9 9 9 9 9 9 9 9
          9 9 9 9 9 9 9 9 9 9 9 9
          9 9 9 9 9 9 9 9 9 9 9 9
          9 9 9 9 9 9 9 9 9 9 9 9
          9 9 9 9 9 9 9 9 9 9 9 9
          9 9 9 9 9 9 9 9 9 9 9 9
          9 9 9 9 9 9 9 9 9 9 9 9
          9 9 9 9 9 9 9 9 9 9 9 9
          9 9 9 9 9 9 9 9 9 9 9 9
          9 9 9 9 9 9 9 9 9 9 9 9
          9 9 9 9 9 9 9 9 9 9 9 9
          9 9 9 9 9 9 9 9 9 9 9 9
          9 9 9 9 9 9 9 9 9 9 9 9
          9 9 9 9 9 9 9 9 9 9 9 9
          9 9 9 9 9 9 9 9 9 9 9 9
          9 9 9 9 9 9 9 9 9 9 9 9
          9 9 9 9 9 9 9 9 9 9 9 9
          9 9 9 9 9 9 9 9 9 9 9 9
          9 9 9 9 9 9 9 9 9 9 9 9
          9 9 9 9 9 9 9 9 9 9 9 9
          9 9 9 9 9 9 9 9 9 9 9 9
          9 9 9 9 9 9 9 9 9 9 9 9
          9 9 9 9 9 9 9 9 9 9 9 9
          9 9 9 9 9 9 9 9 9 9 9 9
          9 9 9 9 9 9 9 9 9 9 9 9
          9 9 9 9 9 9 9 9 9 9 9 9
          9 9 9 9 9 9 9 9 9 9 9 9
          9 9 9 9 9 9 9 9 9 9 9 9
          9 9 9 9 9 9 9 9 9 9 9 9
          9 9 9 9 9 9 9 9 9 9 9 9
          9 9 9 9 9 9 9 9 9 9 9 9
          9 9 9 9 9 9 9 9 9 9 9 9
          9 9 9 9 9 9 9 9 9 9 9 9
          9 9 9 9 9 9 9 9 9 9 9 9
        </DataArray>
      </Cells>
    </Piece>
  </UnstructuredGrid>
</VTKFile>
