<?xml version="1.0"?>
<VTKFile type="UnstructuredGrid" version="0.1" byte_order="LittleEndian">
  <UnstructuredGrid>
    <Piece NumberOfCells="540" NumberOfPoints="589">
      <PointData Scalars="temperature" Vectors="v">
        <DataArray type="Float32" Name="temperature" NumberOfComponents="1" format="ascii">
          303.947 304.161 294.541 301.783 304.256 302.621 304.334 303.048 304.398 303.324 304.453 303.518
          304.503 303.668 304.547 303.791 304.588 303.895 304.625 303.986 304.66 304.068 304.692 304.142
          304.722 304.21 304.751 304.271 304.777 304.327 304.802 304.379 304.825 304.425 304.847 304.468
          304.867 304.506 304.886 304.539 304.904 304.57 304.921 304.598 304.937 304.627 304.953 304.663
          304.97 304.712 304.987 304.783 305.003 304.875 305.017 304.977 305.027 305.052 305.031 305.072
          305.032 305.15 287.695 297.264 300.45 301.42 301.998 302.379 302.662 302.884 303.067 303.225
          303.363 303.488 303.599 303.7 303.792 303.875 303.951 304.018 304.078 304.13 304.175 304.216
          304.259 304.312 304.388 304.506 304.672 304.874 305.046 305.117 305.15 283.414 292.097 297.25
          299.313 300.337 300.982 301.44 301.79 302.074 302.312 302.52 302.705 302.87 303.019 303.153
          303.275 303.384 303.482 303.569 303.644 303.708 303.765 303.82 303.888 303.987 304.144 304.378
          304.683 304.982 305.151 305.15 281.125 287.462 293.254 296.515 298.23 299.248 299.946 300.464
          300.875 301.216 301.508 301.766 301.996 302.203 302.388 302.556 302.707 302.842 302.961 303.065
          303.153 303.229 303.301 303.382 303.499 303.685 303.976 304.383 304.832 305.15 305.15 280.158
          284.005 289.129 293.067 295.556 297.086 298.108 298.849 299.424 299.893 300.291 300.638 300.947
          301.223 301.471 301.694 301.895 302.075 302.235 302.374 302.493 302.594 302.686 302.783 302.913
          303.122 303.457 303.956 304.568 305.086 305.15 279.938 281.863 285.59 289.386 292.361 294.429
          295.855 296.883 297.669 298.3 298.828 299.284 299.687 300.048 300.371 300.661 300.922 301.157
          301.367 301.55 301.708 301.843 301.961 302.078 302.225 302.45 302.82 303.4 304.176 304.932
          305.15 280.032 280.817 283.063 286.06 288.973 291.358 293.168 294.522 295.562 296.391 297.079
          297.667 298.183 298.644 299.057 299.428 299.762 300.064 300.333 300.572 300.779 300.957 301.112
          301.259 301.427 301.672 302.072 302.722 303.652 304.672 305.15 280.2 280.488 281.615 283.575
          285.92 288.207 290.19 291.805 293.1 294.149 295.021 295.763 296.411 296.987 297.506 297.972
          298.393 298.773 299.115 299.42 299.689 299.924 300.128 300.317 300.52 300.793 301.228 301.941
          303.014 304.306 305.15 280.338 280.515 281.019 282.094 283.658 285.468 287.286 288.951 290.398
          291.63 292.68 293.583 294.374 295.079 295.714 296.287 296.807 297.278 297.705 298.09 298.435
          298.74 299.01 299.258 299.512 299.829 300.306 301.083 302.285 303.847 305.15 280.447 280.667
          280.945 281.483 282.374 283.568 284.949 286.385 287.773 289.053 290.204 291.231 292.149 292.974
          293.725 294.409 295.034 295.605 296.127 296.603 297.035 297.425 297.777 298.102 298.426 298.804
          299.338 300.18 301.5 303.321 305.15 280.557 280.858 281.126 281.456 281.947 282.644 283.536
          284.573 285.689 286.822 287.925 288.969 289.942 290.844 291.68 292.457 293.176 293.843 294.461
          295.032 295.559 296.043 296.489 296.905 297.315 297.769 298.366 299.271 300.695 302.757 305.15
          280.726 281.11 281.45 281.771 282.126 282.566 283.117 283.787 284.563 285.417 286.318 287.235
          288.143 289.025 289.873 290.686 291.459 292.192 292.885 293.537 294.15 294.726 295.266 295.777
          296.277 296.809 297.466 298.421 299.921 302.192 305.15 281.008 281.503 281.947 282.348 282.73
          283.119 283.54 284.012 284.546 285.143 285.8 286.505 287.243 287.998 288.758 289.516 290.265
          290.999 291.712 292.402 293.066 293.704 294.315 294.903 295.476 296.068 296.761 297.729 299.253
          301.671 305.15 281.519 282.185 282.776 283.304 283.786 284.241 284.683 285.125 285.578 286.051
          286.549 287.076 287.634 288.219 288.825 289.449 290.089 290.737 291.39 292.042 292.688 293.325
          293.95 294.562 295.162 295.769 296.448 297.361 298.819 301.271 305.15 282.497 283.443 284.254
          284.958 285.582 286.149 286.676 287.175 287.653 288.116 288.57 289.02 289.471 289.928 290.394
          290.87 291.36 291.866 292.386 292.918 293.461 294.011 294.565 295.119 295.668 296.219 296.808
          297.567 298.815 301.106 305.15 284.61 285.985 287.069 287.978 288.753 289.43 290.033 290.583
          291.091 291.564 292.008 292.427 292.824 293.205 293.573 293.933 294.287 294.643 295.004 295.373
          295.753 296.144 296.544 296.952 297.364 297.778 298.203 298.71 299.552 301.368 305.15 289.503
          291.811 292.912 293.814 294.56 295.188 295.726 296.196 296.614 296.99 297.332 297.645 297.933
          298.199 298.447 298.679 298.897 299.104 299.304 299.502 299.699 299.899 300.104 300.314 300.528
          300.746 300.964 301.194 301.525 302.362 305.15 290.621 305.15 305.15 305.15 305.15 305.15
          305.15 305.15 305.15 305.15 305.15 305.15 305.15 305.15 305.15 305.15 305.15 305.15
          305.15 305.15 305.15 305.15 305.15 305.15 305.15 305.15 305.15 305.15 305.15 305.15
          305.15
        </DataArray>
        <DataArray type="Float32" Name="pg" NumberOfComponents="1" format="ascii">
          446094 446094 446094 446094 446094 446094 446094 446094 446094 446094 446094 446094
          446094 446094 446094 446094 446094 446094 446094 446094 446094 446094 446094 446094
          446094 446094 446094 446094 446094 446094 446094 446094 446094 446094 446094 446094
          446094 446094 446094 446094 446094 446094 446094 446094 446094 446094 446094 446094
          446094 446094 446094 446094 446094 446094 446094 446094 446094 446094 446094 446094
          446094 446094 446094 446094 446094 446094 446094 446094 446094 446094 446094 446094
          446094 446094 446094 446094 446094 446094 446094 446094 446094 446094 446094 446094
          446094 446094 446094 446094 446094 446094 446094 446094 446094 446094 446094 446094
          446094 446094 446094 446094 446094 446094 446094 446094 446094 446094 446094 446094
          446094 446094 446094 446094 446094 446094 446094 446094 446094 446094 446094 446094
          446094 446094 446094 446094 446094 446094 446094 446094 446094 446094 446094 446094
          446094 446094 446094 446094 446094 446094 446094 446094 446094 446094 446094 446094
          446094 446094 446094 446094 446094 446094 446094 446094 446094 446094 446094 446094
          446094 446094 446094 446094 446094 446094 446094 446094 446094 446094 446094 446094
          446094 446094 446094 446094 446094 446094 446094 446094 446094 446094 446094 446094
          446094 446094 446094 446094 446094 446094 446094 446094 446094 446094 446094 446094
          446094 446094 446094 446094 446094 446094 446094 446094 446094 446094 446094 446094
          446094 446094 446094 446094 446094 446094 446094 446094 446094 446094 446094 446094
          446094 446094 446094 446094 446094 446094 446094 446094 446094 446094 446094 446094
          446094 446094 446094 446094 446094 446094 446094 446094 446094 446094 446094 446094
          446094 446094 446094 446094 446094 446094 446094 446094 446094 446094 446094 446094
          446094 446094 446094 446094 446094 446094 446094 446094 446094 446094 446094 446094
          446094 446094 446094 446094 446094 446094 446094 446094 446094 446094 446094 446094
          446094 446094 446094 446094 446094 446094 446094 446094 446094 446094 446094 446094
          446094 446094 446094 446094 446094 446094 446094 446094 446094 446094 446094 446094
          446094 446094 446094 446094 446094 446094 446094 446094 446094 446094 446094 446094
          446094 446094 446094 446094 446094 446094 446094 446094 446094 446094 446094 446094
          446094 446094 446094 446094 446094 446094 446094 446094 446094 446094 446094 446094
          446094 446094 446094 446094 446094 446094 446094 446094 446094 446094 446094 446094
          446094 446094 446094 446094 446094 446094 446094 446094 446094 446094 446094 446094
          446094 446094 446094 446094 446094 446094 446094 446094 446094 446094 446094 446094
          446094 446094 446094 446094 446094 446094 446094 446094 446094 446094 446094 446094
          446094 446094 446094 446094 446094 446094 446094 446094 446094 446094 446094 446094
          446094 446094 446094 446094 446094 446094 446094 446094 446094 446094 446094 446094
          446094 446094 446094 446094 446094 446094 446094 446094 446094 446094 446094 446094
          446094 446094 446094 446094 446094 446094 446094 446094 446094 446094 446094 446094
          446094 446094 446094 446094 446094 446094 446094 446094 446094 446094 446094 446094
          446094 446094 446094 446094 446094 446094 446094 446094 446094 446094 446094 446094
          446094 446094 446094 446094 446094 446094 446094 446094 446094 446094 446094 446094
          446094 446094 446094 446094 446094 446094 446094 446094 446094 446094 446094 446094
          446094 446094 446094 446094 446094 446094 446094 446094 446094 446094 446094 446094
          446094 446094 446094 446094 446094 446094 446094 446094 446094 446094 446094 446094
          446094 446094 446094 446094 446094 446094 446094 446094 446094 446094 446094 446094
          446094 446094 446094 446094 446094 446094 446094 446094 446094 446094 446094 446094
          446094 446094 446094 446094 446094 446094 446094 446094 446094 446094 446094 446094
          446094 446094 446094 446094 446094 446094 446094 446094 446094 446094 446094 446094
          446094 446094 446094 446094 446094 446094 446094 446094 446094 446094 446094 446094
          446094 446094 446094 446094 446094 446094 446094 446094 446094 446094 446094 446094
          446094 446094 446094 446094 446094 446094 446094 446094 446094 446094 446094 446094
          446094
        </DataArray>
        <DataArray type="Float32" Name="delP" NumberOfComponents="1" format="ascii">
          346094 346094 346094 346094 346094 346094 346094 346094 346094 346094 346094 346094
          346094 346094 346094 346094 346094 346094 346094 346094 346094 346094 346094 346094
          346094 346094 346094 346094 346094 346094 346094 346094 346094 346094 346094 346094
          346094 346094 346094 346094 346094 346094 346094 346094 346094 346094 346094 346094
          346094 346094 346094 346094 346094 346094 346094 346094 346094 346094 346094 346094
          346094 346094 346094 346094 346094 346094 346094 346094 346094 346094 346094 346094
          346094 346094 346094 346094 346094 346094 346094 346094 346094 346094 346094 346094
          346094 346094 346094 346094 346094 346094 346094 346094 346094 346094 346094 346094
          346094 346094 346094 346094 346094 346094 346094 346094 346094 346094 346094 346094
          346094 346094 346094 346094 346094 346094 346094 346094 346094 346094 346094 346094
          346094 346094 346094 346094 346094 346094 346094 346094 346094 346094 346094 346094
          346094 346094 346094 346094 346094 346094 346094 346094 346094 346094 346094 346094
          346094 346094 346094 346094 346094 346094 346094 346094 346094 346094 346094 346094
          346094 346094 346094 346094 346094 346094 346094 346094 346094 346094 346094 346094
          346094 346094 346094 346094 346094 346094 346094 346094 346094 346094 346094 346094
          346094 346094 346094 346094 346094 346094 346094 346094 346094 346094 346094 346094
          346094 346094 346094 346094 346094 346094 346094 346094 346094 346094 346094 346094
          346094 346094 346094 346094 346094 346094 346094 346094 346094 346094 346094 346094
          346094 346094 346094 346094 346094 346094 346094 346094 346094 346094 346094 346094
          346094 346094 346094 346094 346094 346094 346094 346094 346094 346094 346094 346094
          346094 346094 346094 346094 346094 346094 346094 346094 346094 346094 346094 346094
          346094 346094 346094 346094 346094 346094 346094 346094 346094 346094 346094 346094
          346094 346094 346094 346094 346094 346094 346094 346094 346094 346094 346094 346094
          346094 346094 346094 346094 346094 346094 346094 346094 346094 346094 346094 346094
          346094 346094 346094 346094 346094 346094 346094 346094 346094 346094 346094 346094
          346094 346094 346094 346094 346094 346094 346094 346094 346094 346094 346094 346094
          346094 346094 346094 346094 346094 346094 346094 346094 346094 346094 346094 346094
          346094 346094 346094 346094 346094 346094 346094 346094 346094 346094 346094 346094
          346094 346094 346094 346094 346094 346094 346094 346094 346094 346094 346094 346094
          346094 346094 346094 346094 346094 346094 346094 346094 346094 346094 346094 346094
          346094 346094 346094 346094 346094 346094 346094 346094 346094 346094 346094 346094
          346094 346094 346094 346094 346094 346094 346094 346094 346094 346094 346094 346094
          346094 346094 346094 346094 346094 346094 346094 346094 346094 346094 346094 346094
          346094 346094 346094 346094 346094 346094 346094 346094 346094 346094 346094 346094
          346094 346094 346094 346094 346094 346094 346094 346094 346094 346094 346094 346094
          346094 346094 346094 346094 346094 346094 346094 346094 346094 346094 346094 346094
          346094 346094 346094 346094 346094 346094 346094 346094 346094 346094 346094 346094
          346094 346094 346094 346094 346094 346094 346094 346094 346094 346094 346094 346094
          346094 346094 346094 346094 346094 346094 346094 346094 346094 346094 346094 346094
          346094 346094 346094 346094 346094 346094 346094 346094 346094 346094 346094 346094
          346094 346094 346094 346094 346094 346094 346094 346094 346094 346094 346094 346094
          346094 346094 346094 346094 346094 346094 346094 346094 346094 346094 346094 346094
          346094 346094 346094 346094 346094 346094 346094 346094 346094 346094 346094 346094
          346094 346094 346094 346094 346094 346094 346094 346094 346094 346094 346094 346094
          346094 346094 346094 346094 346094 346094 346094 346094 346094 346094 346094 346094
          346094 346094 346094 346094 346094 346094 346094 346094 346094 346094 346094 346094
          346094 346094 346094 346094 346094 346094 346094 346094 346094 346094 346094 346094
          346094 346094 346094 346094 346094 346094 346094 346094 346094 346094 346094 346094
          346094 346094 346094 346094 346094 346094 346094 346094 346094 346094 346094 346094
          346094
        </DataArray>
        <DataArray type="Float32" Name="xH2Og" NumberOfComponents="1" format="ascii">
          0.00855476 0.00879926 0.00610566 0.00820942 0.00886316 0.00845074 0.00890673 0.0085722 0.00894607 0.0086577 0.00898032 0.00872295
          0.00900895 0.00877481 0.00903335 0.00881715 0.00905635 0.00885422 0.009077 0.008887 0.00909616 0.0089165 0.00911337 0.0089429
          0.00912972 0.00896707 0.00914536 0.00898951 0.009159 0.00900943 0.00917266 0.00902807 0.00918414 0.00904432 0.00919702 0.00906031
          0.00920672 0.00907354 0.00921621 0.00908512 0.00922363 0.00909449 0.00922925 0.00910139 0.0092337 0.00910633 0.00923694 0.00910906
          0.00923844 0.009108 0.00923698 0.00909927 0.00923418 0.00907747 0.00921963 0.0090236 0.00921485 0.00892894 0.00913484 0.00873872
          0.00896956 0.0062 0.00414902 0.00702903 0.00790777 0.00815544 0.00830764 0.00841496 0.00849699 0.00856218 0.00861706 0.00866466
          0.0087068 0.00874429 0.00877802 0.00880873 0.00883615 0.00886104 0.00888297 0.00890318 0.00892049 0.00893506 0.00894683 0.00895556
          0.00896152 0.00896445 0.0089622 0.00894916 0.00891466 0.00883285 0.00867104 0.00836 0.0062 0.00276679 0.0055687 0.0070784
          0.00762013 0.00787589 0.00804258 0.00816486 0.00825968 0.0083373 0.00840332 0.00846102 0.00851204 0.0085575 0.00859835 0.00863482
          0.00866747 0.00869631 0.00872206 0.00874431 0.00876286 0.00877778 0.00878899 0.00879663 0.00880055 0.00879846 0.00878402 0.00874322
          0.00864549 0.00844079 0.00804372 0.0062 0.00190261 0.00413153 0.00596593 0.00689176 0.0073312 0.00758654 0.00776428 0.00789831
          0.00800546 0.00809478 0.00817176 0.00823937 0.00829932 0.0083527 0.0084002 0.00844247 0.0084798 0.00851269 0.00854109 0.00856483
          0.00858393 0.00859848 0.00860865 0.00861446 0.00861388 0.00860076 0.0085597 0.00845782 0.00823403 0.00778612 0.0062 0.00144366
          0.0029391 0.00470948 0.00593656 0.00662608 0.00701899 0.00727625 0.00746346 0.0076095 0.00772886 0.00783013 0.00791819 0.00799599
          0.00806495 0.00812604 0.00818023 0.00822807 0.00827002 0.00830625 0.00833669 0.00836133 0.00838043 0.00839422 0.00840303 0.00840539
          0.00839606 0.0083601 0.00826464 0.00804314 0.00757821 0.0062 0.00126212 0.00210021 0.00351376 0.00482077 0.00573385 0.00630574
          0.00667602 0.00693663 0.00713458 0.00729311 0.00742541 0.00753907 0.00763878 0.00772706 0.00780504 0.00787399 0.00793488 0.00798828
          0.00803447 0.00807356 0.00810557 0.00813083 0.00814976 0.00816301 0.00816995 0.00816676 0.00814043 0.00806015 0.00785835 0.00740639
          0.0062 0.00123999 0.0016154 0.00255346 0.00369751 0.00469843 0.00543192 0.00593895 0.00629666 0.00656346 0.00677314 0.00694528
          0.00709125 0.00721812 0.00733004 0.00742897 0.00751624 0.00759332 0.00766106 0.00771991 0.00777014 0.00781185 0.00784547 0.00787159
          0.00789129 0.00790484 0.00791023 0.00789735 0.00783903 0.00767023 0.00725683 0.0062 0.00129053 0.00141013 0.001919 0.00274592
          0.00365105 0.00444581 0.00506626 0.00553023 0.00588099 0.00615506 0.00637746 0.00656388 0.00672433 0.00686503 0.00698952 0.00709934
          0.00719639 0.00728195 0.00735673 0.00742118 0.00747555 0.00752038 0.00755646 0.00758528 0.00760811 0.00762485 0.0076288 0.00759743
          0.00747086 0.00711584 0.0062 0.00135992 0.00138147 0.0015982 0.00208588 0.00275873 0.00347271 0.00412053 0.00465826 0.005089
          0.00543371 0.0057148 0.00594955 0.00615034 0.00632549 0.00648027 0.00661724 0.00673849 0.00684581 0.00694027 0.00702257 0.00709316
          0.00715273 0.00720226 0.00724364 0.0072791 0.00731039 0.00733433 0.00733358 0.0072555 0.00697385 0.0062 0.00142775 0.00143927
          0.00151182 0.00174265 0.00214984 0.00267526 0.00323631 0.00376733 0.00423529 0.00463341 0.00496913 0.00525389 0.00549871 0.00571236
          0.00590136 0.00606934 0.00621872 0.00635167 0.00646964 0.00657363 0.00666435 0.00674263 0.00680967 0.00686763 0.00691957 0.00696887
          0.00701568 0.0070481 0.00702222 0.00682413 0.0062 0.00149292 0.00152934 0.00156324 0.0016559 0.00185663 0.00217124 0.00256843
          0.00300234 0.00343269 0.00383378 0.00419467 0.0045141 0.00479589 0.00504542 0.00526806 0.00546792 0.00564719 0.00580814 0.0059524
          0.00608121 0.00619549 0.00629621 0.00638468 0.00646318 0.00653527 0.00660563 0.00667738 0.00674427 0.00677244 0.00666464 0.0062
          0.00156906 0.0016363 0.00168383 0.0017353 0.00182701 0.00198575 0.00221705 0.00250751 0.00283399 0.00317283 0.00350564 0.00382096
          0.0041134 0.00438165 0.0046269 0.00485137 0.0050563 0.00524304 0.00541287 0.00556684 0.00570588 0.00583091 0.00594318 0.00604478
          0.00613929 0.00623212 0.00632896 0.00642934 0.0065107 0.00649602 0.0062 0.00167415 0.00177323 0.00185115 0.00191397 0.00197775
          0.00206282 0.00218507 0.00235093 0.00255729 0.00279459 0.00305072 0.00331415 0.00357574 0.00382921 0.00407102 0.0042999 0.00451525
          0.00471647 0.00490352 0.00507664 0.0052362 0.00538271 0.00551698 0.00564048 0.00575618 0.00586939 0.00598771 0.00611662 0.00624617
          0.00632262 0.0062 0.00183866 0.00197441 0.00208701 0.00217964 0.00225837 0.00233286 0.0024143 0.0025124 0.00263317 0.00277826
          0.00294556 0.0031305 0.00332739 0.00353062 0.00373538 0.00393831 0.00413728 0.0043301 0.00451515 0.00469137 0.00485807 0.00501491
          0.00516181 0.00529924 0.00542882 0.0055547 0.00568498 0.00583069 0.0059959 0.0061531 0.0062 0.0021161 0.00230052 0.00245198
          0.00257822 0.00268456 0.00277641 0.00285967 0.00294058 0.00302495 0.00311743 0.00322102 0.0033369 0.00346467 0.00360274 0.00374878
          0.00390033 0.00405553 0.00421238 0.00436888 0.00452328 0.00467415 0.00482032 0.00496084 0.00509509 0.00522311 0.00534682 0.00547253
          0.00561395 0.00578988 0.00600312 0.0062 0.00263427 0.00288059 0.00306696 0.00322043 0.00334837 0.00345677 0.00355033 0.00363309
          0.00370873 0.00378072 0.00385216 0.00392569 0.00400327 0.00408612 0.00417469 0.00426874 0.00436759 0.00447081 0.00457749 0.00468654
          0.0047968 0.00490713 0.00501641 0.00512357 0.00522772 0.0053287 0.00542902 0.00553861 0.00568251 0.00590136 0.0062 0.00364588
          0.00402785 0.00418873 0.00432204 0.00443285 0.00452592 0.00460489 0.0046728 0.00473192 0.0047843 0.00483172 0.00487588 0.00491835
          0.00496052 0.00500353 0.00504817 0.00509478 0.00514347 0.00519452 0.00524786 0.00530321 0.00536014 0.00541812 0.00547656 0.00553479
          0.00559211 0.00564832 0.00570579 0.00577665 0.00590243 0.0062 0.00388038 0.0062 0.0062 0.0062 0.0062 0.0062
          0.0062 0.0062 0.0062 0.0062 0.0062 0.0062 0.0062 0.0062 0.0062 0.0062 0.0062 0.0062
          0.0062 0.0062 0.0062 0.0062 0.0062 0.0062 0.0062 0.0062 0.0062 0.0062 0.0062 0.0062
          0.0062
        </DataArray>
        <DataArray type="Float32" Name="xAirg" NumberOfComponents="1" format="ascii">
          0.991445 0.991201 0.993894 0.991791 0.991137 0.991549 0.991093 0.991428 0.991054 0.991342 0.99102 0.991277
          0.990991 0.991225 0.990967 0.991183 0.990944 0.991146 0.990923 0.991113 0.990904 0.991084 0.990887 0.991057
          0.99087 0.991033 0.990855 0.99101 0.990841 0.990991 0.990827 0.990972 0.990816 0.990956 0.990803 0.99094
          0.990793 0.990926 0.990784 0.990915 0.990776 0.990906 0.990771 0.990899 0.990766 0.990894 0.990763 0.990891
          0.990762 0.990892 0.990763 0.990901 0.990766 0.990923 0.99078 0.990976 0.990785 0.991071 0.990865 0.991261
          0.99103 0.9938 0.995851 0.992971 0.992092 0.991845 0.991692 0.991585 0.991503 0.991438 0.991383 0.991335
          0.991293 0.991256 0.991222 0.991191 0.991164 0.991139 0.991117 0.991097 0.99108 0.991065 0.991053 0.991044
          0.991039 0.991036 0.991038 0.991051 0.991085 0.991167 0.991329 0.99164 0.9938 0.997233 0.994431 0.992922
          0.99238 0.992124 0.991957 0.991835 0.99174 0.991663 0.991597 0.991539 0.991488 0.991443 0.991402 0.991365
          0.991333 0.991304 0.991278 0.991256 0.991237 0.991222 0.991211 0.991203 0.991199 0.991202 0.991216 0.991257
          0.991355 0.991559 0.991956 0.9938 0.998097 0.995868 0.994034 0.993108 0.992669 0.992413 0.992236 0.992102
          0.991995 0.991905 0.991828 0.991761 0.991701 0.991647 0.9916 0.991558 0.99152 0.991487 0.991459 0.991435
          0.991416 0.991401 0.991391 0.991386 0.991386 0.991399 0.99144 0.991542 0.991766 0.992214 0.9938 0.998556
          0.997061 0.995291 0.994063 0.993374 0.992981 0.992724 0.992537 0.992391 0.992271 0.99217 0.992082 0.992004
          0.991935 0.991874 0.99182 0.991772 0.99173 0.991694 0.991663 0.991639 0.99162 0.991606 0.991597 0.991595
          0.991604 0.99164 0.991735 0.991957 0.992422 0.9938 0.998738 0.9979 0.996486 0.995179 0.994266 0.993694
          0.993324 0.993063 0.992865 0.992707 0.992575 0.992461 0.992361 0.992273 0.992195 0.992126 0.992065 0.992012
          0.991966 0.991926 0.991894 0.991869 0.99185 0.991837 0.99183 0.991833 0.99186 0.99194 0.992142 0.992594
          0.9938 0.99876 0.998385 0.997447 0.996302 0.995302 0.994568 0.994061 0.993703 0.993437 0.993227 0.993055
          0.992909 0.992782 0.99267 0.992571 0.992484 0.992407 0.992339 0.99228 0.99223 0.992188 0.992155 0.992128
          0.992109 0.992095 0.99209 0.992103 0.992161 0.99233 0.992743 0.9938 0.998709 0.99859 0.998081 0.997254
          0.996349 0.995554 0.994934 0.99447 0.994119 0.993845 0.993623 0.993436 0.993276 0.993135 0.99301 0.992901
          0.992804 0.992718 0.992643 0.992579 0.992524 0.99248 0.992444 0.992415 0.992392 0.992375 0.992371 0.992403
          0.992529 0.992884 0.9938 0.99864 0.998619 0.998402 0.997914 0.997241 0.996527 0.995879 0.995342 0.994911
          0.994566 0.994285 0.99405 0.99385 0.993675 0.99352 0.993383 0.993262 0.993154 0.99306 0.992977 0.992907
          0.992847 0.992798 0.992756 0.992721 0.99269 0.992666 0.992666 0.992745 0.993026 0.9938 0.998572 0.998561
          0.998488 0.998257 0.99785 0.997325 0.996764 0.996233 0.995765 0.995367 0.995031 0.994746 0.994501 0.994288
          0.994099 0.993931 0.993781 0.993648 0.99353 0.993426 0.993336 0.993257 0.99319 0.993132 0.99308 0.993031
          0.992984 0.992952 0.992978 0.993176 0.9938 0.998507 0.998471 0.998437 0.998344 0.998143 0.997829 0.997432
          0.996998 0.996567 0.996166 0.995805 0.995486 0.995204 0.994955 0.994732 0.994532 0.994353 0.994192 0.994048
          0.993919 0.993805 0.993704 0.993615 0.993537 0.993465 0.993394 0.993323 0.993256 0.993228 0.993335 0.9938
          0.998431 0.998364 0.998316 0.998265 0.998173 0.998014 0.997783 0.997492 0.997166 0.996827 0.996494 0.996179
          0.995887 0.995618 0.995373 0.995149 0.994944 0.994757 0.994587 0.994433 0.994294 0.994169 0.994057 0.993955
          0.993861 0.993768 0.993671 0.993571 0.993489 0.993504 0.9938 0.998326 0.998227 0.998149 0.998086 0.998022
          0.997937 0.997815 0.997649 0.997443 0.997205 0.996949 0.996686 0.996424 0.996171 0.995929 0.9957 0.995485
          0.995284 0.995097 0.994923 0.994764 0.994617 0.994483 0.994359 0.994244 0.994131 0.994012 0.993883 0.993754
          0.993677 0.9938 0.998161 0.998026 0.997913 0.99782 0.997742 0.997667 0.997586 0.997488 0.997367 0.997222
          0.997054 0.99687 0.996673 0.996469 0.996265 0.996062 0.995863 0.99567 0.995485 0.995309 0.995142 0.994985
          0.994838 0.994701 0.994571 0.994445 0.994315 0.994169 0.994004 0.993847 0.9938 0.997884 0.997699 0.997548
          0.997422 0.997315 0.997224 0.99714 0.997059 0.996975 0.996883 0.996779 0.996663 0.996535 0.996397 0.996251
          0.9961 0.995944 0.995788 0.995631 0.995477 0.995326 0.99518 0.995039 0.994905 0.994777 0.994653 0.994527
          0.994386 0.99421 0.993997 0.9938 0.997366 0.997119 0.996933 0.99678 0.996652 0.996543 0.99645 0.996367
          0.996291 0.996219 0.996148 0.996074 0.995997 0.995914 0.995825 0.995731 0.995632 0.995529 0.995422 0.995313
          0.995203 0.995093 0.994984 0.994876 0.994772 0.994671 0.994571 0.994461 0.994317 0.994099 0.9938 0.996354
          0.995972 0.995811 0.995678 0.995567 0.995474 0.995395 0.995327 0.995268 0.995216 0.995168 0.995124 0.995082
          0.995039 0.994996 0.994952 0.994905 0.994857 0.994805 0.994752 0.994697 0.99464 0.994582 0.994523 0.994465
          0.994408 0.994352 0.994294 0.994223 0.994098 0.9938 0.99612 0.9938 0.9938 0.9938 0.9938 0.9938
          0.9938 0.9938 0.9938 0.9938 0.9938 0.9938 0.9938 0.9938 0.9938 0.9938 0.9938 0.9938
          0.9938 0.9938 0.9938 0.9938 0.9938 0.9938 0.9938 0.9938 0.9938 0.9938 0.9938 0.9938
          0.9938
        </DataArray>
        <DataArray type="Float32" Name="h" NumberOfComponents="1" format="ascii">
          43357.2 43935.8 30103.1 40613.8 44126.9 41832.4 44271.1 42450.8 44394.9 42861.3 44502.3 43157
          44595.1 43388.4 44676.7 43577.2 44752.4 43739.4 44821.3 43881.9 44885.3 44009.7 44944 44125
          44999.2 44230.1 45051.4 44326.5 45098.7 44413.8 45144.3 44494.4 45185.1 44566.6 45226.3 44633.9
          45261.5 44692.5 45294.9 44744.3 45324.3 44789.3 45350.2 44828.8 45373.8 44866.6 45395.5 44907.8
          45414.9 44957.3 45430.1 45017.3 45442.7 45081.3 45436.1 45108.8 45439.2 45048.6 45327.1 44791.8
          45086.5 41170.4 20304.9 34233.3 38796.2 40159.4 40978.1 41529.6 41941.4 42266.1 42536.4 42768.8
          42973.8 43156.9 43321.9 43471.4 43606.4 43729 43839.1 43938.5 44025.5 44100.7 44164.9 44220.4
          44273 44332.1 44408.6 44511.5 44633.9 44723.6 44665.1 44285.3 41170.4 14025.6 26819.3 34289.3
          37203.6 38632.7 39541.4 40193.5 40693.6 41100 41443.3 41742.6 42007.9 42245.4 42458.9 42651.1
          42824.6 42980.2 43119.3 43241.1 43345.8 43434.1 43509.4 43578.4 43654.3 43753.9 43895.4 44078.5
          44252.9 44263.2 43858.9 41170.4 10530.7 20040.9 28574.3 33261.7 35665.9 37087.5 38066.2 38796.6
          39377.4 39859.4 40274 40639.3 40964.9 41256.1 41517.3 41752.3 41963.2 42151 42315.9 42457.6
          42576.8 42677.1 42766 42859.3 42978.8 43153.1 43394.6 43668.1 43806.4 43482.3 41170.4 8940.57
          14863.4 22556.3 28338.5 31890.3 34034.2 35460.9 36497 37303.2 37961 38518.9 39005.4 39438
          39824.1 40169.1 40478.6 40756.4 41004.1 41222.2 41410.4 41569.4 41702.5 41817.1 41930.7 42069.4
          42271.6 42566.8 42945.4 43256 43113 41170.4 8477.79 11547.1 17269.2 22975.4 27324 30269.4
          32271.3 33706.6 34803.4 35684 36420.8 37056.2 37617.2 38118.5 38565.5 38965.5 39324.5 39645.3
          39929 40175.7 40385.6 40561.9 40711.6 40852.6 41014.1 41243.2 41588.3 42072.3 42581.2 42703.5
          41170.4 8544.05 9837.62 13379.1 18002.5 22379.6 25863.9 28447.1 30352.4 31807.4 32964.7 33922.3
          34739.7 35455.6 36093.5 36663.8 37173.2 37630.3 38040 38404.1 38723.5 38998.5 39231.8 39429.8
          39610.2 39804.1 40065.5 40461.6 41049.6 41766.9 42217.6 41170.4 8781.86 9231.3 11053.1 14162.4
          17795.5 21240.6 24146.4 26462.9 28294.6 29766.8 30983.4 32016.4 32915.4 33712.9 34428 35067.5
          35641.9 36158.1 36619.7 37028.6 37385.4 37692.8 37956.6 38193.8 38436.5 38743.9 39199.2 39892.1
          40817.8 41634.9 41170.4 9012.62 9221.28 10020 11763.6 14264.8 17088.4 19844.3 22301.4 24393.7
          26147.7 27626.6 28891.5 29993.5 30969.9 31846.7 32635.2 33345.4 33986.4 34563.5 35080 35537.4
          35938.5 36289.2 36605.3 36919.1 37292.5 37821.3 38623.6 39753.2 40955.6 41170.4 9212.96 9452.61
          9830.56 10684.8 12134.9 14060.6 16234.3 18432.7 20503.4 22372.2 24026.5 25484 26774.6 27927.9
          28970 29915 30772.5 31551.9 32259.7 32900.3 33476.4 33991.5 34451.3 34870.4 35280 35742.3
          36361.2 37278.6 38605.3 40196.6 41170.4 9410.8 9765.92 10083.5 10541.7 11308.4 12439.3 13883.7
          15531.2 17261.2 18973.7 20604.3 22120.8 23515.3 24793.2 25967.3 27049.8 28045.5 28961.5 29803.5
          30576.1 31282.5 31926.3 32513.1 33055.5 33581.8 34151.2 34871.3 35903.1 37413.3 39384.1 41170.4
          9683.29 10163.2 10572.2 10967.8 11452.2 12111.7 12984.2 14059.2 15293.5 16628.6 18006.9 19380.8
          20717 21996 23210.1 24360 25444 26461.8 27414.8 28305 29134.4 29905.6 30622.7 31295
          31945.5 32626.6 33444 34573.8 36238.3 38558.4 41170.4 10109.1 10745.1 11300.9 11794.1 12268.6
          12779.5 13373.6 14078.8 14902.5 15835.2 16856 17937.7 19053 20177.4 21292.7 22388.8 23459.1
          24495.2 25491.5 26445 27354.1 28218.3 29038.6 29819.2 30574.6 31345.9 32230 33412.2 35169.4
          37770.8 41170.4 10848.2 11708.5 12461.9 13124.7 13722.9 14287.6 14849.4 15434.4 16061.4 16741.7
          17479.6 18272.8 19114.2 19993.4 20898.4 21820 22752.9 23688.3 24617.7 25534.5 26433.4 27310.1
          28161.5 28985.8 29787.6 30591.6 31476.2 32625.1 34363.9 37114.3 41170.4 12216.2 13429.4 14461.5
          15352.1 16134.6 16839.6 17492.5 18113.8 18718.9 19320.5 19927.9 20548.4 21187.2 21846.8 22527.2
          23226.8 23946.1 24684.2 25437.3 26201.3 26971.4 27743.1 28511.2 29270.5 30017.6 30759.9 31544.9
          32527.8 34064.7 36728.6 41170.4 15071.8 16814.1 18178.1 19320.2 20291 21134 21882.3 22560.7
          23186.5 23772.2 24327.3 24859.4 25375.5 25881.9 26384.1 26885.8 27388.9 27899.5 28420.9 28954.5
          29500.7 30058.2 30624.9 31196.8 31769 32338.4 32918.9 33596.8 34668.7 36851.7 41170.4 21470.9
          24370.4 25725.9 26838.8 27760.9 28537 29201 29779.8 30292.3 30752.9 31171.5 31555.9 31912.1
          32245.6 32561.1 32863.2 33154.2 33436.2 33714.8 33993.8 34276 34563.3 34856.7 35156.2 35460.4
          35766.2 36071.4 36390.5 36832.8 37874.7 41170.4 22943.4 41170.4 41170.4 41170.4 41170.4 41170.4
          41170.4 41170.4 41170.4 41170.4 41170.4 41170.4 41170.4 41170.4 41170.4 41170.4 41170.4 41170.4
          41170.4 41170.4 41170.4 41170.4 41170.4 41170.4 41170.4 41170.4 41170.4 41170.4 41170.4 41170.4
          41170.4
        </DataArray>
        <DataArray type="Float32" Name="rho" NumberOfComponents="1" format="ascii">
          5.09554 5.09147 5.26311 5.13274 5.08977 5.11806 5.08838 5.11062 5.08724 5.1058 5.08624 5.10242
          5.08537 5.09979 5.08458 5.09765 5.08386 5.09583 5.08319 5.09424 5.08257 5.09281 5.082 5.09152
          5.08147 5.09035 5.08097 5.08927 5.0805 5.0883 5.08006 5.0874 5.07965 5.08659 5.07927 5.08585
          5.07891 5.08519 5.07858 5.08461 5.07827 5.08408 5.07797 5.0836 5.07769 5.0831 5.07741 5.08249
          5.07713 5.08167 5.07686 5.08052 5.07659 5.07902 5.07639 5.07742 5.07623 5.07635 5.07631 5.07638
          5.07662 5.07995 5.39234 5.21309 5.1561 5.13902 5.12891 5.12222 5.11728 5.11341 5.1102 5.10746
          5.10504 5.10288 5.10094 5.09918 5.09759 5.09615 5.09484 5.09367 5.09264 5.09174 5.09096 5.09025
          5.08953 5.08864 5.08736 5.08542 5.08271 5.0795 5.07696 5.07637 5.07995 5.47664 5.30823 5.21324
          5.17624 5.15811 5.14674 5.13867 5.13252 5.12756 5.12338 5.11974 5.11653 5.11364 5.11106 5.10872
          5.10661 5.10471 5.10301 5.10152 5.10023 5.09912 5.09814 5.09719 5.09605 5.09439 5.0918 5.08796
          5.08304 5.07846 5.07641 5.07995 5.52305 5.39674 5.28649 5.22653 5.19562 5.17744 5.16505 5.15588
          5.14863 5.14264 5.1375 5.13297 5.12894 5.12534 5.1221 5.11918 5.11656 5.11421 5.11214 5.11035
          5.10883 5.10751 5.10629 5.1049 5.10295 5.09984 5.09504 5.08842 5.08136 5.07692 5.07995 5.54306
          5.46489 5.36446 5.28994 5.24402 5.21624 5.19785 5.1846 5.17435 5.16602 5.15899 5.15286 5.14742
          5.14257 5.13822 5.13432 5.13081 5.12766 5.12488 5.12247 5.12041 5.11865 5.11708 5.11542 5.11321
          5.10972 5.10414 5.09593 5.08612 5.07838 5.07995 5.54781 5.50817 5.43339 5.35948 5.3031 5.26472
          5.23861 5.21997 5.2058 5.19447 5.18504 5.17692 5.16976 5.16337 5.15767 5.15256 5.14796 5.14384
          5.14017 5.13697 5.13422 5.13188 5.12983 5.12781 5.12532 5.1215 5.1153 5.10567 5.09304 5.08128
          5.07995 5.54599 5.5297 5.48389 5.42409 5.36739 5.32197 5.2881 5.26309 5.24404 5.22894 5.2165
          5.20591 5.19666 5.18842 5.18105 5.17446 5.16854 5.16322 5.15847 5.15428 5.15065 5.14753 5.14484
          5.14229 5.1394 5.13522 5.12843 5.11754 5.10218 5.0859 5.07995 5.54255 5.53662 5.51339 5.47358
          5.42684 5.38216 5.34414 5.31363 5.28945 5.27004 5.25403 5.24047 5.2287 5.21827 5.20892 5.20056
          5.19304 5.18627 5.18019 5.17478 5.17003 5.1659 5.16231 5.15901 5.15549 5.15076 5.14333 5.13124
          5.11331 5.09229 5.07995 5.53969 5.53615 5.52577 5.50369 5.47195 5.43579 5.40007 5.36788 5.34025
          5.317 5.29738 5.2806 5.26601 5.2531 5.24151 5.23109 5.2217 5.21321 5.20554 5.19865 5.19252
          5.1871 5.18232 5.17794 5.17349 5.16795 5.15968 5.14637 5.12606 5.10025 5.07995 5.53739 5.53302
          5.5274 5.51634 5.4981 5.47386 5.44617 5.41779 5.39071 5.36604 5.34407 5.32465 5.30744 5.29205
          5.27816 5.26555 5.25411 5.24369 5.23421 5.2256 5.21783 5.21083 5.20454 5.19876 5.19301 5.18633
          5.177 5.16241 5.13985 5.10938 5.07995 5.53509 5.52906 5.52372 5.51706 5.50704 5.49281 5.47471
          5.45386 5.43167 5.40939 5.38794 5.36783 5.34925 5.33216 5.31643 5.30191 5.28853 5.27621 5.26486
          5.25441 5.24482 5.23604 5.22799 5.2205 5.21317 5.20509 5.19453 5.17868 5.15411 5.11921 5.07995
          5.53159 5.5239 5.51713 5.51073 5.5036 5.49471 5.48353 5.46998 5.4544 5.43738 5.41959 5.40165
          5.38404 5.36706 5.35086 5.33545 5.32088 5.30715 5.29427 5.2822 5.27091 5.26037 5.25052 5.24124
          5.23221 5.22266 5.21092 5.19405 5.16792 5.1291 5.07995 5.52583 5.5159 5.50706 5.49909 5.49154
          5.48381 5.47541 5.46597 5.4553 5.44337 5.43034 5.41645 5.402 5.38732 5.37264 5.35812 5.34386
          5.32998 5.31657 5.30369 5.29135 5.27956 5.26832 5.25759 5.24716 5.23645 5.22397 5.20674 5.17997
          5.13831 5.07995 5.51545 5.50214 5.49041 5.47999 5.47052 5.46162 5.45297 5.4443 5.43542 5.42615
          5.41637 5.40604 5.39516 5.3838 5.37208 5.36008 5.34787 5.33555 5.32323 5.311 5.29894 5.28712
          5.27557 5.26434 5.25338 5.24235 5.23009 5.21374 5.18798 5.14546 5.07995 5.49577 5.47705 5.46112
          5.44737 5.43525 5.42429 5.41415 5.40458 5.39542 5.38655 5.37787 5.36927 5.36064 5.35192 5.34304
          5.33398 5.32469 5.31516 5.30539 5.29544 5.28534 5.27516 5.26496 5.25482 5.2448 5.2348 5.22417
          5.21057 5.18845 5.14857 5.07995 5.45391 5.42718 5.40631 5.38893 5.3742 5.36142 5.35007 5.33979
          5.33032 5.32152 5.31329 5.30553 5.29818 5.29114 5.28433 5.27767 5.27111 5.26454 5.25789 5.2511
          5.24414 5.23701 5.22972 5.22232 5.21487 5.20743 5.19981 5.19077 5.17591 5.14428 5.07995 5.35968
          5.31652 5.29621 5.27969 5.2661 5.25471 5.245 5.23654 5.22905 5.22232 5.21622 5.21065 5.20553
          5.2008 5.1964 5.19227 5.18839 5.1847 5.18114 5.17762 5.1741 5.17054 5.1669 5.16317 5.15937
          5.15553 5.15168 5.14764 5.14185 5.12737 5.07995 5.33859 5.07995 5.07995 5.07995 5.07995 5.07995
          5.07995 5.07995 5.07995 5.07995 5.07995 5.07995 5.07995 5.07995 5.07995 5.07995 5.07995 5.07995
          5.07995 5.07995 5.07995 5.07995 5.07995 5.07995 5.07995 5.07995 5.07995 5.07995 5.07995 5.07995
          5.07995
        </DataArray>
        <DataArray type="Float32" Name="mu" NumberOfComponents="1" format="ascii">
          1.85127e-05 1.85228e-05 1.80669e-05 1.84107e-05 1.85272e-05 1.84502e-05 1.85309e-05 1.84703e-05 1.85339e-05 1.84834e-05 1.85365e-05 1.84925e-05
          1.85388e-05 1.84996e-05 1.85409e-05 1.85053e-05 1.85428e-05 1.85103e-05 1.85446e-05 1.85146e-05 1.85462e-05 1.85184e-05 1.85478e-05 1.85219e-05
          1.85492e-05 1.85251e-05 1.85505e-05 1.8528e-05 1.85518e-05 1.85306e-05 1.85529e-05 1.8533e-05 1.8554e-05 1.85352e-05 1.8555e-05 1.85372e-05
          1.8556e-05 1.8539e-05 1.85569e-05 1.85406e-05 1.85577e-05 1.8542e-05 1.85585e-05 1.85433e-05 1.85593e-05 1.85447e-05 1.856e-05 1.85464e-05
          1.85608e-05 1.85487e-05 1.85616e-05 1.8552e-05 1.85624e-05 1.85564e-05 1.8563e-05 1.85612e-05 1.85635e-05 1.85647e-05 1.85637e-05 1.85656e-05
          1.85637e-05 1.85693e-05 1.77383e-05 1.81966e-05 1.83477e-05 1.83935e-05 1.84208e-05 1.84388e-05 1.84522e-05 1.84626e-05 1.84713e-05 1.84787e-05
          1.84852e-05 1.84911e-05 1.84963e-05 1.85011e-05 1.85054e-05 1.85093e-05 1.85129e-05 1.85161e-05 1.85189e-05 1.85213e-05 1.85234e-05 1.85254e-05
          1.85274e-05 1.85299e-05 1.85335e-05 1.8539e-05 1.85468e-05 1.85563e-05 1.85644e-05 1.85677e-05 1.85693e-05 1.75311e-05 1.795e-05 1.81959e-05
          1.82938e-05 1.83423e-05 1.83728e-05 1.83945e-05 1.8411e-05 1.84244e-05 1.84357e-05 1.84455e-05 1.84542e-05 1.8462e-05 1.8469e-05 1.84753e-05
          1.8481e-05 1.84862e-05 1.84908e-05 1.84949e-05 1.84984e-05 1.85014e-05 1.85041e-05 1.85068e-05 1.85099e-05 1.85146e-05 1.8522e-05 1.8533e-05
          1.85474e-05 1.85614e-05 1.85693e-05 1.85693e-05 1.74197e-05 1.77271e-05 1.80054e-05 1.81609e-05 1.82424e-05 1.82907e-05 1.83238e-05 1.83483e-05
          1.83678e-05 1.83839e-05 1.83977e-05 1.84099e-05 1.84208e-05 1.84305e-05 1.84392e-05 1.84472e-05 1.84543e-05 1.84607e-05 1.84663e-05 1.84711e-05
          1.84753e-05 1.84789e-05 1.84823e-05 1.84861e-05 1.84916e-05 1.85004e-05 1.85141e-05 1.85332e-05 1.85543e-05 1.85693e-05 1.85693e-05 1.73726e-05
          1.75598e-05 1.78074e-05 1.79964e-05 1.81153e-05 1.81881e-05 1.82367e-05 1.82718e-05 1.82991e-05 1.83213e-05 1.83401e-05 1.83565e-05 1.83712e-05
          1.83842e-05 1.83959e-05 1.84065e-05 1.8416e-05 1.84245e-05 1.8432e-05 1.84386e-05 1.84442e-05 1.8449e-05 1.84533e-05 1.84579e-05 1.8464e-05
          1.84738e-05 1.84896e-05 1.85132e-05 1.85419e-05 1.85663e-05 1.85693e-05 1.73618e-05 1.74557e-05 1.76366e-05 1.78198e-05 1.79626e-05 1.80615e-05
          1.81295e-05 1.81784e-05 1.82158e-05 1.82458e-05 1.82708e-05 1.82924e-05 1.83115e-05 1.83286e-05 1.83439e-05 1.83576e-05 1.837e-05 1.83811e-05
          1.8391e-05 1.83997e-05 1.84071e-05 1.84135e-05 1.84191e-05 1.84246e-05 1.84315e-05 1.84422e-05 1.84596e-05 1.8487e-05 1.85235e-05 1.8559e-05
          1.85693e-05 1.73664e-05 1.74047e-05 1.7514e-05 1.76593e-05 1.77999e-05 1.79145e-05 1.80012e-05 1.80659e-05 1.81155e-05 1.81551e-05 1.81878e-05
          1.82157e-05 1.82402e-05 1.82621e-05 1.82817e-05 1.82993e-05 1.83151e-05 1.83294e-05 1.83421e-05 1.83534e-05 1.83632e-05 1.83717e-05 1.8379e-05
          1.83859e-05 1.83939e-05 1.84054e-05 1.84243e-05 1.8455e-05 1.84988e-05 1.85468e-05 1.85693e-05 1.73746e-05 1.73886e-05 1.74436e-05 1.75389e-05
          1.76526e-05 1.7763e-05 1.78584e-05 1.79359e-05 1.7998e-05 1.80481e-05 1.80897e-05 1.81251e-05 1.8156e-05 1.81834e-05 1.82081e-05 1.82302e-05
          1.82502e-05 1.82682e-05 1.82844e-05 1.82989e-05 1.83117e-05 1.83228e-05 1.83324e-05 1.83414e-05 1.8351e-05 1.83639e-05 1.83844e-05 1.84181e-05
          1.84688e-05 1.85296e-05 1.85693e-05 1.73813e-05 1.739e-05 1.74145e-05 1.74669e-05 1.75429e-05 1.76307e-05 1.77186e-05 1.77988e-05 1.78684e-05
          1.79276e-05 1.79778e-05 1.80211e-05 1.80589e-05 1.80925e-05 1.81228e-05 1.81501e-05 1.81748e-05 1.81972e-05 1.82175e-05 1.82358e-05 1.82522e-05
          1.82666e-05 1.82794e-05 1.82912e-05 1.83032e-05 1.83183e-05 1.83409e-05 1.83776e-05 1.84344e-05 1.8508e-05 1.85693e-05 1.73866e-05 1.73974e-05
          1.74109e-05 1.74372e-05 1.74805e-05 1.75386e-05 1.76056e-05 1.7675e-05 1.77421e-05 1.78037e-05 1.78591e-05 1.79084e-05 1.79524e-05 1.7992e-05
          1.80278e-05 1.80605e-05 1.80904e-05 1.81176e-05 1.81425e-05 1.81651e-05 1.81857e-05 1.82042e-05 1.82209e-05 1.82364e-05 1.82518e-05 1.82697e-05
          1.8295e-05 1.83349e-05 1.83973e-05 1.84832e-05 1.85693e-05 1.7392e-05 1.74067e-05 1.74198e-05 1.74359e-05 1.74597e-05 1.74937e-05 1.7537e-05
          1.75873e-05 1.76414e-05 1.76962e-05 1.77494e-05 1.77997e-05 1.78465e-05 1.78898e-05 1.79299e-05 1.79672e-05 1.80016e-05 1.80335e-05 1.8063e-05
          1.80903e-05 1.81154e-05 1.81385e-05 1.81597e-05 1.81795e-05 1.8199e-05 1.82205e-05 1.82489e-05 1.82919e-05 1.83592e-05 1.84566e-05 1.85693e-05
          1.74003e-05 1.7419e-05 1.74355e-05 1.74512e-05 1.74685e-05 1.74899e-05 1.75167e-05 1.75492e-05 1.75868e-05 1.76282e-05 1.76718e-05 1.77161e-05
          1.77599e-05 1.78024e-05 1.78432e-05 1.78822e-05 1.79194e-05 1.79545e-05 1.79877e-05 1.80189e-05 1.80482e-05 1.80757e-05 1.81014e-05 1.81258e-05
          1.81496e-05 1.81749e-05 1.82062e-05 1.82515e-05 1.83226e-05 1.843e-05 1.85693e-05 1.7414e-05 1.74381e-05 1.74597e-05 1.74793e-05 1.74978e-05
          1.75168e-05 1.75372e-05 1.75601e-05 1.7586e-05 1.7615e-05 1.76468e-05 1.76808e-05 1.77165e-05 1.77529e-05 1.77896e-05 1.7826e-05 1.7862e-05
          1.78973e-05 1.79315e-05 1.79645e-05 1.79963e-05 1.80268e-05 1.80561e-05 1.80841e-05 1.81114e-05 1.81396e-05 1.81727e-05 1.82187e-05 1.8291e-05
          1.84054e-05 1.85693e-05 1.74389e-05 1.74714e-05 1.75001e-05 1.75257e-05 1.75492e-05 1.75712e-05 1.75926e-05 1.76141e-05 1.7636e-05 1.76589e-05
          1.76829e-05 1.77084e-05 1.77354e-05 1.77635e-05 1.77928e-05 1.78228e-05 1.78536e-05 1.78847e-05 1.79161e-05 1.79473e-05 1.79782e-05 1.80087e-05
          1.80386e-05 1.80678e-05 1.80965e-05 1.81254e-05 1.81577e-05 1.82012e-05 1.82704e-05 1.83865e-05 1.85693e-05 1.74865e-05 1.75325e-05 1.75718e-05
          1.7606e-05 1.76362e-05 1.76636e-05 1.76891e-05 1.77132e-05 1.77363e-05 1.77586e-05 1.77805e-05 1.78022e-05 1.78239e-05 1.78458e-05 1.78682e-05
          1.78911e-05 1.79146e-05 1.79389e-05 1.79638e-05 1.79893e-05 1.80152e-05 1.80415e-05 1.8068e-05 1.80944e-05 1.81206e-05 1.81468e-05 1.81749e-05
          1.8211e-05 1.82702e-05 1.83787e-05 1.85693e-05 1.75891e-05 1.76557e-05 1.77081e-05 1.77519e-05 1.77893e-05 1.78219e-05 1.78509e-05 1.78773e-05
          1.79017e-05 1.79244e-05 1.79457e-05 1.79658e-05 1.79848e-05 1.8003e-05 1.80206e-05 1.80378e-05 1.80547e-05 1.80717e-05 1.80889e-05 1.81066e-05
          1.81246e-05 1.81432e-05 1.81623e-05 1.81817e-05 1.82013e-05 1.8221e-05 1.82412e-05 1.82652e-05 1.83051e-05 1.83911e-05 1.85693e-05 1.78254e-05
          1.79362e-05 1.7989e-05 1.80321e-05 1.80677e-05 1.80977e-05 1.81234e-05 1.81458e-05 1.81656e-05 1.81835e-05 1.81998e-05 1.82147e-05 1.82284e-05
          1.8241e-05 1.82527e-05 1.82638e-05 1.82741e-05 1.82839e-05 1.82934e-05 1.83028e-05 1.83121e-05 1.83216e-05 1.83313e-05 1.83412e-05 1.83514e-05
          1.83617e-05 1.8372e-05 1.83829e-05 1.83985e-05 1.8438e-05 1.85693e-05 1.78791e-05 1.85693e-05 1.85693e-05 1.85693e-05 1.85693e-05 1.85693e-05
          1.85693e-05 1.85693e-05 1.85693e-05 1.85693e-05 1.85693e-05 1.85693e-05 1.85693e-05 1.85693e-05 1.85693e-05 1.85693e-05 1.85693e-05 1.85693e-05
          1.85693e-05 1.85693e-05 1.85693e-05 1.85693e-05 1.85693e-05 1.85693e-05 1.85693e-05 1.85693e-05 1.85693e-05 1.85693e-05 1.85693e-05 1.85693e-05
          1.85693e-05
        </DataArray>
        <DataArray type="Float32" Name="v" NumberOfComponents="3" format="ascii">
          0.00243746 0.000142841 0 0.00134851 -1.85297e-05 0 0.01 0 0 0.00646675 0.000518551 0
          0.000342741 -5.24261e-06 0 0.00264149 0.000191662 0 0.000366334 -1.37459e-05 0 0.00211695 -1.68545e-06 0
          0.000242934 -1.59332e-05 0 0.00148598 2.53372e-05 0 0.000214831 -1.80086e-05 0 0.00129036 -9.70468e-06 0
          0.000180774 -1.94463e-05 0 0.00108364 -1.03041e-05 0 0.000165959 -2.06312e-05 0 0.000993024 -1.8701e-05 0
          0.000151874 -2.15507e-05 0 0.000906384 -2.08641e-05 0 0.000144817 -2.23675e-05 0 0.000862993 -2.41478e-05 0
          0.000138284 -2.30474e-05 0 0.000823035 -2.56429e-05 0 0.00013506 -2.36705e-05 0 0.000802742 -2.73425e-05 0
          0.000131997 -2.41968e-05 0 0.000784133 -2.83397e-05 0 0.000130754 -2.46488e-05 0 0.000776026 -2.9328e-05 0
          0.000129479 -2.50704e-05 0 0.000768418 -3.00685e-05 0 0.000129459 -2.53907e-05 0 0.000767958 -3.07209e-05 0
          0.000129359 -2.57209e-05 0 0.000767606 -3.13895e-05 0 0.000130518 -2.59085e-05 0 0.000774509 -3.18902e-05 0
          0.00013165 -2.61265e-05 0 0.000781779 -3.2667e-05 0 0.000134649 -2.62433e-05 0 0.000800016 -3.3234e-05 0
          0.000137753 -2.63351e-05 0 0.000819349 -3.44512e-05 0 0.000144336 -2.63931e-05 0 0.000859551 -3.52672e-05 0
          0.000151198 -2.63858e-05 0 0.000901592 -3.78545e-05 0 0.000165608 -2.63117e-05 0 0.000989741 -3.88163e-05 0
          0.000179921 -2.59404e-05 0 0.00107735 -4.61562e-05 0 0.000215162 -2.57007e-05 0 0.00128854 -4.37212e-05 0
          0.000240944 -2.12633e-05 0 0.0014755 -7.73321e-05 0 0.000371321 -3.31001e-05 0 0.0021194 -3.76692e-05 0
          0.000325336 6.34832e-05 0 0.00260562 -0.000232648 0 0.00138636 -0.000443713 0 0.00641704 -0.000490484 0
          0.0025794 0.00290748 0 0.01 0 0 0.01 0 0 0.00803015 0.00217484 0
          0.00493731 0.000956786 0 0.00360537 0.0001775 0 0.00279568 0.000201454 0 0.00236873 6.00557e-05 0
          0.00205404 4.89685e-05 0 0.00186934 1.09525e-05 0 0.0017272 1.39984e-06 0 0.00164033 -1.29334e-05 0
          0.00157262 -1.8613e-05 0 0.00153192 -2.52509e-05 0 0.00150017 -2.86026e-05 0 0.00148324 -3.20843e-05 0
          0.0014708 -3.43886e-05 0 0.00146839 -3.6617e-05 0 0.00146928 -3.88943e-05 0 0.00148023 -4.09369e-05 0
          0.00149581 -4.43045e-05 0 0.00152641 -4.71527e-05 0 0.00156586 -5.35054e-05 0 0.00163309 -5.82986e-05 0
          0.00171847 -7.23773e-05 0 0.00186132 -8.00534e-05 0 0.00204324 -0.000117993 0 0.00236084 -0.000123824 0
          0.00277986 -0.000266395 0 0.00359548 -0.000221019 0 0.00489105 -0.00100846 0 0.00796671 -0.00203499 0
          0.01 0 0 0.01 0 0 0.00924597 0.00243572 0 0.00718761 0.00150137 0
          0.00533602 0.000544486 0 0.00423287 0.000377275 0 0.00359672 0.000185827 0 0.00313338 0.000125564 0
          0.00285492 6.22069e-05 0 0.00263997 3.45375e-05 0 0.00250743 7.76467e-06 0 0.0024038 -6.13874e-06 0
          0.0023407 -1.90241e-05 0 0.00229181 -2.6589e-05 0 0.0022651 -3.35067e-05 0 0.00224596 -3.83966e-05 0
          0.00224188 -4.302e-05 0 0.00224343 -4.76781e-05 0 0.00226021 -5.23451e-05 0 0.00228449 -5.91922e-05 0
          0.00233156 -6.6265e-05 0 0.00239225 -7.89661e-05 0 0.00249488 -9.18893e-05 0 0.00262459 -0.000118472 0
          0.00283975 -0.000143726 0 0.00311315 -0.000207085 0 0.0035781 -0.000260574 0 0.00420206 -0.000452478 0
          0.00530337 -0.000593334 0 0.00711347 -0.00153209 0 0.00915215 -0.0022726 0 0.01 0 0
          0.01 0 0 0.00971243 0.00337609 0 0.00840145 0.00236505 0 0.00674457 0.00111686 0
          0.00556254 0.000732109 0 0.00478551 0.000398619 0 0.0042381 0.000276362 0 0.00387367 0.000155928 0
          0.003608 0.00010169 0 0.00342986 4.95761e-05 0 0.00329862 2.22922e-05 0 0.00321243 -2.93342e-06 0
          0.0031498 -1.7695e-05 0 0.00311242 -3.12074e-05 0 0.00308828 -4.07772e-05 0 0.00308132 -4.98414e-05 0
          0.00308472 -5.90188e-05 0 0.00310534 -6.83197e-05 0 0.00313948 -8.19264e-05 0 0.00319899 -9.60833e-05 0
          0.00328223 -0.000121345 0 0.00341096 -0.000147122 0 0.00358587 -0.000199385 0 0.00384937 -0.000249891 0
          0.00420875 -0.000370456 0 0.00475305 -0.000481872 0 0.00551849 -0.000813341 0 0.00669006 -0.00115481 0
          0.00832681 -0.00235017 0 0.00963317 -0.00314313 0 0.01 0 0 0.01 0 0
          0.0101973 0.00310701 0 0.00963123 0.00276432 0 0.00817049 0.00166275 0 0.00697015 0.00108498 0
          0.00608079 0.000664122 0 0.00543749 0.000450316 0 0.00499439 0.000281089 0 0.00466638 0.00018569 0
          0.00444386 0.000107669 0 0.0042777 6.03726e-05 0 0.00416798 2.11393e-05 0 0.00408746 -4.25908e-06 0
          0.00403916 -2.58224e-05 0 0.00400771 -4.19547e-05 0 0.00399858 -5.69377e-05 0 0.00400265 -7.19643e-05 0
          0.00402923 -8.79309e-05 0 0.00407262 -0.00010958 0 0.0041488 -0.000134375 0 0.00425377 -0.000173443 0
          0.00441605 -0.000219069 0 0.00463311 -0.000296613 0 0.00495696 -0.000387178 0 0.00539151 -0.000554296 0
          0.00602781 -0.000753409 0 0.00690117 -0.00116247 0 0.00808865 -0.00168081 0 0.00953631 -0.00270716 0
          0.0101053 -0.0029125 0 0.01 0 0 0.01 0 0 0.0102339 0.00350928 0
          0.0100548 0.00335771 0 0.00909175 0.00232791 0 0.00808793 0.00159936 0 0.00723399 0.00102922 0
          0.00658346 0.000714058 0 0.00610207 0.000462468 0 0.00574639 0.000316458 0 0.00549172 0.000196078 0
          0.00530522 0.0001222 0 0.00517593 6.06095e-05 0 0.00508389 2.03365e-05 0 0.00502557 -1.40123e-05 0
          0.0049896 -3.98587e-05 0 0.00497723 -6.38698e-05 0 0.00498301 -8.80395e-05 0 0.00501235 -0.000113598 0
          0.00506448 -0.000148138 0 0.00515021 -0.000187404 0 0.00527363 -0.000248866 0 0.0054538 -0.000319991 0
          0.00570203 -0.000439237 0 0.00604995 -0.000577442 0 0.00652228 -0.000823639 0 0.00716106 -0.0011148 0
          0.00800367 -0.00165974 0 0.0089963 -0.0023079 0 0.00996725 -0.00325957 0 0.0101634 -0.00330324 0
          0.01 0 0 0.01 0 0 0.0104123 0.00295422 0 0.010615 0.00338893 0
          0.00999578 0.00272465 0 0.00920892 0.00200532 0 0.00841913 0.00139342 0 0.00777906 0.000982959 0
          0.00727674 0.000669712 0 0.00689486 0.000463351 0 0.00661451 0.000303488 0 0.00640539 0.00019601 0
          0.00625867 0.000111031 0 0.00615265 5.17552e-05 0 0.00608511 2.87371e-06 0 0.00604273 -3.51833e-05 0
          0.00602804 -7.02458e-05 0 0.00603389 -0.000105235 0 0.00606756 -0.000143175 0 0.00612647 -0.000191776 0
          0.00622406 -0.000250007 0 0.0063622 -0.000333912 0 0.00656264 -0.00043785 0 0.00683337 -0.000594012 0
          0.00720453 -0.000789542 0 0.00769439 -0.00109011 0 0.00832039 -0.0014685 0 0.0090988 -0.00204113 0
          0.00987495 -0.00268306 0 0.0105088 -0.00328574 0 0.0103328 -0.00281412 0 0.01 0 0
          0.01 0 0 0.0103077 0.00305136 0 0.0106184 0.00361534 0 0.0104056 0.00317181 0
          0.00992497 0.00248536 0 0.00933928 0.00181994 0 0.00880735 0.00132732 0 0.00835502 0.000931814 0
          0.00799729 0.000660926 0 0.00772113 0.000446306 0 0.00751329 0.00029938 0 0.00736153 0.000181707 0
          0.00725269 9.8589e-05 0 0.00718034 2.95703e-05 0 0.00713617 -2.48242e-05 0 0.0071187 -7.48531e-05 0
          0.00712511 -0.00012496 0 0.0071581 -0.000178776 0 0.0072199 -0.000247334 0 0.00731755 -0.000328413 0
          0.00745906 -0.000444061 0 0.0076552 -0.000584955 0 0.00792073 -0.000792736 0 0.00826495 -0.00104679 0
          0.00870637 -0.001422 0 0.00922385 -0.00187283 0 0.00980446 -0.00249265 0 0.010279 -0.00310601 0
          0.0105208 -0.00350274 0 0.0102455 -0.00291601 0 0.01 0 0 0.01 0 0
          0.0103668 0.00241453 0 0.0108262 0.00330975 0 0.0108625 0.00321091 0 0.0106421 0.00270602 0
          0.0102374 0.0021185 0 0.00982635 0.00160445 0 0.00943919 0.00117554 0 0.00911821 0.000851183 0
          0.008858 0.000595376 0 0.00865672 0.000408099 0 0.0085057 0.000260685 0 0.00839533 0.000151413 0
          0.00832064 6.20516e-05 0 0.00827409 -1.04188e-05 0 0.00825501 -7.68057e-05 0 0.00825995 -0.000142838 0
          0.00829239 -0.000214667 0 0.00835321 -0.00030247 0 0.00844953 -0.000409036 0 0.00858702 -0.000551961 0
          0.008774 -0.000731116 0 0.00902085 -0.000975061 0 0.00932669 -0.00127892 0 0.00970141 -0.00168109 0
          0.0100971 -0.00215488 0 0.0104963 -0.00269904 0 0.0107128 -0.003153 0 0.0107116 -0.00322136 0
          0.010295 -0.00233798 0 0.01 0 0 0.01 0 0 0.0102474 0.00236582 0
          0.010678 0.00324505 0 0.0109275 0.00331567 0 0.0109561 0.00293547 0 0.0108033 0.00240749 0
          0.0105766 0.00189422 0 0.010325 0.00143464 0 0.0100943 0.00106839 0 0.00989344 0.000767593 0
          0.00973117 0.000540867 0 0.00960339 0.000358201 0 0.00950839 0.000220333 0 0.00944103 0.000106104 0
          0.009399 1.23823e-05 0 0.00937921 -7.37179e-05 0 0.00938222 -0.00015944 0 0.0094073 -0.000251721 0
          0.00945861 -0.000363507 0 0.00953687 -0.000496789 0 0.00964983 -0.000672814 0 0.00979592 -0.000888226 0
          0.00998385 -0.00117408 0 0.0101988 -0.0015172 0 0.0104401 -0.00194955 0 0.0106525 -0.00242577 0
          0.0108048 -0.00291636 0 0.0107792 -0.00325585 0 0.0105699 -0.0031612 0 0.0101849 -0.00229069 0
          0.01 0 0 0.01 0 0 0.0102708 0.00175481 0 0.0107401 0.00272351 0
          0.0111068 0.00299341 0 0.0113181 0.00281822 0 0.011349 0.00243979 0 0.0112868 0.00200103 0
          0.0111595 0.00157734 0 0.0110232 0.00120906 0 0.0108871 0.000897083 0 0.0107709 0.000647537 0
          0.0106728 0.000443984 0 0.0105975 0.000283805 0 0.0105412 0.000150462 0 0.0105049 3.85885e-05 0
          0.0104856 -6.46226e-05 0 0.0104849 -0.000166671 0 0.0105013 -0.000277174 0 0.0105384 -0.00040654 0
          0.0105944 -0.000561862 0 0.010675 -0.000756924 0 0.0107732 -0.000995968 0 0.010894 -0.00129275 0
          0.0110131 -0.00164302 0 0.011128 -0.00204346 0 0.0111762 -0.00245686 0 0.0111459 -0.0028058 0
          0.0109411 -0.00295774 0 0.0106161 -0.00267118 0 0.0101964 -0.00172327 0 0.01 0 0
          0.01 0 0 0.0101804 0.00163588 0 0.0105821 0.00247165 0 0.0110113 0.00279064 0
          0.0113513 0.00271612 0 0.0115695 0.00243458 0 0.011683 0.00206234 0 0.0117182 0.00167474 0
          0.0117092 0.00131974 0 0.0116743 0.00100532 0 0.0116325 0.000745299 0 0.0115888 0.00052643 0
          0.0115514 0.000349918 0 0.0115191 0.000199778 0 0.0114966 7.18352e-05 0 0.0114806 -4.72537e-05 0
          0.011475 -0.000165216 0 0.011476 -0.000291718 0 0.0114879 -0.000438222 0 0.0115047 -0.000610407 0
          0.0115303 -0.000822498 0 0.011553 -0.00107468 0 0.0115727 -0.00137814 0 0.0115647 -0.00172059 0
          0.0115193 -0.00209095 0 0.0113952 -0.00244447 0 0.0111811 -0.00270227 0 0.0108514 -0.0027591 0
          0.0104604 -0.00242477 0 0.0101083 -0.00160127 0 0.01 0 0 0.01 0 0
          0.010198 0.00108309 0 0.0105993 0.00184131 0 0.0110552 0.00220631 0 0.0114733 0.00226186 0
          0.0117985 0.00211667 0 0.012037 0.00186153 0 0.0121891 0.00156236 0 0.0122861 0.00126612 0
          0.012336 0.000991008 0 0.0123627 0.000752787 0 0.0123689 0.000546857 0 0.0123685 0.000375269 0
          0.0123598 0.000226422 0 0.0123512 9.70365e-05 0 0.0123386 -2.50766e-05 0 0.0123279 -0.00014577 0
          0.0123132 -0.00027589 0 0.0122993 -0.000422622 0 0.0122772 -0.000594443 0 0.0122502 -0.000797297 0
          0.0122026 -0.00103483 0 0.0121351 -0.00130437 0 0.0120209 -0.0015972 0 0.0118578 -0.00188542 0
          0.0116103 -0.00213264 0 0.0112887 -0.00226134 0 0.0108812 -0.0021992 0 0.010461 -0.00182329 0
          0.0101119 -0.00107925 0 0.01 0 0 0.01 0 0 0.0101386 0.00092082 0
          0.0104721 0.00148638 0 0.0109074 0.0017957 0 0.0113463 0.00187937 0 0.0117466 0.00180143 0
          0.0120792 0.00162362 0 0.0123421 0.00139398 0 0.0125412 0.0011544 0 0.0126853 0.000921842 0
          0.0127881 0.000714777 0 0.0128557 0.000530891 0 0.0129003 0.000374763 0 0.0129228 0.000236841 0
          0.0129322 0.000115083 0 0.0129255 -8.44856e-07 0 0.012909 -0.000116388 0 0.0128763 -0.000240253 0
          0.0128314 -0.000379233 0 0.0127643 -0.000538896 0 0.0126763 -0.000724229 0 0.0125533 -0.000934883 0
          0.012393 -0.00116694 0 0.0121787 -0.00140805 0 0.011907 -0.00163251 0 0.0115678 -0.00180849 0
          0.0111708 -0.00187591 0 0.0107417 -0.00179009 0 0.0103355 -0.00147063 0 0.0100523 -0.000912642 0
          0.01 0 0 0.01 0 0 0.0101578 0.000436075 0 0.0104705 0.000838084 0
          0.0108715 0.00108946 0 0.011295 0.00120952 0 0.0116969 0.00120684 0 0.0120578 0.00112945 0
          0.0123588 0.000996911 0 0.012607 0.00084799 0 0.0127969 0.000691275 0 0.0129443 0.000547738 0
          0.0130471 0.000414775 0 0.0131209 0.000300557 0 0.0131626 0.000196951 0 0.0131844 0.000105262 0
          0.013181 1.62362e-05 0 0.013161 -7.19741e-05 0 0.0131159 -0.000167611 0 0.0130514 -0.000273001 0
          0.0129556 -0.00039384 0 0.0128318 -0.000529895 0 0.0126649 -0.000681477 0 0.0124577 -0.000840881 0
          0.0121947 -0.000998057 0 0.0118828 -0.00113125 0 0.0115149 -0.00121619 0 0.0111124 -0.00121628 0
          0.0106957 -0.00110214 0 0.010319 -0.000844718 0 0.0100566 -0.000447645 0 0.01 0 0
          0.01 0 0 0.0101131 0.000267474 0 0.0103431 0.000494189 0 0.01066 0.000641092 0
          0.0110096 0.000729176 0 0.0113658 0.000739013 0 0.011701 0.000705777 0 0.0119986 0.000632822 0
          0.0122537 0.000547819 0 0.0124598 0.000453595 0 0.0126245 0.000365844 0 0.0127454 0.000282512 0
          0.0128341 0.000210219 0 0.0128879 0.000143917 0 0.0129178 8.49308e-05 0 0.0129186 2.75587e-05 0
          0.0128986 -2.94777e-05 0 0.0128499 -9.10756e-05 0 0.0127774 -0.000159052 0 0.0126709 -0.000236141 0
          0.0125329 -0.000322578 0 0.0123525 -0.000417162 0 0.0121319 -0.00051531 0 0.0118644 -0.00060925 0
          0.0115566 -0.000686115 0 0.0112144 -0.000730468 0 0.0108553 -0.00072284 0 0.0105085 -0.00064727 0
          0.0102075 -0.000496271 0 0.0100182 -0.000280482 0 0.01 0 0 0.01 0 0
          0.0101474 -6.76052e-05 0 0.0102914 1.93598e-05 0 0.0104632 7.33613e-05 0 0.0106831 0.000132412 0
          0.0108996 0.000151284 0 0.0111223 0.0001664 0 0.0113159 0.000156716 0 0.0114933 0.000147345 0
          0.0116333 0.000126385 0 0.0117521 0.000109441 0 0.0118366 8.82661e-05 0 0.0119031 7.19126e-05 0
          0.0119412 5.39912e-05 0 0.0119653 3.9604e-05 0 0.0119654 2.36946e-05 0 0.0119529 9.148e-06 0
          0.0119167 -7.84881e-06 0 0.011866 -2.5651e-05 0 0.0117879 -4.61333e-05 0 0.0116906 -6.83624e-05 0
          0.0115609 -9.14078e-05 0 0.0114079 -0.000114613 0 0.0112209 -0.000132648 0 0.0110143 -0.000145562 0
          0.0107845 -0.000142259 0 0.0105553 -0.000126719 0 0.0103332 -8.28434e-05 0 0.0101518 -2.91467e-05 0
          0.0100234 4.20657e-05 0 0.01 0 0 0.01 0 0 0.01 0 0
          0.01 0 0 0.01 0 0 0.01 0 0 0.01 0 0
          0.01 0 0 0.01 0 0 0.01 0 0 0.01 0 0
          0.01 0 0 0.01 0 0 0.01 0 0 0.01 0 0
          0.01 0 0 0.01 0 0 0.01 0 0 0.01 0 0
          0.01 0 0 0.01 0 0 0.01 0 0 0.01 0 0
          0.01 0 0 0.01 0 0 0.01 0 0 0.01 0 0
          0.01 0 0 0.01 0 0 0.01 0 0 0.01 0 0
          0.01 0 0
        </DataArray>
      </PointData>
      <Points>
        <DataArray type="Float32" Name="Coordinates" NumberOfComponents="3" format="ascii">
          0 0.035 0 0.000333333 0.035 0 0 0.035081 0 0.000333333 0.035081 0
          0.000666667 0.035 0 0.000666667 0.035081 0 0.001 0.035 0 0.001 0.035081 0
          0.00133333 0.035 0 0.00133333 0.035081 0 0.00166667 0.035 0 0.00166667 0.035081 0
          0.002 0.035 0 0.002 0.035081 0 0.00233333 0.035 0 0.00233333 0.035081 0
          0.00266667 0.035 0 0.00266667 0.035081 0 0.003 0.035 0 0.003 0.035081 0
          0.00333333 0.035 0 0.00333333 0.035081 0 0.00366667 0.035 0 0.00366667 0.035081 0
          0.004 0.035 0 0.004 0.035081 0 0.00433333 0.035 0 0.00433333 0.035081 0
          0.00466667 0.035 0 0.00466667 0.035081 0 0.005 0.035 0 0.005 0.035081 0
          0.00533333 0.035 0 0.00533333 0.035081 0 0.00566667 0.035 0 0.00566667 0.035081 0
          0.006 0.035 0 0.006 0.035081 0 0.00633333 0.035 0 0.00633333 0.035081 0
          0.00666667 0.035 0 0.00666667 0.035081 0 0.007 0.035 0 0.007 0.035081 0
          0.00733333 0.035 0 0.00733333 0.035081 0 0.00766667 0.035 0 0.00766667 0.035081 0
          0.008 0.035 0 0.008 0.035081 0 0.00833333 0.035 0 0.00833333 0.035081 0
          0.00866667 0.035 0 0.00866667 0.035081 0 0.009 0.035 0 0.009 0.035081 0
          0.00933333 0.035 0 0.00933333 0.035081 0 0.00966667 0.035 0 0.00966667 0.035081 0
          0.01 0.035 0 0.01 0.035081 0 0 0.0351725 0 0.000333333 0.0351725 0
          0.000666667 0.0351725 0 0.001 0.0351725 0 0.00133333 0.0351725 0 0.00166667 0.0351725 0
          0.002 0.0351725 0 0.00233333 0.0351725 0 0.00266667 0.0351725 0 0.003 0.0351725 0
          0.00333333 0.0351725 0 0.00366667 0.0351725 0 0.004 0.0351725 0 0.00433333 0.0351725 0
          0.00466667 0.0351725 0 0.005 0.0351725 0 0.00533333 0.0351725 0 0.00566667 0.0351725 0
          0.006 0.0351725 0 0.00633333 0.0351725 0 0.00666667 0.0351725 0 0.007 0.0351725 0
          0.00733333 0.0351725 0 0.00766667 0.0351725 0 0.008 0.0351725 0 0.00833333 0.0351725 0
          0.00866667 0.0351725 0 0.009 0.0351725 0 0.00933333 0.0351725 0 0.00966667 0.0351725 0
          0.01 0.0351725 0 0 0.035276 0 0.000333333 0.035276 0 0.000666667 0.035276 0
          0.001 0.035276 0 0.00133333 0.035276 0 0.00166667 0.035276 0 0.002 0.035276 0
          0.00233333 0.035276 0 0.00266667 0.035276 0 0.003 0.035276 0 0.00333333 0.035276 0
          0.00366667 0.035276 0 0.004 0.035276 0 0.00433333 0.035276 0 0.00466667 0.035276 0
          0.005 0.035276 0 0.00533333 0.035276 0 0.00566667 0.035276 0 0.006 0.035276 0
          0.00633333 0.035276 0 0.00666667 0.035276 0 0.007 0.035276 0 0.00733333 0.035276 0
          0.00766667 0.035276 0 0.008 0.035276 0 0.00833333 0.035276 0 0.00866667 0.035276 0
          0.009 0.035276 0 0.00933333 0.035276 0 0.00966667 0.035276 0 0.01 0.035276 0
          0 0.0353929 0 0.000333333 0.0353929 0 0.000666667 0.0353929 0 0.001 0.0353929 0
          0.00133333 0.0353929 0 0.00166667 0.0353929 0 0.002 0.0353929 0 0.00233333 0.0353929 0
          0.00266667 0.0353929 0 0.003 0.0353929 0 0.00333333 0.0353929 0 0.00366667 0.0353929 0
          0.004 0.0353929 0 0.00433333 0.0353929 0 0.00466667 0.0353929 0 0.005 0.0353929 0
          0.00533333 0.0353929 0 0.00566667 0.0353929 0 0.006 0.0353929 0 0.00633333 0.0353929 0
          0.00666667 0.0353929 0 0.007 0.0353929 0 0.00733333 0.0353929 0 0.00766667 0.0353929 0
          0.008 0.0353929 0 0.00833333 0.0353929 0 0.00866667 0.0353929 0 0.009 0.0353929 0
          0.00933333 0.0353929 0 0.00966667 0.0353929 0 0.01 0.0353929 0 0 0.0355249 0
          0.000333333 0.0355249 0 0.000666667 0.0355249 0 0.001 0.0355249 0 0.00133333 0.0355249 0
          0.00166667 0.0355249 0 0.002 0.0355249 0 0.00233333 0.0355249 0 0.00266667 0.0355249 0
          0.003 0.0355249 0 0.00333333 0.0355249 0 0.00366667 0.0355249 0 0.004 0.0355249 0
          0.00433333 0.0355249 0 0.00466667 0.0355249 0 0.005 0.0355249 0 0.00533333 0.0355249 0
          0.00566667 0.0355249 0 0.006 0.0355249 0 0.00633333 0.0355249 0 0.00666667 0.0355249 0
          0.007 0.0355249 0 0.00733333 0.0355249 0 0.00766667 0.0355249 0 0.008 0.0355249 0
          0.00833333 0.0355249 0 0.00866667 0.0355249 0 0.009 0.0355249 0 0.00933333 0.0355249 0
          0.00966667 0.0355249 0 0.01 0.0355249 0 0 0.0356742 0 0.000333333 0.0356742 0
          0.000666667 0.0356742 0 0.001 0.0356742 0 0.00133333 0.0356742 0 0.00166667 0.0356742 0
          0.002 0.0356742 0 0.00233333 0.0356742 0 0.00266667 0.0356742 0 0.003 0.0356742 0
          0.00333333 0.0356742 0 0.00366667 0.0356742 0 0.004 0.0356742 0 0.00433333 0.0356742 0
          0.00466667 0.0356742 0 0.005 0.0356742 0 0.00533333 0.0356742 0 0.00566667 0.0356742 0
          0.006 0.0356742 0 0.00633333 0.0356742 0 0.00666667 0.0356742 0 0.007 0.0356742 0
          0.00733333 0.0356742 0 0.00766667 0.0356742 0 0.008 0.0356742 0 0.00833333 0.0356742 0
          0.00866667 0.0356742 0 0.009 0.0356742 0 0.00933333 0.0356742 0 0.00966667 0.0356742 0
          0.01 0.0356742 0 0 0.0358428 0 0.000333333 0.0358428 0 0.000666667 0.0358428 0
          0.001 0.0358428 0 0.00133333 0.0358428 0 0.00166667 0.0358428 0 0.002 0.0358428 0
          0.00233333 0.0358428 0 0.00266667 0.0358428 0 0.003 0.0358428 0 0.00333333 0.0358428 0
          0.00366667 0.0358428 0 0.004 0.0358428 0 0.00433333 0.0358428 0 0.00466667 0.0358428 0
          0.005 0.0358428 0 0.00533333 0.0358428 0 0.00566667 0.0358428 0 0.006 0.0358428 0
          0.00633333 0.0358428 0 0.00666667 0.0358428 0 0.007 0.0358428 0 0.00733333 0.0358428 0
          0.00766667 0.0358428 0 0.008 0.0358428 0 0.00833333 0.0358428 0 0.00866667 0.0358428 0
          0.009 0.0358428 0 0.00933333 0.0358428 0 0.00966667 0.0358428 0 0.01 0.0358428 0
          0 0.0360334 0 0.000333333 0.0360334 0 0.000666667 0.0360334 0 0.001 0.0360334 0
          0.00133333 0.0360334 0 0.00166667 0.0360334 0 0.002 0.0360334 0 0.00233333 0.0360334 0
          0.00266667 0.0360334 0 0.003 0.0360334 0 0.00333333 0.0360334 0 0.00366667 0.0360334 0
          0.004 0.0360334 0 0.00433333 0.0360334 0 0.00466667 0.0360334 0 0.005 0.0360334 0
          0.00533333 0.0360334 0 0.00566667 0.0360334 0 0.006 0.0360334 0 0.00633333 0.0360334 0
          0.00666667 0.0360334 0 0.007 0.0360334 0 0.00733333 0.0360334 0 0.00766667 0.0360334 0
          0.008 0.0360334 0 0.00833333 0.0360334 0 0.00866667 0.0360334 0 0.009 0.0360334 0
          0.00933333 0.0360334 0 0.00966667 0.0360334 0 0.01 0.0360334 0 0 0.0362487 0
          0.000333333 0.0362487 0 0.000666667 0.0362487 0 0.001 0.0362487 0 0.00133333 0.0362487 0
          0.00166667 0.0362487 0 0.002 0.0362487 0 0.00233333 0.0362487 0 0.00266667 0.0362487 0
          0.003 0.0362487 0 0.00333333 0.0362487 0 0.00366667 0.0362487 0 0.004 0.0362487 0
          0.00433333 0.0362487 0 0.00466667 0.0362487 0 0.005 0.0362487 0 0.00533333 0.0362487 0
          0.00566667 0.0362487 0 0.006 0.0362487 0 0.00633333 0.0362487 0 0.00666667 0.0362487 0
          0.007 0.0362487 0 0.00733333 0.0362487 0 0.00766667 0.0362487 0 0.008 0.0362487 0
          0.00833333 0.0362487 0 0.00866667 0.0362487 0 0.009 0.0362487 0 0.00933333 0.0362487 0
          0.00966667 0.0362487 0 0.01 0.0362487 0 0 0.0364921 0 0.000333333 0.0364921 0
          0.000666667 0.0364921 0 0.001 0.0364921 0 0.00133333 0.0364921 0 0.00166667 0.0364921 0
          0.002 0.0364921 0 0.00233333 0.0364921 0 0.00266667 0.0364921 0 0.003 0.0364921 0
          0.00333333 0.0364921 0 0.00366667 0.0364921 0 0.004 0.0364921 0 0.00433333 0.0364921 0
          0.00466667 0.0364921 0 0.005 0.0364921 0 0.00533333 0.0364921 0 0.00566667 0.0364921 0
          0.006 0.0364921 0 0.00633333 0.0364921 0 0.00666667 0.0364921 0 0.007 0.0364921 0
          0.00733333 0.0364921 0 0.00766667 0.0364921 0 0.008 0.0364921 0 0.00833333 0.0364921 0
          0.00866667 0.0364921 0 0.009 0.0364921 0 0.00933333 0.0364921 0 0.00966667 0.0364921 0
          0.01 0.0364921 0 0 0.0367671 0 0.000333333 0.0367671 0 0.000666667 0.0367671 0
          0.001 0.0367671 0 0.00133333 0.0367671 0 0.00166667 0.0367671 0 0.002 0.0367671 0
          0.00233333 0.0367671 0 0.00266667 0.0367671 0 0.003 0.0367671 0 0.00333333 0.0367671 0
          0.00366667 0.0367671 0 0.004 0.0367671 0 0.00433333 0.0367671 0 0.00466667 0.0367671 0
          0.005 0.0367671 0 0.00533333 0.0367671 0 0.00566667 0.0367671 0 0.006 0.0367671 0
          0.00633333 0.0367671 0 0.00666667 0.0367671 0 0.007 0.0367671 0 0.00733333 0.0367671 0
          0.00766667 0.0367671 0 0.008 0.0367671 0 0.00833333 0.0367671 0 0.00866667 0.0367671 0
          0.009 0.0367671 0 0.00933333 0.0367671 0 0.00966667 0.0367671 0 0.01 0.0367671 0
          0 0.0370778 0 0.000333333 0.0370778 0 0.000666667 0.0370778 0 0.001 0.0370778 0
          0.00133333 0.0370778 0 0.00166667 0.0370778 0 0.002 0.0370778 0 0.00233333 0.0370778 0
          0.00266667 0.0370778 0 0.003 0.0370778 0 0.00333333 0.0370778 0 0.00366667 0.0370778 0
          0.004 0.0370778 0 0.00433333 0.0370778 0 0.00466667 0.0370778 0 0.005 0.0370778 0
          0.00533333 0.0370778 0 0.00566667 0.0370778 0 0.006 0.0370778 0 0.00633333 0.0370778 0
          0.00666667 0.0370778 0 0.007 0.0370778 0 0.00733333 0.0370778 0 0.00766667 0.0370778 0
          0.008 0.0370778 0 0.00833333 0.0370778 0 0.00866667 0.0370778 0 0.009 0.0370778 0
          0.00933333 0.0370778 0 0.00966667 0.0370778 0 0.01 0.0370778 0 0 0.0374289 0
          0.000333333 0.0374289 0 0.000666667 0.0374289 0 0.001 0.0374289 0 0.00133333 0.0374289 0
          0.00166667 0.0374289 0 0.002 0.0374289 0 0.00233333 0.0374289 0 0.00266667 0.0374289 0
          0.003 0.0374289 0 0.00333333 0.0374289 0 0.00366667 0.0374289 0 0.004 0.0374289 0
          0.00433333 0.0374289 0 0.00466667 0.0374289 0 0.005 0.0374289 0 0.00533333 0.0374289 0
          0.00566667 0.0374289 0 0.006 0.0374289 0 0.00633333 0.0374289 0 0.00666667 0.0374289 0
          0.007 0.0374289 0 0.00733333 0.0374289 0 0.00766667 0.0374289 0 0.008 0.0374289 0
          0.00833333 0.0374289 0 0.00866667 0.0374289 0 0.009 0.0374289 0 0.00933333 0.0374289 0
          0.00966667 0.0374289 0 0.01 0.0374289 0 0 0.0378256 0 0.000333333 0.0378256 0
          0.000666667 0.0378256 0 0.001 0.0378256 0 0.00133333 0.0378256 0 0.00166667 0.0378256 0
          0.002 0.0378256 0 0.00233333 0.0378256 0 0.00266667 0.0378256 0 0.003 0.0378256 0
          0.00333333 0.0378256 0 0.00366667 0.0378256 0 0.004 0.0378256 0 0.00433333 0.0378256 0
          0.00466667 0.0378256 0 0.005 0.0378256 0 0.00533333 0.0378256 0 0.00566667 0.0378256 0
          0.006 0.0378256 0 0.00633333 0.0378256 0 0.00666667 0.0378256 0 0.007 0.0378256 0
          0.00733333 0.0378256 0 0.00766667 0.0378256 0 0.008 0.0378256 0 0.00833333 0.0378256 0
          0.00866667 0.0378256 0 0.009 0.0378256 0 0.00933333 0.0378256 0 0.00966667 0.0378256 0
          0.01 0.0378256 0 0 0.038274 0 0.000333333 0.038274 0 0.000666667 0.038274 0
          0.001 0.038274 0 0.00133333 0.038274 0 0.00166667 0.038274 0 0.002 0.038274 0
          0.00233333 0.038274 0 0.00266667 0.038274 0 0.003 0.038274 0 0.00333333 0.038274 0
          0.00366667 0.038274 0 0.004 0.038274 0 0.00433333 0.038274 0 0.00466667 0.038274 0
          0.005 0.038274 0 0.00533333 0.038274 0 0.00566667 0.038274 0 0.006 0.038274 0
          0.00633333 0.038274 0 0.00666667 0.038274 0 0.007 0.038274 0 0.00733333 0.038274 0
          0.00766667 0.038274 0 0.008 0.038274 0 0.00833333 0.038274 0 0.00866667 0.038274 0
          0.009 0.038274 0 0.00933333 0.038274 0 0.00966667 0.038274 0 0.01 0.038274 0
          0 0.0387806 0 0.000333333 0.0387806 0 0.000666667 0.0387806 0 0.001 0.0387806 0
          0.00133333 0.0387806 0 0.00166667 0.0387806 0 0.002 0.0387806 0 0.00233333 0.0387806 0
          0.00266667 0.0387806 0 0.003 0.0387806 0 0.00333333 0.0387806 0 0.00366667 0.0387806 0
          0.004 0.0387806 0 0.00433333 0.0387806 0 0.00466667 0.0387806 0 0.005 0.0387806 0
          0.00533333 0.0387806 0 0.00566667 0.0387806 0 0.006 0.0387806 0 0.00633333 0.0387806 0
          0.00666667 0.0387806 0 0.007 0.0387806 0 0.00733333 0.0387806 0 0.00766667 0.0387806 0
          0.008 0.0387806 0 0.00833333 0.0387806 0 0.00866667 0.0387806 0 0.009 0.0387806 0
          0.00933333 0.0387806 0 0.00966667 0.0387806 0 0.01 0.0387806 0 0 0.0393531 0
          0.000333333 0.0393531 0 0.000666667 0.0393531 0 0.001 0.0393531 0 0.00133333 0.0393531 0
          0.00166667 0.0393531 0 0.002 0.0393531 0 0.00233333 0.0393531 0 0.00266667 0.0393531 0
          0.003 0.0393531 0 0.00333333 0.0393531 0 0.00366667 0.0393531 0 0.004 0.0393531 0
          0.00433333 0.0393531 0 0.00466667 0.0393531 0 0.005 0.0393531 0 0.00533333 0.0393531 0
          0.00566667 0.0393531 0 0.006 0.0393531 0 0.00633333 0.0393531 0 0.00666667 0.0393531 0
          0.007 0.0393531 0 0.00733333 0.0393531 0 0.00766667 0.0393531 0 0.008 0.0393531 0
          0.00833333 0.0393531 0 0.00866667 0.0393531 0 0.009 0.0393531 0 0.00933333 0.0393531 0
          0.00966667 0.0393531 0 0.01 0.0393531 0 0 0.04 0 0.000333333 0.04 0
          0.000666667 0.04 0 0.001 0.04 0 0.00133333 0.04 0 0.00166667 0.04 0
          0.002 0.04 0 0.00233333 0.04 0 0.00266667 0.04 0 0.003 0.04 0
          0.00333333 0.04 0 0.00366667 0.04 0 0.004 0.04 0 0.00433333 0.04 0
          0.00466667 0.04 0 0.005 0.04 0 0.00533333 0.04 0 0.00566667 0.04 0
          0.006 0.04 0 0.00633333 0.04 0 0.00666667 0.04 0 0.007 0.04 0
          0.00733333 0.04 0 0.00766667 0.04 0 0.008 0.04 0 0.00833333 0.04 0
          0.00866667 0.04 0 0.009 0.04 0 0.00933333 0.04 0 0.00966667 0.04 0
          0.01 0.04 0
        </DataArray>
      </Points>
      <Cells>
        <DataArray type="Int32" Name="connectivity" NumberOfComponents="1" format="ascii">
          0 1 3 2 1 4 5 3 4 6 7 5
          6 8 9 7 8 10 11 9 10 12 13 11
          12 14 15 13 14 16 17 15 16 18 19 17
          18 20 21 19 20 22 23 21 22 24 25 23
          24 26 27 25 26 28 29 27 28 30 31 29
          30 32 33 31 32 34 35 33 34 36 37 35
          36 38 39 37 38 40 41 39 40 42 43 41
          42 44 45 43 44 46 47 45 46 48 49 47
          48 50 51 49 50 52 53 51 52 54 55 53
          54 56 57 55 56 58 59 57 58 60 61 59
          2 3 63 62 3 5 64 63 5 7 65 64
          7 9 66 65 9 11 67 66 11 13 68 67
          13 15 69 68 15 17 70 69 17 19 71 70
          19 21 72 71 21 23 73 72 23 25 74 73
          25 27 75 74 27 29 76 75 29 31 77 76
          31 33 78 77 33 35 79 78 35 37 80 79
          37 39 81 80 39 41 82 81 41 43 83 82
          43 45 84 83 45 47 85 84 47 49 86 85
          49 51 87 86 51 53 88 87 53 55 89 88
          55 57 90 89 57 59 91 90 59 61 92 91
          62 63 94 93 63 64 95 94 64 65 96 95
          65 66 97 96 66 67 98 97 67 68 99 98
          68 69 100 99 69 70 101 100 70 71 102 101
          71 72 103 102 72 73 104 103 73 74 105 104
          74 75 106 105 75 76 107 106 76 77 108 107
          77 78 109 108 78 79 110 109 79 80 111 110
          80 81 112 111 81 82 113 112 82 83 114 113
          83 84 115 114 84 85 116 115 85 86 117 116
          86 87 118 117 87 88 119 118 88 89 120 119
          89 90 121 120 90 91 122 121 91 92 123 122
          93 94 125 124 94 95 126 125 95 96 127 126
          96 97 128 127 97 98 129 128 98 99 130 129
          99 100 131 130 100 101 132 131 101 102 133 132
          102 103 134 133 103 104 135 134 104 105 136 135
          105 106 137 136 106 107 138 137 107 108 139 138
          108 109 140 139 109 110 141 140 110 111 142 141
          111 112 143 142 112 113 144 143 113 114 145 144
          114 115 146 145 115 116 147 146 116 117 148 147
          117 118 149 148 118 119 150 149 119 120 151 150
          120 121 152 151 121 122 153 152 122 123 154 153
          124 125 156 155 125 126 157 156 126 127 158 157
          127 128 159 158 128 129 160 159 129 130 161 160
          130 131 162 161 131 132 163 162 132 133 164 163
          133 134 165 164 134 135 166 165 135 136 167 166
          136 137 168 167 137 138 169 168 138 139 170 169
          139 140 171 170 140 141 172 171 141 142 173 172
          142 143 174 173 143 144 175 174 144 145 176 175
          145 146 177 176 146 147 178 177 147 148 179 178
          148 149 180 179 149 150 181 180 150 151 182 181
          151 152 183 182 152 153 184 183 153 154 185 184
          155 156 187 186 156 157 188 187 157 158 189 188
          158 159 190 189 159 160 191 190 160 161 192 191
          161 162 193 192 162 163 194 193 163 164 195 194
          164 165 196 195 165 166 197 196 166 167 198 197
          167 168 199 198 168 169 200 199 169 170 201 200
          170 171 202 201 171 172 203 202 172 173 204 203
          173 174 205 204 174 175 206 205 175 176 207 206
          176 177 208 207 177 178 209 208 178 179 210 209
          179 180 211 210 180 181 212 211 181 182 213 212
          182 183 214 213 183 184 215 214 184 185 216 215
          186 187 218 217 187 188 219 218 188 189 220 219
          189 190 221 220 190 191 222 221 191 192 223 222
          192 193 224 223 193 194 225 224 194 195 226 225
          195 196 227 226 196 197 228 227 197 198 229 228
          198 199 230 229 199 200 231 230 200 201 232 231
          201 202 233 232 202 203 234 233 203 204 235 234
          204 205 236 235 205 206 237 236 206 207 238 237
          207 208 239 238 208 209 240 239 209 210 241 240
          210 211 242 241 211 212 243 242 212 213 244 243
          213 214 245 244 214 215 246 245 215 216 247 246
          217 218 249 248 218 219 250 249 219 220 251 250
          220 221 252 251 221 222 253 252 222 223 254 253
          223 224 255 254 224 225 256 255 225 226 257 256
          226 227 258 257 227 228 259 258 228 229 260 259
          229 230 261 260 230 231 262 261 231 232 263 262
          232 233 264 263 233 234 265 264 234 235 266 265
          235 236 267 266 236 237 268 267 237 238 269 268
          238 239 270 269 239 240 271 270 240 241 272 271
          241 242 273 272 242 243 274 273 243 244 275 274
          244 245 276 275 245 246 277 276 246 247 278 277
          248 249 280 279 249 250 281 280 250 251 282 281
          251 252 283 282 252 253 284 283 253 254 285 284
          254 255 286 285 255 256 287 286 256 257 288 287
          257 258 289 288 258 259 290 289 259 260 291 290
          260 261 292 291 261 262 293 292 262 263 294 293
          263 264 295 294 264 265 296 295 265 266 297 296
          266 267 298 297 267 268 299 298 268 269 300 299
          269 270 301 300 270 271 302 301 271 272 303 302
          272 273 304 303 273 274 305 304 274 275 306 305
          275 276 307 306 276 277 308 307 277 278 309 308
          279 280 311 310 280 281 312 311 281 282 313 312
          282 283 314 313 283 284 315 314 284 285 316 315
          285 286 317 316 286 287 318 317 287 288 319 318
          288 289 320 319 289 290 321 320 290 291 322 321
          291 292 323 322 292 293 324 323 293 294 325 324
          294 295 326 325 295 296 327 326 296 297 328 327
          297 298 329 328 298 299 330 329 299 300 331 330
          300 301 332 331 301 302 333 332 302 303 334 333
          303 304 335 334 304 305 336 335 305 306 337 336
          306 307 338 337 307 308 339 338 308 309 340 339
          310 311 342 341 311 312 343 342 312 313 344 343
          313 314 345 344 314 315 346 345 315 316 347 346
          316 317 348 347 317 318 349 348 318 319 350 349
          319 320 351 350 320 321 352 351 321 322 353 352
          322 323 354 353 323 324 355 354 324 325 356 355
          325 326 357 356 326 327 358 357 327 328 359 358
          328 329 360 359 329 330 361 360 330 331 362 361
          331 332 363 362 332 333 364 363 333 334 365 364
          334 335 366 365 335 336 367 366 336 337 368 367
          337 338 369 368 338 339 370 369 339 340 371 370
          341 342 373 372 342 343 374 373 343 344 375 374
          344 345 376 375 345 346 377 376 346 347 378 377
          347 348 379 378 348 349 380 379 349 350 381 380
          350 351 382 381 351 352 383 382 352 353 384 383
          353 354 385 384 354 355 386 385 355 356 387 386
          356 357 388 387 357 358 389 388 358 359 390 389
          359 360 391 390 360 361 392 391 361 362 393 392
          362 363 394 393 363 364 395 394 364 365 396 395
          365 366 397 396 366 367 398 397 367 368 399 398
          368 369 400 399 369 370 401 400 370 371 402 401
          372 373 404 403 373 374 405 404 374 375 406 405
          375 376 407 406 376 377 408 407 377 378 409 408
          378 379 410 409 379 380 411 410 380 381 412 411
          381 382 413 412 382 383 414 413 383 384 415 414
          384 385 416 415 385 386 417 416 386 387 418 417
          387 388 419 418 388 389 420 419 389 390 421 420
          390 391 422 421 391 392 423 422 392 393 424 423
          393 394 425 424 394 395 426 425 395 396 427 426
          396 397 428 427 397 398 429 428 398 399 430 429
          399 400 431 430 400 401 432 431 401 402 433 432
          403 404 435 434 404 405 436 435 405 406 437 436
          406 407 438 437 407 408 439 438 408 409 440 439
          409 410 441 440 410 411 442 441 411 412 443 442
          412 413 444 443 413 414 445 444 414 415 446 445
          415 416 447 446 416 417 448 447 417 418 449 448
          418 419 450 449 419 420 451 450 420 421 452 451
          421 422 453 452 422 423 454 453 423 424 455 454
          424 425 456 455 425 426 457 456 426 427 458 457
          427 428 459 458 428 429 460 459 429 430 461 460
          430 431 462 461 431 432 463 462 432 433 464 463
          434 435 466 465 435 436 467 466 436 437 468 467
          437 438 469 468 438 439 470 469 439 440 471 470
          440 441 472 471 441 442 473 472 442 443 474 473
          443 444 475 474 444 445 476 475 445 446 477 476
          446 447 478 477 447 448 479 478 448 449 480 479
          449 450 481 480 450 451 482 481 451 452 483 482
          452 453 484 483 453 454 485 484 454 455 486 485
          455 456 487 486 456 457 488 487 457 458 489 488
          458 459 490 489 459 460 491 490 460 461 492 491
          461 462 493 492 462 463 494 493 463 464 495 494
          465 466 497 496 466 467 498 497 467 468 499 498
          468 469 500 499 469 470 501 500 470 471 502 501
          471 472 503 502 472 473 504 503 473 474 505 504
          474 475 506 505 475 476 507 506 476 477 508 507
          477 478 509 508 478 479 510 509 479 480 511 510
          480 481 512 511 481 482 513 512 482 483 514 513
          483 484 515 514 484 485 516 515 485 486 517 516
          486 487 518 517 487 488 519 518 488 489 520 519
          489 490 521 520 490 491 522 521 491 492 523 522
          492 493 524 523 493 494 525 524 494 495 526 525
          496 497 528 527 497 498 529 528 498 499 530 529
          499 500 531 530 500 501 532 531 501 502 533 532
          502 503 534 533 503 504 535 534 504 505 536 535
          505 506 537 536 506 507 538 537 507 508 539 538
          508 509 540 539 509 510 541 540 510 511 542 541
          511 512 543 542 512 513 544 543 513 514 545 544
          514 515 546 545 515 516 547 546 516 517 548 547
          517 518 549 548 518 519 550 549 519 520 551 550
          520 521 552 551 521 522 553 552 522 523 554 553
          523 524 555 554 524 525 556 555 525 526 557 556
          527 528 559 558 528 529 560 559 529 530 561 560
          530 531 562 561 531 532 563 562 532 533 564 563
          533 534 565 564 534 535 566 565 535 536 567 566
          536 537 568 567 537 538 569 568 538 539 570 569
          539 540 571 570 540 541 572 571 541 542 573 572
          542 543 574 573 543 544 575 574 544 545 576 575
          545 546 577 576 546 547 578 577 547 548 579 578
          548 549 580 579 549 550 581 580 550 551 582 581
          551 552 583 582 552 553 584 583 553 554 585 584
          554 555 586 585 555 556 587 586 556 557 588 587
        </DataArray>
        <DataArray type="Int32" Name="offsets" NumberOfComponents="1" format="ascii">
          4 8 12 16 20 24 28 32 36 40 44 48
          52 56 60 64 68 72 76 80 84 88 92 96
          100 104 108 112 116 120 124 128 132 136 140 144
          148 152 156 160 164 168 172 176 180 184 188 192
          196 200 204 208 212 216 220 224 228 232 236 240
          244 248 252 256 260 264 268 272 276 280 284 288
          292 296 300 304 308 312 316 320 324 328 332 336
          340 344 348 352 356 360 364 368 372 376 380 384
          388 392 396 400 404 408 412 416 420 424 428 432
          436 440 444 448 452 456 460 464 468 472 476 480
          484 488 492 496 500 504 508 512 516 520 524 528
          532 536 540 544 548 552 556 560 564 568 572 576
          580 584 588 592 596 600 604 608 612 616 620 624
          628 632 636 640 644 648 652 656 660 664 668 672
          676 680 684 688 692 696 700 704 708 712 716 720
          724 728 732 736 740 744 748 752 756 760 764 768
          772 776 780 784 788 792 796 800 804 808 812 816
          820 824 828 832 836 840 844 848 852 856 860 864
          868 872 876 880 884 888 892 896 900 904 908 912
          916 920 924 928 932 936 940 944 948 952 956 960
          964 968 972 976 980 984 988 992 996 1000 1004 1008
          1012 1016 1020 1024 1028 1032 1036 1040 1044 1048 1052 1056
          1060 1064 1068 1072 1076 1080 1084 1088 1092 1096 1100 1104
          1108 1112 1116 1120 1124 1128 1132 1136 1140 1144 1148 1152
          1156 1160 1164 1168 1172 1176 1180 1184 1188 1192 1196 1200
          1204 1208 1212 1216 1220 1224 1228 1232 1236 1240 1244 1248
          1252 1256 1260 1264 1268 1272 1276 1280 1284 1288 1292 1296
          1300 1304 1308 1312 1316 1320 1324 1328 1332 1336 1340 1344
          1348 1352 1356 1360 1364 1368 1372 1376 1380 1384 1388 1392
          1396 1400 1404 1408 1412 1416 1420 1424 1428 1432 1436 1440
          1444 1448 1452 1456 1460 1464 1468 1472 1476 1480 1484 1488
          1492 1496 1500 1504 1508 1512 1516 1520 1524 1528 1532 1536
          1540 1544 1548 1552 1556 1560 1564 1568 1572 1576 1580 1584
          1588 1592 1596 1600 1604 1608 1612 1616 1620 1624 1628 1632
          1636 1640 1644 1648 1652 1656 1660 1664 1668 1672 1676 1680
          1684 1688 1692 1696 1700 1704 1708 1712 1716 1720 1724 1728
          1732 1736 1740 1744 1748 1752 1756 1760 1764 1768 1772 1776
          1780 1784 1788 1792 1796 1800 1804 1808 1812 1816 1820 1824
          1828 1832 1836 1840 1844 1848 1852 1856 1860 1864 1868 1872
          1876 1880 1884 1888 1892 1896 1900 1904 1908 1912 1916 1920
          1924 1928 1932 1936 1940 1944 1948 1952 1956 1960 1964 1968
          1972 1976 1980 1984 1988 1992 1996 2000 2004 2008 2012 2016
          2020 2024 2028 2032 2036 2040 2044 2048 2052 2056 2060 2064
          2068 2072 2076 2080 2084 2088 2092 2096 2100 2104 2108 2112
          2116 2120 2124 2128 2132 2136 2140 2144 2148 2152 2156 2160
        </DataArray>
        <DataArray type="UInt8" Name="types" NumberOfComponents="1" format="ascii">
          9 9 9 9 9 9 9 9 9 9 9 9
          9 9 9 9 9 9 9 9 9 9 9 9
          9 9 9 9 9 9 9 9 9 9 9 9
          9 9 9 9 9 9 9 9 9 9 9 9
          9 9 9 9 9 9 9 9 9 9 9 9
          9 9 9 9 9 9 9 9 9 9 9 9
          9 9 9 9 9 9 9 9 9 9 9 9
          9 9 9 9 9 9 9 9 9 9 9 9
          9 9 9 9 9 9 9 9 9 9 9 9
          9 9 9 9 9 9 9 9 9 9 9 9
          9 9 9 9 9 9 9 9 9 9 9 9
          9 9 9 9 9 9 9 9 9 9 9 9
          9 9 9 9 9 9 9 9 9 9 9 9
          9 9 9 9 9 9 9 9 9 9 9 9
          9 9 9 9 9 9 9 9 9 9 9 9
          9 9 9 9 9 9 9 9 9 9 9 9
          9 9 9 9 9 9 9 9 9 9 9 9
          9 9 9 9 9 9 9 9 9 9 9 9
          9 9 9 9 9 9 9 9 9 9 9 9
          9 9 9 9 9 9 9 9 9 9 9 9
          9 9 9 9 9 9 9 9 9 9 9 9
          9 9 9 9 9 9 9 9 9 9 9 9
          9 9 9 9 9 9 9 9 9 9 9 9
          9 9 9 9 9 9 9 9 9 9 9 9
          9 9 9 9 9 9 9 9 9 9 9 9
          9 9 9 9 9 9 9 9 9 9 9 9
          9 9 9 9 9 9 9 9 9 9 9 9
          9 9 9 9 9 9 9 9 9 9 9 9
          9 9 9 9 9 9 9 9 9 9 9 9
          9 9 9 9 9 9 9 9 9 9 9 9
          9 9 9 9 9 9 9 9 9 9 9 9
          9 9 9 9 9 9 9 9 9 9 9 9
          9 9 9 9 9 9 9 9 9 9 9 9
          9 9 9 9 9 9 9 9 9 9 9 9
          9 9 9 9 9 9 9 9 9 9 9 9
          9 9 9 9 9 9 9 9 9 9 9 9
          9 9 9 9 9 9 9 9 9 9 9 9
          9 9 9 9 9 9 9 9 9 9 9 9
          9 9 9 9 9 9 9 9 9 9 9 9
          9 9 9 9 9 9 9 9 9 9 9 9
          9 9 9 9 9 9 9 9 9 9 9 9
          9 9 9 9 9 9 9 9 9 9 9 9
          9 9 9 9 9 9 9 9 9 9 9 9
          9 9 9 9 9 9 9 9 9 9 9 9
          9 9 9 9 9 9 9 9 9 9 9 9
        </DataArray>
      </Cells>
    </Piece>
  </UnstructuredGrid>
</VTKFile>
