<?xml version="1.0"?>
<VTKFile type="UnstructuredGrid" version="0.1" byte_order="LittleEndian">
  <UnstructuredGrid>
    <Piece NumberOfCells="540" NumberOfPoints="589">
      <PointData Scalars="temperature" Vectors="v">
        <DataArray type="Float32" Name="temperature" NumberOfComponents="1" format="ascii">
          304.398 304.55 298.069 303.091 304.614 303.601 304.667 303.887 304.711 304.075 304.749 304.209
          304.783 304.313 304.813 304.398 304.841 304.471 304.867 304.535 304.891 304.593 304.913 304.645
          304.934 304.693 304.954 304.737 304.972 304.777 304.989 304.813 305.005 304.847 305.02 304.88
          305.035 304.913 305.049 304.949 305.063 304.991 305.076 305.041 305.088 305.098 305.099 305.161
          305.108 305.223 305.113 305.272 305.114 305.293 305.109 305.275 305.1 305.211 305.085 305.144
          305.071 305.15 293.072 300.099 302.249 302.888 303.281 303.544 303.739 303.894 304.023 304.134
          304.232 304.32 304.4 304.473 304.539 304.599 304.654 304.706 304.759 304.817 304.887 304.973
          305.076 305.195 305.318 305.424 305.484 305.472 305.367 305.228 305.15 289.774 296.432 300.158
          301.574 302.27 302.715 303.033 303.277 303.477 303.645 303.793 303.924 304.043 304.15 304.248
          304.336 304.416 304.49 304.565 304.646 304.742 304.862 305.012 305.188 305.379 305.557 305.677
          305.696 305.574 305.36 305.15 287.995 292.963 297.374 299.754 300.958 301.668 302.154 302.517
          302.806 303.048 303.256 303.44 303.605 303.754 303.889 304.011 304.121 304.223 304.321 304.426
          304.548 304.7 304.892 305.126 305.39 305.651 305.853 305.932 305.823 305.538 305.15 287.378
          290.313 294.335 297.373 299.221 300.323 301.048 301.572 301.98 302.313 302.597 302.845 303.067
          303.267 303.448 303.61 303.757 303.89 304.017 304.147 304.294 304.475 304.706 304.993 305.33
          305.682 305.987 306.156 306.092 305.752 305.15 287.506 288.754 291.645 294.676 297.017 298.593
          299.646 300.39 300.954 301.406 301.786 302.114 302.405 302.666 302.902 303.114 303.305 303.478
          303.639 303.797 303.969 304.176 304.439 304.774 305.179 305.625 306.045 306.333 306.35 305.979
          305.15 287.975 288.214 289.784 292.152 294.533 296.463 297.882 298.909 299.679 300.286 300.787
          301.215 301.591 301.926 302.229 302.501 302.747 302.968 303.17 303.363 303.563 303.794 304.083
          304.455 304.919 305.454 305.996 306.423 306.555 306.19 305.15 288.494 288.382 288.933 290.325
          292.213 294.134 295.789 297.098 298.112 298.911 299.564 300.116 300.595 301.021 301.404 301.749
          302.06 302.34 302.593 302.829 303.063 303.319 303.63 304.029 304.538 305.15 305.809 306.385
          306.662 306.352 305.15 288.897 288.877 288.932 289.471 290.573 292.049 293.615 295.05 296.266
          297.267 298.094 298.792 299.395 299.927 300.405 300.836 301.224 301.575 301.892 302.183 302.459
          302.746 303.077 303.495 304.033 304.704 305.465 306.19 306.635 306.435 305.15 289.174 289.403
          289.424 289.515 289.919 290.72 291.836 293.091 294.322 295.438 296.412 297.255 297.991 298.641
          299.225 299.753 300.232 300.665 301.058 301.415 301.747 302.074 302.43 302.862 303.417 304.125
          304.964 305.822 306.445 306.409 305.15 289.389 289.839 290.058 290.115 290.177 290.421 290.945
          291.735 292.695 293.712 294.703 295.621 296.457 297.213 297.899 298.526 299.099 299.623 300.1
          300.536 300.935 301.315 301.706 302.153 302.713 303.436 304.326 305.291 306.087 306.262 305.15
          289.669 290.236 290.665 290.908 290.995 291.027 291.136 291.423 291.921 292.594 293.377 294.203
          295.024 295.812 296.557 297.255 297.908 298.513 299.074 299.59 300.065 300.509 300.943 301.41
          301.97 302.686 303.59 304.626 305.576 305.992 305.15 290.118 290.741 291.293 291.73 292.013
          292.144 292.176 292.202 292.313 292.567 292.974 293.51 294.134 294.806 295.496 296.183 296.855
          297.501 298.116 298.694 299.235 299.74 300.223 300.712 301.262 301.946 302.824 303.884 304.953
          305.618 305.15 290.861 291.533 292.137 292.678 293.129 293.459 293.649 293.72 293.727 293.741
          293.823 294.011 294.312 294.715 295.199 295.738 296.314 296.907 297.501 298.084 298.647 299.184
          299.695 300.195 300.722 301.342 302.138 303.149 304.277 305.172 305.15 292.067 292.818 293.457
          294.027 294.542 294.991 295.35 295.597 295.729 295.77 295.765 295.762 295.807 295.925 296.129
          296.414 296.773 297.19 297.65 298.135 298.632 299.127 299.612 300.083 300.557 301.075 301.716
          302.571 303.647 304.707 305.15 294.131 294.965 295.606 296.157 296.645 297.088 297.486 297.825
          298.086 298.26 298.35 298.374 298.364 298.353 298.369 298.434 298.557 298.742 298.984 299.275
          299.603 299.957 300.323 300.692 301.059 301.436 301.866 302.437 303.253 304.305 305.15 297.698
          298.807 299.244 299.631 299.973 300.28 300.561 300.818 301.046 301.236 301.379 301.472 301.519
          301.531 301.525 301.516 301.521 301.55 301.61 301.703 301.828 301.98 302.155 302.345 302.541
          302.74 302.946 303.19 303.551 304.164 305.15 298.382 305.15 305.15 305.15 305.15 305.15
          305.15 305.15 305.15 305.15 305.15 305.15 305.15 305.15 305.15 305.15 305.15 305.15
          305.15 305.15 305.15 305.15 305.15 305.15 305.15 305.15 305.15 305.15 305.15 305.15
          305.15
        </DataArray>
        <DataArray type="Float32" Name="pg" NumberOfComponents="1" format="ascii">
          213822 213822 213822 213822 213822 213822 213822 213822 213822 213822 213822 213822
          213822 213822 213822 213822 213822 213822 213822 213822 213822 213822 213822 213822
          213822 213822 213822 213822 213822 213822 213822 213822 213822 213822 213822 213822
          213822 213822 213822 213822 213822 213822 213822 213822 213822 213822 213822 213822
          213822 213822 213822 213822 213822 213822 213822 213822 213822 213822 213822 213822
          213822 213822 213822 213822 213822 213822 213822 213822 213822 213822 213822 213822
          213822 213822 213822 213822 213822 213822 213822 213822 213822 213822 213822 213822
          213822 213822 213822 213822 213822 213822 213822 213822 213822 213822 213822 213822
          213822 213822 213822 213822 213822 213822 213822 213822 213822 213822 213822 213822
          213822 213822 213822 213822 213822 213822 213822 213822 213822 213822 213822 213822
          213822 213822 213822 213822 213822 213822 213822 213822 213822 213822 213822 213822
          213822 213822 213822 213822 213822 213822 213822 213822 213822 213822 213822 213822
          213822 213822 213822 213822 213822 213822 213822 213822 213822 213822 213822 213822
          213822 213822 213822 213822 213822 213822 213822 213822 213822 213822 213822 213822
          213822 213822 213822 213822 213822 213822 213822 213822 213822 213822 213822 213822
          213822 213822 213822 213822 213822 213822 213822 213822 213822 213822 213822 213822
          213822 213822 213822 213822 213822 213822 213822 213822 213822 213822 213822 213822
          213822 213822 213822 213822 213822 213822 213822 213822 213822 213822 213822 213822
          213822 213822 213822 213822 213822 213822 213822 213822 213822 213822 213822 213822
          213822 213822 213822 213822 213822 213822 213822 213822 213822 213822 213822 213822
          213822 213822 213822 213822 213822 213822 213822 213822 213822 213822 213822 213822
          213822 213822 213822 213822 213822 213822 213822 213822 213822 213822 213822 213822
          213822 213822 213822 213822 213822 213822 213822 213822 213822 213822 213822 213822
          213822 213822 213822 213822 213822 213822 213822 213822 213822 213822 213822 213822
          213822 213822 213822 213822 213822 213822 213822 213822 213822 213822 213822 213822
          213822 213822 213822 213822 213822 213822 213822 213822 213822 213822 213822 213822
          213822 213822 213822 213822 213822 213822 213822 213822 213822 213822 213822 213822
          213822 213822 213822 213822 213822 213822 213822 213822 213822 213822 213822 213822
          213822 213822 213822 213822 213822 213822 213822 213822 213822 213822 213822 213822
          213822 213822 213822 213822 213822 213822 213822 213822 213822 213822 213822 213822
          213822 213822 213822 213822 213822 213822 213822 213822 213822 213822 213822 213822
          213822 213822 213822 213822 213822 213822 213822 213822 213822 213822 213822 213822
          213822 213822 213822 213822 213822 213822 213822 213822 213822 213822 213822 213822
          213822 213822 213822 213822 213822 213822 213822 213822 213822 213822 213822 213822
          213822 213822 213822 213822 213822 213822 213822 213822 213822 213822 213822 213822
          213822 213822 213822 213822 213822 213822 213822 213822 213822 213822 213822 213822
          213822 213822 213822 213822 213822 213822 213822 213822 213822 213822 213822 213822
          213822 213822 213822 213822 213822 213822 213822 213822 213822 213822 213822 213822
          213822 213822 213822 213822 213822 213822 213822 213822 213822 213822 213822 213822
          213822 213822 213822 213822 213822 213822 213822 213822 213822 213822 213822 213822
          213822 213822 213822 213822 213822 213822 213822 213822 213822 213822 213822 213822
          213822 213822 213822 213822 213822 213822 213822 213822 213822 213822 213822 213822
          213822 213822 213822 213822 213822 213822 213822 213822 213822 213822 213822 213822
          213822 213822 213822 213822 213822 213822 213822 213822 213822 213822 213822 213822
          213822 213822 213822 213822 213822 213822 213822 213822 213822 213822 213822 213822
          213822 213822 213822 213822 213822 213822 213822 213822 213822 213822 213822 213822
          213822 213822 213822 213822 213822 213822 213822 213822 213822 213822 213822 213822
          213822 213822 213822 213822 213822 213822 213822 213822 213822 213822 213822 213822
          213822 213822 213822 213822 213822 213822 213822 213822 213822 213822 213822 213822
          213822
        </DataArray>
        <DataArray type="Float32" Name="delP" NumberOfComponents="1" format="ascii">
          113822 113822 113822 113822 113822 113822 113822 113822 113822 113822 113822 113822
          113822 113822 113822 113822 113822 113822 113822 113822 113822 113822 113822 113822
          113822 113822 113822 113822 113822 113822 113822 113822 113822 113822 113822 113822
          113822 113822 113822 113822 113822 113822 113822 113822 113822 113822 113822 113822
          113822 113822 113822 113822 113822 113822 113822 113822 113822 113822 113822 113822
          113822 113822 113822 113822 113822 113822 113822 113822 113822 113822 113822 113822
          113822 113822 113822 113822 113822 113822 113822 113822 113822 113822 113822 113822
          113822 113822 113822 113822 113822 113822 113822 113822 113822 113822 113822 113822
          113822 113822 113822 113822 113822 113822 113822 113822 113822 113822 113822 113822
          113822 113822 113822 113822 113822 113822 113822 113822 113822 113822 113822 113822
          113822 113822 113822 113822 113822 113822 113822 113822 113822 113822 113822 113822
          113822 113822 113822 113822 113822 113822 113822 113822 113822 113822 113822 113822
          113822 113822 113822 113822 113822 113822 113822 113822 113822 113822 113822 113822
          113822 113822 113822 113822 113822 113822 113822 113822 113822 113822 113822 113822
          113822 113822 113822 113822 113822 113822 113822 113822 113822 113822 113822 113822
          113822 113822 113822 113822 113822 113822 113822 113822 113822 113822 113822 113822
          113822 113822 113822 113822 113822 113822 113822 113822 113822 113822 113822 113822
          113822 113822 113822 113822 113822 113822 113822 113822 113822 113822 113822 113822
          113822 113822 113822 113822 113822 113822 113822 113822 113822 113822 113822 113822
          113822 113822 113822 113822 113822 113822 113822 113822 113822 113822 113822 113822
          113822 113822 113822 113822 113822 113822 113822 113822 113822 113822 113822 113822
          113822 113822 113822 113822 113822 113822 113822 113822 113822 113822 113822 113822
          113822 113822 113822 113822 113822 113822 113822 113822 113822 113822 113822 113822
          113822 113822 113822 113822 113822 113822 113822 113822 113822 113822 113822 113822
          113822 113822 113822 113822 113822 113822 113822 113822 113822 113822 113822 113822
          113822 113822 113822 113822 113822 113822 113822 113822 113822 113822 113822 113822
          113822 113822 113822 113822 113822 113822 113822 113822 113822 113822 113822 113822
          113822 113822 113822 113822 113822 113822 113822 113822 113822 113822 113822 113822
          113822 113822 113822 113822 113822 113822 113822 113822 113822 113822 113822 113822
          113822 113822 113822 113822 113822 113822 113822 113822 113822 113822 113822 113822
          113822 113822 113822 113822 113822 113822 113822 113822 113822 113822 113822 113822
          113822 113822 113822 113822 113822 113822 113822 113822 113822 113822 113822 113822
          113822 113822 113822 113822 113822 113822 113822 113822 113822 113822 113822 113822
          113822 113822 113822 113822 113822 113822 113822 113822 113822 113822 113822 113822
          113822 113822 113822 113822 113822 113822 113822 113822 113822 113822 113822 113822
          113822 113822 113822 113822 113822 113822 113822 113822 113822 113822 113822 113822
          113822 113822 113822 113822 113822 113822 113822 113822 113822 113822 113822 113822
          113822 113822 113822 113822 113822 113822 113822 113822 113822 113822 113822 113822
          113822 113822 113822 113822 113822 113822 113822 113822 113822 113822 113822 113822
          113822 113822 113822 113822 113822 113822 113822 113822 113822 113822 113822 113822
          113822 113822 113822 113822 113822 113822 113822 113822 113822 113822 113822 113822
          113822 113822 113822 113822 113822 113822 113822 113822 113822 113822 113822 113822
          113822 113822 113822 113822 113822 113822 113822 113822 113822 113822 113822 113822
          113822 113822 113822 113822 113822 113822 113822 113822 113822 113822 113822 113822
          113822 113822 113822 113822 113822 113822 113822 113822 113822 113822 113822 113822
          113822 113822 113822 113822 113822 113822 113822 113822 113822 113822 113822 113822
          113822 113822 113822 113822 113822 113822 113822 113822 113822 113822 113822 113822
          113822 113822 113822 113822 113822 113822 113822 113822 113822 113822 113822 113822
          113822 113822 113822 113822 113822 113822 113822 113822 113822 113822 113822 113822
          113822
        </DataArray>
        <DataArray type="Float32" Name="xH2Og" NumberOfComponents="1" format="ascii">
          0.0181923 0.0187914 0.0141122 0.0179379 0.0188677 0.0182696 0.0189332 0.018427 0.0189936 0.0185468 0.0190475 0.0186415
          0.0190854 0.0187122 0.019132 0.0187788 0.0191544 0.0188251 0.0191889 0.0188712 0.0192088 0.0189068 0.0192501 0.0189527
          0.0192705 0.0189867 0.0192903 0.0190133 0.0193133 0.0190409 0.0193284 0.0190619 0.0193452 0.0190807 0.0193619 0.0190984
          0.0193783 0.0191135 0.0193911 0.0191228 0.0194027 0.0191257 0.0193947 0.0191066 0.0194091 0.0190889 0.019416 0.0190562
          0.0193974 0.0189809 0.0193717 0.0188618 0.0193368 0.0186837 0.0192629 0.018391 0.0192012 0.0179424 0.0188682 0.0171494
          0.0178863 0.0062 0.0105046 0.0160443 0.0174854 0.0178075 0.0180105 0.0181603 0.0182727 0.0183672 0.0184405 0.018504
          0.0185568 0.0186118 0.0186589 0.0186958 0.0187295 0.0187572 0.01878 0.0187995 0.0188148 0.018822 0.0188183 0.01879
          0.0187462 0.0186766 0.0185503 0.0183487 0.0180434 0.0175605 0.0167924 0.01548 0.0062 0.0075932 0.0134649 0.0162088
          0.0170186 0.0173574 0.0175843 0.0177515 0.017884 0.0179895 0.018077 0.0181503 0.0182189 0.0182803 0.0183301 0.0183728
          0.0184084 0.0184371 0.0184602 0.0184769 0.0184838 0.0184763 0.0184415 0.018378 0.0182767 0.0181065 0.0178357 0.0174226
          0.0167817 0.0157624 0.0140564 0.0062 0.00543357 0.0106365 0.0143255 0.0159073 0.016538 0.0168852 0.0171275 0.0173121
          0.0174583 0.0175774 0.0176764 0.0177639 0.017842 0.0179077 0.0179626 0.0180083 0.0180451 0.0180737 0.018094 0.0181027
          0.0180942 0.0180563 0.0179803 0.0178547 0.0176494 0.0173241 0.0168258 0.0160611 0.0148569 0.0128761 0.0062 0.00399185
          0.00797431 0.0119497 0.0143271 0.0154509 0.0160159 0.0163709 0.0166285 0.0168284 0.0169889 0.017121 0.0172341 0.0173332
          0.0174181 0.0174892 0.017548 0.0175955 0.0176324 0.0176587 0.0176717 0.0176655 0.0176285 0.0175474 0.0174069 0.0171772
          0.0168136 0.0162541 0.0154006 0.0140723 0.0119225 0.0062 0.00316729 0.00579498 0.00938438 0.0122614 0.0139746 0.0148953
          0.0154352 0.0158011 0.0160749 0.0162908 0.0164664 0.0166135 0.01674 0.0168487 0.0169405 0.0170166 0.0170783 0.0171269
          0.0171622 0.0171825 0.0171822 0.0171506 0.0170718 0.016927 0.0166854 0.0163006 0.015705 0.0147971 0.0133972 0.0111659
          0.0062 0.00281299 0.0042643 0.00700426 0.00988505 0.0120591 0.0134241 0.0142486 0.0147825 0.0151637 0.0154558 0.0156895
          0.0158822 0.016045 0.0161842 0.0163024 0.0164009 0.0164815 0.0165457 0.016594 0.0166253 0.0166349 0.0166133 0.0165441
          0.0164059 0.0161665 0.0157785 0.0151715 0.014242 0.0128158 0.0105725 0.0062 0.00277059 0.00338703 0.00513063 0.0075346
          0.00982316 0.0115594 0.0127312 0.0135074 0.0140471 0.0144477 0.014761 0.0150151 0.0152266 0.0154056 0.0155575 0.0156851
          0.0157904 0.0158756 0.0159417 0.0159885 0.0160125 0.0160058 0.0159531 0.0158321 0.0156091 0.0152363 0.0146419 0.0137215
          0.0123073 0.0101046 0.0062 0.00289457 0.00304113 0.00392217 0.00557314 0.00756365 0.00940904 0.0108625 0.0119158 0.0126679
          0.0132203 0.0136439 0.0139814 0.0142582 0.0144899 0.0146858 0.0148509 0.0149884 0.0151011 0.0151909 0.0152586 0.0153023
          0.0153158 0.0152863 0.0151919 0.0149991 0.0146593 0.0141006 0.013218 0.0118503 0.00972876 0.0062 0.00307845 0.00304161
          0.00335099 0.00424818 0.00565441 0.00726393 0.00877449 0.010025 0.010994 0.011731 0.0122985 0.0127468 0.0131103 0.0134115
          0.0136645 0.013878 0.0140569 0.0142053 0.0143262 0.0144214 0.0144906 0.0145303 0.0145301 0.0144709 0.0143205 0.0140303
          0.0135284 0.0127103 0.0114198 0.0094123 0.0062 0.00325999 0.00321056 0.0032483 0.00359704 0.00437109 0.0054943 0.0067717
          0.00801047 0.00909426 0.00998824 0.010708 0.0112868 0.0117578 0.0121467 0.0124723 0.0127468 0.0129781 0.0131718 0.0133322
          0.0134626 0.0135644 0.0136363 0.0136716 0.0136549 0.0135569 0.0133309 0.0129053 0.0121765 0.0109931 0.00912946 0.0062
          0.00342343 0.00342681 0.00340312 0.00347289 0.00377482 0.00437222 0.0052206 0.00620542 0.00720424 0.00812969 0.00894014 0.00962865
          0.0102067 0.0106917 0.0111008 0.0114475 0.0117415 0.01199 0.0121988 0.0123723 0.0125135 0.0126238 0.0127 0.0127315
          0.012694 0.0125438 0.0122113 0.0115942 0.0105457 0.00885529 0.0062 0.00358188 0.00364149 0.0036523 0.00365019 0.00371559
          0.00393425 0.00435082 0.00495064 0.00567446 0.00644835 0.00720905 0.00791546 0.00854815 0.0091031 0.00958482 0.0100013 0.0103601
          0.0106677 0.0109299 0.0111519 0.0113378 0.0114907 0.0116112 0.0116936 0.0117205 0.0116542 0.0114291 0.0109445 0.0100582
          0.00857168 0.0062 0.00377007 0.00386542 0.00392479 0.00394803 0.00395891 0.00400539 0.0041408 0.00440046 0.00478907 0.00528327
          0.00584384 0.00642953 0.00700629 0.00755107 0.00805117 0.00850191 0.0089033 0.0092566 0.00956467 0.00983105 0.0100594 0.0102535
          0.0104159 0.0105458 0.0106338 0.0106522 0.0105433 0.01021 0.00951226 0.0082619 0.0062 0.00403345 0.00414577 0.00423353
          0.00429446 0.00432839 0.00434735 0.00437691 0.0044488 0.00458977 0.00481297 0.00511558 0.00548201 0.00588996 0.00631636 0.00674142
          0.00715063 0.00753497 0.00788862 0.00820845 0.0084937 0.00874515 0.00896474 0.00915496 0.00931766 0.00945053 0.00953906 0.0095423
          0.00937457 0.00889451 0.00791584 0.0062 0.00444414 0.00455904 0.00464713 0.0047205 0.00477651 0.00481396 0.00483697 0.00485683
          0.00489012 0.00495405 0.00506162 0.00521847 0.00542238 0.00566495 0.00593428 0.00621781 0.00650441 0.00678516 0.00705282 0.00730244
          0.00753103 0.00773731 0.00792144 0.00808465 0.008228 0.00834837 0.00842805 0.00841341 0.00818268 0.00752342 0.0062 0.00508132
          0.00522887 0.00527704 0.0053242 0.00536715 0.00540323 0.00543044 0.00544882 0.00546147 0.00547453 0.00549587 0.00553304 0.00559149
          0.00567344 0.00577783 0.00590099 0.00603777 0.00618273 0.00633061 0.00647674 0.00661737 0.00674977 0.00687222 0.00698405 0.00708563
          0.00717778 0.00725908 0.00731633 0.00729863 0.0070551 0.0062 0.00521741 0.0062 0.0062 0.0062 0.0062 0.0062
          0.0062 0.0062 0.0062 0.0062 0.0062 0.0062 0.0062 0.0062 0.0062 0.0062 0.0062 0.0062
          0.0062 0.0062 0.0062 0.0062 0.0062 0.0062 0.0062 0.0062 0.0062 0.0062 0.0062 0.0062
          0.0062
        </DataArray>
        <DataArray type="Float32" Name="xAirg" NumberOfComponents="1" format="ascii">
          0.981808 0.981209 0.985888 0.982062 0.981132 0.98173 0.981067 0.981573 0.981006 0.981453 0.980952 0.981359
          0.980915 0.981288 0.980868 0.981221 0.980846 0.981175 0.980811 0.981129 0.980791 0.981093 0.98075 0.981047
          0.980729 0.981013 0.98071 0.980987 0.980687 0.980959 0.980672 0.980938 0.980655 0.980919 0.980638 0.980902
          0.980622 0.980886 0.980609 0.980877 0.980597 0.980874 0.980605 0.980893 0.980591 0.980911 0.980584 0.980944
          0.980603 0.981019 0.980628 0.981138 0.980663 0.981316 0.980737 0.981609 0.980799 0.982058 0.981132 0.982851
          0.982114 0.9938 0.989495 0.983956 0.982515 0.982192 0.98199 0.98184 0.981727 0.981633 0.98156 0.981496
          0.981443 0.981388 0.981341 0.981304 0.98127 0.981243 0.98122 0.9812 0.981185 0.981178 0.981182 0.98121
          0.981254 0.981323 0.98145 0.981651 0.981957 0.98244 0.983208 0.98452 0.9938 0.992407 0.986535 0.983791
          0.982981 0.982643 0.982416 0.982249 0.982116 0.98201 0.981923 0.98185 0.981781 0.98172 0.98167 0.981627
          0.981592 0.981563 0.98154 0.981523 0.981516 0.981524 0.981559 0.981622 0.981723 0.981893 0.982164 0.982577
          0.983218 0.984238 0.985944 0.9938 0.994566 0.989363 0.985675 0.984093 0.983462 0.983115 0.982873 0.982688
          0.982542 0.982423 0.982324 0.982236 0.982158 0.982092 0.982037 0.981992 0.981955 0.981926 0.981906 0.981897
          0.981906 0.981944 0.98202 0.982145 0.982351 0.982676 0.983174 0.983939 0.985143 0.987124 0.9938 0.996008
          0.992026 0.98805 0.985673 0.984549 0.983984 0.983629 0.983371 0.983172 0.983011 0.982879 0.982766 0.982667
          0.982582 0.982511 0.982452 0.982405 0.982368 0.982341 0.982328 0.982335 0.982372 0.982453 0.982593 0.982823
          0.983186 0.983746 0.984599 0.985928 0.988077 0.9938 0.996833 0.994205 0.990616 0.987739 0.986025 0.985105
          0.984565 0.984199 0.983925 0.983709 0.983534 0.983387 0.98326 0.983151 0.983059 0.982983 0.982922 0.982873
          0.982838 0.982817 0.982818 0.982849 0.982928 0.983073 0.983315 0.983699 0.984295 0.985203 0.986603 0.988834
          0.9938 0.997187 0.995736 0.992996 0.990115 0.987941 0.986576 0.985751 0.985218 0.984836 0.984544 0.98431
          0.984118 0.983955 0.983816 0.983698 0.983599 0.983519 0.983454 0.983406 0.983375 0.983365 0.983387 0.983456
          0.983594 0.983833 0.984222 0.984828 0.985758 0.987184 0.989427 0.9938 0.997229 0.996613 0.994869 0.992465
          0.990177 0.988441 0.987269 0.986493 0.985953 0.985552 0.985239 0.984985 0.984773 0.984594 0.984442 0.984315
          0.98421 0.984124 0.984058 0.984012 0.983988 0.983994 0.984047 0.984168 0.984391 0.984764 0.985358 0.986278
          0.987693 0.989895 0.9938 0.997105 0.996959 0.996078 0.994427 0.992436 0.990591 0.989137 0.988084 0.987332
          0.98678 0.986356 0.986019 0.985742 0.98551 0.985314 0.985149 0.985012 0.984899 0.984809 0.984741 0.984698
          0.984684 0.984714 0.984808 0.985001 0.985341 0.985899 0.986782 0.98815 0.990271 0.9938 0.996922 0.996958
          0.996649 0.995752 0.994346 0.992736 0.991226 0.989975 0.989006 0.988269 0.987702 0.987253 0.98689 0.986588
          0.986335 0.986122 0.985943 0.985795 0.985674 0.985579 0.985509 0.98547 0.98547 0.985529 0.98568 0.98597
          0.986472 0.98729 0.98858 0.990588 0.9938 0.99674 0.996789 0.996752 0.996403 0.995629 0.994506 0.993228
          0.99199 0.990906 0.990012 0.989292 0.988713 0.988242 0.987853 0.987528 0.987253 0.987022 0.986828 0.986668
          0.986537 0.986436 0.986364 0.986328 0.986345 0.986443 0.986669 0.987095 0.987824 0.989007 0.990871 0.9938
          0.996577 0.996573 0.996597 0.996527 0.996225 0.995628 0.994779 0.993795 0.992796 0.99187 0.99106 0.990371
          0.989793 0.989308 0.988899 0.988553 0.988259 0.98801 0.987801 0.987628 0.987486 0.987376 0.9873 0.987268
          0.987306 0.987456 0.987789 0.988406 0.989454 0.991145 0.9938 0.996418 0.996359 0.996348 0.99635 0.996284
          0.996066 0.995649 0.995049 0.994326 0.993552 0.992791 0.992085 0.991452 0.990897 0.990415 0.989999 0.98964
          0.989332 0.98907 0.988848 0.988662 0.988509 0.988389 0.988306 0.98828 0.988346 0.988571 0.989055 0.989942
          0.991428 0.9938 0.99623 0.996135 0.996075 0.996052 0.996041 0.995995 0.995859 0.9956 0.995211 0.994717
          0.994156 0.99357 0.992994 0.992449 0.991949 0.991498 0.991097 0.990743 0.990435 0.990169 0.989941 0.989747
          0.989584 0.989454 0.989366 0.989348 0.989457 0.98979 0.990488 0.991738 0.9938 0.995967 0.995854 0.995766
          0.995706 0.995672 0.995653 0.995623 0.995551 0.99541 0.995187 0.994884 0.994518 0.99411 0.993684 0.993259
          0.992849 0.992465 0.992111 0.991792 0.991506 0.991255 0.991035 0.990845 0.990682 0.990549 0.990461 0.990458
          0.990625 0.991105 0.992084 0.9938 0.995556 0.995441 0.995353 0.995279 0.995223 0.995186 0.995163 0.995143
          0.99511 0.995046 0.994938 0.994782 0.994578 0.994335 0.994066 0.993782 0.993496 0.993215 0.992947 0.992698
          0.992469 0.992263 0.992079 0.991915 0.991772 0.991652 0.991572 0.991587 0.991817 0.992477 0.9938 0.994919
          0.994771 0.994723 0.994676 0.994633 0.994597 0.99457 0.994551 0.994539 0.994525 0.994504 0.994467 0.994408
          0.994327 0.994222 0.994099 0.993962 0.993817 0.993669 0.993523 0.993383 0.99325 0.993128 0.993016 0.992914
          0.992822 0.992741 0.992684 0.992701 0.992945 0.9938 0.994783 0.9938 0.9938 0.9938 0.9938 0.9938
          0.9938 0.9938 0.9938 0.9938 0.9938 0.9938 0.9938 0.9938 0.9938 0.9938 0.9938 0.9938
          0.9938 0.9938 0.9938 0.9938 0.9938 0.9938 0.9938 0.9938 0.9938 0.9938 0.9938 0.9938
          0.9938
        </DataArray>
        <DataArray type="Float32" Name="h" NumberOfComponents="1" format="ascii">
          59113.3 60190.8 46309.4 57361.5 60374.5 58401.5 60530.6 58941.2 60669.3 59320.9 60791.8 59605.2
          60885.3 59822.1 60988.7 60013.2 61052.2 60160.5 61132.1 60298.1 61187.6 60412.8 61274.3 60537.8
          61327.3 60639.9 61377.9 60726.5 61432.3 60810.4 61473.4 60881 61515.9 60945.4 61557.6 61006.5
          61598.1 61064.3 61632.4 61116.3 61664.5 61164.3 61666 61186.7 61701 61219.5 61722.9 61235
          61703.4 61183.6 61669.3 61051.4 61616.4 60799.8 61498.2 60331.6 61393.8 59576.6 60866.3 58290.5
          59345 41569.8 35696.5 51354.7 55791.9 56951.1 57670.7 58174.3 58550.3 58856.2 59103 59316.2
          59499.5 59675.6 59831.4 59964 60084.6 60189.5 60281.9 60366.4 60444.8 60516.7 60583.6 60629.5
          60670.1 60687.1 60621.3 60422.2 60015.7 59261.7 57974.4 55817.9 41569.8 27952.5 43630.8 51666.2
          54375.3 55618.6 56428.9 57016 57473.4 57842.6 58152.5 58418.6 58660.5 58878.1 59066.9 59233.7
          59379.9 59507.3 59620.7 59723.9 59818.9 59907.5 59979.6 60037.5 60065.9 60003.5 59772.4 59263.1
          58298.8 56609.1 53773.9 41569.8 22929.9 35780.9 45911.3 50786.6 53000.7 54269.5 55146.4 55806.5
          56331.4 56764.9 57133.4 57458.8 57750.3 58006.8 58231.7 58428.3 58599.2 58749.1 58882.9 59004.9
          59118.7 59219.5 59303 59353.8 59312.5 59084.6 58529.7 57437.8 55478.2 52151.7 41569.8 20173
          29073.9 39172.2 45911.9 49538.4 51544.6 52840.4 53778.6 54507.6 55099.9 55597.5 56028.9 56411.1
          56749.3 57046.3 57305.5 57530.7 57726.7 57898.8 58053.6 58196.9 58329 58444.8 58528.5 58525.3
          58333.7 57790.7 56656.4 54554.5 50913.8 41569.8 19088.5 24240.5 32547.2 39994.1 45009.2 48041.5
          49956.3 51286.9 52290.6 53090.5 53753.2 54319.4 54815 55253 55638.8 55976 56269.1 56523.4
          56744.5 56940.3 57118.8 57285.8 57438.9 57564.7 57614.2 57487.6 57009.3 55913.9 53785.6 49989.4
          41569.8 19041.9 21425.8 27088.2 33818.8 39541.5 43601.6 46322.3 48198.6 49578.3 50653.5 51530.1
          52268.7 52907.4 53468.6 53963.6 54397.6 54775.6 55103.6 55387.6 55636 55858.4 56065.5 56260.4
          56435.1 56549 56509.7 56139.9 55155.6 53106.1 49299.4 41569.8 19505.3 20301.9 23439.9 28432.5
          33789.4 38377.8 41857 44386.6 46255.7 47693.2 48847 49806.2 50626 51340.6 51969.7 52522.9
          53006.3 53427.2 53791.6 54108.1 54387.2 54643 54885.2 55114.2 55300.3 55363.7 55134.4 54319.2
          52438.1 48750 41569.8 20097.2 20293.8 21651.6 24644.8 28729.8 33000.5 36793.9 39862.5 42255.9
          44127.6 45626.4 46861.8 47907.6 48812.1 49605.2 50303.7 50916.4 51452.4 51918.4 52322.7 52675.9
          52994 53292.4 53581.1 53844.5 54019.2 53950.3 53346.5 51710.1 48260.5 41569.8 20649.5 20827.8
          21306.8 22726.9 25223.3 28435.4 31833.8 34997.2 37723 39985.6 41849.4 43399.6 44711.5 45842
          46830.5 47702 48469.5 49144.7 49735.7 50250.7 50699.8 51099.1 51467.7 51824.5 52169.1 52458
          52557.8 52190.6 50856.2 47750.7 41569.8 21137 21520 21798.7 22372.3 23583.4 25499.1 27933.8
          30589.5 33196.3 35583.9 37686.3 39506.6 41080 42448.9 43651.4 44715.8 45659.2 46494.9 47232.6
          47881.1 48449.4 48952.1 49409.5 49846.4 50276.8 50678.9 50946.6 50827.1 49836.3 47168.4 41569.8
          21663.1 22243.2 22643.9 22994.2 23530.2 24450 25822 27580.5 29578 31650.8 33668.2 35550.6
          37264.6 38807.5 40192.4 41437 42554.7 43556.5 44451.5 45247.7 45952.7 46578.5 47143.3 47673.6
          48194 48704 49129.6 49254.3 48629 46473.6 41569.8 22353.6 23074.7 23650.8 24091.7 24476.9
          24934.5 25587.1 26506.8 27699.2 29112.8 30665.3 32270.8 33859 35382.6 36816.2 38150.6 39383.2
          40513.2 41542.6 42474.8 43313.6 44066.5 44746.3 45375.9 45983.8 46587.8 47149.2 47500 47245.7
          45658.9 41569.8 23387.8 24211.9 24913.9 25497.5 25972.8 26376.6 26771.8 27231.6 27819.2 28571.5
          29493.2 30560.3 31731.6 32961 34206.7 35437.5 36632.4 37773.5 38848.4 39849.9 40773.6 41619.2
          42391 43102.6 43777.7 44443.4 45095.4 45627.1 45721.1 44731.9 41569.8 25004.7 25935.1 26715.2
          27385.4 27959.2 28444.4 28853.6 29212 29557.3 29933.7 30381.5 30928.7 31585.8 32346.5 33192.2
          34099 35043.7 36003.4 36956.1 37883.9 38772.7 39612.4 40396.9 41127 41813.7 42479.4 43142.6
          43764 44135.7 43730 41569.8 27715.1 28735 29518.3 30188.1 30768.9 31275.5 31714.3 32088.5
          32404.8 32677.7 32930.4 33191.3 33487.9 33841.8 34264.5 34757.7 35315.2 35926.9 36577.9 37251.8
          37932.7 38606 39259.4 39883.8 40476.3 41043.9 41604.6 42166.2 42650.5 42722.7 41569.8 32297.5
          33647.8 34164.5 34629 35041.6 35408.6 35735.3 36024.2 36275.1 36488.3 36666.4 36817.4 36953.5
          37089.7 37241 37419 37631.1 37879.7 38164.3 38480.2 38820.6 39177.1 39540.9 39903.7 40258.2
          40600.6 40933.8 41269.7 41611.3 41865.9 41569.8 33197.8 41569.8 41569.8 41569.8 41569.8 41569.8
          41569.8 41569.8 41569.8 41569.8 41569.8 41569.8 41569.8 41569.8 41569.8 41569.8 41569.8 41569.8
          41569.8 41569.8 41569.8 41569.8 41569.8 41569.8 41569.8 41569.8 41569.8 41569.8 41569.8 41569.8
          41569.8
        </DataArray>
        <DataArray type="Float32" Name="rho" NumberOfComponents="1" format="ascii">
          2.42989 2.42813 2.48533 2.44061 2.42755 2.4362 2.42707 2.43376 2.42666 2.43214 2.42631 2.43099
          2.426 2.43009 2.42572 2.42935 2.42547 2.42873 2.42524 2.42817 2.42503 2.42768 2.42481 2.42722
          2.42463 2.42681 2.42446 2.42644 2.42429 2.42609 2.42414 2.42578 2.424 2.42549 2.42386 2.42522
          2.42373 2.42494 2.42361 2.42464 2.42349 2.42431 2.42339 2.42393 2.42328 2.42349 2.42318 2.42302
          2.42313 2.4226 2.42312 2.42232 2.42314 2.42232 2.42325 2.42273 2.42337 2.42365 2.4238 2.4249
          2.42481 2.43492 2.53115 2.46671 2.44783 2.44236 2.43901 2.43676 2.43509 2.43376 2.43266 2.43172
          2.43088 2.43013 2.42945 2.42883 2.42827 2.42777 2.42731 2.42688 2.42644 2.42597 2.42542 2.42476
          2.42398 2.4231 2.42224 2.42158 2.42139 2.42193 2.42346 2.42577 2.43492 2.56278 2.49966 2.46607
          2.45374 2.44777 2.44396 2.44125 2.43916 2.43746 2.43602 2.43477 2.43366 2.43265 2.43174 2.43093
          2.43019 2.42953 2.42891 2.4283 2.42765 2.42689 2.42596 2.42483 2.42352 2.42216 2.421 2.42043
          2.42087 2.42277 2.42603 2.43492 2.58071 2.53197 2.49093 2.46968 2.45921 2.4531 2.44892 2.44582
          2.44334 2.44129 2.43952 2.43796 2.43656 2.4353 2.43417 2.43315 2.43224 2.4314 2.43059 2.42975
          2.42879 2.42761 2.42615 2.4244 2.4225 2.42073 2.41958 2.41966 2.42163 2.4257 2.43492 2.58766
          2.55765 2.51891 2.49094 2.4745 2.46489 2.45862 2.45411 2.45062 2.44777 2.44535 2.44324 2.44136
          2.43967 2.43815 2.43679 2.43557 2.43447 2.43343 2.43238 2.43121 2.4298 2.42803 2.42587 2.42341
          2.42094 2.41905 2.41849 2.42021 2.42487 2.43492 2.58731 2.57358 2.54461 2.51571 2.49426 2.48023
          2.47101 2.46455 2.45967 2.45578 2.45253 2.44973 2.44726 2.44504 2.44305 2.44127 2.43968 2.43824
          2.43692 2.43563 2.43425 2.43262 2.43059 2.42805 2.42506 2.42186 2.41909 2.41765 2.41879 2.42377
          2.43492 2.58345 2.5799 2.56326 2.53972 2.51712 2.49944 2.48676 2.47771 2.47099 2.46572 2.4614
          2.45772 2.45451 2.45165 2.44909 2.44679 2.44473 2.44289 2.44121 2.43963 2.43802 2.43618 2.43392
          2.43108 2.4276 2.4237 2.41996 2.41744 2.41771 2.42264 2.43492 2.57885 2.57924 2.57263 2.55797
          2.53924 2.52101 2.50579 2.49402 2.48503 2.47801 2.47231 2.46753 2.4634 2.45975 2.45648 2.45355
          2.45093 2.44858 2.44647 2.44452 2.44261 2.44056 2.43811 2.43501 2.43115 2.42661 2.42193 2.41822
          2.41733 2.42179 2.43492 2.57513 2.57516 2.57381 2.56742 2.55576 2.54107 2.52613 2.51284 2.50181
          2.49287 2.48556 2.47944 2.47418 2.46957 2.46546 2.46178 2.45847 2.45551 2.45284 2.45043 2.44815
          2.44582 2.44317 2.43989 2.43575 2.43069 2.42515 2.42022 2.41796 2.42148 2.43492 2.57248 2.57048
          2.56999 2.56832 2.56338 2.55475 2.54353 2.53145 2.51993 2.50972 2.50093 2.49342 2.48692 2.48122
          2.47614 2.47158 2.46747 2.46377 2.46045 2.45744 2.45468 2.45198 2.4491 2.44566 2.44132 2.43591
          2.42966 2.42359 2.41985 2.42197 2.43492 2.57039 2.56645 2.56447 2.56364 2.56233 2.55909 2.55325
          2.54515 2.53576 2.52613 2.51695 2.50858 2.50107 2.49434 2.48828 2.4828 2.47782 2.47331 2.46923
          2.46553 2.46216 2.45899 2.45577 2.45216 2.4477 2.44208 2.43534 2.42831 2.42307 2.4234 2.43492
          2.56775 2.56273 2.55897 2.55676 2.55571 2.55485 2.55308 2.54961 2.54431 2.53756 2.53001 2.52225
          2.51469 2.50753 2.50084 2.49464 2.4889 2.48362 2.47877 2.47433 2.47028 2.46653 2.4629 2.45905
          2.45453 2.44887 2.44188 2.43414 2.42753 2.42579 2.43492 2.56362 2.55807 2.55322 2.54939 2.54685
          2.54551 2.54483 2.54402 2.54236 2.53941 2.53515 2.52985 2.52388 2.5176 2.51126 2.50504 2.49903
          2.49331 2.48793 2.4829 2.47824 2.47392 2.46983 2.46573 2.4612 2.45569 2.44878 2.44069 2.43294
          2.42902 2.43492 2.55689 2.5509 2.54557 2.54085 2.53692 2.53403 2.53226 2.5314 2.53097 2.53037
          2.52913 2.52696 2.52382 2.51985 2.51525 2.51023 2.50497 2.49963 2.49435 2.48922 2.48432 2.47968
          2.4753 2.47105 2.46664 2.46154 2.45516 2.44728 2.43885 2.43285 2.43492 2.54608 2.53944 2.53383
          2.52886 2.52441 2.52054 2.51745 2.51528 2.51402 2.51346 2.51322 2.51289 2.51213 2.51072 2.50859
          2.50579 2.50239 2.49854 2.49438 2.49005 2.48568 2.48135 2.47716 2.47312 2.4691 2.46477 2.45952
          2.45273 2.44448 2.43688 2.43492 2.52782 2.52056 2.51501 2.51027 2.50608 2.50231 2.49894 2.49608
          2.49386 2.49234 2.4915 2.49114 2.49104 2.4909 2.49051 2.4897 2.48841 2.4866 2.48434 2.48169
          2.47876 2.47564 2.47245 2.46926 2.46612 2.46292 2.45934 2.45471 2.44832 2.44046 2.43492 2.49693
          2.48752 2.48385 2.4806 2.47773 2.47516 2.47282 2.47069 2.46881 2.46724 2.46604 2.46525 2.46481
          2.46464 2.46459 2.46454 2.46438 2.46401 2.46338 2.46249 2.46134 2.45997 2.45843 2.45679 2.4551
          2.4534 2.45166 2.44963 2.44673 2.44203 2.43492 2.49108 2.43492 2.43492 2.43492 2.43492 2.43492
          2.43492 2.43492 2.43492 2.43492 2.43492 2.43492 2.43492 2.43492 2.43492 2.43492 2.43492 2.43492
          2.43492 2.43492 2.43492 2.43492 2.43492 2.43492 2.43492 2.43492 2.43492 2.43492 2.43492 2.43492
          2.43492
        </DataArray>
        <DataArray type="Float32" Name="mu" NumberOfComponents="1" format="ascii">
          1.85339e-05 1.85411e-05 1.82348e-05 1.84724e-05 1.85441e-05 1.84964e-05 1.85466e-05 1.85099e-05 1.85486e-05 1.85188e-05 1.85504e-05 1.8525e-05
          1.8552e-05 1.85299e-05 1.85535e-05 1.85339e-05 1.85548e-05 1.85374e-05 1.8556e-05 1.85404e-05 1.85571e-05 1.85431e-05 1.85582e-05 1.85456e-05
          1.85591e-05 1.85478e-05 1.85601e-05 1.85499e-05 1.85609e-05 1.85517e-05 1.85617e-05 1.85535e-05 1.85625e-05 1.85551e-05 1.85632e-05 1.85566e-05
          1.85639e-05 1.85582e-05 1.85645e-05 1.85599e-05 1.85652e-05 1.85618e-05 1.85658e-05 1.85641e-05 1.85664e-05 1.85669e-05 1.85669e-05 1.85698e-05
          1.85673e-05 1.85727e-05 1.85675e-05 1.8575e-05 1.85676e-05 1.8576e-05 1.85674e-05 1.85752e-05 1.85669e-05 1.85722e-05 1.85662e-05 1.8569e-05
          1.85656e-05 1.85693e-05 1.79966e-05 1.83311e-05 1.84327e-05 1.84628e-05 1.84813e-05 1.84937e-05 1.85029e-05 1.85102e-05 1.85163e-05 1.85215e-05
          1.85261e-05 1.85303e-05 1.8534e-05 1.85375e-05 1.85406e-05 1.85434e-05 1.8546e-05 1.85484e-05 1.85509e-05 1.85537e-05 1.85569e-05 1.85609e-05
          1.85658e-05 1.85714e-05 1.85772e-05 1.85822e-05 1.8585e-05 1.85844e-05 1.85795e-05 1.8573e-05 1.85693e-05 1.78384e-05 1.8157e-05 1.83338e-05
          1.84008e-05 1.84337e-05 1.84547e-05 1.84697e-05 1.84812e-05 1.84906e-05 1.84985e-05 1.85055e-05 1.85116e-05 1.85172e-05 1.85223e-05 1.85269e-05
          1.8531e-05 1.85348e-05 1.85383e-05 1.85418e-05 1.85456e-05 1.85501e-05 1.85558e-05 1.85628e-05 1.85711e-05 1.85801e-05 1.85884e-05 1.8594e-05
          1.85949e-05 1.85892e-05 1.85791e-05 1.85693e-05 1.77528e-05 1.79914e-05 1.82018e-05 1.83147e-05 1.83717e-05 1.84052e-05 1.84282e-05 1.84453e-05
          1.8459e-05 1.84703e-05 1.84802e-05 1.84888e-05 1.84966e-05 1.85036e-05 1.851e-05 1.85157e-05 1.85209e-05 1.85257e-05 1.85303e-05 1.85352e-05
          1.8541e-05 1.85481e-05 1.85572e-05 1.85682e-05 1.85805e-05 1.85928e-05 1.86023e-05 1.8606e-05 1.86009e-05 1.85875e-05 1.85693e-05 1.7723e-05
          1.78644e-05 1.8057e-05 1.82017e-05 1.82895e-05 1.83417e-05 1.8376e-05 1.84007e-05 1.842e-05 1.84357e-05 1.84491e-05 1.84608e-05 1.84712e-05
          1.84807e-05 1.84892e-05 1.84968e-05 1.85037e-05 1.851e-05 1.8516e-05 1.85221e-05 1.8529e-05 1.85375e-05 1.85484e-05 1.85619e-05 1.85777e-05
          1.85943e-05 1.86086e-05 1.86165e-05 1.86135e-05 1.85976e-05 1.85693e-05 1.77292e-05 1.77893e-05 1.79283e-05 1.80733e-05 1.81848e-05 1.82597e-05
          1.83096e-05 1.83448e-05 1.83715e-05 1.83929e-05 1.84108e-05 1.84263e-05 1.844e-05 1.84523e-05 1.84635e-05 1.84735e-05 1.84825e-05 1.84906e-05
          1.84982e-05 1.85056e-05 1.85137e-05 1.85235e-05 1.85359e-05 1.85516e-05 1.85706e-05 1.85916e-05 1.86113e-05 1.86248e-05 1.86256e-05 1.86082e-05
          1.85693e-05 1.77518e-05 1.77633e-05 1.78389e-05 1.79526e-05 1.80664e-05 1.81585e-05 1.82259e-05 1.82747e-05 1.83112e-05 1.83399e-05 1.83636e-05
          1.83838e-05 1.84016e-05 1.84174e-05 1.84317e-05 1.84446e-05 1.84561e-05 1.84666e-05 1.84761e-05 1.84852e-05 1.84946e-05 1.85055e-05 1.85191e-05
          1.85366e-05 1.85584e-05 1.85836e-05 1.8609e-05 1.8629e-05 1.86352e-05 1.86181e-05 1.85693e-05 1.77768e-05 1.77714e-05 1.7798e-05 1.78649e-05
          1.79555e-05 1.80474e-05 1.81264e-05 1.81887e-05 1.82368e-05 1.82748e-05 1.83057e-05 1.83318e-05 1.83545e-05 1.83747e-05 1.83928e-05 1.84091e-05
          1.84237e-05 1.8437e-05 1.84489e-05 1.846e-05 1.8471e-05 1.84831e-05 1.84978e-05 1.85166e-05 1.85405e-05 1.85693e-05 1.86002e-05 1.86273e-05
          1.86403e-05 1.86257e-05 1.85693e-05 1.77962e-05 1.77953e-05 1.77979e-05 1.78238e-05 1.78768e-05 1.79476e-05 1.80226e-05 1.80911e-05 1.81491e-05
          1.81967e-05 1.8236e-05 1.82691e-05 1.82977e-05 1.83229e-05 1.83455e-05 1.83659e-05 1.83843e-05 1.84009e-05 1.84158e-05 1.84295e-05 1.84426e-05
          1.84561e-05 1.84717e-05 1.84914e-05 1.85168e-05 1.85483e-05 1.85841e-05 1.86181e-05 1.8639e-05 1.86296e-05 1.85693e-05 1.78095e-05 1.78206e-05
          1.78216e-05 1.7826e-05 1.78454e-05 1.78839e-05 1.79374e-05 1.79975e-05 1.80564e-05 1.81096e-05 1.8156e-05 1.81961e-05 1.82311e-05 1.8262e-05
          1.82897e-05 1.83147e-05 1.83373e-05 1.83579e-05 1.83764e-05 1.83933e-05 1.8409e-05 1.84244e-05 1.84412e-05 1.84616e-05 1.84877e-05 1.85211e-05
          1.85606e-05 1.86009e-05 1.86301e-05 1.86284e-05 1.85693e-05 1.78199e-05 1.78416e-05 1.78521e-05 1.78548e-05 1.78578e-05 1.78695e-05 1.78947e-05
          1.79326e-05 1.79786e-05 1.80273e-05 1.80745e-05 1.81184e-05 1.81582e-05 1.81941e-05 1.82268e-05 1.82565e-05 1.82837e-05 1.83085e-05 1.83311e-05
          1.83517e-05 1.83706e-05 1.83886e-05 1.8407e-05 1.84281e-05 1.84546e-05 1.84887e-05 1.85305e-05 1.85759e-05 1.86133e-05 1.86215e-05 1.85693e-05
          1.78334e-05 1.78606e-05 1.78813e-05 1.78929e-05 1.78971e-05 1.78986e-05 1.79039e-05 1.79176e-05 1.79415e-05 1.79738e-05 1.80112e-05 1.80507e-05
          1.80899e-05 1.81275e-05 1.81629e-05 1.81962e-05 1.82271e-05 1.82559e-05 1.82825e-05 1.83069e-05 1.83294e-05 1.83504e-05 1.8371e-05 1.83931e-05
          1.84195e-05 1.84533e-05 1.84959e-05 1.85447e-05 1.85893e-05 1.86088e-05 1.85693e-05 1.7855e-05 1.78849e-05 1.79114e-05 1.79323e-05 1.79459e-05
          1.79522e-05 1.79537e-05 1.7955e-05 1.79603e-05 1.79725e-05 1.7992e-05 1.80176e-05 1.80474e-05 1.80795e-05 1.81124e-05 1.81451e-05 1.81771e-05
          1.82078e-05 1.8237e-05 1.82645e-05 1.82901e-05 1.83141e-05 1.83369e-05 1.83601e-05 1.83861e-05 1.84184e-05 1.84598e-05 1.85097e-05 1.856e-05
          1.85913e-05 1.85693e-05 1.78907e-05 1.79229e-05 1.79519e-05 1.79778e-05 1.79994e-05 1.80151e-05 1.80242e-05 1.80276e-05 1.8028e-05 1.80286e-05
          1.80326e-05 1.80415e-05 1.80559e-05 1.80751e-05 1.80982e-05 1.81239e-05 1.81514e-05 1.81796e-05 1.82078e-05 1.82355e-05 1.82622e-05 1.82877e-05
          1.83119e-05 1.83356e-05 1.83605e-05 1.83899e-05 1.84274e-05 1.84751e-05 1.85282e-05 1.85703e-05 1.85693e-05 1.79485e-05 1.79845e-05 1.8015e-05
          1.80423e-05 1.80669e-05 1.80883e-05 1.81054e-05 1.81172e-05 1.81235e-05 1.81255e-05 1.81252e-05 1.81251e-05 1.81272e-05 1.81328e-05 1.81425e-05
          1.81561e-05 1.81732e-05 1.8193e-05 1.82149e-05 1.8238e-05 1.82615e-05 1.8285e-05 1.8308e-05 1.83303e-05 1.83527e-05 1.83772e-05 1.84075e-05
          1.84479e-05 1.84986e-05 1.85485e-05 1.85693e-05 1.80473e-05 1.80871e-05 1.81176e-05 1.81439e-05 1.81671e-05 1.81882e-05 1.82071e-05 1.82232e-05
          1.82356e-05 1.82439e-05 1.82481e-05 1.82493e-05 1.82488e-05 1.82483e-05 1.82491e-05 1.82521e-05 1.8258e-05 1.82667e-05 1.82782e-05 1.8292e-05
          1.83076e-05 1.83243e-05 1.83417e-05 1.83591e-05 1.83765e-05 1.83943e-05 1.84146e-05 1.84415e-05 1.848e-05 1.85296e-05 1.85693e-05 1.82172e-05
          1.82698e-05 1.82906e-05 1.83089e-05 1.83251e-05 1.83396e-05 1.83529e-05 1.83651e-05 1.83758e-05 1.83848e-05 1.83916e-05 1.8396e-05 1.83982e-05
          1.83988e-05 1.83985e-05 1.83981e-05 1.83983e-05 1.83997e-05 1.84025e-05 1.84069e-05 1.84128e-05 1.842e-05 1.84283e-05 1.84372e-05 1.84465e-05
          1.84558e-05 1.84655e-05 1.8477e-05 1.84941e-05 1.85229e-05 1.85693e-05 1.82497e-05 1.85693e-05 1.85693e-05 1.85693e-05 1.85693e-05 1.85693e-05
          1.85693e-05 1.85693e-05 1.85693e-05 1.85693e-05 1.85693e-05 1.85693e-05 1.85693e-05 1.85693e-05 1.85693e-05 1.85693e-05 1.85693e-05 1.85693e-05
          1.85693e-05 1.85693e-05 1.85693e-05 1.85693e-05 1.85693e-05 1.85693e-05 1.85693e-05 1.85693e-05 1.85693e-05 1.85693e-05 1.85693e-05 1.85693e-05
          1.85693e-05
        </DataArray>
        <DataArray type="Float32" Name="v" NumberOfComponents="3" format="ascii">
          0.00243032 0.000590438 0 0.00134825 2.36257e-06 0 0.01 0 0 0.00647652 0.000615006 0
          0.000346411 6.43191e-05 0 0.00265085 0.00024861 0 0.000367436 3.78767e-05 0 0.00212771 5.31859e-05 0
          0.000244019 3.24093e-05 0 0.00149124 7.40758e-05 0 0.000215485 2.67948e-05 0 0.0012949 3.59039e-05 0
          0.000180834 2.21638e-05 0 0.00108425 3.19945e-05 0 0.000165894 1.98011e-05 0 0.000992955 2.23893e-05 0
          0.000151251 1.63e-05 0 0.000903243 1.76243e-05 0 0.000144195 1.49793e-05 0 0.000859495 1.38161e-05 0
          0.000137173 1.22955e-05 0 0.000816963 1.02916e-05 0 0.000134053 1.18473e-05 0 0.000796833 8.76067e-06 0
          0.000130536 1.01141e-05 0 0.000776084 6.51143e-06 0 0.000129542 9.10724e-06 0 0.000768781 5.01378e-06 0
          0.000127742 8.60417e-06 0 0.000758785 4.10488e-06 0 0.000128197 7.82778e-06 0 0.0007602 3.07816e-06 0
          0.00012741 7.58356e-06 0 0.000756833 2.39092e-06 0 0.00012931 7.50087e-06 0 0.000766682 2.11341e-06 0
          0.0001295 7.89858e-06 0 0.000769917 1.80566e-06 0 0.000133592 8.55632e-06 0 0.000792418 2.21832e-06 0
          0.000135301 1.06756e-05 0 0.000805809 2.93835e-06 0 0.000143612 1.24841e-05 0 0.000852656 4.39462e-06 0
          0.000148191 1.76923e-05 0 0.000884665 6.49962e-06 0 0.000165458 2.49632e-05 0 0.000983575 1.35593e-05 0
          0.000175637 3.53139e-05 0 0.00105328 1.50372e-05 0 0.000216118 5.09229e-05 0 0.001282 3.56207e-05 0
          0.000231943 7.88317e-05 0 0.0014277 1.99643e-05 0 0.000374632 0.000102258 0 0.00210237 0.000116902 0
          0.000297833 0.000254928 0 0.00246183 -0.00011238 0 0.00137703 -0.000142263 0 0.006214 0.000277945 0
          0.00266145 0.00574818 0 0.01 0 0 0.01 0 0 0.00804626 0.00222981 0
          0.0049555 0.00101827 0 0.00362038 0.000232211 0 0.00280634 0.000251937 0 0.00237581 0.000107081 0
          0.00205586 9.28573e-05 0 0.00186861 5.34673e-05 0 0.0017219 4.12479e-05 0 0.00163352 2.6266e-05 0
          0.00156194 1.84426e-05 0 0.00152062 1.18944e-05 0 0.00148575 7.10419e-06 0 0.0014693 3.26349e-06 0
          0.00145356 4.34002e-07 0 0.0014532 -1.88443e-06 0 0.00145009 -4.57138e-06 0 0.00146451 -5.97206e-06 0
          0.00147481 -9.39365e-06 0 0.00151052 -1.05109e-05 0 0.00154221 -1.58926e-05 0 0.00161733 -1.68808e-05 0
          0.00168954 -2.80284e-05 0 0.00184497 -2.47788e-05 0 0.00200324 -5.73142e-05 0 0.00233977 -3.72172e-05 0
          0.00270337 -0.000169001 0 0.00354532 -4.86097e-05 0 0.0046616 -0.000834576 0 0.00768836 -0.00130818 0
          0.01 0 0 0.01 0 0 0.00925374 0.00247599 0 0.00720476 0.00155494 0
          0.00535367 0.000600656 0 0.00424509 0.000428756 0 0.00360566 0.000234747 0 0.00313511 0.000171058 0
          0.00285328 0.000106402 0 0.00263202 7.59476e-05 0 0.00249698 4.85279e-05 0 0.00238808 3.22856e-05 0
          0.00232376 1.93831e-05 0 0.00227064 1.01349e-05 0 0.00224414 2.96306e-06 0 0.00222087 -2.81129e-06 0
          0.00221873 -7.2856e-06 0 0.00221562 -1.27189e-05 0 0.00223593 -1.6365e-05 0 0.00225416 -2.37157e-05 0
          0.00230641 -2.836e-05 0 0.0023583 -4.0863e-05 0 0.00246866 -4.85815e-05 0 0.00258377 -7.36157e-05 0
          0.00281054 -8.53849e-05 0 0.00305809 -0.000145809 0 0.00353716 -0.000166602 0 0.00410277 -0.000352535 0
          0.00520497 -0.00039795 0 0.00684526 -0.00132012 0 0.00887329 -0.00160939 0 0.01 0 0
          0.01 0 0 0.0097218 0.00338861 0 0.0084186 0.00240776 0 0.00676212 0.00116925 0
          0.00557612 0.000784791 0 0.00479465 0.000449383 0 0.00423984 0.00032443 0 0.00387035 0.000202513 0
          0.00359751 0.000145446 0 0.00341551 9.2456e-05 0 0.00327811 6.27022e-05 0 0.00318958 3.72925e-05 0
          0.00312207 2.04692e-05 0 0.00308413 6.80506e-06 0 0.00305545 -4.1687e-06 0 0.00304985 -1.27703e-05 0
          0.00304834 -2.32891e-05 0 0.003072 -3.09722e-05 0 0.00309984 -4.57667e-05 0 0.00316393 -5.63908e-05 0
          0.00323799 -8.25616e-05 0 0.00337342 -0.000100994 0 0.00353334 -0.000153566 0 0.00380648 -0.00018687 0
          0.00413958 -0.000307215 0 0.00469333 -0.000377664 0 0.00540074 -0.000704858 0 0.0065594 -0.000931303 0
          0.00805876 -0.00209419 0 0.00937968 -0.00255552 0 0.01 0 0 0.01 0 0
          0.0101972 0.00311938 0 0.00963955 0.0027962 0 0.00818424 0.00171044 0 0.00698048 0.00113639 0
          0.00608807 0.000716512 0 0.00543675 0.000500483 0 0.00498845 0.000330302 0 0.00465212 0.000231937 0
          0.00442502 0.000153098 0 0.00425159 0.000102926 0 0.00413895 6.34364e-05 0 0.00405257 3.55769e-05 0
          0.00400334 1.3887e-05 0 0.00396669 -4.17955e-06 0 0.00395858 -1.84601e-05 0 0.00395733 -3.53401e-05 0
          0.00398657 -4.91751e-05 0 0.00402329 -7.25354e-05 0 0.00410341 -9.28199e-05 0 0.00419883 -0.000133494 0
          0.00436648 -0.000169931 0 0.00456856 -0.000248859 0 0.00489932 -0.000319187 0 0.00530892 -0.000487405 0
          0.00594879 -0.000639444 0 0.00677109 -0.00104382 0 0.00793647 -0.00143706 0 0.00929825 -0.00243841 0
          0.00990224 -0.00241067 0 0.01 0 0 0.01 0 0 0.0102359 0.0035044 0
          0.0100603 0.00337955 0 0.00910167 0.00236721 0 0.00809583 0.00164826 0 0.00723822 0.00108157 0
          0.00658019 0.000766471 0 0.0060926 0.000514382 0 0.00572836 0.000365768 0 0.005468 0.000244425 0
          0.00527376 0.000167514 0 0.00514055 0.000105359 0 0.00504218 6.22109e-05 0 0.00498206 2.77538e-05 0
          0.00494068 -6.6935e-07 0 0.00492861 -2.3719e-05 0 0.00492899 -5.04044e-05 0 0.00496025 -7.31519e-05 0
          0.00500575 -0.000110073 0 0.00509443 -0.000143522 0 0.00520839 -0.000207382 0 0.00539233 -0.000266938 0
          0.00562622 -0.000388568 0 0.00597872 -0.000502954 0 0.00642872 -0.000750875 0 0.0070686 -0.000989534 0
          0.00787095 -0.00152724 0 0.0088472 -0.0020508 0 0.00977762 -0.00298522 0 0.0100098 -0.00288692 0
          0.01 0 0 0.01 0 0 0.0104086 0.00295263 0 0.0106125 0.00340523 0
          0.0099974 0.00276013 0 0.00920916 0.00205148 0 0.0084173 0.00144566 0 0.00776991 0.00103638 0
          0.00726184 0.000724055 0 0.00687092 0.000515326 0 0.00658474 0.000354879 0 0.00636721 0.000243964 0
          0.0062163 0.000158428 0 0.00610327 9.56316e-05 0 0.00603366 4.67643e-05 0 0.00598536 5.41844e-06 0
          0.00597067 -2.84619e-05 0 0.00597087 -6.65668e-05 0 0.00600598 -0.000101166 0 0.00605823 -0.000152605 0
          0.00615791 -0.000203919 0 0.0062868 -0.000290495 0 0.00648936 -0.000380894 0 0.00674696 -0.000539528 0
          0.00712026 -0.000708604 0 0.00759245 -0.00101053 0 0.0082181 -0.0013342 0 0.00897281 -0.00189955 0
          0.00974199 -0.00242875 0 0.0103762 -0.00303347 0 0.010233 -0.0024833 0 0.01 0 0
          0.01 0 0 0.0103085 0.00303766 0 0.0106178 0.00362297 0 0.0104048 0.00319982 0
          0.00992087 0.00252934 0 0.00933188 0.00187168 0 0.00879324 0.00138204 0 0.00833451 0.000988021 0
          0.00796793 0.000715501 0 0.00768517 0.000500423 0 0.00746889 0.00035006 0 0.00731213 0.000231643 0
          0.00719622 0.000144587 0 0.00712098 7.54748e-05 0 0.00707095 1.71921e-05 0 0.00705282 -3.15227e-05 0
          0.00705376 -8.53606e-05 0 0.00708745 -0.000135269 0 0.00714306 -0.000207169 0 0.00724181 -0.000280092 0
          0.00737495 -0.000398578 0 0.00757181 -0.000523853 0 0.00782626 -0.000733742 0 0.00817147 -0.000959007 0
          0.00860133 -0.00133439 0 0.00912119 -0.00173099 0 0.00969613 -0.00234369 0 0.0101776 -0.00286408 0
          0.0104463 -0.00327662 0 0.0101904 -0.00266147 0 0.01 0 0 0.01 0 0
          0.0103651 0.00240797 0 0.0108229 0.00331632 0 0.0108563 0.00323683 0 0.0106305 0.00274879 0
          0.0102211 0.0021723 0 0.00980311 0.00166161 0 0.00941024 0.00123472 0 0.00908058 0.000908186 0
          0.00881412 0.000652153 0 0.00860421 0.00046095 0 0.00844829 0.000312877 0 0.00833058 0.000199054 0
          0.00825306 0.000109565 0 0.00820051 3.25825e-05 0 0.00818055 -3.24153e-05 0 0.00818022 -0.000102714 0
          0.00821302 -0.000170297 0 0.00826823 -0.000261727 0 0.00836504 -0.00035932 0 0.00849537 -0.000504843 0
          0.00868207 -0.000667049 0 0.00892066 -0.000912163 0 0.00922682 -0.0011864 0 0.00959754 -0.00158776 0
          0.0099992 -0.00201156 0 0.0104111 -0.00255264 0 0.0106462 -0.00293746 0 0.0106891 -0.00303591 0
          0.0102802 -0.00215228 0 0.01 0 0 0.01 0 0 0.0102504 0.00235601 0
          0.0106797 0.00324851 0 0.0109244 0.00333669 0 0.0109451 0.00297518 0 0.0107836 0.00246139 0
          0.0105479 0.00195465 0 0.0102891 0.00149789 0 0.0100501 0.00112917 0 0.00984259 0.000827315 0
          0.0096721 0.00059596 0 0.00953887 0.000412127 0 0.00943684 0.000269143 0 0.00936604 0.000154516 0
          0.00931847 5.57062e-05 0 0.00929725 -2.90604e-05 0 0.00929567 -0.00011954 0 0.0093206 -0.000207343 0
          0.00936755 -0.000323001 0 0.00944588 -0.000446733 0 0.00955381 -0.000625003 0 0.0096994 -0.000822716 0
          0.00988292 -0.00110852 0 0.0100992 -0.00142249 0 0.0103443 -0.00185281 0 0.0105681 -0.00228601 0
          0.0107479 -0.00277686 0 0.0107493 -0.00307097 0 0.0105906 -0.00301238 0 0.0101999 -0.00216041 0
          0.01 0 0 0.01 0 0 0.0102713 0.00175803 0 0.0107394 0.00273538 0
          0.0111001 0.00301968 0 0.0113035 0.00285849 0 0.0113241 0.00249486 0 0.0112505 0.00206401 0
          0.0111143 0.00164586 0 0.010969 0.00127526 0 0.0108268 0.000961948 0 0.010703 0.000706105 0
          0.0106001 0.000500414 0 0.0105182 0.000333761 0 0.0104589 0.000199426 0 0.0104173 8.15978e-05 0
          0.0103968 -2.06176e-05 0 0.0103922 -0.000127962 0 0.0104086 -0.000234201 0 0.0104427 -0.000367612 0
          0.0104991 -0.000513547 0 0.0105771 -0.000710492 0 0.0106754 -0.000932369 0 0.010796 -0.00122822 0
          0.0109178 -0.00155174 0 0.0110438 -0.00195017 0 0.0111074 -0.00232963 0 0.0111148 -0.00268374 0
          0.0109414 -0.0028107 0 0.010668 -0.00256236 0 0.0102342 -0.00163834 0 0.01 0 0
          0.01 0 0 0.0101831 0.00164364 0 0.0105833 0.00249023 0 0.0110066 0.00282248 0
          0.011339 0.00275831 0 0.0115466 0.00248907 0 0.0116477 0.00212443 0 0.0116711 0.00174438 0
          0.0116512 0.00138934 0 0.0116085 0.00107489 0 0.0115591 0.000808448 0 0.0115105 0.000586396 0
          0.0114674 0.000401976 0 0.0114321 0.000249538 0 0.0114053 0.000114377 0 0.0113878 -4.54939e-06 0
          0.0113798 -0.000128541 0 0.0113807 -0.000251464 0 0.0113917 -0.000402245 0 0.0114093 -0.000565901 0
          0.0114357 -0.000779623 0 0.0114598 -0.00101632 0 0.011484 -0.0013182 0 0.0114809 -0.00163787 0
          0.0114523 -0.00200604 0 0.0113461 -0.00233525 0 0.011174 -0.00260027 0 0.0108758 -0.00264789 0
          0.0105323 -0.00234777 0 0.01016 -0.00155019 0 0.01 0 0 0.01 0 0
          0.0101957 0.00110516 0 0.0105934 0.00187588 0 0.0110413 0.00225385 0 0.0114525 0.00231441 0
          0.0117693 0.00217668 0 0.0119975 0.00192365 0 0.012139 0.00163057 0 0.0122243 0.00133433 0
          0.0122654 0.00106164 0 0.0122836 0.000818503 0 0.012285 0.000610476 0 0.0122795 0.000430562 0
          0.0122687 0.000278546 0 0.0122571 0.000140614 0 0.012244 1.71037e-05 0 0.0122322 -0.000110779 0
          0.0122184 -0.00023892 0 0.0122055 -0.000390566 0 0.0121854 -0.000555816 0 0.0121621 -0.000760678 0
          0.0121178 -0.000985849 0 0.0120587 -0.00125423 0 0.0119512 -0.00152965 0 0.0118077 -0.00181666 0
          0.011578 -0.00204845 0 0.0112975 -0.00218578 0 0.010919 -0.00212462 0 0.0105412 -0.00177669 0
          0.0101708 -0.00105427 0 0.01 0 0 0.01 0 0 0.0101355 0.000951003 0
          0.010463 0.00153185 0 0.0108896 0.00185573 0 0.0113215 0.00194092 0 0.0117152 0.00186649 0
          0.012041 0.00168473 0 0.0122963 0.0014565 0 0.012486 0.00121408 0 0.0126211 0.000983841 0
          0.0127146 0.00077382 0 0.0127756 0.000590325 0 0.0128144 0.000428366 0 0.0128338 0.000288454 0
          0.012841 0.000158887 0 0.012834 4.08326e-05 0 0.0128182 -8.23531e-05 0 0.0127871 -0.000206134 0
          0.0127455 -0.000350714 0 0.0126817 -0.000506526 0 0.0126004 -0.000694535 0 0.0124824 -0.000896935 0
          0.0123337 -0.00112857 0 0.0121275 -0.00135837 0 0.0118759 -0.00158194 0 0.0115522 -0.00175 0
          0.0111906 -0.00182409 0 0.0107848 -0.00174555 0 0.0104141 -0.00144569 0 0.0101116 -0.000907222 0
          0.01 0 0 0.01 0 0 0.0101438 0.000478226 0 0.0104452 0.000897258 0
          0.0108354 0.00116278 0 0.011252 0.00128049 0 0.0116506 0.00127799 0 0.0120087 0.00119114 0
          0.0123085 0.0010551 0 0.0125525 0.000897889 0 0.0127386 0.000740232 0 0.0128791 0.000592282 0
          0.0129766 0.000460713 0 0.0130442 0.000343069 0 0.0130824 0.000240165 0 0.0131016 0.000143506 0
          0.0130978 5.36726e-05 0 0.013079 -4.07304e-05 0 0.0130364 -0.000137202 0 0.0129766 -0.000248259 0
          0.0128852 -0.000368018 0 0.0127695 -0.000507685 0 0.012609 -0.000655499 0 0.0124141 -0.000816032 0
          0.0121597 -0.000967853 0 0.0118656 -0.00110127 0 0.0115095 -0.00118375 0 0.0111333 -0.00118819 0
          0.0107334 -0.00108293 0 0.0103845 -0.000837415 0 0.0101084 -0.000455884 0 0.01 0 0
          0.01 0 0 0.0100938 0.000320875 0 0.010308 0.000554954 0 0.010616 0.000713208 0
          0.0109613 0.000792332 0 0.0113181 0.000800417 0 0.0116539 0.00075551 0 0.0119546 0.000677302 0
          0.0122102 0.000582091 0 0.0124171 0.000484033 0 0.012579 0.000390189 0 0.0126971 0.00030655 0
          0.0127808 0.000231757 0 0.0128308 0.000167154 0 0.012857 0.000106491 0 0.0128558 5.04761e-05 0
          0.0128359 -9.14908e-06 0 0.0127883 -7.03518e-05 0 0.0127202 -0.000141686 0 0.0126178 -0.000218537 0
          0.0124879 -0.000307893 0 0.0123136 -0.000401694 0 0.0121046 -0.000501405 0 0.0118445 -0.000594437 0
          0.011551 -0.00067165 0 0.0112167 -0.00071749 0 0.0108742 -0.000710589 0 0.0105357 -0.000644074 0
          0.0102526 -0.000496023 0 0.0100576 -0.000297394 0 0.01 0 0 0.01 0 0
          0.0100984 -1.84847e-05 0 0.0102253 6.48299e-05 0 0.0104044 0.000122592 0 0.0106236 0.000171262 0
          0.0108506 0.000188329 0 0.0110761 0.000194264 0 0.0112785 0.000181608 0 0.0114583 0.000164788 0
          0.0116039 0.000141263 0 0.0117232 0.000119094 0 0.0118095 9.6915e-05 0 0.0118742 7.77554e-05 0
          0.0119116 6.04493e-05 0 0.0119335 4.47838e-05 0 0.0119322 3.00818e-05 0 0.0119191 1.45615e-05 0
          0.0118827 -1.53461e-06 0 0.0118341 -2.05093e-05 0 0.0117578 -4.06932e-05 0 0.0116655 -6.41881e-05 0
          0.0115391 -8.74527e-05 0 0.0113933 -0.000111556 0 0.0112106 -0.000130408 0 0.0110121 -0.000143519 0
          0.0107866 -0.000142403 0 0.0105642 -0.000126173 0 0.0103454 -8.74295e-05 0 0.0101676 -3.22526e-05 0
          0.0100419 2.93318e-05 0 0.01 0 0 0.01 0 0 0.01 0 0
          0.01 0 0 0.01 0 0 0.01 0 0 0.01 0 0
          0.01 0 0 0.01 0 0 0.01 0 0 0.01 0 0
          0.01 0 0 0.01 0 0 0.01 0 0 0.01 0 0
          0.01 0 0 0.01 0 0 0.01 0 0 0.01 0 0
          0.01 0 0 0.01 0 0 0.01 0 0 0.01 0 0
          0.01 0 0 0.01 0 0 0.01 0 0 0.01 0 0
          0.01 0 0 0.01 0 0 0.01 0 0 0.01 0 0
          0.01 0 0
        </DataArray>
      </PointData>
      <Points>
        <DataArray type="Float32" Name="Coordinates" NumberOfComponents="3" format="ascii">
          0 0.035 0 0.000333333 0.035 0 0 0.035081 0 0.000333333 0.035081 0
          0.000666667 0.035 0 0.000666667 0.035081 0 0.001 0.035 0 0.001 0.035081 0
          0.00133333 0.035 0 0.00133333 0.035081 0 0.00166667 0.035 0 0.00166667 0.035081 0
          0.002 0.035 0 0.002 0.035081 0 0.00233333 0.035 0 0.00233333 0.035081 0
          0.00266667 0.035 0 0.00266667 0.035081 0 0.003 0.035 0 0.003 0.035081 0
          0.00333333 0.035 0 0.00333333 0.035081 0 0.00366667 0.035 0 0.00366667 0.035081 0
          0.004 0.035 0 0.004 0.035081 0 0.00433333 0.035 0 0.00433333 0.035081 0
          0.00466667 0.035 0 0.00466667 0.035081 0 0.005 0.035 0 0.005 0.035081 0
          0.00533333 0.035 0 0.00533333 0.035081 0 0.00566667 0.035 0 0.00566667 0.035081 0
          0.006 0.035 0 0.006 0.035081 0 0.00633333 0.035 0 0.00633333 0.035081 0
          0.00666667 0.035 0 0.00666667 0.035081 0 0.007 0.035 0 0.007 0.035081 0
          0.00733333 0.035 0 0.00733333 0.035081 0 0.00766667 0.035 0 0.00766667 0.035081 0
          0.008 0.035 0 0.008 0.035081 0 0.00833333 0.035 0 0.00833333 0.035081 0
          0.00866667 0.035 0 0.00866667 0.035081 0 0.009 0.035 0 0.009 0.035081 0
          0.00933333 0.035 0 0.00933333 0.035081 0 0.00966667 0.035 0 0.00966667 0.035081 0
          0.01 0.035 0 0.01 0.035081 0 0 0.0351725 0 0.000333333 0.0351725 0
          0.000666667 0.0351725 0 0.001 0.0351725 0 0.00133333 0.0351725 0 0.00166667 0.0351725 0
          0.002 0.0351725 0 0.00233333 0.0351725 0 0.00266667 0.0351725 0 0.003 0.0351725 0
          0.00333333 0.0351725 0 0.00366667 0.0351725 0 0.004 0.0351725 0 0.00433333 0.0351725 0
          0.00466667 0.0351725 0 0.005 0.0351725 0 0.00533333 0.0351725 0 0.00566667 0.0351725 0
          0.006 0.0351725 0 0.00633333 0.0351725 0 0.00666667 0.0351725 0 0.007 0.0351725 0
          0.00733333 0.0351725 0 0.00766667 0.0351725 0 0.008 0.0351725 0 0.00833333 0.0351725 0
          0.00866667 0.0351725 0 0.009 0.0351725 0 0.00933333 0.0351725 0 0.00966667 0.0351725 0
          0.01 0.0351725 0 0 0.035276 0 0.000333333 0.035276 0 0.000666667 0.035276 0
          0.001 0.035276 0 0.00133333 0.035276 0 0.00166667 0.035276 0 0.002 0.035276 0
          0.00233333 0.035276 0 0.00266667 0.035276 0 0.003 0.035276 0 0.00333333 0.035276 0
          0.00366667 0.035276 0 0.004 0.035276 0 0.00433333 0.035276 0 0.00466667 0.035276 0
          0.005 0.035276 0 0.00533333 0.035276 0 0.00566667 0.035276 0 0.006 0.035276 0
          0.00633333 0.035276 0 0.00666667 0.035276 0 0.007 0.035276 0 0.00733333 0.035276 0
          0.00766667 0.035276 0 0.008 0.035276 0 0.00833333 0.035276 0 0.00866667 0.035276 0
          0.009 0.035276 0 0.00933333 0.035276 0 0.00966667 0.035276 0 0.01 0.035276 0
          0 0.0353929 0 0.000333333 0.0353929 0 0.000666667 0.0353929 0 0.001 0.0353929 0
          0.00133333 0.0353929 0 0.00166667 0.0353929 0 0.002 0.0353929 0 0.00233333 0.0353929 0
          0.00266667 0.0353929 0 0.003 0.0353929 0 0.00333333 0.0353929 0 0.00366667 0.0353929 0
          0.004 0.0353929 0 0.00433333 0.0353929 0 0.00466667 0.0353929 0 0.005 0.0353929 0
          0.00533333 0.0353929 0 0.00566667 0.0353929 0 0.006 0.0353929 0 0.00633333 0.0353929 0
          0.00666667 0.0353929 0 0.007 0.0353929 0 0.00733333 0.0353929 0 0.00766667 0.0353929 0
          0.008 0.0353929 0 0.00833333 0.0353929 0 0.00866667 0.0353929 0 0.009 0.0353929 0
          0.00933333 0.0353929 0 0.00966667 0.0353929 0 0.01 0.0353929 0 0 0.0355249 0
          0.000333333 0.0355249 0 0.000666667 0.0355249 0 0.001 0.0355249 0 0.00133333 0.0355249 0
          0.00166667 0.0355249 0 0.002 0.0355249 0 0.00233333 0.0355249 0 0.00266667 0.0355249 0
          0.003 0.0355249 0 0.00333333 0.0355249 0 0.00366667 0.0355249 0 0.004 0.0355249 0
          0.00433333 0.0355249 0 0.00466667 0.0355249 0 0.005 0.0355249 0 0.00533333 0.0355249 0
          0.00566667 0.0355249 0 0.006 0.0355249 0 0.00633333 0.0355249 0 0.00666667 0.0355249 0
          0.007 0.0355249 0 0.00733333 0.0355249 0 0.00766667 0.0355249 0 0.008 0.0355249 0
          0.00833333 0.0355249 0 0.00866667 0.0355249 0 0.009 0.0355249 0 0.00933333 0.0355249 0
          0.00966667 0.0355249 0 0.01 0.0355249 0 0 0.0356742 0 0.000333333 0.0356742 0
          0.000666667 0.0356742 0 0.001 0.0356742 0 0.00133333 0.0356742 0 0.00166667 0.0356742 0
          0.002 0.0356742 0 0.00233333 0.0356742 0 0.00266667 0.0356742 0 0.003 0.0356742 0
          0.00333333 0.0356742 0 0.00366667 0.0356742 0 0.004 0.0356742 0 0.00433333 0.0356742 0
          0.00466667 0.0356742 0 0.005 0.0356742 0 0.00533333 0.0356742 0 0.00566667 0.0356742 0
          0.006 0.0356742 0 0.00633333 0.0356742 0 0.00666667 0.0356742 0 0.007 0.0356742 0
          0.00733333 0.0356742 0 0.00766667 0.0356742 0 0.008 0.0356742 0 0.00833333 0.0356742 0
          0.00866667 0.0356742 0 0.009 0.0356742 0 0.00933333 0.0356742 0 0.00966667 0.0356742 0
          0.01 0.0356742 0 0 0.0358428 0 0.000333333 0.0358428 0 0.000666667 0.0358428 0
          0.001 0.0358428 0 0.00133333 0.0358428 0 0.00166667 0.0358428 0 0.002 0.0358428 0
          0.00233333 0.0358428 0 0.00266667 0.0358428 0 0.003 0.0358428 0 0.00333333 0.0358428 0
          0.00366667 0.0358428 0 0.004 0.0358428 0 0.00433333 0.0358428 0 0.00466667 0.0358428 0
          0.005 0.0358428 0 0.00533333 0.0358428 0 0.00566667 0.0358428 0 0.006 0.0358428 0
          0.00633333 0.0358428 0 0.00666667 0.0358428 0 0.007 0.0358428 0 0.00733333 0.0358428 0
          0.00766667 0.0358428 0 0.008 0.0358428 0 0.00833333 0.0358428 0 0.00866667 0.0358428 0
          0.009 0.0358428 0 0.00933333 0.0358428 0 0.00966667 0.0358428 0 0.01 0.0358428 0
          0 0.0360334 0 0.000333333 0.0360334 0 0.000666667 0.0360334 0 0.001 0.0360334 0
          0.00133333 0.0360334 0 0.00166667 0.0360334 0 0.002 0.0360334 0 0.00233333 0.0360334 0
          0.00266667 0.0360334 0 0.003 0.0360334 0 0.00333333 0.0360334 0 0.00366667 0.0360334 0
          0.004 0.0360334 0 0.00433333 0.0360334 0 0.00466667 0.0360334 0 0.005 0.0360334 0
          0.00533333 0.0360334 0 0.00566667 0.0360334 0 0.006 0.0360334 0 0.00633333 0.0360334 0
          0.00666667 0.0360334 0 0.007 0.0360334 0 0.00733333 0.0360334 0 0.00766667 0.0360334 0
          0.008 0.0360334 0 0.00833333 0.0360334 0 0.00866667 0.0360334 0 0.009 0.0360334 0
          0.00933333 0.0360334 0 0.00966667 0.0360334 0 0.01 0.0360334 0 0 0.0362487 0
          0.000333333 0.0362487 0 0.000666667 0.0362487 0 0.001 0.0362487 0 0.00133333 0.0362487 0
          0.00166667 0.0362487 0 0.002 0.0362487 0 0.00233333 0.0362487 0 0.00266667 0.0362487 0
          0.003 0.0362487 0 0.00333333 0.0362487 0 0.00366667 0.0362487 0 0.004 0.0362487 0
          0.00433333 0.0362487 0 0.00466667 0.0362487 0 0.005 0.0362487 0 0.00533333 0.0362487 0
          0.00566667 0.0362487 0 0.006 0.0362487 0 0.00633333 0.0362487 0 0.00666667 0.0362487 0
          0.007 0.0362487 0 0.00733333 0.0362487 0 0.00766667 0.0362487 0 0.008 0.0362487 0
          0.00833333 0.0362487 0 0.00866667 0.0362487 0 0.009 0.0362487 0 0.00933333 0.0362487 0
          0.00966667 0.0362487 0 0.01 0.0362487 0 0 0.0364921 0 0.000333333 0.0364921 0
          0.000666667 0.0364921 0 0.001 0.0364921 0 0.00133333 0.0364921 0 0.00166667 0.0364921 0
          0.002 0.0364921 0 0.00233333 0.0364921 0 0.00266667 0.0364921 0 0.003 0.0364921 0
          0.00333333 0.0364921 0 0.00366667 0.0364921 0 0.004 0.0364921 0 0.00433333 0.0364921 0
          0.00466667 0.0364921 0 0.005 0.0364921 0 0.00533333 0.0364921 0 0.00566667 0.0364921 0
          0.006 0.0364921 0 0.00633333 0.0364921 0 0.00666667 0.0364921 0 0.007 0.0364921 0
          0.00733333 0.0364921 0 0.00766667 0.0364921 0 0.008 0.0364921 0 0.00833333 0.0364921 0
          0.00866667 0.0364921 0 0.009 0.0364921 0 0.00933333 0.0364921 0 0.00966667 0.0364921 0
          0.01 0.0364921 0 0 0.0367671 0 0.000333333 0.0367671 0 0.000666667 0.0367671 0
          0.001 0.0367671 0 0.00133333 0.0367671 0 0.00166667 0.0367671 0 0.002 0.0367671 0
          0.00233333 0.0367671 0 0.00266667 0.0367671 0 0.003 0.0367671 0 0.00333333 0.0367671 0
          0.00366667 0.0367671 0 0.004 0.0367671 0 0.00433333 0.0367671 0 0.00466667 0.0367671 0
          0.005 0.0367671 0 0.00533333 0.0367671 0 0.00566667 0.0367671 0 0.006 0.0367671 0
          0.00633333 0.0367671 0 0.00666667 0.0367671 0 0.007 0.0367671 0 0.00733333 0.0367671 0
          0.00766667 0.0367671 0 0.008 0.0367671 0 0.00833333 0.0367671 0 0.00866667 0.0367671 0
          0.009 0.0367671 0 0.00933333 0.0367671 0 0.00966667 0.0367671 0 0.01 0.0367671 0
          0 0.0370778 0 0.000333333 0.0370778 0 0.000666667 0.0370778 0 0.001 0.0370778 0
          0.00133333 0.0370778 0 0.00166667 0.0370778 0 0.002 0.0370778 0 0.00233333 0.0370778 0
          0.00266667 0.0370778 0 0.003 0.0370778 0 0.00333333 0.0370778 0 0.00366667 0.0370778 0
          0.004 0.0370778 0 0.00433333 0.0370778 0 0.00466667 0.0370778 0 0.005 0.0370778 0
          0.00533333 0.0370778 0 0.00566667 0.0370778 0 0.006 0.0370778 0 0.00633333 0.0370778 0
          0.00666667 0.0370778 0 0.007 0.0370778 0 0.00733333 0.0370778 0 0.00766667 0.0370778 0
          0.008 0.0370778 0 0.00833333 0.0370778 0 0.00866667 0.0370778 0 0.009 0.0370778 0
          0.00933333 0.0370778 0 0.00966667 0.0370778 0 0.01 0.0370778 0 0 0.0374289 0
          0.000333333 0.0374289 0 0.000666667 0.0374289 0 0.001 0.0374289 0 0.00133333 0.0374289 0
          0.00166667 0.0374289 0 0.002 0.0374289 0 0.00233333 0.0374289 0 0.00266667 0.0374289 0
          0.003 0.0374289 0 0.00333333 0.0374289 0 0.00366667 0.0374289 0 0.004 0.0374289 0
          0.00433333 0.0374289 0 0.00466667 0.0374289 0 0.005 0.0374289 0 0.00533333 0.0374289 0
          0.00566667 0.0374289 0 0.006 0.0374289 0 0.00633333 0.0374289 0 0.00666667 0.0374289 0
          0.007 0.0374289 0 0.00733333 0.0374289 0 0.00766667 0.0374289 0 0.008 0.0374289 0
          0.00833333 0.0374289 0 0.00866667 0.0374289 0 0.009 0.0374289 0 0.00933333 0.0374289 0
          0.00966667 0.0374289 0 0.01 0.0374289 0 0 0.0378256 0 0.000333333 0.0378256 0
          0.000666667 0.0378256 0 0.001 0.0378256 0 0.00133333 0.0378256 0 0.00166667 0.0378256 0
          0.002 0.0378256 0 0.00233333 0.0378256 0 0.00266667 0.0378256 0 0.003 0.0378256 0
          0.00333333 0.0378256 0 0.00366667 0.0378256 0 0.004 0.0378256 0 0.00433333 0.0378256 0
          0.00466667 0.0378256 0 0.005 0.0378256 0 0.00533333 0.0378256 0 0.00566667 0.0378256 0
          0.006 0.0378256 0 0.00633333 0.0378256 0 0.00666667 0.0378256 0 0.007 0.0378256 0
          0.00733333 0.0378256 0 0.00766667 0.0378256 0 0.008 0.0378256 0 0.00833333 0.0378256 0
          0.00866667 0.0378256 0 0.009 0.0378256 0 0.00933333 0.0378256 0 0.00966667 0.0378256 0
          0.01 0.0378256 0 0 0.038274 0 0.000333333 0.038274 0 0.000666667 0.038274 0
          0.001 0.038274 0 0.00133333 0.038274 0 0.00166667 0.038274 0 0.002 0.038274 0
          0.00233333 0.038274 0 0.00266667 0.038274 0 0.003 0.038274 0 0.00333333 0.038274 0
          0.00366667 0.038274 0 0.004 0.038274 0 0.00433333 0.038274 0 0.00466667 0.038274 0
          0.005 0.038274 0 0.00533333 0.038274 0 0.00566667 0.038274 0 0.006 0.038274 0
          0.00633333 0.038274 0 0.00666667 0.038274 0 0.007 0.038274 0 0.00733333 0.038274 0
          0.00766667 0.038274 0 0.008 0.038274 0 0.00833333 0.038274 0 0.00866667 0.038274 0
          0.009 0.038274 0 0.00933333 0.038274 0 0.00966667 0.038274 0 0.01 0.038274 0
          0 0.0387806 0 0.000333333 0.0387806 0 0.000666667 0.0387806 0 0.001 0.0387806 0
          0.00133333 0.0387806 0 0.00166667 0.0387806 0 0.002 0.0387806 0 0.00233333 0.0387806 0
          0.00266667 0.0387806 0 0.003 0.0387806 0 0.00333333 0.0387806 0 0.00366667 0.0387806 0
          0.004 0.0387806 0 0.00433333 0.0387806 0 0.00466667 0.0387806 0 0.005 0.0387806 0
          0.00533333 0.0387806 0 0.00566667 0.0387806 0 0.006 0.0387806 0 0.00633333 0.0387806 0
          0.00666667 0.0387806 0 0.007 0.0387806 0 0.00733333 0.0387806 0 0.00766667 0.0387806 0
          0.008 0.0387806 0 0.00833333 0.0387806 0 0.00866667 0.0387806 0 0.009 0.0387806 0
          0.00933333 0.0387806 0 0.00966667 0.0387806 0 0.01 0.0387806 0 0 0.0393531 0
          0.000333333 0.0393531 0 0.000666667 0.0393531 0 0.001 0.0393531 0 0.00133333 0.0393531 0
          0.00166667 0.0393531 0 0.002 0.0393531 0 0.00233333 0.0393531 0 0.00266667 0.0393531 0
          0.003 0.0393531 0 0.00333333 0.0393531 0 0.00366667 0.0393531 0 0.004 0.0393531 0
          0.00433333 0.0393531 0 0.00466667 0.0393531 0 0.005 0.0393531 0 0.00533333 0.0393531 0
          0.00566667 0.0393531 0 0.006 0.0393531 0 0.00633333 0.0393531 0 0.00666667 0.0393531 0
          0.007 0.0393531 0 0.00733333 0.0393531 0 0.00766667 0.0393531 0 0.008 0.0393531 0
          0.00833333 0.0393531 0 0.00866667 0.0393531 0 0.009 0.0393531 0 0.00933333 0.0393531 0
          0.00966667 0.0393531 0 0.01 0.0393531 0 0 0.04 0 0.000333333 0.04 0
          0.000666667 0.04 0 0.001 0.04 0 0.00133333 0.04 0 0.00166667 0.04 0
          0.002 0.04 0 0.00233333 0.04 0 0.00266667 0.04 0 0.003 0.04 0
          0.00333333 0.04 0 0.00366667 0.04 0 0.004 0.04 0 0.00433333 0.04 0
          0.00466667 0.04 0 0.005 0.04 0 0.00533333 0.04 0 0.00566667 0.04 0
          0.006 0.04 0 0.00633333 0.04 0 0.00666667 0.04 0 0.007 0.04 0
          0.00733333 0.04 0 0.00766667 0.04 0 0.008 0.04 0 0.00833333 0.04 0
          0.00866667 0.04 0 0.009 0.04 0 0.00933333 0.04 0 0.00966667 0.04 0
          0.01 0.04 0
        </DataArray>
      </Points>
      <Cells>
        <DataArray type="Int32" Name="connectivity" NumberOfComponents="1" format="ascii">
          0 1 3 2 1 4 5 3 4 6 7 5
          6 8 9 7 8 10 11 9 10 12 13 11
          12 14 15 13 14 16 17 15 16 18 19 17
          18 20 21 19 20 22 23 21 22 24 25 23
          24 26 27 25 26 28 29 27 28 30 31 29
          30 32 33 31 32 34 35 33 34 36 37 35
          36 38 39 37 38 40 41 39 40 42 43 41
          42 44 45 43 44 46 47 45 46 48 49 47
          48 50 51 49 50 52 53 51 52 54 55 53
          54 56 57 55 56 58 59 57 58 60 61 59
          2 3 63 62 3 5 64 63 5 7 65 64
          7 9 66 65 9 11 67 66 11 13 68 67
          13 15 69 68 15 17 70 69 17 19 71 70
          19 21 72 71 21 23 73 72 23 25 74 73
          25 27 75 74 27 29 76 75 29 31 77 76
          31 33 78 77 33 35 79 78 35 37 80 79
          37 39 81 80 39 41 82 81 41 43 83 82
          43 45 84 83 45 47 85 84 47 49 86 85
          49 51 87 86 51 53 88 87 53 55 89 88
          55 57 90 89 57 59 91 90 59 61 92 91
          62 63 94 93 63 64 95 94 64 65 96 95
          65 66 97 96 66 67 98 97 67 68 99 98
          68 69 100 99 69 70 101 100 70 71 102 101
          71 72 103 102 72 73 104 103 73 74 105 104
          74 75 106 105 75 76 107 106 76 77 108 107
          77 78 109 108 78 79 110 109 79 80 111 110
          80 81 112 111 81 82 113 112 82 83 114 113
          83 84 115 114 84 85 116 115 85 86 117 116
          86 87 118 117 87 88 119 118 88 89 120 119
          89 90 121 120 90 91 122 121 91 92 123 122
          93 94 125 124 94 95 126 125 95 96 127 126
          96 97 128 127 97 98 129 128 98 99 130 129
          99 100 131 130 100 101 132 131 101 102 133 132
          102 103 134 133 103 104 135 134 104 105 136 135
          105 106 137 136 106 107 138 137 107 108 139 138
          108 109 140 139 109 110 141 140 110 111 142 141
          111 112 143 142 112 113 144 143 113 114 145 144
          114 115 146 145 115 116 147 146 116 117 148 147
          117 118 149 148 118 119 150 149 119 120 151 150
          120 121 152 151 121 122 153 152 122 123 154 153
          124 125 156 155 125 126 157 156 126 127 158 157
          127 128 159 158 128 129 160 159 129 130 161 160
          130 131 162 161 131 132 163 162 132 133 164 163
          133 134 165 164 134 135 166 165 135 136 167 166
          136 137 168 167 137 138 169 168 138 139 170 169
          139 140 171 170 140 141 172 171 141 142 173 172
          142 143 174 173 143 144 175 174 144 145 176 175
          145 146 177 176 146 147 178 177 147 148 179 178
          148 149 180 179 149 150 181 180 150 151 182 181
          151 152 183 182 152 153 184 183 153 154 185 184
          155 156 187 186 156 157 188 187 157 158 189 188
          158 159 190 189 159 160 191 190 160 161 192 191
          161 162 193 192 162 163 194 193 163 164 195 194
          164 165 196 195 165 166 197 196 166 167 198 197
          167 168 199 198 168 169 200 199 169 170 201 200
          170 171 202 201 171 172 203 202 172 173 204 203
          173 174 205 204 174 175 206 205 175 176 207 206
          176 177 208 207 177 178 209 208 178 179 210 209
          179 180 211 210 180 181 212 211 181 182 213 212
          182 183 214 213 183 184 215 214 184 185 216 215
          186 187 218 217 187 188 219 218 188 189 220 219
          189 190 221 220 190 191 222 221 191 192 223 222
          192 193 224 223 193 194 225 224 194 195 226 225
          195 196 227 226 196 197 228 227 197 198 229 228
          198 199 230 229 199 200 231 230 200 201 232 231
          201 202 233 232 202 203 234 233 203 204 235 234
          204 205 236 235 205 206 237 236 206 207 238 237
          207 208 239 238 208 209 240 239 209 210 241 240
          210 211 242 241 211 212 243 242 212 213 244 243
          213 214 245 244 214 215 246 245 215 216 247 246
          217 218 249 248 218 219 250 249 219 220 251 250
          220 221 252 251 221 222 253 252 222 223 254 253
          223 224 255 254 224 225 256 255 225 226 257 256
          226 227 258 257 227 228 259 258 228 229 260 259
          229 230 261 260 230 231 262 261 231 232 263 262
          232 233 264 263 233 234 265 264 234 235 266 265
          235 236 267 266 236 237 268 267 237 238 269 268
          238 239 270 269 239 240 271 270 240 241 272 271
          241 242 273 272 242 243 274 273 243 244 275 274
          244 245 276 275 245 246 277 276 246 247 278 277
          248 249 280 279 249 250 281 280 250 251 282 281
          251 252 283 282 252 253 284 283 253 254 285 284
          254 255 286 285 255 256 287 286 256 257 288 287
          257 258 289 288 258 259 290 289 259 260 291 290
          260 261 292 291 261 262 293 292 262 263 294 293
          263 264 295 294 264 265 296 295 265 266 297 296
          266 267 298 297 267 268 299 298 268 269 300 299
          269 270 301 300 270 271 302 301 271 272 303 302
          272 273 304 303 273 274 305 304 274 275 306 305
          275 276 307 306 276 277 308 307 277 278 309 308
          279 280 311 310 280 281 312 311 281 282 313 312
          282 283 314 313 283 284 315 314 284 285 316 315
          285 286 317 316 286 287 318 317 287 288 319 318
          288 289 320 319 289 290 321 320 290 291 322 321
          291 292 323 322 292 293 324 323 293 294 325 324
          294 295 326 325 295 296 327 326 296 297 328 327
          297 298 329 328 298 299 330 329 299 300 331 330
          300 301 332 331 301 302 333 332 302 303 334 333
          303 304 335 334 304 305 336 335 305 306 337 336
          306 307 338 337 307 308 339 338 308 309 340 339
          310 311 342 341 311 312 343 342 312 313 344 343
          313 314 345 344 314 315 346 345 315 316 347 346
          316 317 348 347 317 318 349 348 318 319 350 349
          319 320 351 350 320 321 352 351 321 322 353 352
          322 323 354 353 323 324 355 354 324 325 356 355
          325 326 357 356 326 327 358 357 327 328 359 358
          328 329 360 359 329 330 361 360 330 331 362 361
          331 332 363 362 332 333 364 363 333 334 365 364
          334 335 366 365 335 336 367 366 336 337 368 367
          337 338 369 368 338 339 370 369 339 340 371 370
          341 342 373 372 342 343 374 373 343 344 375 374
          344 345 376 375 345 346 377 376 346 347 378 377
          347 348 379 378 348 349 380 379 349 350 381 380
          350 351 382 381 351 352 383 382 352 353 384 383
          353 354 385 384 354 355 386 385 355 356 387 386
          356 357 388 387 357 358 389 388 358 359 390 389
          359 360 391 390 360 361 392 391 361 362 393 392
          362 363 394 393 363 364 395 394 364 365 396 395
          365 366 397 396 366 367 398 397 367 368 399 398
          368 369 400 399 369 370 401 400 370 371 402 401
          372 373 404 403 373 374 405 404 374 375 406 405
          375 376 407 406 376 377 408 407 377 378 409 408
          378 379 410 409 379 380 411 410 380 381 412 411
          381 382 413 412 382 383 414 413 383 384 415 414
          384 385 416 415 385 386 417 416 386 387 418 417
          387 388 419 418 388 389 420 419 389 390 421 420
          390 391 422 421 391 392 423 422 392 393 424 423
          393 394 425 424 394 395 426 425 395 396 427 426
          396 397 428 427 397 398 429 428 398 399 430 429
          399 400 431 430 400 401 432 431 401 402 433 432
          403 404 435 434 404 405 436 435 405 406 437 436
          406 407 438 437 407 408 439 438 408 409 440 439
          409 410 441 440 410 411 442 441 411 412 443 442
          412 413 444 443 413 414 445 444 414 415 446 445
          415 416 447 446 416 417 448 447 417 418 449 448
          418 419 450 449 419 420 451 450 420 421 452 451
          421 422 453 452 422 423 454 453 423 424 455 454
          424 425 456 455 425 426 457 456 426 427 458 457
          427 428 459 458 428 429 460 459 429 430 461 460
          430 431 462 461 431 432 463 462 432 433 464 463
          434 435 466 465 435 436 467 466 436 437 468 467
          437 438 469 468 438 439 470 469 439 440 471 470
          440 441 472 471 441 442 473 472 442 443 474 473
          443 444 475 474 444 445 476 475 445 446 477 476
          446 447 478 477 447 448 479 478 448 449 480 479
          449 450 481 480 450 451 482 481 451 452 483 482
          452 453 484 483 453 454 485 484 454 455 486 485
          455 456 487 486 456 457 488 487 457 458 489 488
          458 459 490 489 459 460 491 490 460 461 492 491
          461 462 493 492 462 463 494 493 463 464 495 494
          465 466 497 496 466 467 498 497 467 468 499 498
          468 469 500 499 469 470 501 500 470 471 502 501
          471 472 503 502 472 473 504 503 473 474 505 504
          474 475 506 505 475 476 507 506 476 477 508 507
          477 478 509 508 478 479 510 509 479 480 511 510
          480 481 512 511 481 482 513 512 482 483 514 513
          483 484 515 514 484 485 516 515 485 486 517 516
          486 487 518 517 487 488 519 518 488 489 520 519
          489 490 521 520 490 491 522 521 491 492 523 522
          492 493 524 523 493 494 525 524 494 495 526 525
          496 497 528 527 497 498 529 528 498 499 530 529
          499 500 531 530 500 501 532 531 501 502 533 532
          502 503 534 533 503 504 535 534 504 505 536 535
          505 506 537 536 506 507 538 537 507 508 539 538
          508 509 540 539 509 510 541 540 510 511 542 541
          511 512 543 542 512 513 544 543 513 514 545 544
          514 515 546 545 515 516 547 546 516 517 548 547
          517 518 549 548 518 519 550 549 519 520 551 550
          520 521 552 551 521 522 553 552 522 523 554 553
          523 524 555 554 524 525 556 555 525 526 557 556
          527 528 559 558 528 529 560 559 529 530 561 560
          530 531 562 561 531 532 563 562 532 533 564 563
          533 534 565 564 534 535 566 565 535 536 567 566
          536 537 568 567 537 538 569 568 538 539 570 569
          539 540 571 570 540 541 572 571 541 542 573 572
          542 543 574 573 543 544 575 574 544 545 576 575
          545 546 577 576 546 547 578 577 547 548 579 578
          548 549 580 579 549 550 581 580 550 551 582 581
          551 552 583 582 552 553 584 583 553 554 585 584
          554 555 586 585 555 556 587 586 556 557 588 587
        </DataArray>
        <DataArray type="Int32" Name="offsets" NumberOfComponents="1" format="ascii">
          4 8 12 16 20 24 28 32 36 40 44 48
          52 56 60 64 68 72 76 80 84 88 92 96
          100 104 108 112 116 120 124 128 132 136 140 144
          148 152 156 160 164 168 172 176 180 184 188 192
          196 200 204 208 212 216 220 224 228 232 236 240
          244 248 252 256 260 264 268 272 276 280 284 288
          292 296 300 304 308 312 316 320 324 328 332 336
          340 344 348 352 356 360 364 368 372 376 380 384
          388 392 396 400 404 408 412 416 420 424 428 432
          436 440 444 448 452 456 460 464 468 472 476 480
          484 488 492 496 500 504 508 512 516 520 524 528
          532 536 540 544 548 552 556 560 564 568 572 576
          580 584 588 592 596 600 604 608 612 616 620 624
          628 632 636 640 644 648 652 656 660 664 668 672
          676 680 684 688 692 696 700 704 708 712 716 720
          724 728 732 736 740 744 748 752 756 760 764 768
          772 776 780 784 788 792 796 800 804 808 812 816
          820 824 828 832 836 840 844 848 852 856 860 864
          868 872 876 880 884 888 892 896 900 904 908 912
          916 920 924 928 932 936 940 944 948 952 956 960
          964 968 972 976 980 984 988 992 996 1000 1004 1008
          1012 1016 1020 1024 1028 1032 1036 1040 1044 1048 1052 1056
          1060 1064 1068 1072 1076 1080 1084 1088 1092 1096 1100 1104
          1108 1112 1116 1120 1124 1128 1132 1136 1140 1144 1148 1152
          1156 1160 1164 1168 1172 1176 1180 1184 1188 1192 1196 1200
          1204 1208 1212 1216 1220 1224 1228 1232 1236 1240 1244 1248
          1252 1256 1260 1264 1268 1272 1276 1280 1284 1288 1292 1296
          1300 1304 1308 1312 1316 1320 1324 1328 1332 1336 1340 1344
          1348 1352 1356 1360 1364 1368 1372 1376 1380 1384 1388 1392
          1396 1400 1404 1408 1412 1416 1420 1424 1428 1432 1436 1440
          1444 1448 1452 1456 1460 1464 1468 1472 1476 1480 1484 1488
          1492 1496 1500 1504 1508 1512 1516 1520 1524 1528 1532 1536
          1540 1544 1548 1552 1556 1560 1564 1568 1572 1576 1580 1584
          1588 1592 1596 1600 1604 1608 1612 1616 1620 1624 1628 1632
          1636 1640 1644 1648 1652 1656 1660 1664 1668 1672 1676 1680
          1684 1688 1692 1696 1700 1704 1708 1712 1716 1720 1724 1728
          1732 1736 1740 1744 1748 1752 1756 1760 1764 1768 1772 1776
          1780 1784 1788 1792 1796 1800 1804 1808 1812 1816 1820 1824
          1828 1832 1836 1840 1844 1848 1852 1856 1860 1864 1868 1872
          1876 1880 1884 1888 1892 1896 1900 1904 1908 1912 1916 1920
          1924 1928 1932 1936 1940 1944 1948 1952 1956 1960 1964 1968
          1972 1976 1980 1984 1988 1992 1996 2000 2004 2008 2012 2016
          2020 2024 2028 2032 2036 2040 2044 2048 2052 2056 2060 2064
          2068 2072 2076 2080 2084 2088 2092 2096 2100 2104 2108 2112
          2116 2120 2124 2128 2132 2136 2140 2144 2148 2152 2156 2160
        </DataArray>
        <DataArray type="UInt8" Name="types" NumberOfComponents="1" format="ascii">
          9 9 9 9 9 9 9 9 9 9 9 9
          9 9 9 9 9 9 9 9 9 9 9 9
          9 9 9 9 9 9 9 9 9 9 9 9
          9 9 9 9 9 9 9 9 9 9 9 9
          9 9 9 9 9 9 9 9 9 9 9 9
          9 9 9 9 9 9 9 9 9 9 9 9
          9 9 9 9 9 9 9 9 9 9 9 9
          9 9 9 9 9 9 9 9 9 9 9 9
          9 9 9 9 9 9 9 9 9 9 9 9
          9 9 9 9 9 9 9 9 9 9 9 9
          9 9 9 9 9 9 9 9 9 9 9 9
          9 9 9 9 9 9 9 9 9 9 9 9
          9 9 9 9 9 9 9 9 9 9 9 9
          9 9 9 9 9 9 9 9 9 9 9 9
          9 9 9 9 9 9 9 9 9 9 9 9
          9 9 9 9 9 9 9 9 9 9 9 9
          9 9 9 9 9 9 9 9 9 9 9 9
          9 9 9 9 9 9 9 9 9 9 9 9
          9 9 9 9 9 9 9 9 9 9 9 9
          9 9 9 9 9 9 9 9 9 9 9 9
          9 9 9 9 9 9 9 9 9 9 9 9
          9 9 9 9 9 9 9 9 9 9 9 9
          9 9 9 9 9 9 9 9 9 9 9 9
          9 9 9 9 9 9 9 9 9 9 9 9
          9 9 9 9 9 9 9 9 9 9 9 9
          9 9 9 9 9 9 9 9 9 9 9 9
          9 9 9 9 9 9 9 9 9 9 9 9
          9 9 9 9 9 9 9 9 9 9 9 9
          9 9 9 9 9 9 9 9 9 9 9 9
          9 9 9 9 9 9 9 9 9 9 9 9
          9 9 9 9 9 9 9 9 9 9 9 9
          9 9 9 9 9 9 9 9 9 9 9 9
          9 9 9 9 9 9 9 9 9 9 9 9
          9 9 9 9 9 9 9 9 9 9 9 9
          9 9 9 9 9 9 9 9 9 9 9 9
          9 9 9 9 9 9 9 9 9 9 9 9
          9 9 9 9 9 9 9 9 9 9 9 9
          9 9 9 9 9 9 9 9 9 9 9 9
          9 9 9 9 9 9 9 9 9 9 9 9
          9 9 9 9 9 9 9 9 9 9 9 9
          9 9 9 9 9 9 9 9 9 9 9 9
          9 9 9 9 9 9 9 9 9 9 9 9
          9 9 9 9 9 9 9 9 9 9 9 9
          9 9 9 9 9 9 9 9 9 9 9 9
          9 9 9 9 9 9 9 9 9 9 9 9
        </DataArray>
      </Cells>
    </Piece>
  </UnstructuredGrid>
</VTKFile>
