<?xml version="1.0"?>
<VTKFile type="UnstructuredGrid" version="0.1" byte_order="LittleEndian">
  <UnstructuredGrid>
    <Piece NumberOfCells="540" NumberOfPoints="589">
      <PointData Scalars="temperature" Vectors="v">
        <DataArray type="Float32" Name="temperature" NumberOfComponents="1" format="ascii">
          307.323 301.146 610.367 213.88 301.557 214.825 302.061 218.016 302.682 224.977 303.137 235.96
          303.376 252.018 303.526 236.959 304.265 242.539 304.953 261.245 305.077 298.416 305.011 316.847
          304.985 321.189 305.006 316.408 305.099 301.231 305.097 273.446 304.959 255.185 304.7 247.128
          304.288 240.388 303.877 236.921 303.773 251.033 303.749 251.43 303.754 250.813 303.801 250.58
          304.028 237.053 304.865 248.205 305.297 276.558 305.317 306.461 305.219 316.854 305.19 320.598
          305.186 305.15 346.008 231.739 232.569 235.66 242.484 249.941 260.243 280.158 295.167 301.559
          305.035 307.729 308.508 307.235 304.839 302.531 300.117 297.436 292.964 283.05 268.478 260.555
          259.985 267.84 286.261 298.411 303.598 306.214 307.786 308.275 305.15 236.839 268.342 275.047
          284.57 290.396 293.515 295.448 297.055 298.828 300.842 302.652 303.853 304.248 303.879 302.987
          301.889 300.915 300.184 299.51 298.661 297.639 296.777 296.582 297.338 298.885 300.846 302.701
          304.013 304.965 305.806 305.15 190.82 282.786 288.814 292.79 295.172 296.649 297.654 298.397
          299.001 299.521 299.973 300.344 300.614 300.788 300.9 300.99 301.08 301.167 301.231 301.25
          301.219 301.17 301.15 301.187 301.262 301.35 301.458 301.717 302.354 303.656 305.15 195.128
          280.11 285.032 289.196 292.118 294.037 295.345 296.291 297.027 297.629 298.135 298.559 298.909
          299.191 299.423 299.622 299.802 299.965 300.102 300.203 300.264 300.293 300.299 300.29 300.268
          300.244 300.258 300.462 301.161 302.804 305.15 348.586 278.371 281.705 285.336 288.435 290.767
          292.463 293.705 294.65 295.396 296.007 296.524 296.973 297.367 297.711 298.014 298.282 298.517
          298.717 298.882 299.007 299.09 299.128 299.12 299.067 298.994 298.96 299.145 299.913 301.876
          305.15 285.263 277.512 279.409 282.056 284.79 287.194 289.142 290.664 291.855 292.805 293.584
          294.24 294.808 295.308 295.75 296.138 296.482 296.785 297.047 297.268 297.444 297.573 297.65
          297.676 297.653 297.604 297.595 297.813 298.674 300.931 305.15 237.129 277.23 278.154 279.785
          281.803 283.869 285.769 287.402 288.765 289.892 290.835 291.636 292.33 292.944 293.492 293.977
          294.409 294.792 295.128 295.417 295.658 295.848 295.983 296.065 296.098 296.105 296.155 296.443
          297.418 299.969 305.15 230.333 277.199 277.613 278.478 279.741 281.234 282.79 284.281 285.638
          286.836 287.884 288.799 289.605 290.325 290.975 291.56 292.085 292.557 292.978 293.349 293.668
          293.937 294.151 294.315 294.432 294.528 294.673 295.061 296.169 299.01 305.15 227.651 277.244
          277.467 277.893 278.586 279.51 280.589 281.737 282.886 283.986 285.011 285.953 286.814 287.602
          288.327 288.995 289.607 290.167 290.676 291.137 291.548 291.911 292.225 292.494 292.725 292.94
          293.206 293.715 294.964 298.088 305.15 339.886 277.301 277.49 277.737 278.109 278.63 279.288
          280.053 280.886 281.751 282.619 283.469 284.287 285.067 285.809 286.516 287.183 287.809 288.396
          288.942 289.448 289.913 290.34 290.731 291.093 291.446 291.847 292.48 293.857 297.226 305.15
          321.373 277.377 277.591 277.808 278.061 278.382 278.782 279.264 279.817 280.426 281.077 281.753
          282.442 283.132 283.817 284.495 285.161 285.811 286.44 287.047 287.63 288.188 288.722 289.233
          289.727 290.214 290.743 291.483 292.951 296.497 305.15 194.243 277.513 277.784 278.041 278.3
          278.577 278.886 279.238 279.636 280.078 280.56 281.077 281.623 282.191 282.776 283.374 283.986
          284.605 285.227 285.85 286.469 287.083 287.691 288.293 288.887 289.478 290.099 290.9 292.387
          295.987 305.15 257.967 277.811 278.188 278.543 278.882 279.218 279.559 279.915 280.291 280.69
          281.112 281.558 282.025 282.512 283.016 283.538 284.079 284.638 285.214 285.805 286.409 287.024
          287.649 288.279 288.912 289.545 290.195 290.984 292.388 295.856 305.15 340.303 278.516 279.107
          279.65 280.154 280.63 281.091 281.545 281.997 282.452 282.912 283.376 283.846 284.322 284.802
          285.288 285.783 286.288 286.805 287.336 287.88 288.44 289.013 289.597 290.187 290.778 291.374
          292.058 293.236 296.297 305.15 256.98 280.381 281.376 282.251 283.026 283.725 284.367 284.969
          285.539 286.086 286.615 287.127 287.626 288.112 288.587 289.051 289.504 289.952 290.396 290.839
          291.285 291.736 292.193 292.654 293.12 293.585 294.046 294.539 295.327 297.607 305.15 245.608
          286.133 287.566 288.748 289.738 290.579 291.308 291.952 292.529 293.054 293.536 293.983 294.4
          294.792 295.162 295.513 295.843 296.156 296.454 296.741 297.02 297.293 297.562 297.829 298.093
          298.355 298.613 298.869 299.195 300.173 305.15 246.371 305.15 305.15 305.15 305.15 305.15
          305.15 305.15 305.15 305.15 305.15 305.15 305.15 305.15 305.15 305.15 305.15 305.15
          305.15 305.15 305.15 305.15 305.15 305.15 305.15 305.15 305.15 305.15 305.15 305.15
          305.15
        </DataArray>
        <DataArray type="Float32" Name="pg" NumberOfComponents="1" format="ascii">
          377.616 468.341 553.199 643.924 678.379 935.955 990.362 2123.52 3500.8 4908.4 6670.68 9976.13
          10162 16129.7 21939.4 30007.8 130786 157510 402454 463275 767109 802115 1.05649e+06 1.00567e+06
          1.14132e+06 1.06345e+06 1.04666e+06 996230 803169 825661 515682 577649 322343 377865 196622 235662
          94591.8 115289 30764.8 40759.3 15057.4 23157.7 12174.2 19065.5 12174.5 19012.6 15528.6 23784.5
          44100.5 56201.4 213490 254688 538371 601292 871748 876089 1.04324e+06 992294 1.11185e+06 1.03674e+06
          1.11183e+06 1.03672e+06 742466 22423.1 29929.2 71797.1 171092 306148 460411 647118 781966 842366
          874303 895884 901092 889539 868027 844872 820371 793744 750900 661121 535160 452950
          446100 529186 689349 802276 852771 875630 885483 883618 883615 215462 649689 664194
          728378 770610 792497 805572 817030 831116 848314 863892 873628 875688 870498 860298
          848145 837363 829200 821803 812917 802601 794100 792258 799770 815199 834821 853067
          864153 868364 866912 866910 -918655 842194 841822 843581 845399 846803 847814 848703
          849707 850844 851936 852684 852816 852330 851494 850653 850010 849548 849081 848390
          847470 846654 846448 847124 848468 849961 851152 851840 852034 851757 851757 -79883.9
          848823 848723 849014 849315 849531 849688 849886 850212 850658 851098 851386 851433
          851243 850910 850565 850307 850144 850000 849792 849519 849275 849195 849372 849793
          850332 850800 851064 851123 851001 851001 3.34927e+06 850366 850376 850412 850442 850460
          850471 850481 850496 850516 850537 850552 850554 850544 850528 850512 850502 850497
          850492 850484 850471 850459 850454 850462 850482 850505 850525 850535 850536 850529
          850529 952419 850450 850456 850472 850484 850492 850496 850499 850504 850511 850518
          850523 850524 850521 850515 850510 850507 850506 850505 850502 850498 850494 850492
          850495 850501 850509 850515 850518 850518 850516 850516 293371 850498 850499 850503
          850506 850508 850509 850509 850510 850510 850511 850511 850511 850511 850511 850511
          850510 850510 850510 850510 850510 850510 850510 850510 850510 850510 850511 850511
          850511 850511 850511 130605 850506 850506 850508 850509 850510 850510 850511 850511
          850511 850511 850511 850511 850511 850511 850511 850511 850511 850511 850511 850511
          850511 850511 850511 850511 850511 850511 850511 850511 850511 850511 85494.6 850511
          850511 850511 850511 850512 850512 850512 850512 850512 850512 850512 850512 850512
          850512 850512 850512 850512 850512 850512 850512 850512 850512 850512 850512 850512
          850512 850512 850512 850512 850512 2.58839e+06 850512 850512 850512 850512 850512 850512
          850512 850512 850512 850512 850512 850512 850512 850512 850512 850512 850512 850512
          850512 850512 850512 850512 850512 850512 850512 850512 850512 850512 850512 850512
          1.70431e+06 850512 850512 850512 850512 850512 850512 850512 850512 850512 850512 850512
          850512 850512 850512 850512 850512 850512 850512 850512 850512 850512 850512 850512
          850512 850512 850512 850512 850512 850512 850512 -257846 850512 850512 850512 850512
          850512 850512 850512 850512 850512 850512 850512 850512 850512 850512 850512 850512
          850512 850512 850512 850512 850512 850512 850512 850512 850512 850512 850512 850512
          850512 850512 648603 850512 850512 850512 850512 850512 850512 850512 850512 850512
          850512 850512 850512 850512 850512 850512 850512 850512 850512 850512 850512 850512
          850512 850512 850512 850512 850512 850512 850512 850512 850512 2.59255e+06 850512 850512
          850512 850512 850512 850512 850512 850512 850512 850512 850512 850512 850512 850512
          850512 850512 850512 850512 850512 850512 850512 850512 850512 850512 850512 850512
          850512 850512 850512 850512 610004 850512 850512 850512 850512 850512 850512 850512
          850512 850512 850512 850512 850512 850512 850512 850512 850512 850512 850512 850512
          850512 850512 850512 850512 850512 850512 850512 850512 850512 850512 850512 322451
          850512 850512 850512 850512 850512 850512 850512 850512 850512 850512 850512 850512
          850512 850512 850512 850512 850512 850512 850512 850512 850512 850512 850512 850512
          850512 850512 850512 850512 850512 850512 322451 850512 850512 850512 850512 850512
          850512 850512 850512 850512 850512 850512 850512 850512 850512 850512 850512 850512
          850512 850512 850512 850512 850512 850512 850512 850512 850512 850512 850512 850512
          850512
        </DataArray>
        <DataArray type="Float32" Name="delP" NumberOfComponents="1" format="ascii">
          -99622.4 -99531.7 -99446.8 -99356.1 -99321.6 -99064 -99009.6 -97876.5 -96499.2 -95091.6 -93329.3 -90023.9
          -89838 -83870.3 -78060.6 -69992.2 30786.2 57509.9 302454 363275 667109 702115 956493 905669
          1.04132e+06 963446 946656 896230 703169 725661 415682 477649 222343 277865 96621.6 135662
          -5408.2 15288.8 -69235.2 -59240.7 -84942.6 -76842.3 -87825.8 -80934.5 -87825.5 -80987.4 -84471.4 -76215.5
          -55899.5 -43798.6 113490 154688 438371 501292 771748 776089 943240 892294 1.01185e+06 936742
          1.01183e+06 936723 642466 -77576.9 -70070.8 -28202.9 71092.2 206148 360411 547118 681966 742366
          774303 795884 801092 789539 768027 744872 720371 693744 650900 561121 435160 352950
          346100 429186 589349 702276 752771 775630 785483 783618 783615 115462 549689 564194
          628378 670610 692497 705572 717030 731116 748314 763892 773628 775688 770498 760298
          748145 737363 729200 721803 712917 702601 694100 692258 699770 715199 734821 753067
          764153 768364 766912 766910 -1.01865e+06 742194 741822 743581 745399 746803 747814 748703
          749707 750844 751936 752684 752816 752330 751494 750653 750010 749548 749081 748390
          747470 746654 746448 747124 748468 749961 751152 751840 752034 751757 751757 -179884
          748823 748723 749014 749315 749531 749688 749886 750212 750658 751098 751386 751433
          751243 750910 750565 750307 750144 750000 749792 749519 749275 749195 749372 749793
          750332 750800 751064 751123 751001 751001 3.24927e+06 750366 750376 750412 750442 750460
          750471 750481 750496 750516 750537 750552 750554 750544 750528 750512 750502 750497
          750492 750484 750471 750459 750454 750462 750482 750505 750525 750535 750536 750529
          750529 852419 750450 750456 750472 750484 750492 750496 750499 750504 750511 750518
          750523 750524 750521 750515 750510 750507 750506 750505 750502 750498 750494 750492
          750495 750501 750509 750515 750518 750518 750516 750516 193371 750498 750499 750503
          750506 750508 750509 750509 750510 750510 750511 750511 750511 750511 750511 750511
          750510 750510 750510 750510 750510 750510 750510 750510 750510 750510 750511 750511
          750511 750511 750511 30605.2 750506 750506 750508 750509 750510 750510 750511 750511
          750511 750511 750511 750511 750511 750511 750511 750511 750511 750511 750511 750511
          750511 750511 750511 750511 750511 750511 750511 750511 750511 750511 -14505.4 750511
          750511 750511 750511 750512 750512 750512 750512 750512 750512 750512 750512 750512
          750512 750512 750512 750512 750512 750512 750512 750512 750512 750512 750512 750512
          750512 750512 750512 750512 750512 2.48839e+06 750512 750512 750512 750512 750512 750512
          750512 750512 750512 750512 750512 750512 750512 750512 750512 750512 750512 750512
          750512 750512 750512 750512 750512 750512 750512 750512 750512 750512 750512 750512
          1.60431e+06 750512 750512 750512 750512 750512 750512 750512 750512 750512 750512 750512
          750512 750512 750512 750512 750512 750512 750512 750512 750512 750512 750512 750512
          750512 750512 750512 750512 750512 750512 750512 -357846 750512 750512 750512 750512
          750512 750512 750512 750512 750512 750512 750512 750512 750512 750512 750512 750512
          750512 750512 750512 750512 750512 750512 750512 750512 750512 750512 750512 750512
          750512 750512 548603 750512 750512 750512 750512 750512 750512 750512 750512 750512
          750512 750512 750512 750512 750512 750512 750512 750512 750512 750512 750512 750512
          750512 750512 750512 750512 750512 750512 750512 750512 750512 2.49255e+06 750512 750512
          750512 750512 750512 750512 750512 750512 750512 750512 750512 750512 750512 750512
          750512 750512 750512 750512 750512 750512 750512 750512 750512 750512 750512 750512
          750512 750512 750512 750512 510004 750512 750512 750512 750512 750512 750512 750512
          750512 750512 750512 750512 750512 750512 750512 750512 750512 750512 750512 750512
          750512 750512 750512 750512 750512 750512 750512 750512 750512 750512 750512 222451
          750512 750512 750512 750512 750512 750512 750512 750512 750512 750512 750512 750512
          750512 750512 750512 750512 750512 750512 750512 750512 750512 750512 750512 750512
          750512 750512 750512 750512 750512 750512 222451 750512 750512 750512 750512 750512
          750512 750512 750512 750512 750512 750512 750512 750512 750512 750512 750512 750512
          750512 750512 750512 750512 750512 750512 750512 750512 750512 750512 750512 750512
          750512
        </DataArray>
        <DataArray type="Float32" Name="xH2Og" NumberOfComponents="1" format="ascii">
          0.0016241 0.00115899 0.0092684 0.00269147 0.00119675 0.00353406 0.00124594 0.00395322 0.00131029 0.0041323 0.00138175 0.00422531
          0.00144524 0.00428947 0.00150855 0.004387 0.00162766 0.00452093 0.00180455 0.00456855 0.00195954 0.00457358 0.00222942 0.00451823
          0.0024178 0.00450047 0.00244015 0.00456086 0.00224656 0.00463851 0.002149 0.00465917 0.00204036 0.00466563 0.0019323 0.00466691
          0.00182994 0.00465963 0.00176234 0.00462657 0.0017423 0.00460261 0.00174021 0.00460487 0.00175364 0.004611 0.00178471 0.00462288
          0.00184271 0.00467584 0.00199405 0.00472959 0.00217839 0.00476009 0.00235408 0.00477576 0.00278079 0.00479454 0.00305474 0.00486131
          0.00314452 0.0062 0.000466979 0.00268669 0.00353005 0.00395155 0.00413146 0.00422505 0.00428827 0.00433765 0.00437781 0.00441301
          0.00444469 0.00447031 0.00449243 0.00451182 0.00452802 0.00454185 0.00455683 0.00456974 0.00458103 0.00459063 0.00459804 0.00460443
          0.00461066 0.0046186 0.00463119 0.00465395 0.00469868 0.00478037 0.00492473 0.00513307 0.0062 0.00353564 0.00245939 0.00330994
          0.00367557 0.00386166 0.003979 0.00406324 0.00412859 0.00418147 0.00422624 0.00426642 0.00430151 0.0043321 0.00435876 0.0043821
          0.00440342 0.00442446 0.00444327 0.00445961 0.00447379 0.00448559 0.00449547 0.00450387 0.00451252 0.00452564 0.00455168 0.00460666
          0.00471644 0.00491794 0.00523453 0.0062 -0.000499659 0.00173248 0.0026465 0.00318704 0.00348231 0.00365972 0.00378183 0.0038732
          0.00394585 0.00400595 0.0040576 0.00410292 0.00414334 0.00417963 0.00421231 0.00424192 0.00426933 0.00429417 0.004316 0.00433494
          0.00435087 0.00436407 0.00437508 0.00438571 0.00440044 0.00442911 0.00449025 0.00461729 0.00486065 0.00527071 0.0062 -0.00486826
          0.00120308 0.00198158 0.002604 0.00301241 0.00326916 0.00344235 0.00356841 0.00366654 0.00374643 0.00381414 0.00387313 0.00392575
          0.00397289 0.00401531 0.00405369 0.00408881 0.00412074 0.00414917 0.004174 0.00419511 0.00421268 0.00422718 0.0042405 0.00425704
          0.00428732 0.00435168 0.00448925 0.00476334 0.00525261 0.0062 0.00019827 0.000882086 0.00142814 0.0020042 0.00247034 0.00280289
          0.0030364 0.00320607 0.00333637 0.00344105 0.00352866 0.00360428 0.00367136 0.00373165 0.00378576 0.00383464 0.00387913 0.00391961
          0.00395599 0.00398811 0.0040158 0.00403914 0.00405855 0.00407583 0.00409526 0.00412751 0.00419411 0.00433848 0.00463599 0.00519296
          0.0062 0.000580219 0.000725787 0.00104175 0.00147979 0.00191705 0.00228366 0.00256774 0.00278341 0.00295077 0.00308494 0.00319647
          0.00329201 0.00337614 0.00345173 0.00351981 0.00358121 0.00363701 0.00368783 0.00373381 0.0037749 0.00381091 0.00384187 0.00386812
          0.00389134 0.0039157 0.00395172 0.00402177 0.00417233 0.00448898 0.00510357 0.0062 0.00161674 0.000673266 0.000821617 0.00109699
          0.00143534 0.00177163 0.00206867 0.00231491 0.0025154 0.00267972 0.00281731 0.00293523 0.00303875 0.00313153 0.00321564 0.00329168
          0.00336087 0.00342404 0.00348157 0.00353358 0.00357997 0.00362079 0.00365637 0.00368828 0.00372054 0.00376343 0.00383977 0.00399822
          0.00433261 0.00499777 0.0062 0.00362299 0.000672373 0.000727522 0.000869594 0.00108617 0.00134171 0.00160204 0.00184395 0.00205782
          0.00224274 0.00240252 0.0025418 0.00266504 0.00277584 0.00287689 0.00296907 0.0030534 0.00313082 0.00320189 0.00326692 0.00332599
          0.00337924 0.00342705 0.00347092 0.00351468 0.00356824 0.0036544 0.0038231 0.00417458 0.00488431 0.0062 0.00559428 0.000691325
          0.000710501 0.000771978 0.000887645 0.00104931 0.00123929 0.00143904 0.00163461 0.00181777 0.00198545 0.00213757 0.00227571 0.00240191
          0.00251837 0.00262621 0.00272607 0.00281874 0.00290479 0.00298464 0.00305853 0.00312674 0.00318975 0.00324893 0.00330786 0.00337578
          0.00347493 0.00365572 0.00402359 0.00477299 0.0062 0.000282608 0.000718219 0.000733421 0.000761711 0.000817438 0.000905951 0.00102408
          0.00116376 0.00131571 0.00147165 0.00162564 0.00177399 0.00191497 0.00204811 0.00217393 0.00229323 0.00240601 0.00251258 0.00261324
          0.00270832 0.00279809 0.00288287 0.00296317 0.00304015 0.00311686 0.0032015 0.00331507 0.00350755 0.00388827 0.00466941 0.0062
          0.000419995 0.000755853 0.000781197 0.000806759 0.000841154 0.000891613 0.000961459 0.00105024 0.001155 0.00127155 0.00139559 0.00152327
          0.00165164 0.0017786 0.00190304 0.00202484 0.00214358 0.00225878 0.00237025 0.00247794 0.00258195 0.00268245 0.00277975 0.0028746
          0.00296919 0.00307023 0.00319671 0.00339728 0.00378388 0.00458478 0.0062 -0.00177125 0.000816925 0.000860681 0.000900076 0.000939213
          0.000982957 0.00103527 0.00109841 0.00117297 0.00125828 0.00135282 0.00145466 0.00156179 0.00167236 0.00178488 0.0018987 0.00201349
          0.00212837 0.00224272 0.00235613 0.0024684 0.0025794 0.00268906 0.0027975 0.00290575 0.00301852 0.00315197 0.003352 0.00373102
          0.00453046 0.0062 0.00103124 0.000928573 0.00100238 0.00106819 0.00112876 0.00118742 0.00124722 0.00131054 0.00137884 0.00145285
          0.00153265 0.00161793 0.00170805 0.00180222 0.00189964 0.00199985 0.00210297 0.00220854 0.00231609 0.00242525 0.00253572 0.0026472
          0.00275932 0.00287163 0.00298402 0.00309889 0.00322843 0.00341371 0.00376447 0.00452975 0.0062 0.000404545 0.00115039 0.0012752
          0.00138437 0.00148146 0.00157029 0.00165408 0.00173531 0.00181565 0.00189621 0.00197763 0.00206026 0.00214424 0.00222961 0.00231626
          0.00240407 0.00249345 0.00258471 0.00267796 0.00277329 0.00287071 0.0029701 0.00307119 0.00317338 0.00327598 0.00337932 0.00349039
          0.00364086 0.00393178 0.00461172 0.0062 0.00178049 0.00164213 0.00184563 0.0020174 0.00216411 0.0022921 0.00240637 0.00251079
          0.00260797 0.00269976 0.00278735 0.00287162 0.00295317 0.00303254 0.00311011 0.00318598 0.00326027 0.00333383 0.00340727 0.00348106
          0.00355563 0.00363123 0.00370798 0.00378563 0.00386371 0.0039416 0.00402126 0.00411891 0.00430786 0.00482488 0.0062 0.00543512
          0.00289944 0.00315569 0.00336213 0.00353074 0.00367093 0.00378964 0.00389233 0.00398274 0.00406372 0.00413718 0.0042046 0.00426701
          0.00432532 0.00438021 0.00443218 0.00448117 0.00452763 0.00457226 0.0046156 0.00465813 0.00470021 0.00474217 0.00478414 0.00482616
          0.0048679 0.00490905 0.004952 0.0050207 0.00524672 0.0062 0.0060824 0.0062 0.0062 0.0062 0.0062 0.0062
          0.0062 0.0062 0.0062 0.0062 0.0062 0.0062 0.0062 0.0062 0.0062 0.0062 0.0062 0.0062
          0.0062 0.0062 0.0062 0.0062 0.0062 0.0062 0.0062 0.0062 0.0062 0.0062 0.0062 0.0062
          0.0062
        </DataArray>
        <DataArray type="Float32" Name="xAirg" NumberOfComponents="1" format="ascii">
          0.998376 0.998841 0.990732 0.997309 0.998803 0.996466 0.998754 0.996047 0.99869 0.995868 0.998618 0.995775
          0.998555 0.995711 0.998491 0.995613 0.998372 0.995479 0.998195 0.995431 0.99804 0.995426 0.997771 0.995482
          0.997582 0.9955 0.99756 0.995439 0.997753 0.995362 0.997851 0.995341 0.99796 0.995334 0.998068 0.995333
          0.99817 0.99534 0.998238 0.995373 0.998258 0.995397 0.99826 0.995395 0.998246 0.995389 0.998215 0.995377
          0.998157 0.995324 0.998006 0.99527 0.997822 0.99524 0.997646 0.995224 0.997219 0.995205 0.996945 0.995139
          0.996855 0.9938 0.999533 0.997313 0.99647 0.996048 0.995869 0.995775 0.995712 0.995662 0.995622 0.995587
          0.995555 0.99553 0.995508 0.995488 0.995472 0.995458 0.995443 0.99543 0.995419 0.995409 0.995402 0.995396
          0.995389 0.995381 0.995369 0.995346 0.995301 0.99522 0.995075 0.994867 0.9938 0.996464 0.997541 0.99669
          0.996324 0.996138 0.996021 0.995937 0.995871 0.995819 0.995774 0.995734 0.995699 0.995668 0.995641 0.995618
          0.995597 0.995576 0.995557 0.99554 0.995526 0.995514 0.995505 0.995496 0.995488 0.995474 0.995448 0.995393
          0.995284 0.995082 0.994765 0.9938 1.0005 0.998268 0.997353 0.996813 0.996518 0.99634 0.996218 0.996127
          0.996054 0.995994 0.995942 0.995897 0.995857 0.99582 0.995788 0.995758 0.995731 0.995706 0.995684 0.995665
          0.995649 0.995636 0.995625 0.995614 0.9956 0.995571 0.99551 0.995383 0.995139 0.994729 0.9938 1.00487
          0.998797 0.998018 0.997396 0.996988 0.996731 0.996558 0.996432 0.996333 0.996254 0.996186 0.996127 0.996074
          0.996027 0.995985 0.995946 0.995911 0.995879 0.995851 0.995826 0.995805 0.995787 0.995773 0.995759 0.995743
          0.995713 0.995648 0.995511 0.995237 0.994747 0.9938 0.999802 0.999118 0.998572 0.997996 0.99753 0.997197
          0.996964 0.996794 0.996664 0.996559 0.996471 0.996396 0.996329 0.996268 0.996214 0.996165 0.996121 0.99608
          0.996044 0.996012 0.995984 0.995961 0.995941 0.995924 0.995905 0.995872 0.995806 0.995661 0.995364 0.994807
          0.9938 0.99942 0.999274 0.998958 0.99852 0.998083 0.997716 0.997432 0.997217 0.997049 0.996915 0.996804
          0.996708 0.996624 0.996548 0.99648 0.996419 0.996363 0.996312 0.996266 0.996225 0.996189 0.996158 0.996132
          0.996109 0.996084 0.996048 0.995978 0.995828 0.995511 0.994896 0.9938 0.998383 0.999327 0.999178 0.998903
          0.998565 0.998228 0.997931 0.997685 0.997485 0.99732 0.997183 0.997065 0.996961 0.996868 0.996784 0.996708
          0.996639 0.996576 0.996518 0.996466 0.99642 0.996379 0.996344 0.996312 0.996279 0.996237 0.99616 0.996002
          0.995667 0.995002 0.9938 0.996377 0.999328 0.999272 0.99913 0.998914 0.998658 0.998398 0.998156 0.997942
          0.997757 0.997597 0.997458 0.997335 0.997224 0.997123 0.997031 0.996947 0.996869 0.996798 0.996733 0.996674
          0.996621 0.996573 0.996529 0.996485 0.996432 0.996346 0.996177 0.995825 0.995116 0.9938 0.994406 0.999309
          0.99929 0.999228 0.999112 0.998951 0.998761 0.998561 0.998365 0.998182 0.998015 0.997862 0.997724 0.997598
          0.997482 0.997374 0.997274 0.997181 0.997095 0.997015 0.996941 0.996873 0.99681 0.996751 0.996692 0.996624
          0.996525 0.996344 0.995976 0.995227 0.9938 0.999717 0.999282 0.999267 0.999238 0.999183 0.999094 0.998976
          0.998836 0.998684 0.998528 0.998374 0.998226 0.998085 0.997952 0.997826 0.997707 0.997594 0.997487 0.997387
          0.997292 0.997202 0.997117 0.997037 0.99696 0.996883 0.996799 0.996685 0.996492 0.996112 0.995331 0.9938
          0.99958 0.999244 0.999219 0.999193 0.999159 0.999108 0.999039 0.99895 0.998845 0.998728 0.998604 0.998477
          0.998348 0.998221 0.998097 0.997975 0.997856 0.997741 0.99763 0.997522 0.997418 0.997318 0.99722 0.997125
          0.997031 0.99693 0.996803 0.996603 0.996216 0.995415 0.9938 1.00177 0.999183 0.999139 0.9991 0.999061
          0.999017 0.998965 0.998902 0.998827 0.998742 0.998647 0.998545 0.998438 0.998328 0.998215 0.998101 0.997986
          0.997872 0.997757 0.997644 0.997532 0.997421 0.997311 0.997203 0.997094 0.996982 0.996848 0.996648 0.996269
          0.99547 0.9938 0.998969 0.999071 0.998998 0.998932 0.998871 0.998813 0.998753 0.998689 0.998621 0.998547
          0.998467 0.998382 0.998292 0.998198 0.9981 0.998 0.997897 0.997791 0.997684 0.997575 0.997464 0.997353
          0.997241 0.997128 0.997016 0.996901 0.996772 0.996586 0.996236 0.99547 0.9938 0.999595 0.99885 0.998725
          0.998616 0.998519 0.99843 0.998346 0.998265 0.998184 0.998104 0.998022 0.99794 0.997856 0.99777 0.997684
          0.997596 0.997507 0.997415 0.997322 0.997227 0.997129 0.99703 0.996929 0.996827 0.996724 0.996621 0.99651
          0.996359 0.996068 0.995388 0.9938 0.998219 0.998358 0.998154 0.997983 0.997836 0.997708 0.997594 0.997489
          0.997392 0.9973 0.997213 0.997128 0.997047 0.996967 0.99689 0.996814 0.99674 0.996666 0.996593 0.996519
          0.996444 0.996369 0.996292 0.996214 0.996136 0.996058 0.995979 0.995881 0.995692 0.995175 0.9938 0.994565
          0.997101 0.996844 0.996638 0.996469 0.996329 0.99621 0.996108 0.996017 0.995936 0.995863 0.995795 0.995733
          0.995675 0.99562 0.995568 0.995519 0.995472 0.995428 0.995384 0.995342 0.9953 0.995258 0.995216 0.995174
          0.995132 0.995091 0.995048 0.994979 0.994753 0.9938 0.993918 0.9938 0.9938 0.9938 0.9938 0.9938
          0.9938 0.9938 0.9938 0.9938 0.9938 0.9938 0.9938 0.9938 0.9938 0.9938 0.9938 0.9938
          0.9938 0.9938 0.9938 0.9938 0.9938 0.9938 0.9938 0.9938 0.9938 0.9938 0.9938 0.9938
          0.9938
        </DataArray>
        <DataArray type="Float32" Name="h" NumberOfComponents="1" format="ascii">
          36901.7 29957.2 355178 -68345.6 30430.3 -80961.4 31013.7 -98825.3 31739.1 -75911.2 32308 -39894.1
          32647 -15436.4 32892.1 -53570.9 33771.8 -70655.2 34600.8 -10850.9 34755.1 31381.2 34876.4 50102.5
          35033.9 54486.4 35148.1 49718.1 35146 34353.1 35183.2 5674.98 34997.2 -23620.5 34643.6 -50709
          34125.2 -78068.3 33638.8 -63952.8 33510.6 -16642.3 33484 -15881.6 33509.9 -16623.2 33604.8 -17245.7
          33909.4 -76328.6 34894.6 -46530.9 35414 9063.95 35468.6 39884.9 35806.9 50502.5 36072.2 54403.2
          36182.2 40154.9 73924.8 -66577.6 -79137.4 -97817.1 -71434.4 -39598.5 -12782.8 12266.5 27781 34371.9
          37969.4 40759.3 41587.5 40312.8 37885.4 35545.4 33097.7 30371.4 25801 15598.6 -277.209 -12031.5
          -13077.1 -1070.12 18966.9 31481.4 36848.4 39636.3 41443.4 42234.2 40418.1 -174173 -2810.97 5616.09
          15938.6 22177.3 25535.9 27632.4 29367.7 31254.8 33375.5 35281.5 36556.9 37003.3 36664 35785.1
          34693.6 33727 33005.6 32338.5 31489.3 30458.9 29589.2 29400.4 30185.3 31786.6 33827 35796.9
          37287.1 38536.6 39835.2 40446.9 102095 11649.5 18940.7 23715.8 26549.2 28302.6 29498.7 30384.2
          31102.4 31716.7 32250.4 32692.6 33024.9 33253.5 33413.5 33546.6 33676.3 33799.8 33895.9 33940.7
          33930.8 33898.4 33892.5 33944 34040.1 34166 34357.8 34792 35774.4 37672.9 40472.9 616125
          8306.76 14241.9 19275.8 22795.7 25100.6 26672.9 27811.8 28698.4 29423.7 30034 30548.1 30978.3
          31332.4 31627.6 31884.3 32117.1 32327.6 32506.6 32643.7 32735.5 32788.6 32813.7 32821.8 32820
          32833.9 32932.4 33323.9 34408.6 36764.1 40474.2 76051.6 6182.42 10189.3 14580.1 18327.7 21140.1
          23180.8 24677 25818.4 26722.3 27466.4 28097.5 28647.9 29133.1 29559 29935.7 30270.5 30565.7
          30820.5 31032.6 31198.2 31314.8 31379.2 31393.1 31364.1 31329.7 31381.8 31760.4 32946.7 35719.9
          40475 12820.6 5142.08 7413.28 10606.7 13916.4 16823.8 19175.3 21009.3 22446.9 23595.5 24540.5
          25338.8 26031.8 26645.5 27188.8 27669 28096.1 28474.6 28805.1 29086.3 29314.8 29488.1 29602.3
          29659 29666.3 29661.9 29743.2 30163.5 31467 34618.3 40475.1 -118123 4800.56 5897.14 7857.52
          10297.4 12801.3 15101.7 17075.9 18722.1 20085.7 21228 22201 23047 23797.1 24469 25066.4
          25599.8 26075.7 26496.4 26862 27170.1 27418.6 27604.6 27730.2 27804.9 27866.8 28016.9 28517.3
          29959.8 33477.8 40475.1 -339954 4768.21 5247.41 6278.13 7800.62 9609.94 11499 13308.5 14954
          16406.7 17677.1 18789.1 19771.5 20650.1 21446 22164.2 22811.8 23395.8 23919.8 24384.8 24789.9
          25134.3 25417 25641.2 25818.2 25985.4 26244.4 26859.9 28458.9 32331 40475.1 -547578 4833.77
          5079.99 5579.03 6407.3 7524.51 8835.62 10234.4 11634 12973.8 14223.3 15371.7 16422.6 17385.4
          18274.1 19094 19847.4 20538.7 21170.9 21745.3 22262.3 22722.1 23125.7 23477.6 23789.7 24097.2
          24497.3 25251.6 27014 31225.3 40475.1 67420.5 4919.68 5127.46 5409.39 5846.78 6471.75 7270.9
          8204.42 9224.56 10285.1 11349.6 12391.7 13395.7 14353.8 15266.1 16135.3 16957.5 17732.2 18459.1
          19138.4 19770 20354.8 20894.5 21393.8 21863.3 22332.6 22889.3 23785.3 25692.2 30193.5 40475.1
          48990.8 5035.73 5280.49 5528.3 5823.23 6203.34 6687.09 7274.38 7953.09 8704.5 9508.26 10344.6
          11196.5 12050.5 12897.8 13736.7 14561.8 15367 16148.3 16902.8 17629.1 18326.6 18996.4 19640.8
          20266.7 20894.9 21598.6 22613.4 24618.6 29325.3 40475.1 228004 5238.39 5560.43 5865.12 6170.41
          6499.6 6872.26 7300.13 7787.46 8332.75 8930.8 9574.11 10254.2 10962.2 11690.6 12436.5 13198.6
          13970.1 14745.7 15521.1 16293.4 17060.4 17820.7 18573.5 19319.3 20068.5 20875.4 21951.9 23966.3
          28723.4 40475.1 -16763.3 5659.5 6122.7 6555.63 6968.06 7374.46 7789 8222.9 8683.37 9174.19
          9696.39 10249.3 10830.8 11438.2 12068.3 12720.4 13397.4 14097.2 14817.5 15556.1 16310.9 17079.8
          17860.3 18648.7 19440.6 20235.8 21068.3 22115.1 24008.7 28585.9 40475.1 67992.7 6615.56 7355.2
          8030.64 8654.12 9241.9 9808.75 10366.4 10922.8 11482.8 12049.1 12622.8 13204.5 13794.2 14391.6
          14996.5 15612.7 16243.1 16889.2 17552.4 18233.8 18933.3 19649.8 20380.1 21118.4 21858.9 22615.2
          23512.1 25100.1 29151.3 40475.1 -19382.1 9063.72 10315.2 11411.1 12378.8 13248.4 14045.2 14789.3
          15494.3 16169.7 16821.4 17453.2 18067.9 18667.8 19254.6 19828.4 20389.7 20944 21495.3 22047.2
          22603.1 23165.2 23735.1 24312.2 24894.1 25475.3 26056.1 26692.4 27752.5 30790.5 40475.1 -85694.6
          16452.9 18247.5 19726.3 20961.1 22009.8 22915.5 23713.2 24427 25075.2 25670 26220.9 26734.6
          27216.9 27672.2 28103.8 28510.7 28895.8 29264 29619.2 29964.7 30303.4 30637.9 30969.6 31299.7
          31627 31949.5 32272.1 32701.4 34016.2 40475.1 -82383.9 40475.1 40475.1 40475.1 40475.1 40475.1
          40475.1 40475.1 40475.1 40475.1 40475.1 40475.1 40475.1 40475.1 40475.1 40475.1 40475.1 40475.1
          40475.1 40475.1 40475.1 40475.1 40475.1 40475.1 40475.1 40475.1 40475.1 40475.1 40475.1 40475.1
          40475.1
        </DataArray>
        <DataArray type="Float32" Name="rho" NumberOfComponents="1" format="ascii">
          0.00427713 0.00541451 0.00314579 0.0104453 0.00783196 0.0150861 0.0114146 0.0223081 0.0402652 0.0759372 0.0766069 0.147037
          0.116607 0.222565 0.25162 0.440386 1.49626 2.25824 4.59358 6.16605 8.75165 9.34608 12.0545 11.0364
          13.0226 11.5128 11.9415 10.9479 9.16139 9.5303 5.88241 7.345 3.6788 5.14854 2.24597 3.31575
          1.08201 1.6676 0.352396 0.598216 0.172535 0.320756 0.13951 0.263659 0.13951 0.263574 0.177916 0.330032
          0.504884 0.824382 2.43728 3.56779 6.13714 7.55931 9.93616 9.93926 11.8927 10.8883 12.6747 11.2429
          12.6742 11.8059 7.47271 0.336721 0.447696 1.05967 2.45388 4.25965 6.15219 8.03219 9.21228 9.71336
          9.96661 10.1231 10.1562 10.0674 9.90113 9.71049 9.50468 9.27903 8.91212 8.12137 6.93083 6.04452
          5.96614 6.86973 8.37303 9.34782 9.76626 9.94204 10.0021 9.96435 10.0623 3.16488 8.42515 8.40057
          8.90286 9.22944 9.3903 9.48246 9.56507 9.67205 9.80597 9.92615 9.99823 10.0087 9.96133 9.87351
          9.76934 9.67628 9.60523 9.54091 9.46452 9.37646 9.30406 9.28855 9.35276 9.48378 9.64866 9.79893
          9.88302 9.89943 9.85451 9.8721 -16.7769 10.3665 10.1422 10.0233 9.96278 9.92896 9.90678 9.89215
          9.88357 9.8794 9.87699 9.87327 9.86578 9.85432 9.84086 9.8281 9.81763 9.80938 9.8018 9.79315
          9.78348 9.77562 9.77385 9.78041 9.7934 9.8077 9.81767 9.81672 9.79737 9.75067 9.69955 -1.43292
          10.5501 10.3636 10.2155 10.1154 10.0509 10.0076 9.97748 9.95622 9.94097 9.92899 9.91805 9.90679
          9.89504 9.88337 9.87265 9.86358 9.85622 9.84995 9.84415 9.83889 9.83505 9.83388 9.83617 9.84171
          9.84863 9.85334 9.84919 9.82603 9.76949 9.69093 33.4636 10.6366 10.5086 10.3731 10.2602 10.1769
          10.1171 10.0738 10.0411 10.0156 9.99486 9.97733 9.96203 9.94848 9.93659 9.92612 9.91692 9.90892
          9.90207 9.89641 9.89201 9.88903 9.88765 9.88795 9.88984 9.89243 9.89351 9.88701 9.86056 9.79432
          9.68556 11.6265 10.6712 10.5975 10.4966 10.3942 10.3059 10.2354 10.181 10.1389 10.1055 10.0784
          10.0556 10.036 10.0186 10.0033 9.98993 9.97809 9.96771 9.95872 9.95115 9.94508 9.94061 9.9379
          9.93697 9.93773 9.93933 9.93943 9.93163 9.90183 9.82525 9.68541 4.30666 10.6828 10.6468 10.5837
          10.5066 10.4288 10.3583 10.2985 10.2491 10.2086 10.175 10.1466 10.1221 10.1006 10.0814 10.0645
          10.0495 10.0362 10.0245 10.0145 10.0062 9.99959 9.99487 9.99198 9.99077 9.99038 9.98838 9.97811
          9.94413 9.85709 9.68535 1.97272 10.6841 10.668 10.6343 10.5854 10.5282 10.4693 10.4134 10.3631
          10.3191 10.281 10.2478 10.2188 10.1931 10.1699 10.1491 10.1306 10.1139 10.0991 10.0861 10.0749
          10.0655 10.058 10.0523 10.0481 10.0446 10.0393 10.0255 9.98666 9.88913 9.68536 1.30609 10.6824
          10.6737 10.6571 10.6302 10.5944 10.5529 10.5091 10.4656 10.4244 10.3862 10.3514 10.3198 10.291
          10.2647 10.2406 10.2185 10.1985 10.1803 10.1639 10.1492 10.1364 10.1252 10.1157 10.1075 10.0998
          10.0903 10.0721 10.028 9.92016 9.68536 26.5225 10.6801 10.6728 10.6631 10.6487 10.6284 10.6029
          10.5734 10.5414 10.5084 10.4755 10.4436 10.413 10.3839 10.3565 10.3305 10.306 10.2832 10.2619
          10.2421 10.2239 10.2071 10.1918 10.1778 10.1649 10.1523 10.1378 10.1152 10.0663 9.94931 9.68537
          18.4687 10.677 10.6687 10.6603 10.6504 10.6379 10.6224 10.6037 10.5823 10.5589 10.5339 10.5082
          10.482 10.456 10.4302 10.4049 10.3801 10.3561 10.3329 10.3106 10.2893 10.269 10.2497 10.2312
          10.2134 10.1958 10.1768 10.1502 10.0979 9.97408 9.68537 -4.6318 10.6715 10.661 10.6509 10.6409
          10.6301 10.6181 10.6045 10.5891 10.5721 10.5535 10.5337 10.5128 10.4912 10.4691 10.4466 10.4236
          10.4005 10.3773 10.3543 10.3315 10.309 10.2867 10.2648 10.2433 10.222 10.1996 10.1707 10.1175
          9.99149 9.68537 8.75407 10.6597 10.6449 10.6311 10.6179 10.6049 10.5917 10.578 10.5635 10.5482
          10.5321 10.5151 10.4973 10.4788 10.4598 10.4401 10.4198 10.3989 10.3775 10.3556 10.3334 10.3108
          10.288 10.265 10.2421 10.2193 10.1959 10.1675 10.1174 9.99592 9.68537 26.5312 10.6318 10.6088
          10.5877 10.5683 10.55 10.5324 10.5151 10.4979 10.4807 10.4633 10.4458 10.4282 10.4104 10.3925
          10.3745 10.3562 10.3376 10.3186 10.2991 10.2793 10.259 10.2382 10.2172 10.196 10.1749 10.1536
          10.1293 10.0875 9.98071 9.68537 8.26239 10.5591 10.5209 10.4877 10.4584 10.4321 10.4081 10.3857
          10.3646 10.3444 10.325 10.3062 10.288 10.2704 10.2532 10.2364 10.2201 10.2041 10.1882 10.1724
          10.1565 10.1405 10.1244 10.1081 10.0918 10.0755 10.0594 10.0422 10.0146 9.93601 9.68537 4.56376
          10.3419 10.2894 10.2465 10.2108 10.1807 10.1548 10.132 10.1117 10.0933 10.0764 10.0608 10.0463
          10.0328 10.02 10.0079 9.99653 9.98581 9.97559 9.96576 9.95624 9.94694 9.93779 9.92875 9.91979
          9.91092 9.90219 9.89356 9.88252 9.84949 9.68537 4.54851 9.68537 9.68537 9.68537 9.68537 9.68537
          9.68537 9.68537 9.68537 9.68537 9.68537 9.68537 9.68537 9.68537 9.68537 9.68537 9.68537 9.68537
          9.68537 9.68537 9.68537 9.68537 9.68537 9.68537 9.68537 9.68537 9.68537 9.68537 9.68537 9.68537
          9.68537
        </DataArray>
        <DataArray type="Float32" Name="mu" NumberOfComponents="1" format="ascii">
          1.86712e-05 1.83806e-05 3.06042e-05 1.39444e-05 1.84e-05 1.39963e-05 1.84238e-05 1.4171e-05 1.84531e-05 1.45482e-05 1.84746e-05 1.5133e-05
          1.84858e-05 1.59666e-05 1.84929e-05 1.51856e-05 1.85277e-05 1.54775e-05 1.856e-05 1.6435e-05 1.85659e-05 1.82513e-05 1.85628e-05 1.91143e-05
          1.85615e-05 1.93142e-05 1.85625e-05 1.9094e-05 1.85669e-05 1.83846e-05 1.85668e-05 1.70431e-05 1.85603e-05 1.61282e-05 1.85481e-05 1.57153e-05
          1.85288e-05 1.53653e-05 1.85094e-05 1.51836e-05 1.85045e-05 1.59162e-05 1.85034e-05 1.59365e-05 1.85036e-05 1.59049e-05 1.85058e-05 1.58929e-05
          1.85165e-05 1.51905e-05 1.85559e-05 1.57708e-05 1.85762e-05 1.71963e-05 1.85771e-05 1.86308e-05 1.85725e-05 1.91146e-05 1.85712e-05 1.92871e-05
          1.8571e-05 1.85693e-05 2.04347e-05 1.49097e-05 1.49537e-05 1.51171e-05 1.54746e-05 1.58601e-05 1.63845e-05 1.73725e-05 1.80967e-05 1.84001e-05
          1.85639e-05 1.86902e-05 1.87267e-05 1.86671e-05 1.85547e-05 1.8446e-05 1.83319e-05 1.82047e-05 1.79915e-05 1.75134e-05 1.6797e-05 1.64002e-05
          1.63715e-05 1.67652e-05 1.7669e-05 1.8251e-05 1.84963e-05 1.86193e-05 1.86929e-05 1.87158e-05 1.85693e-05 1.51793e-05 1.67902e-05 1.71221e-05
          1.75872e-05 1.78683e-05 1.80178e-05 1.81101e-05 1.81866e-05 1.82708e-05 1.83662e-05 1.84517e-05 1.85083e-05 1.85269e-05 1.85095e-05 1.84675e-05
          1.84157e-05 1.83697e-05 1.83351e-05 1.83032e-05 1.82629e-05 1.82144e-05 1.81734e-05 1.81641e-05 1.82001e-05 1.82736e-05 1.83664e-05 1.8454e-05
          1.85158e-05 1.85606e-05 1.86001e-05 1.85693e-05 1.26438e-05 1.75006e-05 1.77922e-05 1.79832e-05 1.80969e-05 1.81673e-05 1.82151e-05 1.82504e-05
          1.8279e-05 1.83037e-05 1.83251e-05 1.83426e-05 1.83554e-05 1.83637e-05 1.8369e-05 1.83732e-05 1.83775e-05 1.83816e-05 1.83846e-05 1.83855e-05
          1.8384e-05 1.83817e-05 1.83808e-05 1.83825e-05 1.83861e-05 1.83902e-05 1.83953e-05 1.84075e-05 1.84376e-05 1.8499e-05 1.85693e-05 1.28917e-05
          1.73702e-05 1.76096e-05 1.78106e-05 1.79509e-05 1.80428e-05 1.81052e-05 1.81503e-05 1.81853e-05 1.82139e-05 1.8238e-05 1.82581e-05 1.82747e-05
          1.82881e-05 1.8299e-05 1.83085e-05 1.8317e-05 1.83247e-05 1.83312e-05 1.8336e-05 1.83389e-05 1.83403e-05 1.83405e-05 1.83401e-05 1.83391e-05
          1.83379e-05 1.83386e-05 1.83483e-05 1.83813e-05 1.84589e-05 1.85693e-05 2.05489e-05 1.72852e-05 1.7448e-05 1.76243e-05 1.7774e-05 1.78862e-05
          1.79675e-05 1.80269e-05 1.8072e-05 1.81076e-05 1.81368e-05 1.81614e-05 1.81827e-05 1.82015e-05 1.82178e-05 1.82322e-05 1.82449e-05 1.82561e-05
          1.82656e-05 1.82734e-05 1.82793e-05 1.82833e-05 1.82851e-05 1.82847e-05 1.82822e-05 1.82787e-05 1.82771e-05 1.82858e-05 1.83223e-05 1.84151e-05
          1.85693e-05 1.76208e-05 1.72431e-05 1.7336e-05 1.7465e-05 1.75978e-05 1.77141e-05 1.7808e-05 1.78812e-05 1.79384e-05 1.79839e-05 1.80211e-05
          1.80525e-05 1.80796e-05 1.81034e-05 1.81245e-05 1.8143e-05 1.81594e-05 1.81738e-05 1.81862e-05 1.81967e-05 1.82051e-05 1.82112e-05 1.82149e-05
          1.82161e-05 1.8215e-05 1.82127e-05 1.82123e-05 1.82227e-05 1.82635e-05 1.83704e-05 1.85693e-05 1.51945e-05 1.72293e-05 1.72746e-05 1.73543e-05
          1.74527e-05 1.75532e-05 1.76453e-05 1.77242e-05 1.77899e-05 1.78441e-05 1.78894e-05 1.79279e-05 1.79611e-05 1.79905e-05 1.80167e-05 1.80399e-05
          1.80605e-05 1.80788e-05 1.80948e-05 1.81086e-05 1.81201e-05 1.81291e-05 1.81356e-05 1.81395e-05 1.81411e-05 1.81414e-05 1.81438e-05 1.81575e-05
          1.82039e-05 1.83249e-05 1.85693e-05 1.48349e-05 1.72278e-05 1.72481e-05 1.72904e-05 1.73522e-05 1.7425e-05 1.75008e-05 1.75732e-05 1.76389e-05
          1.76969e-05 1.77474e-05 1.77915e-05 1.78303e-05 1.78649e-05 1.78962e-05 1.79242e-05 1.79494e-05 1.7972e-05 1.79921e-05 1.80099e-05 1.80252e-05
          1.8038e-05 1.80482e-05 1.8056e-05 1.80616e-05 1.80662e-05 1.80731e-05 1.80916e-05 1.81445e-05 1.82795e-05 1.85693e-05 1.46917e-05 1.723e-05
          1.72409e-05 1.72618e-05 1.72957e-05 1.73409e-05 1.73936e-05 1.74495e-05 1.75054e-05 1.75588e-05 1.76086e-05 1.76542e-05 1.76958e-05 1.77338e-05
          1.77688e-05 1.7801e-05 1.78304e-05 1.78573e-05 1.78818e-05 1.79039e-05 1.79236e-05 1.7941e-05 1.79561e-05 1.7969e-05 1.798e-05 1.79903e-05
          1.8003e-05 1.80274e-05 1.8087e-05 1.82357e-05 1.85693e-05 2.01618e-05 1.72328e-05 1.7242e-05 1.72542e-05 1.72724e-05 1.72979e-05 1.73301e-05
          1.73674e-05 1.74081e-05 1.74502e-05 1.74925e-05 1.75337e-05 1.75734e-05 1.76113e-05 1.76472e-05 1.76814e-05 1.77136e-05 1.77438e-05 1.77721e-05
          1.77984e-05 1.78227e-05 1.78451e-05 1.78656e-05 1.78844e-05 1.79018e-05 1.79187e-05 1.7938e-05 1.79683e-05 1.80342e-05 1.81948e-05 1.85693e-05
          1.93227e-05 1.72365e-05 1.7247e-05 1.72576e-05 1.727e-05 1.72857e-05 1.73053e-05 1.73289e-05 1.73559e-05 1.73856e-05 1.74174e-05 1.74503e-05
          1.74838e-05 1.75174e-05 1.75506e-05 1.75835e-05 1.76158e-05 1.76473e-05 1.76777e-05 1.7707e-05 1.77351e-05 1.77621e-05 1.77878e-05 1.78124e-05
          1.78362e-05 1.78596e-05 1.7885e-05 1.79205e-05 1.79908e-05 1.81601e-05 1.85693e-05 1.2841e-05 1.72432e-05 1.72564e-05 1.72691e-05 1.72817e-05
          1.72953e-05 1.73104e-05 1.73276e-05 1.73471e-05 1.73686e-05 1.73922e-05 1.74174e-05 1.7444e-05 1.74717e-05 1.75001e-05 1.75292e-05 1.75588e-05
          1.75889e-05 1.7619e-05 1.76491e-05 1.76791e-05 1.77088e-05 1.77381e-05 1.77671e-05 1.77957e-05 1.78242e-05 1.78541e-05 1.78925e-05 1.79639e-05
          1.81358e-05 1.85693e-05 1.62694e-05 1.72578e-05 1.72762e-05 1.72936e-05 1.73102e-05 1.73266e-05 1.73433e-05 1.73607e-05 1.73791e-05 1.73985e-05
          1.74191e-05 1.74408e-05 1.74636e-05 1.74872e-05 1.75118e-05 1.75371e-05 1.75634e-05 1.75905e-05 1.76184e-05 1.7647e-05 1.76762e-05 1.77059e-05
          1.77361e-05 1.77665e-05 1.7797e-05 1.78274e-05 1.78587e-05 1.78966e-05 1.79639e-05 1.81295e-05 1.85693e-05 2.01805e-05 1.72923e-05 1.73212e-05
          1.73477e-05 1.73723e-05 1.73956e-05 1.74181e-05 1.74402e-05 1.74622e-05 1.74844e-05 1.75067e-05 1.75293e-05 1.75521e-05 1.75751e-05 1.75984e-05
          1.7622e-05 1.76459e-05 1.76703e-05 1.76953e-05 1.7721e-05 1.77472e-05 1.77742e-05 1.78018e-05 1.78299e-05 1.78583e-05 1.78867e-05 1.79153e-05
          1.79481e-05 1.80045e-05 1.81506e-05 1.85693e-05 1.62194e-05 1.73834e-05 1.7432e-05 1.74746e-05 1.75122e-05 1.75462e-05 1.75774e-05 1.76065e-05
          1.76341e-05 1.76606e-05 1.76862e-05 1.77109e-05 1.7735e-05 1.77584e-05 1.77813e-05 1.78037e-05 1.78255e-05 1.7847e-05 1.78683e-05 1.78896e-05
          1.7911e-05 1.79326e-05 1.79545e-05 1.79766e-05 1.79989e-05 1.80211e-05 1.80432e-05 1.80668e-05 1.81043e-05 1.82128e-05 1.85693e-05 1.56367e-05
          1.76629e-05 1.77321e-05 1.77891e-05 1.78367e-05 1.78771e-05 1.79121e-05 1.7943e-05 1.79706e-05 1.79957e-05 1.80188e-05 1.80402e-05 1.80601e-05
          1.80788e-05 1.80965e-05 1.81132e-05 1.81289e-05 1.81438e-05 1.8158e-05 1.81717e-05 1.8185e-05 1.8198e-05 1.82107e-05 1.82234e-05 1.8236e-05
          1.82484e-05 1.82607e-05 1.82728e-05 1.82883e-05 1.83346e-05 1.85693e-05 1.56762e-05 1.85693e-05 1.85693e-05 1.85693e-05 1.85693e-05 1.85693e-05
          1.85693e-05 1.85693e-05 1.85693e-05 1.85693e-05 1.85693e-05 1.85693e-05 1.85693e-05 1.85693e-05 1.85693e-05 1.85693e-05 1.85693e-05 1.85693e-05
          1.85693e-05 1.85693e-05 1.85693e-05 1.85693e-05 1.85693e-05 1.85693e-05 1.85693e-05 1.85693e-05 1.85693e-05 1.85693e-05 1.85693e-05 1.85693e-05
          1.85693e-05
        </DataArray>
        <DataArray type="Float32" Name="v" NumberOfComponents="3" format="ascii">
          -181.275 -3.44358e+06 0 -1492.27 -2.71347e+06 0 0.01 0 0 -1311.68 -98585 0
          -2703.53 -1.83491e+06 0 -2238.58 -62987.8 0 -2896.17 -1.20985e+06 0 -979.412 -20056.3 0
          -983.538 -322923 0 -579.855 -10797.8 0 -529.258 -157548 0 -287.816 -5293.86 0
          -431.272 -94519 0 -220.423 -3285.76 0 -326.737 -38538 0 -167.515 -1458.87 0
          -90.3514 -5226.2 0 -49.9524 -205.227 0 -36.7385 -1127.46 0 -21.2293 -28.1794 0
          -16.0345 -264.143 0 -10.8868 14.732 0 -5.55026 -17.5059 0 -4.23284 31.0931 0
          0.945369 36.8028 0 0.778231 34.3185 0 6.54782 -3.61682 0 5.03458 27.9088 0
          13.226 -184.447 0 9.10486 11.275 0 20.7667 -664.18 0 12.5566 -19.1303 0
          24.421 -1556.13 0 14.1328 -66.4067 0 28.95 -3146.17 0 16.7505 -143.657 0
          56.1992 -7559.68 0 32.0044 -348.494 0 175.217 -26115.3 0 91.9516 -1137.67 0
          300.649 -58308.4 0 145.715 -2391.96 0 191.929 -75837.7 0 90.8928 -3125.9 0
          -84.0149 -75947.4 0 -43.4802 -3178.18 0 -349.142 -56075.9 0 -170.562 -2394.48 0
          -240.945 -17050.4 0 -127.779 -790.115 0 -69.7911 -2627.78 0 -38.9584 -110.84 0
          -25.6749 -582.462 0 -15.8636 -9.29974 0 -8.86129 -117.273 0 -6.28659 17.3904 0
          -2.60077 14.5985 0 -1.90627 25.7517 0 -0.539733 58.7653 0 -0.36799 28.2319 0
          0.00383167 69.2825 0 0.01 0 0 0.01 0 0 -16.1094 -2754.19 0
          -44.1759 -1984.59 0 -28.5347 -788.381 0 -12.4258 -313.97 0 -6.35716 -164.952 0
          -3.99074 -102.246 0 -3.11448 -65.4268 0 -3.02406 -38.9375 0 -2.90655 -13.0602 0
          -2.17508 9.05125 0 -0.99688 21.8601 0 0.264553 24.9528 0 1.29533 19.47 0
          1.90398 7.08434 0 1.97044 -9.91496 0 1.61868 -26.1661 0 1.37719 -39.1002 0
          1.65059 -51.6276 0 2.33314 -68.8063 0 2.75645 -93.8725 0 1.7204 -118.045 0
          -0.954635 -121.682 0 -3.25906 -97.4657 0 -3.85724 -63.0762 0 -3.54875 -32.289 0
          -2.55408 -5.24053 0 -1.23698 11.2735 0 -0.281013 17.8792 0 0.0366478 20.0166 0
          0.01 0 0 0.01 0 0 -0.0892728 -32.8197 0 -0.620849 -30.847 0
          -0.974332 -24.2854 0 -0.816137 -17.9962 0 -0.623821 -12.7324 0 -0.532503 -8.46427 0
          -0.571175 -4.94645 0 -0.666713 -2.1267 0 -0.681453 0.176277 0 -0.531193 2.01775 0
          -0.242472 3.22972 0 0.0965514 3.47027 0 0.367951 2.74314 0 0.491909 1.4289 0
          0.4623 0.028035 0 0.350149 -1.19499 0 0.281425 -2.23611 0 0.343272 -3.46354 0
          0.483695 -5.43414 0 0.524752 -8.17619 0 0.312935 -10.5401 0 -0.130101 -10.9494 0
          -0.602221 -8.74689 0 -0.86435 -4.99882 0 -0.830537 -1.58263 0 -0.572889 0.719144 0
          -0.255728 1.96204 0 0.00652404 2.37333 0 0.0663102 2.21888 0 0.01 0 0
          0.01 0 0 -0.0121649 -4.27179 0 -0.0636844 -4.21837 0 -0.111231 -3.49051 0
          -0.0843797 -2.76062 0 -0.054842 -2.24445 0 -0.0465526 -1.85928 0 -0.0654484 -1.41175 0
          -0.0964073 -0.738422 0 -0.110123 0.135337 0 -0.089202 0.960471 0 -0.039254 1.48768 0
          0.020984 1.58396 0 0.0686424 1.26454 0 0.0884009 0.676447 0 0.0794659 0.0263355 0
          0.0563613 -0.505187 0 0.0419048 -0.878201 0 0.0485679 -1.21352 0 0.0666452 -1.64642 0
          0.0723724 -2.17255 0 0.0468452 -2.61893 0 -0.00924161 -2.74474 0 -0.0746903 -2.39161 0
          -0.120808 -1.58509 0 -0.126035 -0.543621 0 -0.0885856 0.385993 0 -0.0343537 0.929291 0
          0.0130704 1.09059 0 0.0221762 0.999556 0 0.01 0 0 0.01 0 0
          7.06527e-06 -0.266841 0 -0.00631583 -0.244695 0 -0.0125016 -0.194612 0 -0.00778039 -0.144077 0
          -0.00271028 -0.109336 0 -0.00126881 -0.0864566 0 -0.00465838 -0.0630757 0 -0.0103612 -0.0284391 0
          -0.0136766 0.0178137 0 -0.0112109 0.0653973 0 -0.00299034 0.0980841 0 0.00756463 0.10331 0
          0.0157449 0.080916 0 0.0183558 0.0432202 0 0.0156205 0.00656272 0 0.0108451 -0.0189069 0
          0.0082225 -0.0340408 0 0.00974416 -0.0481999 0 0.013648 -0.0711588 0 0.0156354 -0.103619 0
          0.0121976 -0.133752 0 0.00327509 -0.14367 0 -0.00733689 -0.122112 0 -0.0143524 -0.073488 0
          -0.0140894 -0.0152308 0 -0.00692884 0.032849 0 0.00305339 0.0590891 0 0.0122303 0.0623666 0
          0.0131536 0.0510675 0 0.01 0 0 0.01 0 0 0.0194031 -0.0806488 0
          0.00543101 -0.0712884 0 0.00376691 -0.0558184 0 0.00454229 -0.0422853 0 0.00520891 -0.0339376 0
          0.00524216 -0.0288187 0 0.00451567 -0.0225278 0 0.00344414 -0.0110164 0 0.00276018 0.00566353 0
          0.00297615 0.0229431 0 0.00409009 0.0345609 0 0.00557196 0.0363192 0 0.00672796 0.0282814 0
          0.0070674 0.0146593 0 0.00662689 0.0012672 0 0.00589428 -0.00783629 0 0.0055165 -0.0126889 0
          0.00578755 -0.0168574 0 0.00645515 -0.0240474 0 0.00688643 -0.0346249 0 0.00659124 -0.0447144 0
          0.00555984 -0.048573 0 0.00434659 -0.0422048 0 0.00372942 -0.0262604 0 0.00430537 -0.00603649 0
          0.00607337 0.0108351 0 0.00837849 0.0193869 0 0.0104257 0.0192958 0 0.0105929 0.0147849 0
          0.01 0 0 0.01 0 0 0.0102571 -0.00535012 0 0.00884368 -0.00728492 0
          0.00802605 -0.00467082 0 0.00793974 -0.00292619 0 0.00768417 -0.00210672 0 0.00735504 -0.00174432 0
          0.00695488 -0.00152039 0 0.0065597 -0.0011297 0 0.00626304 -0.000548218 0 0.00611054 0.000100247 0
          0.00611414 0.000541103 0 0.00619241 0.000590155 0 0.00626572 0.00023407 0 0.0062579 -0.000330397 0
          0.00618511 -0.000850982 0 0.00609803 -0.00116674 0 0.00608552 -0.00130319 0 0.00617307 -0.00142886 0
          0.00634837 -0.00171005 0 0.00653344 -0.00218518 0 0.00669332 -0.00269639 0 0.00682674 -0.00302491 0
          0.00703011 -0.00299769 0 0.00740424 -0.00270081 0 0.00803437 -0.0023487 0 0.00891496 -0.00232731 0
          0.00984264 -0.00273225 0 0.0105438 -0.00341915 0 0.0103277 -0.0032149 0 0.01 0 0
          0.01 0 0 0.00721006 -0.00236644 0 0.0101574 -0.0013932 0 0.00979385 -0.000323758 0
          0.00948895 9.24692e-05 0 0.0090643 8.46132e-05 0 0.00864325 -4.96622e-05 0 0.00824851 -0.000214184 0
          0.00791303 -0.000266078 0 0.00765143 -0.000232024 0 0.00745847 -0.000134729 0 0.00733351 -8.30872e-05 0
          0.00725044 -0.000125218 0 0.0072001 -0.000279116 0 0.00716001 -0.000484629 0 0.00713688 -0.000673189 0
          0.00712941 -0.000797311 0 0.0071573 -0.000868115 0 0.0072205 -0.000946563 0 0.00732878 -0.00108589 0
          0.00747372 -0.00131424 0 0.00766469 -0.00157952 0 0.00790933 -0.00184255 0 0.00823215 -0.00203892 0
          0.00865519 -0.00223976 0 0.00917462 -0.00248372 0 0.00975987 -0.00293653 0 0.010251 -0.00350773 0
          0.0104613 -0.00395302 0 0.0101772 -0.00345796 0 0.01 0 0 0.01 0 0
          0.00627323 0.00164488 0 0.0106866 0.00191971 0 0.010645 0.0021217 0 0.0104785 0.00188548 0
          0.0101276 0.0014841 0 0.00975634 0.00108202 0 0.00939459 0.000720053 0 0.00908631 0.000438304 0
          0.00883617 0.000211875 0 0.00863928 4.63212e-05 0 0.00849473 -8.65158e-05 0 0.00838658 -0.000187449 0
          0.00831604 -0.000274293 0 0.0082686 -0.000346795 0 0.00825037 -0.000414069 0 0.00825214 -0.000479015 0
          0.00828472 -0.000549284 0 0.00834278 -0.000634509 0 0.00843997 -0.000741472 0 0.00857421 -0.000884888 0
          0.00876057 -0.00106779 0 0.00900186 -0.00131111 0 0.00930625 -0.00161681 0 0.00967481 -0.00201369 0
          0.0100711 -0.00249175 0 0.0104589 -0.00303629 0 0.0106711 -0.00350889 0 0.0106298 -0.00358514 0
          0.010216 -0.0027067 0 0.01 0 0 0.01 0 0 0.00585861 -0.000499813 0
          0.010647 0.00262035 0 0.0108657 0.0028062 0 0.0109012 0.0025253 0 0.0107613 0.00206902 0
          0.0105439 0.00160047 0 0.0103008 0.00117045 0 0.0100724 0.000823559 0 0.0098761 0.00053659 0
          0.00971378 0.000319664 0 0.0095893 0.000143777 0 0.00949323 1.02529e-05 0 0.00942814 -0.000101599 0
          0.00938406 -0.000193733 0 0.00936557 -0.000278769 0 0.00936568 -0.000362694 0 0.00939147 -0.000453519 0
          0.00943934 -0.000562923 0 0.00951799 -0.000695291 0 0.00962688 -0.000869226 0 0.00977303 -0.00108503 0
          0.00995614 -0.00136837 0 0.0101714 -0.00171293 0 0.0104064 -0.00214246 0 0.0106188 -0.0026237 0
          0.0107575 -0.00311482 0 0.0107243 -0.00346551 0 0.0104819 -0.00337195 0 0.0101069 -0.00249985 0
          0.01 0 0 0.01 0 0 0.0176876 -0.000143165 0 0.0107299 0.00253645 0
          0.0110832 0.00281536 0 0.0112922 0.00265345 0 0.0113259 0.00228835 0 0.0112641 0.0018604 0
          0.0111394 0.0014456 0 0.0110015 0.00108539 0 0.0108667 0.000780054 0 0.0107484 0.000536396 0
          0.0106515 0.000337278 0 0.0105741 0.000180933 0 0.010519 5.03097e-05 0 0.0104802 -5.88627e-05 0
          0.0104619 -0.000160083 0 0.0104583 -0.000259773 0 0.0104755 -0.000368578 0 0.0105092 -0.000495351 0
          0.0105657 -0.000648903 0 0.0106424 -0.000840798 0 0.0107411 -0.00107837 0 0.0108575 -0.00137179 0
          0.0109778 -0.00172208 0 0.0110867 -0.00212018 0 0.0111355 -0.00253666 0 0.0110918 -0.00288512 0
          0.0108803 -0.00304193 0 0.0105269 -0.00275312 0 0.0101196 -0.00180408 0 0.01 0 0
          0.01 0 0 0.0138221 0.00410492 0 0.0105702 0.00238345 0 0.0109929 0.00269913 0
          0.0113272 0.00262297 0 0.0115449 0.00234289 0 0.0116552 0.0019722 0 0.0116914 0.00158791 0
          0.0116793 0.00123682 0 0.0116452 0.000927217 0 0.0116 0.000672206 0 0.0115569 0.000458367 0
          0.0115163 0.000286543 0 0.0114849 0.000140484 0 0.0114593 1.62913e-05 0 0.0114444 -9.94934e-05 0
          0.0114358 -0.000214289 0 0.0114379 -0.000338021 0 0.0114466 -0.000481357 0 0.0114645 -0.000650771 0
          0.0114865 -0.000859328 0 0.0115108 -0.00110892 0 0.0115263 -0.00140908 0 0.0115205 -0.00174996 0
          0.0114697 -0.00211837 0 0.0113472 -0.00247257 0 0.0111215 -0.00273053 0 0.0107871 -0.00278884 0
          0.0103733 -0.0024542 0 0.0100343 -0.00162869 0 0.01 0 0 0.01 0 0
          0.00301912 0.00178491 0 0.0105873 0.00179756 0 0.0110391 0.00215326 0 0.0114502 0.00220255 0
          0.0117733 0.00205424 0 0.0120064 0.0017984 0 0.0121575 0.00149999 0 0.0122503 0.00120621 0
          0.0122997 0.000934149 0 0.0123225 0.000700123 0 0.0123284 0.000498487 0 0.0123243 0.000331814 0
          0.0123156 0.00018763 0 0.0123035 6.30347e-05 0 0.0122914 -5.47035e-05 0 0.0122776 -0.000171031 0
          0.0122639 -0.000297136 0 0.0122471 -0.000439801 0 0.0122265 -0.000607643 0 0.0121966 -0.000806532 0
          0.0121511 -0.00104025 0 0.0120805 -0.00130642 0 0.0119693 -0.00159617 0 0.0118022 -0.00188274 0
          0.0115579 -0.0021285 0 0.0112275 -0.00225817 0 0.0108181 -0.00219482 0 0.0103791 -0.00182086 0
          0.0100423 -0.00107514 0 0.01 0 0 0.01 0 0 0.00923021 -0.00114302 0
          0.0104552 0.00145211 0 0.0108869 0.00175104 0 0.0113182 0.00182769 0 0.0117158 0.00174631 0
          0.0120417 0.00156751 0 0.0123026 0.0013387 0 0.0124961 0.00110125 0 0.0126392 0.000871492 0
          0.0127375 0.00066767 0 0.0128049 0.000487387 0 0.0128455 0.000335127 0 0.0128683 0.000201447 0
          0.0128742 8.40503e-05 0 0.0128682 -2.72943e-05 0 0.0128486 -0.000138352 0 0.0128172 -0.00025739 0
          0.0127695 -0.000391927 0 0.0127045 -0.000546588 0 0.0126141 -0.000727783 0 0.0124941 -0.000933396 0
          0.0123317 -0.00116231 0 0.0121214 -0.00139885 0 0.0118473 -0.00162254 0 0.0115128 -0.00179513 0
          0.0111108 -0.00186528 0 0.0106827 -0.00177597 0 0.0102631 -0.00146126 0 0.00998979 -0.000897732 0
          0.01 0 0 0.01 0 0 0.0176181 0.000513618 0 0.0104574 0.000800881 0
          0.010857 0.00104186 0 0.0112737 0.001157 0 0.0116723 0.00115173 0 0.0120256 0.00107526 0
          0.0123228 0.000944264 0 0.012564 0.000798758 0 0.012751 0.000645155 0 0.0128927 0.000505551 0
          0.012994 0.000375935 0 0.0130633 0.000265329 0 0.0131046 0.000165059 0 0.0131231 7.69928e-05 0
          0.0131201 -8.25615e-06 0 0.0130975 -9.27212e-05 0 0.0130536 -0.000184049 0 0.0129871 -0.000285588 0
          0.0128933 -0.000401517 0 0.0127681 -0.000533856 0 0.0126044 -0.000680049 0 0.0123967 -0.000836874 0
          0.0121381 -0.000988812 0 0.0118261 -0.00112176 0 0.0114634 -0.00120222 0 0.0110599 -0.00120584 0
          0.0106464 -0.00108708 0 0.0102618 -0.000835993 0 0.010006 -0.00043104 0 0.01 0 0
          0.01 0 0 0.00899946 0.00128145 0 0.0103331 0.000451733 0 0.010649 0.000590886 0
          0.0109917 0.00067893 0 0.0113446 0.000688803 0 0.0116718 0.000658749 0 0.0119655 0.000588662 0
          0.0122133 0.000507734 0 0.0124163 0.000417234 0 0.012575 0.000333426 0 0.0126941 0.000253557 0
          0.0127784 0.000184469 0 0.0128319 0.000121114 0 0.0128586 6.45862e-05 0 0.0128603 9.99315e-06 0
          0.0128382 -4.48317e-05 0 0.0127912 -0.000103443 0 0.0127176 -0.000169212 0 0.0126137 -0.000242789 0
          0.0124753 -0.000327179 0 0.0122984 -0.000417585 0 0.0120784 -0.000514646 0 0.0118154 -0.000603977 0
          0.0115091 -0.000681685 0 0.0111721 -0.000721241 0 0.010815 -0.000718049 0 0.0104722 -0.000636559 0
          0.01017 -0.000494105 0 0.009982 -0.000265753 0 0.01 0 0 0.01 0 0
          0.0073154 -9.35551e-05 0 0.0103031 -1.89709e-05 0 0.0104733 3.313e-05 0 0.0106871 9.63119e-05 0
          0.0108989 0.000117042 0 0.0111139 0.000136705 0 0.0113028 0.000129675 0 0.0114731 0.000124315 0
          0.0116098 0.000106 0 0.0117229 9.2274e-05 0 0.0118055 7.33129e-05 0 0.0118675 5.9416e-05 0
          0.0119052 4.33143e-05 0 0.0119261 3.05418e-05 0 0.0119268 1.6147e-05 0 0.0119121 2.67625e-06 0
          0.0118776 -1.28337e-05 0 0.0118257 -2.98551e-05 0 0.01175 -4.8712e-05 0 0.0116528 -7.04611e-05 0
          0.011526 -9.15258e-05 0 0.0113744 -0.000114844 0 0.0111905 -0.000130449 0 0.0109868 -0.0001445 0
          0.0107595 -0.000138291 0 0.0105347 -0.000125663 0 0.0103135 -7.79264e-05 0 0.010138 -2.95647e-05 0
          0.0100053 4.91402e-05 0 0.01 0 0 0.01 0 0 0.01 0 0
          0.01 0 0 0.01 0 0 0.01 0 0 0.01 0 0
          0.01 0 0 0.01 0 0 0.01 0 0 0.01 0 0
          0.01 0 0 0.01 0 0 0.01 0 0 0.01 0 0
          0.01 0 0 0.01 0 0 0.01 0 0 0.01 0 0
          0.01 0 0 0.01 0 0 0.01 0 0 0.01 0 0
          0.01 0 0 0.01 0 0 0.01 0 0 0.01 0 0
          0.01 0 0 0.01 0 0 0.01 0 0 0.01 0 0
          0.01 0 0
        </DataArray>
      </PointData>
      <Points>
        <DataArray type="Float32" Name="Coordinates" NumberOfComponents="3" format="ascii">
          0 0.035 0 0.000333333 0.035 0 0 0.035081 0 0.000333333 0.035081 0
          0.000666667 0.035 0 0.000666667 0.035081 0 0.001 0.035 0 0.001 0.035081 0
          0.00133333 0.035 0 0.00133333 0.035081 0 0.00166667 0.035 0 0.00166667 0.035081 0
          0.002 0.035 0 0.002 0.035081 0 0.00233333 0.035 0 0.00233333 0.035081 0
          0.00266667 0.035 0 0.00266667 0.035081 0 0.003 0.035 0 0.003 0.035081 0
          0.00333333 0.035 0 0.00333333 0.035081 0 0.00366667 0.035 0 0.00366667 0.035081 0
          0.004 0.035 0 0.004 0.035081 0 0.00433333 0.035 0 0.00433333 0.035081 0
          0.00466667 0.035 0 0.00466667 0.035081 0 0.005 0.035 0 0.005 0.035081 0
          0.00533333 0.035 0 0.00533333 0.035081 0 0.00566667 0.035 0 0.00566667 0.035081 0
          0.006 0.035 0 0.006 0.035081 0 0.00633333 0.035 0 0.00633333 0.035081 0
          0.00666667 0.035 0 0.00666667 0.035081 0 0.007 0.035 0 0.007 0.035081 0
          0.00733333 0.035 0 0.00733333 0.035081 0 0.00766667 0.035 0 0.00766667 0.035081 0
          0.008 0.035 0 0.008 0.035081 0 0.00833333 0.035 0 0.00833333 0.035081 0
          0.00866667 0.035 0 0.00866667 0.035081 0 0.009 0.035 0 0.009 0.035081 0
          0.00933333 0.035 0 0.00933333 0.035081 0 0.00966667 0.035 0 0.00966667 0.035081 0
          0.01 0.035 0 0.01 0.035081 0 0 0.0351725 0 0.000333333 0.0351725 0
          0.000666667 0.0351725 0 0.001 0.0351725 0 0.00133333 0.0351725 0 0.00166667 0.0351725 0
          0.002 0.0351725 0 0.00233333 0.0351725 0 0.00266667 0.0351725 0 0.003 0.0351725 0
          0.00333333 0.0351725 0 0.00366667 0.0351725 0 0.004 0.0351725 0 0.00433333 0.0351725 0
          0.00466667 0.0351725 0 0.005 0.0351725 0 0.00533333 0.0351725 0 0.00566667 0.0351725 0
          0.006 0.0351725 0 0.00633333 0.0351725 0 0.00666667 0.0351725 0 0.007 0.0351725 0
          0.00733333 0.0351725 0 0.00766667 0.0351725 0 0.008 0.0351725 0 0.00833333 0.0351725 0
          0.00866667 0.0351725 0 0.009 0.0351725 0 0.00933333 0.0351725 0 0.00966667 0.0351725 0
          0.01 0.0351725 0 0 0.035276 0 0.000333333 0.035276 0 0.000666667 0.035276 0
          0.001 0.035276 0 0.00133333 0.035276 0 0.00166667 0.035276 0 0.002 0.035276 0
          0.00233333 0.035276 0 0.00266667 0.035276 0 0.003 0.035276 0 0.00333333 0.035276 0
          0.00366667 0.035276 0 0.004 0.035276 0 0.00433333 0.035276 0 0.00466667 0.035276 0
          0.005 0.035276 0 0.00533333 0.035276 0 0.00566667 0.035276 0 0.006 0.035276 0
          0.00633333 0.035276 0 0.00666667 0.035276 0 0.007 0.035276 0 0.00733333 0.035276 0
          0.00766667 0.035276 0 0.008 0.035276 0 0.00833333 0.035276 0 0.00866667 0.035276 0
          0.009 0.035276 0 0.00933333 0.035276 0 0.00966667 0.035276 0 0.01 0.035276 0
          0 0.0353929 0 0.000333333 0.0353929 0 0.000666667 0.0353929 0 0.001 0.0353929 0
          0.00133333 0.0353929 0 0.00166667 0.0353929 0 0.002 0.0353929 0 0.00233333 0.0353929 0
          0.00266667 0.0353929 0 0.003 0.0353929 0 0.00333333 0.0353929 0 0.00366667 0.0353929 0
          0.004 0.0353929 0 0.00433333 0.0353929 0 0.00466667 0.0353929 0 0.005 0.0353929 0
          0.00533333 0.0353929 0 0.00566667 0.0353929 0 0.006 0.0353929 0 0.00633333 0.0353929 0
          0.00666667 0.0353929 0 0.007 0.0353929 0 0.00733333 0.0353929 0 0.00766667 0.0353929 0
          0.008 0.0353929 0 0.00833333 0.0353929 0 0.00866667 0.0353929 0 0.009 0.0353929 0
          0.00933333 0.0353929 0 0.00966667 0.0353929 0 0.01 0.0353929 0 0 0.0355249 0
          0.000333333 0.0355249 0 0.000666667 0.0355249 0 0.001 0.0355249 0 0.00133333 0.0355249 0
          0.00166667 0.0355249 0 0.002 0.0355249 0 0.00233333 0.0355249 0 0.00266667 0.0355249 0
          0.003 0.0355249 0 0.00333333 0.0355249 0 0.00366667 0.0355249 0 0.004 0.0355249 0
          0.00433333 0.0355249 0 0.00466667 0.0355249 0 0.005 0.0355249 0 0.00533333 0.0355249 0
          0.00566667 0.0355249 0 0.006 0.0355249 0 0.00633333 0.0355249 0 0.00666667 0.0355249 0
          0.007 0.0355249 0 0.00733333 0.0355249 0 0.00766667 0.0355249 0 0.008 0.0355249 0
          0.00833333 0.0355249 0 0.00866667 0.0355249 0 0.009 0.0355249 0 0.00933333 0.0355249 0
          0.00966667 0.0355249 0 0.01 0.0355249 0 0 0.0356742 0 0.000333333 0.0356742 0
          0.000666667 0.0356742 0 0.001 0.0356742 0 0.00133333 0.0356742 0 0.00166667 0.0356742 0
          0.002 0.0356742 0 0.00233333 0.0356742 0 0.00266667 0.0356742 0 0.003 0.0356742 0
          0.00333333 0.0356742 0 0.00366667 0.0356742 0 0.004 0.0356742 0 0.00433333 0.0356742 0
          0.00466667 0.0356742 0 0.005 0.0356742 0 0.00533333 0.0356742 0 0.00566667 0.0356742 0
          0.006 0.0356742 0 0.00633333 0.0356742 0 0.00666667 0.0356742 0 0.007 0.0356742 0
          0.00733333 0.0356742 0 0.00766667 0.0356742 0 0.008 0.0356742 0 0.00833333 0.0356742 0
          0.00866667 0.0356742 0 0.009 0.0356742 0 0.00933333 0.0356742 0 0.00966667 0.0356742 0
          0.01 0.0356742 0 0 0.0358428 0 0.000333333 0.0358428 0 0.000666667 0.0358428 0
          0.001 0.0358428 0 0.00133333 0.0358428 0 0.00166667 0.0358428 0 0.002 0.0358428 0
          0.00233333 0.0358428 0 0.00266667 0.0358428 0 0.003 0.0358428 0 0.00333333 0.0358428 0
          0.00366667 0.0358428 0 0.004 0.0358428 0 0.00433333 0.0358428 0 0.00466667 0.0358428 0
          0.005 0.0358428 0 0.00533333 0.0358428 0 0.00566667 0.0358428 0 0.006 0.0358428 0
          0.00633333 0.0358428 0 0.00666667 0.0358428 0 0.007 0.0358428 0 0.00733333 0.0358428 0
          0.00766667 0.0358428 0 0.008 0.0358428 0 0.00833333 0.0358428 0 0.00866667 0.0358428 0
          0.009 0.0358428 0 0.00933333 0.0358428 0 0.00966667 0.0358428 0 0.01 0.0358428 0
          0 0.0360334 0 0.000333333 0.0360334 0 0.000666667 0.0360334 0 0.001 0.0360334 0
          0.00133333 0.0360334 0 0.00166667 0.0360334 0 0.002 0.0360334 0 0.00233333 0.0360334 0
          0.00266667 0.0360334 0 0.003 0.0360334 0 0.00333333 0.0360334 0 0.00366667 0.0360334 0
          0.004 0.0360334 0 0.00433333 0.0360334 0 0.00466667 0.0360334 0 0.005 0.0360334 0
          0.00533333 0.0360334 0 0.00566667 0.0360334 0 0.006 0.0360334 0 0.00633333 0.0360334 0
          0.00666667 0.0360334 0 0.007 0.0360334 0 0.00733333 0.0360334 0 0.00766667 0.0360334 0
          0.008 0.0360334 0 0.00833333 0.0360334 0 0.00866667 0.0360334 0 0.009 0.0360334 0
          0.00933333 0.0360334 0 0.00966667 0.0360334 0 0.01 0.0360334 0 0 0.0362487 0
          0.000333333 0.0362487 0 0.000666667 0.0362487 0 0.001 0.0362487 0 0.00133333 0.0362487 0
          0.00166667 0.0362487 0 0.002 0.0362487 0 0.00233333 0.0362487 0 0.00266667 0.0362487 0
          0.003 0.0362487 0 0.00333333 0.0362487 0 0.00366667 0.0362487 0 0.004 0.0362487 0
          0.00433333 0.0362487 0 0.00466667 0.0362487 0 0.005 0.0362487 0 0.00533333 0.0362487 0
          0.00566667 0.0362487 0 0.006 0.0362487 0 0.00633333 0.0362487 0 0.00666667 0.0362487 0
          0.007 0.0362487 0 0.00733333 0.0362487 0 0.00766667 0.0362487 0 0.008 0.0362487 0
          0.00833333 0.0362487 0 0.00866667 0.0362487 0 0.009 0.0362487 0 0.00933333 0.0362487 0
          0.00966667 0.0362487 0 0.01 0.0362487 0 0 0.0364921 0 0.000333333 0.0364921 0
          0.000666667 0.0364921 0 0.001 0.0364921 0 0.00133333 0.0364921 0 0.00166667 0.0364921 0
          0.002 0.0364921 0 0.00233333 0.0364921 0 0.00266667 0.0364921 0 0.003 0.0364921 0
          0.00333333 0.0364921 0 0.00366667 0.0364921 0 0.004 0.0364921 0 0.00433333 0.0364921 0
          0.00466667 0.0364921 0 0.005 0.0364921 0 0.00533333 0.0364921 0 0.00566667 0.0364921 0
          0.006 0.0364921 0 0.00633333 0.0364921 0 0.00666667 0.0364921 0 0.007 0.0364921 0
          0.00733333 0.0364921 0 0.00766667 0.0364921 0 0.008 0.0364921 0 0.00833333 0.0364921 0
          0.00866667 0.0364921 0 0.009 0.0364921 0 0.00933333 0.0364921 0 0.00966667 0.0364921 0
          0.01 0.0364921 0 0 0.0367671 0 0.000333333 0.0367671 0 0.000666667 0.0367671 0
          0.001 0.0367671 0 0.00133333 0.0367671 0 0.00166667 0.0367671 0 0.002 0.0367671 0
          0.00233333 0.0367671 0 0.00266667 0.0367671 0 0.003 0.0367671 0 0.00333333 0.0367671 0
          0.00366667 0.0367671 0 0.004 0.0367671 0 0.00433333 0.0367671 0 0.00466667 0.0367671 0
          0.005 0.0367671 0 0.00533333 0.0367671 0 0.00566667 0.0367671 0 0.006 0.0367671 0
          0.00633333 0.0367671 0 0.00666667 0.0367671 0 0.007 0.0367671 0 0.00733333 0.0367671 0
          0.00766667 0.0367671 0 0.008 0.0367671 0 0.00833333 0.0367671 0 0.00866667 0.0367671 0
          0.009 0.0367671 0 0.00933333 0.0367671 0 0.00966667 0.0367671 0 0.01 0.0367671 0
          0 0.0370778 0 0.000333333 0.0370778 0 0.000666667 0.0370778 0 0.001 0.0370778 0
          0.00133333 0.0370778 0 0.00166667 0.0370778 0 0.002 0.0370778 0 0.00233333 0.0370778 0
          0.00266667 0.0370778 0 0.003 0.0370778 0 0.00333333 0.0370778 0 0.00366667 0.0370778 0
          0.004 0.0370778 0 0.00433333 0.0370778 0 0.00466667 0.0370778 0 0.005 0.0370778 0
          0.00533333 0.0370778 0 0.00566667 0.0370778 0 0.006 0.0370778 0 0.00633333 0.0370778 0
          0.00666667 0.0370778 0 0.007 0.0370778 0 0.00733333 0.0370778 0 0.00766667 0.0370778 0
          0.008 0.0370778 0 0.00833333 0.0370778 0 0.00866667 0.0370778 0 0.009 0.0370778 0
          0.00933333 0.0370778 0 0.00966667 0.0370778 0 0.01 0.0370778 0 0 0.0374289 0
          0.000333333 0.0374289 0 0.000666667 0.0374289 0 0.001 0.0374289 0 0.00133333 0.0374289 0
          0.00166667 0.0374289 0 0.002 0.0374289 0 0.00233333 0.0374289 0 0.00266667 0.0374289 0
          0.003 0.0374289 0 0.00333333 0.0374289 0 0.00366667 0.0374289 0 0.004 0.0374289 0
          0.00433333 0.0374289 0 0.00466667 0.0374289 0 0.005 0.0374289 0 0.00533333 0.0374289 0
          0.00566667 0.0374289 0 0.006 0.0374289 0 0.00633333 0.0374289 0 0.00666667 0.0374289 0
          0.007 0.0374289 0 0.00733333 0.0374289 0 0.00766667 0.0374289 0 0.008 0.0374289 0
          0.00833333 0.0374289 0 0.00866667 0.0374289 0 0.009 0.0374289 0 0.00933333 0.0374289 0
          0.00966667 0.0374289 0 0.01 0.0374289 0 0 0.0378256 0 0.000333333 0.0378256 0
          0.000666667 0.0378256 0 0.001 0.0378256 0 0.00133333 0.0378256 0 0.00166667 0.0378256 0
          0.002 0.0378256 0 0.00233333 0.0378256 0 0.00266667 0.0378256 0 0.003 0.0378256 0
          0.00333333 0.0378256 0 0.00366667 0.0378256 0 0.004 0.0378256 0 0.00433333 0.0378256 0
          0.00466667 0.0378256 0 0.005 0.0378256 0 0.00533333 0.0378256 0 0.00566667 0.0378256 0
          0.006 0.0378256 0 0.00633333 0.0378256 0 0.00666667 0.0378256 0 0.007 0.0378256 0
          0.00733333 0.0378256 0 0.00766667 0.0378256 0 0.008 0.0378256 0 0.00833333 0.0378256 0
          0.00866667 0.0378256 0 0.009 0.0378256 0 0.00933333 0.0378256 0 0.00966667 0.0378256 0
          0.01 0.0378256 0 0 0.038274 0 0.000333333 0.038274 0 0.000666667 0.038274 0
          0.001 0.038274 0 0.00133333 0.038274 0 0.00166667 0.038274 0 0.002 0.038274 0
          0.00233333 0.038274 0 0.00266667 0.038274 0 0.003 0.038274 0 0.00333333 0.038274 0
          0.00366667 0.038274 0 0.004 0.038274 0 0.00433333 0.038274 0 0.00466667 0.038274 0
          0.005 0.038274 0 0.00533333 0.038274 0 0.00566667 0.038274 0 0.006 0.038274 0
          0.00633333 0.038274 0 0.00666667 0.038274 0 0.007 0.038274 0 0.00733333 0.038274 0
          0.00766667 0.038274 0 0.008 0.038274 0 0.00833333 0.038274 0 0.00866667 0.038274 0
          0.009 0.038274 0 0.00933333 0.038274 0 0.00966667 0.038274 0 0.01 0.038274 0
          0 0.0387806 0 0.000333333 0.0387806 0 0.000666667 0.0387806 0 0.001 0.0387806 0
          0.00133333 0.0387806 0 0.00166667 0.0387806 0 0.002 0.0387806 0 0.00233333 0.0387806 0
          0.00266667 0.0387806 0 0.003 0.0387806 0 0.00333333 0.0387806 0 0.00366667 0.0387806 0
          0.004 0.0387806 0 0.00433333 0.0387806 0 0.00466667 0.0387806 0 0.005 0.0387806 0
          0.00533333 0.0387806 0 0.00566667 0.0387806 0 0.006 0.0387806 0 0.00633333 0.0387806 0
          0.00666667 0.0387806 0 0.007 0.0387806 0 0.00733333 0.0387806 0 0.00766667 0.0387806 0
          0.008 0.0387806 0 0.00833333 0.0387806 0 0.00866667 0.0387806 0 0.009 0.0387806 0
          0.00933333 0.0387806 0 0.00966667 0.0387806 0 0.01 0.0387806 0 0 0.0393531 0
          0.000333333 0.0393531 0 0.000666667 0.0393531 0 0.001 0.0393531 0 0.00133333 0.0393531 0
          0.00166667 0.0393531 0 0.002 0.0393531 0 0.00233333 0.0393531 0 0.00266667 0.0393531 0
          0.003 0.0393531 0 0.00333333 0.0393531 0 0.00366667 0.0393531 0 0.004 0.0393531 0
          0.00433333 0.0393531 0 0.00466667 0.0393531 0 0.005 0.0393531 0 0.00533333 0.0393531 0
          0.00566667 0.0393531 0 0.006 0.0393531 0 0.00633333 0.0393531 0 0.00666667 0.0393531 0
          0.007 0.0393531 0 0.00733333 0.0393531 0 0.00766667 0.0393531 0 0.008 0.0393531 0
          0.00833333 0.0393531 0 0.00866667 0.0393531 0 0.009 0.0393531 0 0.00933333 0.0393531 0
          0.00966667 0.0393531 0 0.01 0.0393531 0 0 0.04 0 0.000333333 0.04 0
          0.000666667 0.04 0 0.001 0.04 0 0.00133333 0.04 0 0.00166667 0.04 0
          0.002 0.04 0 0.00233333 0.04 0 0.00266667 0.04 0 0.003 0.04 0
          0.00333333 0.04 0 0.00366667 0.04 0 0.004 0.04 0 0.00433333 0.04 0
          0.00466667 0.04 0 0.005 0.04 0 0.00533333 0.04 0 0.00566667 0.04 0
          0.006 0.04 0 0.00633333 0.04 0 0.00666667 0.04 0 0.007 0.04 0
          0.00733333 0.04 0 0.00766667 0.04 0 0.008 0.04 0 0.00833333 0.04 0
          0.00866667 0.04 0 0.009 0.04 0 0.00933333 0.04 0 0.00966667 0.04 0
          0.01 0.04 0
        </DataArray>
      </Points>
      <Cells>
        <DataArray type="Int32" Name="connectivity" NumberOfComponents="1" format="ascii">
          0 1 3 2 1 4 5 3 4 6 7 5
          6 8 9 7 8 10 11 9 10 12 13 11
          12 14 15 13 14 16 17 15 16 18 19 17
          18 20 21 19 20 22 23 21 22 24 25 23
          24 26 27 25 26 28 29 27 28 30 31 29
          30 32 33 31 32 34 35 33 34 36 37 35
          36 38 39 37 38 40 41 39 40 42 43 41
          42 44 45 43 44 46 47 45 46 48 49 47
          48 50 51 49 50 52 53 51 52 54 55 53
          54 56 57 55 56 58 59 57 58 60 61 59
          2 3 63 62 3 5 64 63 5 7 65 64
          7 9 66 65 9 11 67 66 11 13 68 67
          13 15 69 68 15 17 70 69 17 19 71 70
          19 21 72 71 21 23 73 72 23 25 74 73
          25 27 75 74 27 29 76 75 29 31 77 76
          31 33 78 77 33 35 79 78 35 37 80 79
          37 39 81 80 39 41 82 81 41 43 83 82
          43 45 84 83 45 47 85 84 47 49 86 85
          49 51 87 86 51 53 88 87 53 55 89 88
          55 57 90 89 57 59 91 90 59 61 92 91
          62 63 94 93 63 64 95 94 64 65 96 95
          65 66 97 96 66 67 98 97 67 68 99 98
          68 69 100 99 69 70 101 100 70 71 102 101
          71 72 103 102 72 73 104 103 73 74 105 104
          74 75 106 105 75 76 107 106 76 77 108 107
          77 78 109 108 78 79 110 109 79 80 111 110
          80 81 112 111 81 82 113 112 82 83 114 113
          83 84 115 114 84 85 116 115 85 86 117 116
          86 87 118 117 87 88 119 118 88 89 120 119
          89 90 121 120 90 91 122 121 91 92 123 122
          93 94 125 124 94 95 126 125 95 96 127 126
          96 97 128 127 97 98 129 128 98 99 130 129
          99 100 131 130 100 101 132 131 101 102 133 132
          102 103 134 133 103 104 135 134 104 105 136 135
          105 106 137 136 106 107 138 137 107 108 139 138
          108 109 140 139 109 110 141 140 110 111 142 141
          111 112 143 142 112 113 144 143 113 114 145 144
          114 115 146 145 115 116 147 146 116 117 148 147
          117 118 149 148 118 119 150 149 119 120 151 150
          120 121 152 151 121 122 153 152 122 123 154 153
          124 125 156 155 125 126 157 156 126 127 158 157
          127 128 159 158 128 129 160 159 129 130 161 160
          130 131 162 161 131 132 163 162 132 133 164 163
          133 134 165 164 134 135 166 165 135 136 167 166
          136 137 168 167 137 138 169 168 138 139 170 169
          139 140 171 170 140 141 172 171 141 142 173 172
          142 143 174 173 143 144 175 174 144 145 176 175
          145 146 177 176 146 147 178 177 147 148 179 178
          148 149 180 179 149 150 181 180 150 151 182 181
          151 152 183 182 152 153 184 183 153 154 185 184
          155 156 187 186 156 157 188 187 157 158 189 188
          158 159 190 189 159 160 191 190 160 161 192 191
          161 162 193 192 162 163 194 193 163 164 195 194
          164 165 196 195 165 166 197 196 166 167 198 197
          167 168 199 198 168 169 200 199 169 170 201 200
          170 171 202 201 171 172 203 202 172 173 204 203
          173 174 205 204 174 175 206 205 175 176 207 206
          176 177 208 207 177 178 209 208 178 179 210 209
          179 180 211 210 180 181 212 211 181 182 213 212
          182 183 214 213 183 184 215 214 184 185 216 215
          186 187 218 217 187 188 219 218 188 189 220 219
          189 190 221 220 190 191 222 221 191 192 223 222
          192 193 224 223 193 194 225 224 194 195 226 225
          195 196 227 226 196 197 228 227 197 198 229 228
          198 199 230 229 199 200 231 230 200 201 232 231
          201 202 233 232 202 203 234 233 203 204 235 234
          204 205 236 235 205 206 237 236 206 207 238 237
          207 208 239 238 208 209 240 239 209 210 241 240
          210 211 242 241 211 212 243 242 212 213 244 243
          213 214 245 244 214 215 246 245 215 216 247 246
          217 218 249 248 218 219 250 249 219 220 251 250
          220 221 252 251 221 222 253 252 222 223 254 253
          223 224 255 254 224 225 256 255 225 226 257 256
          226 227 258 257 227 228 259 258 228 229 260 259
          229 230 261 260 230 231 262 261 231 232 263 262
          232 233 264 263 233 234 265 264 234 235 266 265
          235 236 267 266 236 237 268 267 237 238 269 268
          238 239 270 269 239 240 271 270 240 241 272 271
          241 242 273 272 242 243 274 273 243 244 275 274
          244 245 276 275 245 246 277 276 246 247 278 277
          248 249 280 279 249 250 281 280 250 251 282 281
          251 252 283 282 252 253 284 283 253 254 285 284
          254 255 286 285 255 256 287 286 256 257 288 287
          257 258 289 288 258 259 290 289 259 260 291 290
          260 261 292 291 261 262 293 292 262 263 294 293
          263 264 295 294 264 265 296 295 265 266 297 296
          266 267 298 297 267 268 299 298 268 269 300 299
          269 270 301 300 270 271 302 301 271 272 303 302
          272 273 304 303 273 274 305 304 274 275 306 305
          275 276 307 306 276 277 308 307 277 278 309 308
          279 280 311 310 280 281 312 311 281 282 313 312
          282 283 314 313 283 284 315 314 284 285 316 315
          285 286 317 316 286 287 318 317 287 288 319 318
          288 289 320 319 289 290 321 320 290 291 322 321
          291 292 323 322 292 293 324 323 293 294 325 324
          294 295 326 325 295 296 327 326 296 297 328 327
          297 298 329 328 298 299 330 329 299 300 331 330
          300 301 332 331 301 302 333 332 302 303 334 333
          303 304 335 334 304 305 336 335 305 306 337 336
          306 307 338 337 307 308 339 338 308 309 340 339
          310 311 342 341 311 312 343 342 312 313 344 343
          313 314 345 344 314 315 346 345 315 316 347 346
          316 317 348 347 317 318 349 348 318 319 350 349
          319 320 351 350 320 321 352 351 321 322 353 352
          322 323 354 353 323 324 355 354 324 325 356 355
          325 326 357 356 326 327 358 357 327 328 359 358
          328 329 360 359 329 330 361 360 330 331 362 361
          331 332 363 362 332 333 364 363 333 334 365 364
          334 335 366 365 335 336 367 366 336 337 368 367
          337 338 369 368 338 339 370 369 339 340 371 370
          341 342 373 372 342 343 374 373 343 344 375 374
          344 345 376 375 345 346 377 376 346 347 378 377
          347 348 379 378 348 349 380 379 349 350 381 380
          350 351 382 381 351 352 383 382 352 353 384 383
          353 354 385 384 354 355 386 385 355 356 387 386
          356 357 388 387 357 358 389 388 358 359 390 389
          359 360 391 390 360 361 392 391 361 362 393 392
          362 363 394 393 363 364 395 394 364 365 396 395
          365 366 397 396 366 367 398 397 367 368 399 398
          368 369 400 399 369 370 401 400 370 371 402 401
          372 373 404 403 373 374 405 404 374 375 406 405
          375 376 407 406 376 377 408 407 377 378 409 408
          378 379 410 409 379 380 411 410 380 381 412 411
          381 382 413 412 382 383 414 413 383 384 415 414
          384 385 416 415 385 386 417 416 386 387 418 417
          387 388 419 418 388 389 420 419 389 390 421 420
          390 391 422 421 391 392 423 422 392 393 424 423
          393 394 425 424 394 395 426 425 395 396 427 426
          396 397 428 427 397 398 429 428 398 399 430 429
          399 400 431 430 400 401 432 431 401 402 433 432
          403 404 435 434 404 405 436 435 405 406 437 436
          406 407 438 437 407 408 439 438 408 409 440 439
          409 410 441 440 410 411 442 441 411 412 443 442
          412 413 444 443 413 414 445 444 414 415 446 445
          415 416 447 446 416 417 448 447 417 418 449 448
          418 419 450 449 419 420 451 450 420 421 452 451
          421 422 453 452 422 423 454 453 423 424 455 454
          424 425 456 455 425 426 457 456 426 427 458 457
          427 428 459 458 428 429 460 459 429 430 461 460
          430 431 462 461 431 432 463 462 432 433 464 463
          434 435 466 465 435 436 467 466 436 437 468 467
          437 438 469 468 438 439 470 469 439 440 471 470
          440 441 472 471 441 442 473 472 442 443 474 473
          443 444 475 474 444 445 476 475 445 446 477 476
          446 447 478 477 447 448 479 478 448 449 480 479
          449 450 481 480 450 451 482 481 451 452 483 482
          452 453 484 483 453 454 485 484 454 455 486 485
          455 456 487 486 456 457 488 487 457 458 489 488
          458 459 490 489 459 460 491 490 460 461 492 491
          461 462 493 492 462 463 494 493 463 464 495 494
          465 466 497 496 466 467 498 497 467 468 499 498
          468 469 500 499 469 470 501 500 470 471 502 501
          471 472 503 502 472 473 504 503 473 474 505 504
          474 475 506 505 475 476 507 506 476 477 508 507
          477 478 509 508 478 479 510 509 479 480 511 510
          480 481 512 511 481 482 513 512 482 483 514 513
          483 484 515 514 484 485 516 515 485 486 517 516
          486 487 518 517 487 488 519 518 488 489 520 519
          489 490 521 520 490 491 522 521 491 492 523 522
          492 493 524 523 493 494 525 524 494 495 526 525
          496 497 528 527 497 498 529 528 498 499 530 529
          499 500 531 530 500 501 532 531 501 502 533 532
          502 503 534 533 503 504 535 534 504 505 536 535
          505 506 537 536 506 507 538 537 507 508 539 538
          508 509 540 539 509 510 541 540 510 511 542 541
          511 512 543 542 512 513 544 543 513 514 545 544
          514 515 546 545 515 516 547 546 516 517 548 547
          517 518 549 548 518 519 550 549 519 520 551 550
          520 521 552 551 521 522 553 552 522 523 554 553
          523 524 555 554 524 525 556 555 525 526 557 556
          527 528 559 558 528 529 560 559 529 530 561 560
          530 531 562 561 531 532 563 562 532 533 564 563
          533 534 565 564 534 535 566 565 535 536 567 566
          536 537 568 567 537 538 569 568 538 539 570 569
          539 540 571 570 540 541 572 571 541 542 573 572
          542 543 574 573 543 544 575 574 544 545 576 575
          545 546 577 576 546 547 578 577 547 548 579 578
          548 549 580 579 549 550 581 580 550 551 582 581
          551 552 583 582 552 553 584 583 553 554 585 584
          554 555 586 585 555 556 587 586 556 557 588 587
        </DataArray>
        <DataArray type="Int32" Name="offsets" NumberOfComponents="1" format="ascii">
          4 8 12 16 20 24 28 32 36 40 44 48
          52 56 60 64 68 72 76 80 84 88 92 96
          100 104 108 112 116 120 124 128 132 136 140 144
          148 152 156 160 164 168 172 176 180 184 188 192
          196 200 204 208 212 216 220 224 228 232 236 240
          244 248 252 256 260 264 268 272 276 280 284 288
          292 296 300 304 308 312 316 320 324 328 332 336
          340 344 348 352 356 360 364 368 372 376 380 384
          388 392 396 400 404 408 412 416 420 424 428 432
          436 440 444 448 452 456 460 464 468 472 476 480
          484 488 492 496 500 504 508 512 516 520 524 528
          532 536 540 544 548 552 556 560 564 568 572 576
          580 584 588 592 596 600 604 608 612 616 620 624
          628 632 636 640 644 648 652 656 660 664 668 672
          676 680 684 688 692 696 700 704 708 712 716 720
          724 728 732 736 740 744 748 752 756 760 764 768
          772 776 780 784 788 792 796 800 804 808 812 816
          820 824 828 832 836 840 844 848 852 856 860 864
          868 872 876 880 884 888 892 896 900 904 908 912
          916 920 924 928 932 936 940 944 948 952 956 960
          964 968 972 976 980 984 988 992 996 1000 1004 1008
          1012 1016 1020 1024 1028 1032 1036 1040 1044 1048 1052 1056
          1060 1064 1068 1072 1076 1080 1084 1088 1092 1096 1100 1104
          1108 1112 1116 1120 1124 1128 1132 1136 1140 1144 1148 1152
          1156 1160 1164 1168 1172 1176 1180 1184 1188 1192 1196 1200
          1204 1208 1212 1216 1220 1224 1228 1232 1236 1240 1244 1248
          1252 1256 1260 1264 1268 1272 1276 1280 1284 1288 1292 1296
          1300 1304 1308 1312 1316 1320 1324 1328 1332 1336 1340 1344
          1348 1352 1356 1360 1364 1368 1372 1376 1380 1384 1388 1392
          1396 1400 1404 1408 1412 1416 1420 1424 1428 1432 1436 1440
          1444 1448 1452 1456 1460 1464 1468 1472 1476 1480 1484 1488
          1492 1496 1500 1504 1508 1512 1516 1520 1524 1528 1532 1536
          1540 1544 1548 1552 1556 1560 1564 1568 1572 1576 1580 1584
          1588 1592 1596 1600 1604 1608 1612 1616 1620 1624 1628 1632
          1636 1640 1644 1648 1652 1656 1660 1664 1668 1672 1676 1680
          1684 1688 1692 1696 1700 1704 1708 1712 1716 1720 1724 1728
          1732 1736 1740 1744 1748 1752 1756 1760 1764 1768 1772 1776
          1780 1784 1788 1792 1796 1800 1804 1808 1812 1816 1820 1824
          1828 1832 1836 1840 1844 1848 1852 1856 1860 1864 1868 1872
          1876 1880 1884 1888 1892 1896 1900 1904 1908 1912 1916 1920
          1924 1928 1932 1936 1940 1944 1948 1952 1956 1960 1964 1968
          1972 1976 1980 1984 1988 1992 1996 2000 2004 2008 2012 2016
          2020 2024 2028 2032 2036 2040 2044 2048 2052 2056 2060 2064
          2068 2072 2076 2080 2084 2088 2092 2096 2100 2104 2108 2112
          2116 2120 2124 2128 2132 2136 2140 2144 2148 2152 2156 2160
        </DataArray>
        <DataArray type="UInt8" Name="types" NumberOfComponents="1" format="ascii">
          9 9 9 9 9 9 9 9 9 9 9 9
          9 9 9 9 9 9 9 9 9 9 9 9
          9 9 9 9 9 9 9 9 9 9 9 9
          9 9 9 9 9 9 9 9 9 9 9 9
          9 9 9 9 9 9 9 9 9 9 9 9
          9 9 9 9 9 9 9 9 9 9 9 9
          9 9 9 9 9 9 9 9 9 9 9 9
          9 9 9 9 9 9 9 9 9 9 9 9
          9 9 9 9 9 9 9 9 9 9 9 9
          9 9 9 9 9 9 9 9 9 9 9 9
          9 9 9 9 9 9 9 9 9 9 9 9
          9 9 9 9 9 9 9 9 9 9 9 9
          9 9 9 9 9 9 9 9 9 9 9 9
          9 9 9 9 9 9 9 9 9 9 9 9
          9 9 9 9 9 9 9 9 9 9 9 9
          9 9 9 9 9 9 9 9 9 9 9 9
          9 9 9 9 9 9 9 9 9 9 9 9
          9 9 9 9 9 9 9 9 9 9 9 9
          9 9 9 9 9 9 9 9 9 9 9 9
          9 9 9 9 9 9 9 9 9 9 9 9
          9 9 9 9 9 9 9 9 9 9 9 9
          9 9 9 9 9 9 9 9 9 9 9 9
          9 9 9 9 9 9 9 9 9 9 9 9
          9 9 9 9 9 9 9 9 9 9 9 9
          9 9 9 9 9 9 9 9 9 9 9 9
          9 9 9 9 9 9 9 9 9 9 9 9
          9 9 9 9 9 9 9 9 9 9 9 9
          9 9 9 9 9 9 9 9 9 9 9 9
          9 9 9 9 9 9 9 9 9 9 9 9
          9 9 9 9 9 9 9 9 9 9 9 9
          9 9 9 9 9 9 9 9 9 9 9 9
          9 9 9 9 9 9 9 9 9 9 9 9
          9 9 9 9 9 9 9 9 9 9 9 9
          9 9 9 9 9 9 9 9 9 9 9 9
          9 9 9 9 9 9 9 9 9 9 9 9
          9 9 9 9 9 9 9 9 9 9 9 9
          9 9 9 9 9 9 9 9 9 9 9 9
          9 9 9 9 9 9 9 9 9 9 9 9
          9 9 9 9 9 9 9 9 9 9 9 9
          9 9 9 9 9 9 9 9 9 9 9 9
          9 9 9 9 9 9 9 9 9 9 9 9
          9 9 9 9 9 9 9 9 9 9 9 9
          9 9 9 9 9 9 9 9 9 9 9 9
          9 9 9 9 9 9 9 9 9 9 9 9
          9 9 9 9 9 9 9 9 9 9 9 9
        </DataArray>
      </Cells>
    </Piece>
  </UnstructuredGrid>
</VTKFile>
