<?xml version="1.0"?>
<VTKFile type="UnstructuredGrid" version="0.1" byte_order="LittleEndian">
  <UnstructuredGrid>
    <Piece NumberOfCells="540" NumberOfPoints="589">
      <PointData Scalars="temperature" Vectors="v">
        <DataArray type="Float32" Name="temperature" NumberOfComponents="1" format="ascii">
          304.39 304.544 298.006 303.071 304.608 303.586 304.662 303.874 304.706 304.064 304.744 304.198
          304.778 304.303 304.809 304.389 304.837 304.463 304.863 304.527 304.887 304.585 304.91 304.638
          304.931 304.686 304.95 304.73 304.969 304.77 304.986 304.807 305.002 304.842 305.018 304.874
          305.032 304.907 305.047 304.943 305.06 304.985 305.074 305.034 305.086 305.091 305.097 305.154
          305.106 305.217 305.112 305.267 305.113 305.289 305.109 305.273 305.1 305.211 305.085 305.144
          305.072 305.15 292.97 300.054 302.222 302.866 303.261 303.526 303.723 303.879 304.009 304.121
          304.22 304.308 304.389 304.462 304.529 304.589 304.644 304.697 304.749 304.807 304.876 304.961
          305.064 305.182 305.306 305.414 305.477 305.468 305.366 305.227 305.15 289.644 296.357 300.112
          301.539 302.241 302.689 303.01 303.256 303.457 303.627 303.775 303.907 304.027 304.135 304.233
          304.321 304.402 304.477 304.551 304.631 304.727 304.845 304.993 305.169 305.36 305.54 305.665
          305.689 305.572 305.359 305.15 287.846 292.86 297.306 299.703 300.916 301.632 302.122 302.488
          302.779 303.022 303.232 303.417 303.583 303.733 303.869 303.992 304.102 304.204 304.303 304.407
          304.527 304.677 304.867 305.1 305.363 305.627 305.834 305.92 305.818 305.537 305.15 287.214
          290.186 294.243 297.303 299.164 300.275 301.005 301.533 301.944 302.279 302.565 302.815 303.038
          303.239 303.421 303.585 303.732 303.866 303.993 304.122 304.268 304.447 304.674 304.959 305.294
          305.649 305.959 306.137 306.084 305.75 305.15 287.328 288.606 291.53 294.585 296.943 298.529
          299.589 300.339 300.907 301.363 301.745 302.076 302.368 302.631 302.868 303.082 303.274 303.448
          303.609 303.767 303.937 304.142 304.401 304.732 305.134 305.582 306.007 306.305 306.335 305.974
          305.15 287.783 288.047 289.646 292.041 294.439 296.383 297.811 298.844 299.62 300.232 300.736
          301.167 301.545 301.882 302.187 302.461 302.707 302.93 303.133 303.326 303.525 303.753 304.038
          304.406 304.865 305.4 305.946 306.384 306.531 306.182 305.15 288.291 288.198 288.775 290.193
          292.101 294.036 295.702 297.019 298.039 298.844 299.501 300.057 300.539 300.967 301.352 301.699
          302.011 302.293 302.548 302.785 303.018 303.272 303.579 303.972 304.476 305.085 305.746 306.333
          306.628 306.338 305.15 288.687 288.679 288.755 289.317 290.441 291.934 293.511 294.956 296.179
          297.186 298.018 298.72 299.327 299.862 300.342 300.776 301.166 301.519 301.838 302.129 302.406
          302.691 303.019 303.432 303.964 304.63 305.392 306.125 306.589 306.414 305.15 288.96 289.194
          289.23 289.341 289.767 290.588 291.718 292.982 294.222 295.344 296.323 297.171 297.911 298.565
          299.152 299.683 300.163 300.599 300.994 301.353 301.685 302.012 302.366 302.793 303.342 304.044
          304.882 305.746 306.388 306.38 305.15 289.176 289.626 289.852 289.923 290.005 290.27 290.811
          291.614 292.584 293.608 294.603 295.527 296.366 297.126 297.816 298.445 299.021 299.547 300.026
          300.464 300.865 301.246 301.636 302.08 302.635 303.352 304.237 305.207 306.02 306.226 305.15
          289.458 290.024 290.455 290.706 290.806 290.857 290.985 291.289 291.799 292.482 293.272 294.102
          294.927 295.718 296.466 297.167 297.821 298.429 298.992 299.51 299.987 300.432 300.868 301.334
          301.889 302.599 303.5 304.538 305.503 305.949 305.15 289.91 290.534 291.085 291.526 291.817
          291.96 292.009 292.053 292.181 292.448 292.865 293.407 294.036 294.711 295.403 296.093 296.766
          297.414 298.03 298.61 299.153 299.66 300.144 300.633 301.182 301.862 302.736 303.795 304.876
          305.571 305.15 290.657 291.333 291.939 292.482 292.937 293.273 293.474 293.56 293.584 293.614
          293.71 293.908 294.217 294.625 295.112 295.653 296.23 296.824 297.418 298.002 298.566 299.104
          299.617 300.119 300.645 301.263 302.055 303.066 304.202 305.124 305.15 291.87 292.629 293.274
          293.849 294.367 294.82 295.185 295.441 295.585 295.64 295.649 295.661 295.716 295.843 296.052
          296.341 296.702 297.12 297.58 298.065 298.562 299.057 299.543 300.015 300.489 301.007 301.646
          302.499 303.58 304.661 305.15 293.95 294.798 295.449 296.008 296.502 296.949 297.351 297.694
          297.963 298.145 298.245 298.28 298.282 298.28 298.305 298.376 298.503 298.69 298.933 299.224
          299.552 299.905 300.272 300.641 301.008 301.385 301.814 302.383 303.201 304.267 305.15 297.561
          298.692 299.139 299.534 299.882 300.194 300.479 300.739 300.97 301.163 301.311 301.41 301.463
          301.482 301.481 301.479 301.488 301.52 301.581 301.675 301.801 301.954 302.128 302.317 302.514
          302.712 302.918 303.161 303.522 304.139 305.15 298.254 305.15 305.15 305.15 305.15 305.15
          305.15 305.15 305.15 305.15 305.15 305.15 305.15 305.15 305.15 305.15 305.15 305.15
          305.15 305.15 305.15 305.15 305.15 305.15 305.15 305.15 305.15 305.15 305.15 305.15
          305.15
        </DataArray>
        <DataArray type="Float32" Name="pg" NumberOfComponents="1" format="ascii">
          216505 216505 216505 216505 216505 216505 216505 216505 216505 216505 216505 216505
          216505 216505 216505 216505 216505 216505 216505 216505 216505 216505 216505 216505
          216505 216505 216505 216505 216505 216505 216505 216505 216505 216505 216505 216505
          216505 216505 216505 216505 216505 216505 216505 216505 216505 216505 216505 216505
          216505 216505 216505 216505 216505 216505 216505 216505 216505 216505 216505 216505
          216505 216505 216505 216505 216505 216505 216505 216505 216505 216505 216505 216505
          216505 216505 216505 216505 216505 216505 216505 216505 216505 216505 216505 216505
          216505 216505 216505 216505 216505 216505 216505 216505 216505 216505 216505 216505
          216505 216505 216505 216505 216505 216505 216505 216505 216505 216505 216505 216505
          216505 216505 216505 216505 216505 216505 216505 216505 216505 216505 216505 216505
          216505 216505 216505 216505 216505 216505 216505 216505 216505 216505 216505 216505
          216505 216505 216505 216505 216505 216505 216505 216505 216505 216505 216505 216505
          216505 216505 216505 216505 216505 216505 216505 216505 216505 216505 216505 216505
          216505 216505 216505 216505 216505 216505 216505 216505 216505 216505 216505 216505
          216505 216505 216505 216505 216505 216505 216505 216505 216505 216505 216505 216505
          216505 216505 216505 216505 216505 216505 216505 216505 216505 216505 216505 216505
          216505 216505 216505 216505 216505 216505 216505 216505 216505 216505 216505 216505
          216505 216505 216505 216505 216505 216505 216505 216505 216505 216505 216505 216505
          216505 216505 216505 216505 216505 216505 216505 216505 216505 216505 216505 216505
          216505 216505 216505 216505 216505 216505 216505 216505 216505 216505 216505 216505
          216505 216505 216505 216505 216505 216505 216505 216505 216505 216505 216505 216505
          216505 216505 216505 216505 216505 216505 216505 216505 216505 216505 216505 216505
          216505 216505 216505 216505 216505 216505 216505 216505 216505 216505 216505 216505
          216505 216505 216505 216505 216505 216505 216505 216505 216505 216505 216505 216505
          216505 216505 216505 216505 216505 216505 216505 216505 216505 216505 216505 216505
          216505 216505 216505 216505 216505 216505 216505 216505 216505 216505 216505 216505
          216505 216505 216505 216505 216505 216505 216505 216505 216505 216505 216505 216505
          216505 216505 216505 216505 216505 216505 216505 216505 216505 216505 216505 216505
          216505 216505 216505 216505 216505 216505 216505 216505 216505 216505 216505 216505
          216505 216505 216505 216505 216505 216505 216505 216505 216505 216505 216505 216505
          216505 216505 216505 216505 216505 216505 216505 216505 216505 216505 216505 216505
          216505 216505 216505 216505 216505 216505 216505 216505 216505 216505 216505 216505
          216505 216505 216505 216505 216505 216505 216505 216505 216505 216505 216505 216505
          216505 216505 216505 216505 216505 216505 216505 216505 216505 216505 216505 216505
          216505 216505 216505 216505 216505 216505 216505 216505 216505 216505 216505 216505
          216505 216505 216505 216505 216505 216505 216505 216505 216505 216505 216505 216505
          216505 216505 216505 216505 216505 216505 216505 216505 216505 216505 216505 216505
          216505 216505 216505 216505 216505 216505 216505 216505 216505 216505 216505 216505
          216505 216505 216505 216505 216505 216505 216505 216505 216505 216505 216505 216505
          216505 216505 216505 216505 216505 216505 216505 216505 216505 216505 216505 216505
          216505 216505 216505 216505 216505 216505 216505 216505 216505 216505 216505 216505
          216505 216505 216505 216505 216505 216505 216505 216505 216505 216505 216505 216505
          216505 216505 216505 216505 216505 216505 216505 216505 216505 216505 216505 216505
          216505 216505 216505 216505 216505 216505 216505 216505 216505 216505 216505 216505
          216505 216505 216505 216505 216505 216505 216505 216505 216505 216505 216505 216505
          216505 216505 216505 216505 216505 216505 216505 216505 216505 216505 216505 216505
          216505 216505 216505 216505 216505 216505 216505 216505 216505 216505 216505 216505
          216505 216505 216505 216505 216505 216505 216505 216505 216505 216505 216505 216505
          216505 216505 216505 216505 216505 216505 216505 216505 216505 216505 216505 216505
          216505
        </DataArray>
        <DataArray type="Float32" Name="delP" NumberOfComponents="1" format="ascii">
          116505 116505 116505 116505 116505 116505 116505 116505 116505 116505 116505 116505
          116505 116505 116505 116505 116505 116505 116505 116505 116505 116505 116505 116505
          116505 116505 116505 116505 116505 116505 116505 116505 116505 116505 116505 116505
          116505 116505 116505 116505 116505 116505 116505 116505 116505 116505 116505 116505
          116505 116505 116505 116505 116505 116505 116505 116505 116505 116505 116505 116505
          116505 116505 116505 116505 116505 116505 116505 116505 116505 116505 116505 116505
          116505 116505 116505 116505 116505 116505 116505 116505 116505 116505 116505 116505
          116505 116505 116505 116505 116505 116505 116505 116505 116505 116505 116505 116505
          116505 116505 116505 116505 116505 116505 116505 116505 116505 116505 116505 116505
          116505 116505 116505 116505 116505 116505 116505 116505 116505 116505 116505 116505
          116505 116505 116505 116505 116505 116505 116505 116505 116505 116505 116505 116505
          116505 116505 116505 116505 116505 116505 116505 116505 116505 116505 116505 116505
          116505 116505 116505 116505 116505 116505 116505 116505 116505 116505 116505 116505
          116505 116505 116505 116505 116505 116505 116505 116505 116505 116505 116505 116505
          116505 116505 116505 116505 116505 116505 116505 116505 116505 116505 116505 116505
          116505 116505 116505 116505 116505 116505 116505 116505 116505 116505 116505 116505
          116505 116505 116505 116505 116505 116505 116505 116505 116505 116505 116505 116505
          116505 116505 116505 116505 116505 116505 116505 116505 116505 116505 116505 116505
          116505 116505 116505 116505 116505 116505 116505 116505 116505 116505 116505 116505
          116505 116505 116505 116505 116505 116505 116505 116505 116505 116505 116505 116505
          116505 116505 116505 116505 116505 116505 116505 116505 116505 116505 116505 116505
          116505 116505 116505 116505 116505 116505 116505 116505 116505 116505 116505 116505
          116505 116505 116505 116505 116505 116505 116505 116505 116505 116505 116505 116505
          116505 116505 116505 116505 116505 116505 116505 116505 116505 116505 116505 116505
          116505 116505 116505 116505 116505 116505 116505 116505 116505 116505 116505 116505
          116505 116505 116505 116505 116505 116505 116505 116505 116505 116505 116505 116505
          116505 116505 116505 116505 116505 116505 116505 116505 116505 116505 116505 116505
          116505 116505 116505 116505 116505 116505 116505 116505 116505 116505 116505 116505
          116505 116505 116505 116505 116505 116505 116505 116505 116505 116505 116505 116505
          116505 116505 116505 116505 116505 116505 116505 116505 116505 116505 116505 116505
          116505 116505 116505 116505 116505 116505 116505 116505 116505 116505 116505 116505
          116505 116505 116505 116505 116505 116505 116505 116505 116505 116505 116505 116505
          116505 116505 116505 116505 116505 116505 116505 116505 116505 116505 116505 116505
          116505 116505 116505 116505 116505 116505 116505 116505 116505 116505 116505 116505
          116505 116505 116505 116505 116505 116505 116505 116505 116505 116505 116505 116505
          116505 116505 116505 116505 116505 116505 116505 116505 116505 116505 116505 116505
          116505 116505 116505 116505 116505 116505 116505 116505 116505 116505 116505 116505
          116505 116505 116505 116505 116505 116505 116505 116505 116505 116505 116505 116505
          116505 116505 116505 116505 116505 116505 116505 116505 116505 116505 116505 116505
          116505 116505 116505 116505 116505 116505 116505 116505 116505 116505 116505 116505
          116505 116505 116505 116505 116505 116505 116505 116505 116505 116505 116505 116505
          116505 116505 116505 116505 116505 116505 116505 116505 116505 116505 116505 116505
          116505 116505 116505 116505 116505 116505 116505 116505 116505 116505 116505 116505
          116505 116505 116505 116505 116505 116505 116505 116505 116505 116505 116505 116505
          116505 116505 116505 116505 116505 116505 116505 116505 116505 116505 116505 116505
          116505 116505 116505 116505 116505 116505 116505 116505 116505 116505 116505 116505
          116505 116505 116505 116505 116505 116505 116505 116505 116505 116505 116505 116505
          116505 116505 116505 116505 116505 116505 116505 116505 116505 116505 116505 116505
          116505 116505 116505 116505 116505 116505 116505 116505 116505 116505 116505 116505
          116505
        </DataArray>
        <DataArray type="Float32" Name="xH2Og" NumberOfComponents="1" format="ascii">
          0.0179607 0.0185511 0.0139159 0.0177034 0.0186267 0.0180328 0.0186928 0.0181902 0.0187525 0.0183093 0.0188063 0.0184036
          0.0188437 0.0184738 0.0188898 0.0185399 0.0189123 0.0185861 0.018947 0.0186322 0.0189674 0.0186682 0.0190069 0.0187129
          0.0190273 0.0187465 0.0190479 0.0187738 0.0190699 0.0188008 0.0190858 0.0188222 0.0191027 0.0188414 0.0191188 0.0188587
          0.0191355 0.0188741 0.0191475 0.0188831 0.0191599 0.0188868 0.0191529 0.0188692 0.0191664 0.0188519 0.0191728 0.0188199
          0.0191556 0.018747 0.0191306 0.0186308 0.0190966 0.0184563 0.0190241 0.0181689 0.0189639 0.0177283 0.0186385 0.0169505
          0.0176899 0.0062 0.0103448 0.0158253 0.0172539 0.017575 0.0177773 0.0179264 0.0180382 0.018132 0.0182049 0.0182684
          0.0183215 0.0183758 0.0184223 0.0184595 0.0184931 0.018521 0.0185442 0.0185637 0.0185791 0.0185864 0.0185837 0.0185573
          0.018515 0.0184472 0.0183245 0.0181278 0.0178288 0.0173547 0.0166001 0.0153115 0.0062 0.00746826 0.0132703 0.0159869
          0.0167914 0.0171291 0.017355 0.0175213 0.0176531 0.0177581 0.0178453 0.0179188 0.017987 0.0180477 0.0180977 0.0181403
          0.0181761 0.0182052 0.0182284 0.0182455 0.0182527 0.0182462 0.0182136 0.0181527 0.0180544 0.0178889 0.0176247 0.0172204
          0.0165914 0.0155901 0.0139143 0.0062 0.00533972 0.0104729 0.0141203 0.0156883 0.0163156 0.0166613 0.0169024 0.0170861
          0.0172316 0.0173502 0.0174492 0.0175365 0.017614 0.0176796 0.0177346 0.0177804 0.0178175 0.0178466 0.0178672 0.0178764
          0.0178691 0.0178336 0.0177608 0.0176393 0.0174398 0.0171228 0.0166354 0.0158854 0.0147027 0.0127566 0.0062 0.0039234
          0.00784484 0.0117693 0.0141215 0.0152367 0.0157986 0.0161519 0.0164083 0.0166071 0.016767 0.0168989 0.0170117 0.0171103
          0.017195 0.0172661 0.017325 0.0173729 0.0174103 0.0174371 0.0174507 0.0174458 0.0174112 0.0173338 0.0171983 0.0169754
          0.0166213 0.0160747 0.0152383 0.0139341 0.0118217 0.0062 0.00311735 0.00569836 0.00923529 0.0120765 0.0137727 0.0146867
          0.0152236 0.0155877 0.0158601 0.016075 0.0162501 0.0163968 0.016523 0.0166314 0.0167231 0.0167993 0.0168613 0.0169104
          0.0169463 0.0169674 0.0169684 0.0169391 0.0168642 0.0167249 0.0164911 0.016117 0.0155357 0.0146468 0.013273 0.0110804
          0.0062 0.00277447 0.00419535 0.0068894 0.00972865 0.0118763 0.0132282 0.0140467 0.0145774 0.0149566 0.0152473 0.0154801
          0.0156722 0.0158346 0.0159734 0.0160914 0.01619 0.0162708 0.0163356 0.0163845 0.0164166 0.0164275 0.0164081 0.0163428
          0.0162103 0.0159792 0.0156027 0.0150113 0.0141023 0.0127035 0.0104992 0.0062 0.00273726 0.00333791 0.00504781 0.00741178
          0.00966736 0.0113826 0.0125431 0.0133133 0.0138496 0.0142479 0.0145598 0.0148129 0.0150237 0.0152023 0.015354 0.0154815
          0.015587 0.0156726 0.0157394 0.015787 0.0158123 0.0158076 0.0157585 0.0156431 0.0154286 0.0150676 0.0144895 0.0135907
          0.0122049 0.0100409 0.0062 0.00286188 0.00300336 0.00386456 0.00548388 0.0074408 0.00925912 0.0106946 0.0117372 0.012483
          0.0130317 0.0134528 0.0137886 0.0140644 0.0142954 0.0144908 0.0146558 0.0147933 0.0149064 0.0149968 0.0150653 0.0151101
          0.0151256 0.0150991 0.01501 0.0148253 0.0144974 0.0139551 0.0130947 0.0117558 0.00967237 0.0062 0.0030439 0.00300806
          0.00330934 0.00418675 0.00556546 0.00714692 0.0086344 0.00986855 0.010827 0.0115572 0.0121204 0.0125659 0.0129275 0.0132275
          0.0134797 0.0136928 0.0138715 0.0140202 0.0141415 0.0142375 0.0143078 0.014349 0.0143515 0.0142969 0.0141538 0.0138749
          0.0133892 0.0125931 0.0113316 0.00936137 0.0062 0.00322297 0.00317671 0.00321382 0.00355398 0.00431069 0.00541101 0.00666498
          0.00788361 0.00895209 0.00983527 0.0105476 0.0111215 0.0115891 0.0119758 0.0122999 0.0125736 0.0128044 0.012998 0.0131587
          0.0132897 0.0133923 0.0134655 0.0135031 0.0134901 0.0133985 0.0131826 0.0127722 0.0120647 0.0109097 0.00908248 0.0062
          0.0033846 0.00339105 0.00336987 0.00343858 0.00373323 0.00431679 0.00514693 0.00611241 0.00709362 0.00800466 0.00880412 0.00948461
          0.0100569 0.010538 0.0109442 0.0112892 0.011582 0.01183 0.0120387 0.0122125 0.0123544 0.0124657 0.0125436 0.0125779
          0.0125454 0.0124038 0.012085 0.0114878 0.0104665 0.0088112 0.0062 0.00354251 0.00360439 0.00361803 0.00361811 0.00368295
          0.00389652 0.0043031 0.00488919 0.00559762 0.00635652 0.00710397 0.0077995 0.00842367 0.00897219 0.0094492 0.00986237 0.0102189
          0.010525 0.0107865 0.0110083 0.0111944 0.011348 0.0114695 0.0115539 0.0115844 0.0115248 0.0113109 0.0108441 0.00998296
          0.00852987 0.0062 0.00373153 0.00382868 0.00389025 0.00391604 0.00392903 0.00397584 0.00410852 0.00436188 0.00474107 0.00522386
          0.00577242 0.00634665 0.00691326 0.00744952 0.0079428 0.00838828 0.00878576 0.0091363 0.00944255 0.00970788 0.00993582 0.0101299
          0.0102927 0.0104238 0.0105139 0.0105366 0.0104361 0.0101172 0.00944176 0.00822234 0.0062 0.00399728 0.00411152 0.00420106
          0.00426397 0.00430012 0.00432113 0.00435177 0.00442291 0.00456072 0.00477836 0.00507347 0.00543127 0.00583028 0.00624813 0.00666551
          0.00706817 0.00744717 0.00779663 0.00811334 0.00839641 0.00864646 0.00886527 0.00905521 0.0092181 0.00935178 0.00944242 0.00945054
          0.00929278 0.0088305 0.00787907 0.0062 0.00441276 0.00453008 0.00461994 0.00469488 0.00475249 0.00479167 0.00481643 0.00483764
          0.00487137 0.00493438 0.00503945 0.00519229 0.00539103 0.00562773 0.00589102 0.00616871 0.00645001 0.00672616 0.00699003 0.00723665
          0.007463 0.00766771 0.00785081 0.00801343 0.00815658 0.0082773 0.00835862 0.00834868 0.0081289 0.00749084 0.0062 0.00505927
          0.0052103 0.00525987 0.00530817 0.00535211 0.00538913 0.00541735 0.00543679 0.00545042 0.00546416 0.00548563 0.0055222 0.00557925
          0.00565907 0.00576078 0.00588091 0.00601457 0.0061565 0.0063016 0.00644531 0.00658392 0.00671471 0.00683593 0.00694688 0.00704783
          0.00713957 0.00722073 0.00727867 0.00726412 0.00703026 0.0062 0.00519731 0.0062 0.0062 0.0062 0.0062 0.0062
          0.0062 0.0062 0.0062 0.0062 0.0062 0.0062 0.0062 0.0062 0.0062 0.0062 0.0062 0.0062
          0.0062 0.0062 0.0062 0.0062 0.0062 0.0062 0.0062 0.0062 0.0062 0.0062 0.0062 0.0062
          0.0062
        </DataArray>
        <DataArray type="Float32" Name="xAirg" NumberOfComponents="1" format="ascii">
          0.982039 0.981449 0.986084 0.982297 0.981373 0.981967 0.981307 0.98181 0.981248 0.981691 0.981194 0.981596
          0.981156 0.981526 0.98111 0.98146 0.981088 0.981414 0.981053 0.981368 0.981033 0.981332 0.980993 0.981287
          0.980973 0.981254 0.980952 0.981226 0.98093 0.981199 0.980914 0.981178 0.980897 0.981159 0.980881 0.981141
          0.980865 0.981126 0.980852 0.981117 0.98084 0.981113 0.980847 0.981131 0.980834 0.981148 0.980827 0.98118
          0.980844 0.981253 0.980869 0.981369 0.980903 0.981544 0.980976 0.981831 0.981036 0.982272 0.981361 0.983049
          0.98231 0.9938 0.989655 0.984175 0.982746 0.982425 0.982223 0.982074 0.981962 0.981868 0.981795 0.981732
          0.981678 0.981624 0.981578 0.981541 0.981507 0.981479 0.981456 0.981436 0.981421 0.981414 0.981416 0.981443
          0.981485 0.981553 0.981676 0.981872 0.982171 0.982645 0.9834 0.984689 0.9938 0.992532 0.98673 0.984013
          0.983209 0.982871 0.982645 0.982479 0.982347 0.982242 0.982155 0.982081 0.982013 0.981952 0.981902 0.98186
          0.981824 0.981795 0.981772 0.981755 0.981747 0.981754 0.981786 0.981847 0.981946 0.982111 0.982375 0.98278
          0.983409 0.98441 0.986086 0.9938 0.99466 0.989527 0.98588 0.984312 0.983684 0.983339 0.983098 0.982914
          0.982768 0.98265 0.982551 0.982464 0.982386 0.98232 0.982265 0.98222 0.982182 0.982153 0.982133 0.982124
          0.982131 0.982166 0.982239 0.982361 0.98256 0.982877 0.983365 0.984115 0.985297 0.987243 0.9938 0.996077
          0.992155 0.988231 0.985879 0.984763 0.984201 0.983848 0.983592 0.983393 0.983233 0.983101 0.982988 0.98289
          0.982805 0.982734 0.982675 0.982627 0.98259 0.982563 0.982549 0.982554 0.982589 0.982666 0.982802 0.983025
          0.983379 0.983925 0.984762 0.986066 0.988178 0.9938 0.996883 0.994302 0.990765 0.987924 0.986227 0.985313
          0.984776 0.984412 0.98414 0.983925 0.98375 0.983603 0.983477 0.983369 0.983277 0.983201 0.983139 0.98309
          0.983054 0.983033 0.983032 0.983061 0.983136 0.983275 0.983509 0.983883 0.984464 0.985353 0.986727 0.98892
          0.9938 0.997226 0.995805 0.993111 0.990271 0.988124 0.986772 0.985953 0.985423 0.985043 0.984753 0.98452
          0.984328 0.984165 0.984027 0.983909 0.98381 0.983729 0.983664 0.983615 0.983583 0.983572 0.983592 0.983657
          0.98379 0.984021 0.984397 0.984989 0.985898 0.987297 0.989501 0.9938 0.997263 0.996662 0.994952 0.992588
          0.990333 0.988617 0.987457 0.986687 0.98615 0.985752 0.98544 0.985187 0.984976 0.984798 0.984646 0.984518
          0.984413 0.984327 0.984261 0.984213 0.984188 0.984192 0.984241 0.984357 0.984571 0.984932 0.98551 0.986409
          0.987795 0.989959 0.9938 0.997138 0.996997 0.996135 0.994516 0.992559 0.990741 0.989305 0.988263 0.987517
          0.986968 0.986547 0.986211 0.985936 0.985705 0.985509 0.985344 0.985207 0.985094 0.985003 0.984935 0.98489
          0.984874 0.984901 0.98499 0.985175 0.985503 0.986045 0.986905 0.988244 0.990328 0.9938 0.996956 0.996992
          0.996691 0.995813 0.994435 0.992853 0.991366 0.990131 0.989173 0.988443 0.98788 0.987434 0.987072 0.986773
          0.98652 0.986307 0.986128 0.98598 0.985858 0.985763 0.985692 0.985651 0.985648 0.985703 0.985846 0.986125
          0.986611 0.987407 0.988668 0.990639 0.9938 0.996777 0.996823 0.996786 0.996446 0.995689 0.994589 0.993335
          0.992116 0.991048 0.990165 0.989452 0.988878 0.988411 0.988024 0.9877 0.987426 0.987196 0.987002 0.986841
          0.98671 0.986608 0.986534 0.986497 0.98651 0.986601 0.986817 0.987228 0.987935 0.98909 0.990918 0.9938
          0.996615 0.996609 0.99663 0.996561 0.996267 0.995683 0.994853 0.993888 0.992906 0.991995 0.991196 0.990515
          0.989943 0.989462 0.989056 0.988711 0.988418 0.98817 0.987961 0.987787 0.987646 0.987534 0.987456 0.987422
          0.987455 0.987596 0.987915 0.988512 0.989534 0.991189 0.9938 0.996458 0.996396 0.996382 0.996382 0.996317
          0.996103 0.995697 0.995111 0.994402 0.993643 0.992896 0.9922 0.991576 0.991028 0.990551 0.990138 0.989781
          0.989475 0.989213 0.988992 0.988806 0.988652 0.98853 0.988446 0.988416 0.988475 0.988689 0.989156 0.990017
          0.99147 0.9938 0.996268 0.996171 0.99611 0.996084 0.996071 0.996024 0.995891 0.995638 0.995259 0.994776
          0.994228 0.993653 0.993087 0.99255 0.992057 0.991612 0.991214 0.990864 0.990557 0.990292 0.990064 0.98987
          0.989707 0.989576 0.989486 0.989463 0.989564 0.989883 0.990558 0.991778 0.9938 0.996003 0.995888 0.995799
          0.995736 0.9957 0.995679 0.995648 0.995577 0.995439 0.995222 0.994927 0.994569 0.99417 0.993752 0.993334
          0.992932 0.992553 0.992203 0.991887 0.991604 0.991354 0.991135 0.990945 0.990782 0.990648 0.990558 0.990549
          0.990707 0.99117 0.992121 0.9938 0.995587 0.99547 0.99538 0.995305 0.995247 0.995208 0.995184 0.995162
          0.995129 0.995066 0.994961 0.994808 0.994609 0.994372 0.994109 0.993831 0.99355 0.993274 0.99301 0.992763
          0.992537 0.992332 0.992149 0.991987 0.991843 0.991723 0.991641 0.991651 0.991871 0.992509 0.9938 0.994941
          0.99479 0.99474 0.994692 0.994648 0.994611 0.994583 0.994563 0.99455 0.994536 0.994514 0.994478 0.994421
          0.994341 0.994239 0.994119 0.993985 0.993843 0.993698 0.993555 0.993416 0.993285 0.993164 0.993053 0.992952
          0.99286 0.992779 0.992721 0.992736 0.99297 0.9938 0.994803 0.9938 0.9938 0.9938 0.9938 0.9938
          0.9938 0.9938 0.9938 0.9938 0.9938 0.9938 0.9938 0.9938 0.9938 0.9938 0.9938 0.9938
          0.9938 0.9938 0.9938 0.9938 0.9938 0.9938 0.9938 0.9938 0.9938 0.9938 0.9938 0.9938
          0.9938
        </DataArray>
        <DataArray type="Float32" Name="h" NumberOfComponents="1" format="ascii">
          58736.7 59801.4 45934.5 56968.4 59984.5 58008.8 60141.9 58550.6 60279.7 58930.7 60402.3 59215.3
          60495.2 59432.3 60598.2 59623.2 60662 59770.8 60742.3 59908.9 60798.8 60024.7 60882.8 60148.1
          60936 60249.8 60988.1 60337.7 61041 60421.1 61083.5 60492.5 61126.4 60557.7 61167.1 60618.2
          61208.1 60676.3 61241.5 60727.7 61274.9 60776.6 61278 60801 61311.7 60834.1 61333.1 60850.7
          61316 60803.8 61283.3 60677.4 61232.1 60433.4 61116.5 59975.3 61014.9 59234.2 60499.7 57971.9
          59030.8 41565.2 35341.1 50960.8 55395.8 56558.1 57279.4 57783.8 58160.5 58466.6 58713.8 58927.6
          59112 59287.5 59442.8 59576.4 59697.1 59802.7 59896 59980.4 60059.1 60130.7 60198.2 60246
          60288.2 60307.8 60248.2 60059.1 59665.8 58929.2 57665.9 55547.5 41565.2 27625.7 43246.7 51267.7
          53979 55225.5 56037.5 56625.8 57083.9 57453.7 57764.4 58031.7 58273.7 58491.1 58680.6 58847.9
          58994.8 59123.3 59237.2 59340.7 59435.5 59524.6 59598.4 59658.7 59690.9 59636.3 59418.3 58927.5
          57987.6 56330.9 53545.1 41565.2 22632.8 35418.8 45517.3 50387.9 52605.1 53876.6 54755.4 55416.9
          55942.7 56377.2 56747 57073.1 57364.8 57621.9 57847.6 58045.1 58217.2 58368 58502.3 58624.4
          58738.6 58840.8 58927 58982.3 58950.1 58737.6 58205.6 57144.7 55226.1 51958 41565.2 19900
          28742 38794 45515.7 49141 51149.9 52448.3 53388.5 54118.9 54712.5 55211.6 55644.1 56027
          56366 56663.9 56924.3 57150.8 57348 57521.1 57676.3 57819.9 57953.1 58071.4 58159.9 58166.3
          57991.7 57475 56377.3 54323.5 50748.4 41565.2 18829.9 23939.6 32195.9 39610.5 44614.3 47646
          49563.2 50896.1 51901.9 52703.4 53367.8 53935.5 54432.3 54871.2 55258.2 55596.7 55891.4 56147.2
          56369.7 56566.3 56745.4 56913.1 57068.3 57198.7 57257.7 57148.5 56698.6 55644.1 53570.4 49845.7
          41565.2 18787.4 21149.4 26769.3 33459.6 39158.6 43209.9 45929.9 47807.9 49189.7 50266.9 51145.3
          51885.7 52526 53088.6 53585 54020.4 54400.1 54730.1 55015.8 55265.5 55488.9 55696.7 55893.1
          56071.8 56194.3 56172 55831.3 54890.7 52900.8 49171 41565.2 19247.4 20038.9 23150.4 28105.8
          33430.7 37999.7 41470.8 43998.7 45868.7 47308 48463.6 49424.6 50246.3 50962.6 51593.3 52148.2
          52633.6 53056.6 53423.1 53741.5 54022 54278.8 54522.3 54754.4 54947.9 55026.9 54825.8 54055.4
          52237.6 48631.2 41565.2 19832.4 20033.4 21381.5 24349.9 28404 32648.2 36424.6 39484.7 41875.1
          43746.6 45246.4 46483.3 47530.8 48437 49231.9 49932.3 50547.1 51085.4 51553.8 51960.5 52315.8
          52635.4 52935.2 53226.4 53495.8 53684 53641.2 53081.5 51510.1 48146.1 41565.2 20378.2 20563.2
          21044.1 22454.4 24930.4 28117.8 31493.9 34641.3 37357.7 39615.6 41477.7 43027.9 44340.6 45472.3
          46462.5 47335.8 48105.3 48782.8 49376.4 49894.2 50346 50747.4 51117.9 51476.9 51826.4 52126.5
          52249.5 51924 50654.4 47636.9 41565.2 20862 21250.1 21535 22110.2 23314.4 25215.2 27630.9
          30268 32859.8 35236.9 37332.9 39149.7 40721.4 42090 43293 44358.5 45303.5 46141.2 46881.5
          47532.8 48104.1 48609.7 49069.6 49509 49943.5 50354.7 50642.3 50560.8 49632.2 47053 41565.2
          21387.6 21971.1 22377.4 22733.8 23272.9 24190 25553.1 27298.4 29281.4 31340.7 33347.2 35221.4
          36929.9 38469.3 39852.2 41096.1 42214.1 43216.9 44113.7 44912.4 45620.4 46249.4 46817.3 47350.5
          47874.6 48392 48834.1 48992.1 48424.7 46356.1 41565.2 22080.1 22805 23385.8 23832.8 24224.6
          24687.5 25341.8 26258.6 27443.8 28847.6 30389.2 31984.4 33563.6 35080 36508.2 37838.8 39069.1
          40198.1 41227.7 42161 43002 43757.7 44440.6 45073.3 45684.9 46294.7 46869.1 47247.7 47045.1
          45540.9 41565.2 23118.9 23949.8 24657.5 25246.8 25728.7 26139.9 26542.2 27007.4 27597.2 28348.3
          29265.3 30325.5 31488.6 32709.7 33947.6 35171.7 36361.2 37498.3 38570.7 39571.1 40495.1 41342
          42116 42830.2 43508.4 44178.4 44839.6 45392.6 45530.1 44616.2 41565.2 24745.5 25687.8 26476.9
          27154.4 27734.9 28227 28643.8 29010.2 29363 29745.2 30196.3 30743.8 31398.4 32154.4 32994.1
          33894.1 34832.2 35785.9 36733.6 37657.6 38544 39382.7 40167.3 40898.6 41587 42255.2 42923.5
          43558.5 43962.8 43621.2 41565.2 27479.6 28517.4 29313.9 29993.8 30582.7 31096.3 31541.7 31922.7
          32246.2 32526.5 32786 33052.2 33352.3 33707.3 34129 34619.2 35172.5 35779.2 36425.2 37094.4
          37771.3 38441.6 39093 39716.5 40308.9 40877 41439.2 42006.3 42508.8 42627.8 41565.2 32119.8
          33497.9 34027.3 34501.8 34922.4 35295.7 35627.6 35921.1 36176.6 36394.3 36577.3 36732.9 36873.2
          37012.8 37166.3 37345.2 37556.9 37804.1 38086.5 38399.7 38737.2 39091 39452.6 39813.6 40167
          40508.6 40841.4 41177.6 41523.4 41797.1 41565.2 33032.3 41565.2 41565.2 41565.2 41565.2 41565.2
          41565.2 41565.2 41565.2 41565.2 41565.2 41565.2 41565.2 41565.2 41565.2 41565.2 41565.2 41565.2
          41565.2 41565.2 41565.2 41565.2 41565.2 41565.2 41565.2 41565.2 41565.2 41565.2 41565.2 41565.2
          41565.2
        </DataArray>
        <DataArray type="Float32" Name="rho" NumberOfComponents="1" format="ascii">
          2.46066 2.45887 2.51723 2.47161 2.45828 2.46711 2.45778 2.46462 2.45737 2.46297 2.45701 2.4618
          2.4567 2.46088 2.45641 2.46013 2.45616 2.45949 2.45592 2.45892 2.45571 2.45842 2.45549 2.45796
          2.4553 2.45754 2.45513 2.45715 2.45496 2.45681 2.4548 2.45649 2.45466 2.45619 2.45452 2.45591
          2.45438 2.45563 2.45426 2.45534 2.45414 2.455 2.45404 2.45462 2.45392 2.45417 2.45383 2.4537
          2.45377 2.45326 2.45375 2.45297 2.45377 2.45295 2.45388 2.45335 2.454 2.45426 2.45443 2.45552
          2.45541 2.46547 2.56396 2.49824 2.47898 2.4734 2.46999 2.46769 2.46599 2.46464 2.46351 2.46255
          2.4617 2.46093 2.46024 2.45961 2.45904 2.45853 2.45806 2.45762 2.45718 2.45671 2.45616 2.4555
          2.45471 2.45382 2.45294 2.45225 2.45202 2.45253 2.45405 2.45637 2.46547 2.59622 2.53185 2.4976
          2.48502 2.47894 2.47505 2.47228 2.47015 2.46842 2.46695 2.46568 2.46454 2.46352 2.46259 2.46176
          2.46101 2.46034 2.45971 2.45909 2.45844 2.45767 2.45675 2.45561 2.45429 2.4529 2.4517 2.45108
          2.45147 2.45334 2.45661 2.46547 2.61453 2.5648 2.52295 2.50129 2.49062 2.48439 2.48013 2.47695
          2.47443 2.47234 2.47054 2.46895 2.46752 2.46624 2.46509 2.46405 2.46312 2.46227 2.46145 2.4606
          2.45964 2.45845 2.45699 2.45523 2.4533 2.45148 2.45027 2.45027 2.45219 2.45625 2.46547 2.6217
          2.591 2.55149 2.52298 2.50622 2.49643 2.49003 2.48543 2.48187 2.47896 2.47649 2.47434 2.47243
          2.47071 2.46916 2.46778 2.46654 2.46541 2.46436 2.4633 2.46213 2.46071 2.45895 2.45677 2.45428
          2.45176 2.44979 2.44913 2.45077 2.45541 2.46547 2.62145 2.6073 2.5777 2.54823 2.52637 2.51208
          2.50268 2.49609 2.49112 2.48715 2.48384 2.48098 2.47846 2.47621 2.47418 2.47237 2.47074 2.46928
          2.46794 2.46664 2.46525 2.46362 2.46159 2.45904 2.45602 2.45277 2.4499 2.44834 2.44938 2.4543
          2.46547 2.61764 2.61384 2.59676 2.57271 2.54968 2.53167 2.51875 2.50954 2.50268 2.49731 2.4929
          2.48915 2.48588 2.48297 2.48035 2.47801 2.47592 2.47404 2.47234 2.47074 2.46911 2.46727 2.46501
          2.46216 2.45867 2.45471 2.45088 2.44822 2.44833 2.45317 2.46547 2.61307 2.61332 2.60641 2.59136
          2.57224 2.55366 2.53816 2.52617 2.51701 2.50985 2.50405 2.49917 2.49496 2.49124 2.48792 2.48494
          2.48227 2.47988 2.47772 2.47574 2.47381 2.47175 2.46929 2.4662 2.46232 2.45774 2.45296 2.44909
          2.44802 2.45235 2.46547 2.60937 2.60929 2.60776 2.6011 2.58912 2.57411 2.55889 2.54535 2.53412
          2.52502 2.51756 2.51133 2.50597 2.50128 2.4971 2.49335 2.48998 2.48696 2.48425 2.48179 2.47948
          2.47712 2.47447 2.47119 2.46703 2.46194 2.45631 2.45122 2.44875 2.45208 2.46547 2.60672 2.60464
          2.60403 2.60216 2.59698 2.5881 2.57663 2.56431 2.55258 2.54218 2.53324 2.52558 2.51897 2.51316
          2.508 2.50335 2.49917 2.49541 2.49202 2.48896 2.48615 2.48342 2.48051 2.47707 2.47272 2.46727
          2.46094 2.45472 2.45075 2.45264 2.46547 2.60459 2.60059 2.59853 2.59756 2.59608 2.59263 2.58658
          2.57827 2.56869 2.55888 2.54954 2.54102 2.53338 2.52653 2.52037 2.51479 2.50974 2.50515 2.50099
          2.49722 2.49379 2.49057 2.48732 2.48368 2.47921 2.47355 2.46673 2.45955 2.45409 2.45414 2.46547
          2.60189 2.59682 2.59298 2.59068 2.58949 2.58847 2.58652 2.58288 2.57741 2.5705 2.56281 2.55491
          2.54722 2.53994 2.53315 2.52684 2.52101 2.51564 2.51071 2.5062 2.50208 2.49826 2.49457 2.49068
          2.48613 2.48043 2.47337 2.46549 2.45866 2.45661 2.46547 2.59768 2.59205 2.58712 2.58322 2.58058
          2.5791 2.57827 2.57731 2.57549 2.5724 2.56802 2.5626 2.55652 2.55013 2.54369 2.53738 2.53128
          2.52547 2.52 2.51489 2.51016 2.50576 2.50161 2.49745 2.49287 2.48732 2.48034 2.47212 2.46416
          2.45991 2.46547 2.59082 2.58472 2.57929 2.57448 2.57047 2.56748 2.56559 2.56459 2.56401 2.56329
          2.56192 2.55963 2.5564 2.55234 2.54766 2.54256 2.53723 2.53182 2.52647 2.52126 2.51628 2.51157
          2.50712 2.5028 2.49833 2.49319 2.48675 2.47875 2.47012 2.46379 2.46547 2.5798 2.57299 2.56725
          2.56217 2.55763 2.55367 2.55049 2.54821 2.54683 2.54615 2.54578 2.54534 2.54448 2.54299 2.54079
          2.53793 2.53448 2.53058 2.52637 2.52198 2.51755 2.51317 2.50892 2.50481 2.50073 2.49635 2.49105
          2.48417 2.47576 2.46786 2.46547 2.56114 2.55366 2.54794 2.54307 2.53877 2.53491 2.53146 2.52852
          2.52621 2.52461 2.52366 2.52321 2.52302 2.5228 2.52234 2.52148 2.52013 2.51829 2.516 2.51332
          2.51035 2.5072 2.50396 2.50074 2.49755 2.49431 2.49069 2.48601 2.47951 2.47142 2.46547 2.52945
          2.51972 2.51591 2.51255 2.50958 2.50694 2.50454 2.50236 2.50043 2.49881 2.49756 2.49671 2.49621
          2.49598 2.49589 2.4958 2.49559 2.4952 2.49455 2.49364 2.49247 2.49109 2.48953 2.48787 2.48616
          2.48444 2.48268 2.48064 2.4777 2.47289 2.46547 2.52344 2.46547 2.46547 2.46547 2.46547 2.46547
          2.46547 2.46547 2.46547 2.46547 2.46547 2.46547 2.46547 2.46547 2.46547 2.46547 2.46547 2.46547
          2.46547 2.46547 2.46547 2.46547 2.46547 2.46547 2.46547 2.46547 2.46547 2.46547 2.46547 2.46547
          2.46547
        </DataArray>
        <DataArray type="Float32" Name="mu" NumberOfComponents="1" format="ascii">
          1.85336e-05 1.85408e-05 1.82318e-05 1.84715e-05 1.85438e-05 1.84957e-05 1.85463e-05 1.85093e-05 1.85484e-05 1.85182e-05 1.85502e-05 1.85245e-05
          1.85518e-05 1.85295e-05 1.85533e-05 1.85335e-05 1.85546e-05 1.8537e-05 1.85558e-05 1.854e-05 1.85569e-05 1.85427e-05 1.8558e-05 1.85452e-05
          1.8559e-05 1.85475e-05 1.85599e-05 1.85496e-05 1.85608e-05 1.85514e-05 1.85616e-05 1.85532e-05 1.85623e-05 1.85548e-05 1.85631e-05 1.85563e-05
          1.85638e-05 1.85579e-05 1.85644e-05 1.85596e-05 1.85651e-05 1.85615e-05 1.85657e-05 1.85638e-05 1.85663e-05 1.85665e-05 1.85668e-05 1.85695e-05
          1.85672e-05 1.85724e-05 1.85675e-05 1.85748e-05 1.85675e-05 1.85758e-05 1.85673e-05 1.85751e-05 1.85669e-05 1.85721e-05 1.85662e-05 1.8569e-05
          1.85656e-05 1.85693e-05 1.79917e-05 1.83289e-05 1.84314e-05 1.84618e-05 1.84804e-05 1.84929e-05 1.85022e-05 1.85095e-05 1.85156e-05 1.85209e-05
          1.85255e-05 1.85297e-05 1.85335e-05 1.8537e-05 1.85401e-05 1.85429e-05 1.85455e-05 1.8548e-05 1.85505e-05 1.85532e-05 1.85564e-05 1.85604e-05
          1.85652e-05 1.85708e-05 1.85766e-05 1.85817e-05 1.85847e-05 1.85842e-05 1.85794e-05 1.85729e-05 1.85693e-05 1.78322e-05 1.81534e-05 1.83317e-05
          1.83992e-05 1.84323e-05 1.84534e-05 1.84686e-05 1.84802e-05 1.84896e-05 1.84976e-05 1.85046e-05 1.85108e-05 1.85165e-05 1.85216e-05 1.85262e-05
          1.85303e-05 1.85341e-05 1.85376e-05 1.85411e-05 1.85449e-05 1.85494e-05 1.8555e-05 1.85619e-05 1.85702e-05 1.85792e-05 1.85876e-05 1.85935e-05
          1.85946e-05 1.85891e-05 1.85791e-05 1.85693e-05 1.77456e-05 1.79865e-05 1.81986e-05 1.83123e-05 1.83697e-05 1.84035e-05 1.84267e-05 1.84439e-05
          1.84577e-05 1.84691e-05 1.8479e-05 1.84877e-05 1.84956e-05 1.85027e-05 1.85091e-05 1.85148e-05 1.852e-05 1.85248e-05 1.85295e-05 1.85343e-05
          1.854e-05 1.85471e-05 1.8556e-05 1.85669e-05 1.85793e-05 1.85917e-05 1.86014e-05 1.86055e-05 1.86006e-05 1.85875e-05 1.85693e-05 1.77151e-05
          1.78582e-05 1.80526e-05 1.81984e-05 1.82868e-05 1.83394e-05 1.83739e-05 1.83989e-05 1.84183e-05 1.84341e-05 1.84476e-05 1.84594e-05 1.84699e-05
          1.84794e-05 1.84879e-05 1.84956e-05 1.85026e-05 1.85089e-05 1.85149e-05 1.8521e-05 1.85278e-05 1.85362e-05 1.85469e-05 1.85603e-05 1.85761e-05
          1.85927e-05 1.86073e-05 1.86156e-05 1.86131e-05 1.85975e-05 1.85693e-05 1.77206e-05 1.77822e-05 1.79227e-05 1.80689e-05 1.81813e-05 1.82567e-05
          1.83069e-05 1.83424e-05 1.83693e-05 1.83908e-05 1.84089e-05 1.84245e-05 1.84383e-05 1.84507e-05 1.84619e-05 1.84719e-05 1.8481e-05 1.84892e-05
          1.84968e-05 1.85042e-05 1.85123e-05 1.85219e-05 1.85341e-05 1.85496e-05 1.85685e-05 1.85896e-05 1.86095e-05 1.86235e-05 1.86249e-05 1.8608e-05
          1.85693e-05 1.77426e-05 1.77553e-05 1.78323e-05 1.79472e-05 1.8062e-05 1.81546e-05 1.82225e-05 1.82716e-05 1.83084e-05 1.83373e-05 1.83612e-05
          1.83816e-05 1.83994e-05 1.84154e-05 1.84297e-05 1.84427e-05 1.84543e-05 1.84648e-05 1.84743e-05 1.84834e-05 1.84928e-05 1.85036e-05 1.8517e-05
          1.85343e-05 1.85559e-05 1.8581e-05 1.86067e-05 1.86272e-05 1.86341e-05 1.86177e-05 1.85693e-05 1.7767e-05 1.77626e-05 1.77904e-05 1.78586e-05
          1.79501e-05 1.80427e-05 1.81222e-05 1.81849e-05 1.82334e-05 1.82716e-05 1.83027e-05 1.8329e-05 1.83519e-05 1.83721e-05 1.83903e-05 1.84067e-05
          1.84215e-05 1.84348e-05 1.84468e-05 1.84579e-05 1.84689e-05 1.84809e-05 1.84954e-05 1.85139e-05 1.85376e-05 1.85662e-05 1.85973e-05 1.86248e-05
          1.86387e-05 1.86251e-05 1.85693e-05 1.77861e-05 1.77857e-05 1.77894e-05 1.78165e-05 1.78705e-05 1.79421e-05 1.80176e-05 1.80866e-05 1.81449e-05
          1.81928e-05 1.82324e-05 1.82657e-05 1.82945e-05 1.83199e-05 1.83426e-05 1.83631e-05 1.83815e-05 1.83982e-05 1.84133e-05 1.8427e-05 1.84401e-05
          1.84536e-05 1.8469e-05 1.84884e-05 1.85135e-05 1.85449e-05 1.85806e-05 1.86151e-05 1.86368e-05 1.86286e-05 1.85693e-05 1.77993e-05 1.78106e-05
          1.78123e-05 1.78176e-05 1.78381e-05 1.78775e-05 1.79318e-05 1.79923e-05 1.80516e-05 1.81051e-05 1.81518e-05 1.81921e-05 1.82273e-05 1.82584e-05
          1.82862e-05 1.83113e-05 1.83341e-05 1.83547e-05 1.83734e-05 1.83904e-05 1.84061e-05 1.84215e-05 1.84382e-05 1.84584e-05 1.84842e-05 1.85173e-05
          1.85567e-05 1.85973e-05 1.86274e-05 1.8627e-05 1.85693e-05 1.78097e-05 1.78313e-05 1.78422e-05 1.78456e-05 1.78496e-05 1.78623e-05 1.78883e-05
          1.79268e-05 1.79733e-05 1.80223e-05 1.80698e-05 1.81139e-05 1.81539e-05 1.819e-05 1.82228e-05 1.82527e-05 1.828e-05 1.83049e-05 1.83276e-05
          1.83483e-05 1.83673e-05 1.83853e-05 1.84037e-05 1.84247e-05 1.84509e-05 1.84847e-05 1.85264e-05 1.85719e-05 1.86101e-05 1.86198e-05 1.85693e-05
          1.78233e-05 1.78504e-05 1.78712e-05 1.78832e-05 1.7888e-05 1.78905e-05 1.78966e-05 1.79112e-05 1.79357e-05 1.79684e-05 1.80062e-05 1.80459e-05
          1.80853e-05 1.8123e-05 1.81586e-05 1.81919e-05 1.8223e-05 1.82519e-05 1.82786e-05 1.83032e-05 1.83258e-05 1.83468e-05 1.83674e-05 1.83894e-05
          1.84157e-05 1.84492e-05 1.84916e-05 1.85405e-05 1.85859e-05 1.86068e-05 1.85693e-05 1.7845e-05 1.78749e-05 1.79014e-05 1.79226e-05 1.79365e-05
          1.79434e-05 1.79457e-05 1.79478e-05 1.7954e-05 1.79668e-05 1.79867e-05 1.80127e-05 1.80427e-05 1.8075e-05 1.8108e-05 1.81408e-05 1.81729e-05
          1.82037e-05 1.82329e-05 1.82605e-05 1.82862e-05 1.83103e-05 1.83332e-05 1.83563e-05 1.83823e-05 1.84144e-05 1.84556e-05 1.85056e-05 1.85564e-05
          1.8589e-05 1.85693e-05 1.78809e-05 1.79133e-05 1.79424e-05 1.79684e-05 1.79902e-05 1.80062e-05 1.80159e-05 1.802e-05 1.80211e-05 1.80226e-05
          1.80272e-05 1.80366e-05 1.80514e-05 1.80709e-05 1.80941e-05 1.81199e-05 1.81474e-05 1.81756e-05 1.82039e-05 1.82316e-05 1.82584e-05 1.82839e-05
          1.83082e-05 1.8332e-05 1.83569e-05 1.83861e-05 1.84235e-05 1.84712e-05 1.85247e-05 1.85681e-05 1.85693e-05 1.7939e-05 1.79754e-05 1.80063e-05
          1.80338e-05 1.80585e-05 1.80801e-05 1.80976e-05 1.81098e-05 1.81166e-05 1.81193e-05 1.81197e-05 1.81202e-05 1.81229e-05 1.81289e-05 1.81389e-05
          1.81527e-05 1.81698e-05 1.81897e-05 1.82116e-05 1.82346e-05 1.82582e-05 1.82817e-05 1.83047e-05 1.83271e-05 1.83495e-05 1.8374e-05 1.84042e-05
          1.84445e-05 1.84954e-05 1.85463e-05 1.85693e-05 1.80386e-05 1.80791e-05 1.81102e-05 1.81368e-05 1.81603e-05 1.81816e-05 1.82007e-05 1.8217e-05
          1.82298e-05 1.82384e-05 1.82432e-05 1.82448e-05 1.82449e-05 1.82448e-05 1.8246e-05 1.82494e-05 1.82554e-05 1.82643e-05 1.82758e-05 1.82896e-05
          1.83052e-05 1.83219e-05 1.83392e-05 1.83567e-05 1.83741e-05 1.83919e-05 1.84121e-05 1.8439e-05 1.84776e-05 1.85277e-05 1.85693e-05 1.82107e-05
          1.82644e-05 1.82856e-05 1.83043e-05 1.83208e-05 1.83356e-05 1.8349e-05 1.83613e-05 1.83722e-05 1.83814e-05 1.83884e-05 1.83931e-05 1.83956e-05
          1.83964e-05 1.83964e-05 1.83963e-05 1.83967e-05 1.83982e-05 1.84012e-05 1.84056e-05 1.84115e-05 1.84187e-05 1.8427e-05 1.84359e-05 1.84452e-05
          1.84545e-05 1.84642e-05 1.84757e-05 1.84927e-05 1.85217e-05 1.85693e-05 1.82436e-05 1.85693e-05 1.85693e-05 1.85693e-05 1.85693e-05 1.85693e-05
          1.85693e-05 1.85693e-05 1.85693e-05 1.85693e-05 1.85693e-05 1.85693e-05 1.85693e-05 1.85693e-05 1.85693e-05 1.85693e-05 1.85693e-05 1.85693e-05
          1.85693e-05 1.85693e-05 1.85693e-05 1.85693e-05 1.85693e-05 1.85693e-05 1.85693e-05 1.85693e-05 1.85693e-05 1.85693e-05 1.85693e-05 1.85693e-05
          1.85693e-05
        </DataArray>
        <DataArray type="Float32" Name="v" NumberOfComponents="3" format="ascii">
          0.00243061 0.00057735 0 0.00134832 1.95009e-06 0 0.01 0 0 0.00647636 0.000612398 0
          0.000346342 6.23673e-05 0 0.00265074 0.000247043 0 0.000367432 3.6487e-05 0 0.00212757 5.17164e-05 0
          0.000244016 3.10453e-05 0 0.00149123 7.27203e-05 0 0.000215482 2.55647e-05 0 0.00129486 3.46643e-05 0
          0.000180852 2.09783e-05 0 0.00108434 3.08038e-05 0 0.000165906 1.86642e-05 0 0.000993027 2.12451e-05 0
          0.000151289 1.52271e-05 0 0.00090345 1.65457e-05 0 0.000144222 1.39119e-05 0 0.000859658 1.27447e-05 0
          0.000137221 1.13179e-05 0 0.000817228 9.30969e-06 0 0.000134087 1.07917e-05 0 0.000797057 7.70275e-06 0
          0.000130589 9.10459e-06 0 0.000776373 5.49927e-06 0 0.000129583 8.1644e-06 0 0.000769038 4.06456e-06 0
          0.000127808 7.57488e-06 0 0.00075915 3.07613e-06 0 0.000128236 6.86256e-06 0 0.000760444 2.10797e-06 0
          0.000127485 6.61005e-06 0 0.000757245 1.41627e-06 0 0.000129346 6.46832e-06 0 0.000766934 1.07987e-06 0
          0.000129572 6.8861e-06 0 0.000770319 7.92078e-07 0 0.000133626 7.43698e-06 0 0.000792685 1.09121e-06 0
          0.000135389 9.49436e-06 0 0.000806302 1.7577e-06 0 0.000143644 1.12232e-05 0 0.000852948 3.12076e-06 0
          0.000148304 1.61722e-05 0 0.000885326 4.98476e-06 0 0.000165477 2.31424e-05 0 0.000983882 1.1714e-05 0
          0.000175809 3.31621e-05 0 0.00105425 1.28958e-05 0 0.000216125 4.82163e-05 0 0.00128246 3.28342e-05 0
          0.000232296 7.5349e-05 0 0.00142961 1.65788e-05 0 0.000374604 9.76027e-05 0 0.00210338 0.000111627 0
          0.000298809 0.000248454 0 0.00246702 -0.000116489 0 0.00137743 -0.00015274 0 0.00622112 0.000252094 0
          0.00265875 0.00565437 0 0.01 0 0 0.01 0 0 0.00804603 0.00222799 0
          0.00495531 0.00101659 0 0.00362022 0.000230752 0 0.0028063 0.000250562 0 0.0023758 0.00010582 0
          0.00205603 9.16539e-05 0 0.00186878 5.23029e-05 0 0.00172225 4.01504e-05 0 0.00163385 2.5181e-05 0
          0.00156241 1.74474e-05 0 0.00152106 1.08326e-05 0 0.0014863 6.08628e-06 0 0.0014698 2.29226e-06 0
          0.00145422 -5.86253e-07 0 0.0014537 -2.87076e-06 0 0.00145082 -5.54687e-06 0 0.00146506 -7.00307e-06 0
          0.00147554 -1.04055e-05 0 0.00151108 -1.16635e-05 0 0.00154308 -1.70713e-05 0 0.00161797 -1.82064e-05 0
          0.00169069 -2.95302e-05 0 0.00184571 -2.67172e-05 0 0.00200489 -5.94557e-05 0 0.00234092 -4.02614e-05 0
          0.00270651 -0.000172433 0 0.00354776 -5.44901e-05 0 0.00466995 -0.000840484 0 0.0076982 -0.00133254 0
          0.01 0 0 0.01 0 0 0.00925368 0.00247464 0 0.00720464 0.0015534 0
          0.00535353 0.000599172 0 0.0042451 0.000427374 0 0.0036057 0.000233452 0 0.00313536 0.000169831 0
          0.00285356 0.000105209 0 0.00263253 7.48232e-05 0 0.0024975 4.74204e-05 0 0.00238879 3.12682e-05 0
          0.00232445 1.83078e-05 0 0.00227147 9.1061e-06 0 0.00224491 1.96952e-06 0 0.00222182 -3.82651e-06 0
          0.00221954 -8.29027e-06 0 0.00221668 -1.37049e-05 0 0.00223679 -1.73977e-05 0 0.00225525 -2.47311e-05 0
          0.00230733 -2.95436e-05 0 0.00235957 -4.20522e-05 0 0.00246972 -4.99684e-05 0 0.00258541 -7.51254e-05 0
          0.00281183 -8.7422e-05 0 0.00306038 -0.000147989 0 0.00353917 -0.000169918 0 0.00410694 -0.000356104 0
          0.00520933 -0.000404635 0 0.00685518 -0.00132733 0 0.00888328 -0.00163156 0 0.01 0 0
          0.01 0 0 0.00972176 0.00338797 0 0.00841856 0.00240645 0 0.00676207 0.00116783 0
          0.00557621 0.000783394 0 0.00479479 0.000448057 0 0.00424021 0.000323165 0 0.00387078 0.000201279 0
          0.00359818 0.00014428 0 0.00341622 9.13083e-05 0 0.00327905 6.165e-05 0 0.00319052 3.61944e-05 0
          0.00312318 1.94265e-05 0 0.0030852 5.78392e-06 0 0.0030567 -5.18677e-06 0 0.003051 -1.38052e-05 0
          0.00304973 -2.42801e-05 0 0.00307322 -3.20124e-05 0 0.0031013 -4.67916e-05 0 0.00316525 -5.76223e-05 0
          0.00323968 -8.37695e-05 0 0.00337493 -0.00010248 0 0.00353546 -0.000155109 0 0.00380835 -0.000189067 0
          0.00414248 -0.000309502 0 0.00469614 -0.00038138 0 0.00540576 -0.000708818 0 0.00656509 -0.000939006 0
          0.00806893 -0.00210296 0 0.00938895 -0.0025751 0 0.01 0 0 0.01 0 0
          0.0101973 0.003119 0 0.00963967 0.00279524 0 0.00818432 0.00170913 0 0.00698072 0.00113502 0
          0.00608835 0.000715151 0 0.00543729 0.000499181 0 0.00498905 0.000329024 0 0.00465298 0.000230724 0
          0.00442596 0.000151897 0 0.0042528 0.000101827 0 0.00414019 6.23041e-05 0 0.00405399 3.45099e-05 0
          0.00400475 1.28371e-05 0 0.00396829 -5.20697e-06 0 0.00396009 -1.9522e-05 0 0.00395906 -3.63411e-05 0
          0.00398816 -5.02406e-05 0 0.00402519 -7.35843e-05 0 0.00410518 -9.41056e-05 0 0.00420098 -0.00013474 0
          0.00436849 -0.000171525 0 0.0045712 -0.000250475 0 0.0049018 -0.000321553 0 0.00531241 -0.000489844 0
          0.00595241 -0.000643547 0 0.00677673 -0.00104822 0 0.00794311 -0.00144555 0 0.00930765 -0.00244775 0
          0.00990995 -0.00242741 0 0.01 0 0 0.01 0 0 0.0102361 0.00350451 0
          0.0100606 0.00337894 0 0.0091019 0.00236614 0 0.00809624 0.00164695 0 0.00723869 0.0010802 0
          0.00658092 0.000765133 0 0.00609341 0.000513059 0 0.00572946 0.000364492 0 0.00546921 0.000243157 0
          0.00527524 0.000166355 0 0.00514208 0.000104185 0 0.00504392 6.11136e-05 0 0.0049838 2.66654e-05 0
          0.00494263 -1.71468e-06 0 0.0049305 -2.48118e-05 0 0.00493109 -5.14103e-05 0 0.00496225 -7.42631e-05 0
          0.00500806 -0.00011116 0 0.00509664 -0.000144876 0 0.00521099 -0.000208685 0 0.00539485 -0.000268679 0
          0.00562934 -0.0003903 0 0.00598177 -0.00050555 0 0.00643269 -0.000753556 0 0.0070728 -0.000994091 0
          0.00787684 -0.00153223 0 0.00885392 -0.00205988 0 0.00978563 -0.00299494 0 0.010016 -0.00290089 0
          0.01 0 0 0.01 0 0 0.0104088 0.00295282 0 0.0106129 0.00340492 0
          0.0099978 0.00275929 0 0.00920978 0.00205029 0 0.00841801 0.00144431 0 0.00777089 0.00103503 0
          0.00726292 0.000722685 0 0.00687231 0.000513984 0 0.00658625 0.000353544 0 0.006369 0.000242748 0
          0.00621814 0.000157201 0 0.00610535 9.44952e-05 0 0.00603577 4.56267e-05 0 0.00598771 4.34821e-06 0
          0.00597296 -2.9584e-05 0 0.00597337 -6.75877e-05 0 0.00600842 -0.000102327 0 0.00606097 -0.000153739 0
          0.00616059 -0.000205348 0 0.00628987 -0.000291878 0 0.0064924 -0.000382795 0 0.00675056 -0.000541411 0
          0.00712385 -0.000711428 0 0.00759683 -0.00101347 0 0.00822273 -0.00133911 0 0.0089786 -0.00190493 0
          0.0097483 -0.00243787 0 0.0103825 -0.00304263 0 0.0102376 -0.00249457 0 0.01 0 0
          0.01 0 0 0.0103086 0.00303817 0 0.0106182 0.00362299 0 0.0104053 0.00319929 0
          0.00992168 0.00252831 0 0.00933282 0.00187039 0 0.00879446 0.0013807 0 0.00833587 0.000986615 0
          0.00796962 0.000714097 0 0.007687 0.000499034 0 0.007471 0.000348787 0 0.00731433 0.000230365 0
          0.00719866 0.000143398 0 0.00712349 7.42698e-05 0 0.00707369 1.60969e-05 0 0.00705551 -3.26696e-05 0
          0.00705668 -8.64041e-05 0 0.00709031 -0.000136486 0 0.00714622 -0.000208348 0 0.00724494 -0.000281611 0
          0.00737844 -0.000400067 0 0.00757532 -0.000525935 0 0.00783025 -0.000735812 0 0.00817547 -0.000962095 0
          0.0086059 -0.00133764 0 0.00912588 -0.0017362 0 0.0097014 -0.00234938 0 0.0101829 -0.00287288 0
          0.0104508 -0.00328504 0 0.0101936 -0.00267036 0 0.01 0 0 0.01 0 0
          0.0103652 0.00240842 0 0.0108233 0.00331648 0 0.010857 0.00323651 0 0.0106315 0.00274795 0
          0.0102223 0.0021711 0 0.00980464 0.00166029 0 0.00941195 0.00123327 0 0.00908264 0.000906736 0
          0.00881631 0.000650716 0 0.00860669 0.000459628 0 0.00845088 0.000311546 0 0.00833343 0.000197815 0
          0.00825597 0.000108307 0 0.00820364 3.1477e-05 0 0.00818367 -3.35936e-05 0 0.00818355 -0.000103778 0
          0.00821631 -0.000171559 0 0.0082718 -0.000262956 0 0.00836859 -0.000360916 0 0.00849926 -0.000506438 0
          0.00868599 -0.000669296 0 0.00892497 -0.000914417 0 0.00923114 -0.00118969 0 0.00960215 -0.00159124 0
          0.0100038 -0.00201685 0 0.0104156 -0.00255826 0 0.0106504 -0.00294542 0 0.010692 -0.00304302 0
          0.0102822 -0.002159 0 0.01 0 0 0.01 0 0 0.0102505 0.00235654 0
          0.01068 0.00324883 0 0.0109249 0.0033366 0 0.0109461 0.00297456 0 0.0107849 0.00246033 0
          0.0105497 0.00195337 0 0.0102911 0.00149642 0 0.0100525 0.00112769 0 0.00984514 0.000825851 0
          0.00967495 0.000594605 0 0.00954185 0.000410753 0 0.00944007 0.000267868 0 0.00936932 0.000153225 0
          0.00932196 5.45833e-05 0 0.00930077 -3.02602e-05 0 0.00929939 -0.000120614 0 0.00932431 -0.000208645 0
          0.00937149 -0.00032426 0 0.00944979 -0.000448388 0 0.009558 -0.000626691 0 0.00970361 -0.000825089 0
          0.00988737 -0.00111094 0 0.0101036 -0.00142593 0 0.0103487 -0.00185646 0 0.0105722 -0.00229122 0
          0.0107515 -0.00278226 0 0.0107522 -0.00307792 0 0.0105921 -0.00301826 0 0.010201 -0.00216536 0
          0.01 0 0 0.01 0 0 0.0102714 0.0017583 0 0.0107397 0.00273559 0
          0.0111007 0.00301959 0 0.0113046 0.00285802 0 0.0113256 0.00249394 0 0.0112525 0.00206281 0
          0.0111166 0.00164441 0 0.0109717 0.00127375 0 0.0108297 0.000960431 0 0.0107062 0.00070471 0
          0.0106035 0.000499014 0 0.0105218 0.00033248 0 0.0104625 0.000198131 0 0.0104212 8.04753e-05 0
          0.0104007 -2.18323e-05 0 0.0103963 -0.00012904 0 0.0104127 -0.000235505 0 0.010447 -0.000368869 0
          0.0105033 -0.000515211 0 0.0105815 -0.00071221 0 0.0106797 -0.000934755 0 0.0108004 -0.00123069 0
          0.0109221 -0.00155516 0 0.0110479 -0.00195377 0 0.011111 -0.00233447 0 0.0111175 -0.00268854 0
          0.0109433 -0.0028164 0 0.0106684 -0.00256685 0 0.0102345 -0.00164178 0 0.01 0 0
          0.01 0 0 0.0101832 0.00164377 0 0.0105837 0.00249031 0 0.0110072 0.00282232 0
          0.0113401 0.00275793 0 0.0115481 0.00248832 0 0.0116498 0.00212341 0 0.0116736 0.00174306 0
          0.0116541 0.00138789 0 0.0116116 0.00107336 0 0.0115627 0.000807029 0 0.0115142 0.000584983 0
          0.0114714 0.000400704 0 0.011436 0.000248246 0 0.0114095 0.00011326 0 0.011392 -5.74596e-06 0
          0.0113841 -0.000129598 0 0.011385 -0.000252728 0 0.0113961 -0.000403459 0 0.0114136 -0.000567508 0
          0.0114401 -0.000781283 0 0.0114641 -0.00101861 0 0.0114882 -0.00132061 0 0.011485 -0.00164113 0
          0.0114559 -0.00200945 0 0.0113491 -0.00233955 0 0.0111758 -0.00260439 0 0.0108768 -0.00265238 0
          0.010532 -0.00235111 0 0.0101598 -0.0015525 0 0.01 0 0 0.01 0 0
          0.0101959 0.00110496 0 0.0105939 0.00187561 0 0.0110422 0.00225341 0 0.0114537 0.00231389 0
          0.0117709 0.00217595 0 0.0119996 0.00192278 0 0.0121416 0.00162945 0 0.0122274 0.00133307 0
          0.0122687 0.0010602 0 0.0122873 0.000817107 0 0.0122889 0.000609061 0 0.0122837 0.000429291 0
          0.0122729 0.000277267 0 0.0122614 0.000139513 0 0.0122483 1.59506e-05 0 0.0122366 -0.000111781 0
          0.0122228 -0.000240098 0 0.0122099 -0.000391687 0 0.0121897 -0.000557278 0 0.0121664 -0.000762157 0
          0.0121219 -0.000987863 0 0.0120626 -0.00125639 0 0.0119548 -0.00153249 0 0.0118107 -0.00181957 0
          0.0115804 -0.00205195 0 0.0112987 -0.00218899 0 0.0109194 -0.00212787 0 0.0105405 -0.00177891 0
          0.0101702 -0.00105566 0 0.01 0 0 0.01 0 0 0.0101357 0.000950613 0
          0.0104636 0.00153131 0 0.0108905 0.00185502 0 0.0113228 0.00194025 0 0.0117168 0.00186573 0
          0.012043 0.00168399 0 0.0122987 0.00145564 0 0.0124888 0.00121316 0 0.0126243 0.000982721 0
          0.0127182 0.000772656 0 0.0127795 0.00058906 0 0.0128185 0.000427179 0 0.0128381 0.000287237 0
          0.0128454 0.00015783 0 0.0128384 3.97267e-05 0 0.0128226 -8.33014e-05 0 0.0127914 -0.00020721 0
          0.0127498 -0.000351709 0 0.0126858 -0.000507766 0 0.0126043 -0.00069577 0 0.0124861 -0.000898577 0
          0.012337 -0.00113034 0 0.0121305 -0.00136062 0 0.0118783 -0.00158423 0 0.0115539 -0.00175264 0
          0.0111913 -0.00182645 0 0.0107848 -0.00174775 0 0.0104132 -0.0014471 0 0.010111 -0.000907964 0
          0.01 0 0 0.01 0 0 0.0101442 0.000477595 0 0.0104461 0.000896425 0
          0.0108367 0.00116177 0 0.0112536 0.00127959 0 0.0116524 0.00127709 0 0.0120107 0.0011904 0
          0.0123107 0.00105438 0 0.0125551 0.00089727 0 0.0127415 0.000739526 0 0.0128824 0.000591543 0
          0.0129801 0.000459803 0 0.013048 0.000342159 0 0.0130864 0.000239147 0 0.0131057 0.000142575 0
          0.0131019 5.269e-05 0 0.0130831 -4.15847e-05 0 0.0130404 -0.00013813 0 0.0129804 -0.000249067 0
          0.0128888 -0.000368969 0 0.0127729 -0.000508605 0 0.0126121 -0.000656676 0 0.0124169 -0.000817253 0
          0.0121621 -0.000969373 0 0.0118673 -0.00110277 0 0.0115108 -0.00118543 0 0.0111337 -0.00118965 0
          0.0107332 -0.00108416 0 0.0103836 -0.000838114 0 0.0101078 -0.000456117 0 0.01 0 0
          0.01 0 0 0.0100943 0.000320092 0 0.010309 0.000554124 0 0.0106173 0.000712198 0
          0.0109629 0.000791495 0 0.0113198 0.000799606 0 0.0116557 0.000754905 0 0.0119565 0.000676781 0
          0.0122122 0.000581742 0 0.0124192 0.000483708 0 0.0125814 0.000389905 0 0.0126997 0.000306135 0
          0.0127838 0.000231318 0 0.0128339 0.000166588 0 0.0128603 0.000105933 0 0.0128592 4.98166e-05 0
          0.0128392 -9.75362e-06 0 0.0127915 -7.10086e-05 0 0.0127233 -0.000142271 0 0.0126207 -0.000219203 0
          0.0124906 -0.000308507 0 0.012316 -0.000402422 0 0.0121065 -0.000502104 0 0.0118461 -0.000595268 0
          0.0115521 -0.000672454 0 0.0112174 -0.00071835 0 0.0108744 -0.000711353 0 0.0105356 -0.000644637 0
          0.0102519 -0.000496295 0 0.0100571 -0.000297301 0 0.01 0 0 0.01 0 0
          0.0100994 -1.92171e-05 0 0.0102267 6.4198e-05 0 0.0104057 0.000121884 0 0.010625 0.000170719 0
          0.0108519 0.000187798 0 0.0110775 0.00019389 0 0.0112797 0.00018128 0 0.0114596 0.000164589 0
          0.0116052 0.000141098 0 0.0117246 0.000119 0 0.0118111 9.67832e-05 0 0.0118759 7.76512e-05 0
          0.0119133 6.02817e-05 0 0.0119354 4.46312e-05 0 0.0119341 2.98568e-05 0 0.0119211 1.4357e-05 0
          0.0118846 -1.78194e-06 0 0.011836 -2.07393e-05 0 0.0117596 -4.09539e-05 0 0.0116671 -6.44077e-05 0
          0.0115405 -8.76971e-05 0 0.0113944 -0.000111755 0 0.0112115 -0.00013064 0 0.0110127 -0.000143733 0
          0.010787 -0.000142605 0 0.0105643 -0.000126345 0 0.0103454 -8.75123e-05 0 0.0101674 -3.22571e-05 0
          0.0100417 2.9505e-05 0 0.01 0 0 0.01 0 0 0.01 0 0
          0.01 -1.27902e-26 0 0.01 0 0 0.01 6.38322e-27 0 0.01 -6.38379e-27 0
          0.01 6.38391e-27 0 0.01 0 0 0.01 5.69106e-31 0 0.01 6.38359e-27 0
          0.01 1.27671e-26 0 0.01 3.97969e-34 0 0.01 -6.38357e-27 0 0.01 5.6217e-31 0
          0.01 -6.38358e-27 0 0.01 -1.92593e-33 0 0.01 -1.27672e-26 0 0.01 1.13427e-30 0
          0.01 -1.27671e-26 0 0.01 -6.38413e-27 0 0.01 2.49092e-33 0 0.01 -1.32302e-33 0
          0.01 -6.38358e-27 0 0.01 6.38359e-27 0 0.01 6.38451e-27 0 0.01 -6.38522e-27 0
          0.01 6.38541e-27 0 0.01 1.27687e-26 0 0.01 -1.27682e-26 0 0.01 6.37949e-27 0
          0.01 0 0
        </DataArray>
      </PointData>
      <Points>
        <DataArray type="Float32" Name="Coordinates" NumberOfComponents="3" format="ascii">
          0 0.035 0 0.000333333 0.035 0 0 0.035081 0 0.000333333 0.035081 0
          0.000666667 0.035 0 0.000666667 0.035081 0 0.001 0.035 0 0.001 0.035081 0
          0.00133333 0.035 0 0.00133333 0.035081 0 0.00166667 0.035 0 0.00166667 0.035081 0
          0.002 0.035 0 0.002 0.035081 0 0.00233333 0.035 0 0.00233333 0.035081 0
          0.00266667 0.035 0 0.00266667 0.035081 0 0.003 0.035 0 0.003 0.035081 0
          0.00333333 0.035 0 0.00333333 0.035081 0 0.00366667 0.035 0 0.00366667 0.035081 0
          0.004 0.035 0 0.004 0.035081 0 0.00433333 0.035 0 0.00433333 0.035081 0
          0.00466667 0.035 0 0.00466667 0.035081 0 0.005 0.035 0 0.005 0.035081 0
          0.00533333 0.035 0 0.00533333 0.035081 0 0.00566667 0.035 0 0.00566667 0.035081 0
          0.006 0.035 0 0.006 0.035081 0 0.00633333 0.035 0 0.00633333 0.035081 0
          0.00666667 0.035 0 0.00666667 0.035081 0 0.007 0.035 0 0.007 0.035081 0
          0.00733333 0.035 0 0.00733333 0.035081 0 0.00766667 0.035 0 0.00766667 0.035081 0
          0.008 0.035 0 0.008 0.035081 0 0.00833333 0.035 0 0.00833333 0.035081 0
          0.00866667 0.035 0 0.00866667 0.035081 0 0.009 0.035 0 0.009 0.035081 0
          0.00933333 0.035 0 0.00933333 0.035081 0 0.00966667 0.035 0 0.00966667 0.035081 0
          0.01 0.035 0 0.01 0.035081 0 0 0.0351725 0 0.000333333 0.0351725 0
          0.000666667 0.0351725 0 0.001 0.0351725 0 0.00133333 0.0351725 0 0.00166667 0.0351725 0
          0.002 0.0351725 0 0.00233333 0.0351725 0 0.00266667 0.0351725 0 0.003 0.0351725 0
          0.00333333 0.0351725 0 0.00366667 0.0351725 0 0.004 0.0351725 0 0.00433333 0.0351725 0
          0.00466667 0.0351725 0 0.005 0.0351725 0 0.00533333 0.0351725 0 0.00566667 0.0351725 0
          0.006 0.0351725 0 0.00633333 0.0351725 0 0.00666667 0.0351725 0 0.007 0.0351725 0
          0.00733333 0.0351725 0 0.00766667 0.0351725 0 0.008 0.0351725 0 0.00833333 0.0351725 0
          0.00866667 0.0351725 0 0.009 0.0351725 0 0.00933333 0.0351725 0 0.00966667 0.0351725 0
          0.01 0.0351725 0 0 0.035276 0 0.000333333 0.035276 0 0.000666667 0.035276 0
          0.001 0.035276 0 0.00133333 0.035276 0 0.00166667 0.035276 0 0.002 0.035276 0
          0.00233333 0.035276 0 0.00266667 0.035276 0 0.003 0.035276 0 0.00333333 0.035276 0
          0.00366667 0.035276 0 0.004 0.035276 0 0.00433333 0.035276 0 0.00466667 0.035276 0
          0.005 0.035276 0 0.00533333 0.035276 0 0.00566667 0.035276 0 0.006 0.035276 0
          0.00633333 0.035276 0 0.00666667 0.035276 0 0.007 0.035276 0 0.00733333 0.035276 0
          0.00766667 0.035276 0 0.008 0.035276 0 0.00833333 0.035276 0 0.00866667 0.035276 0
          0.009 0.035276 0 0.00933333 0.035276 0 0.00966667 0.035276 0 0.01 0.035276 0
          0 0.0353929 0 0.000333333 0.0353929 0 0.000666667 0.0353929 0 0.001 0.0353929 0
          0.00133333 0.0353929 0 0.00166667 0.0353929 0 0.002 0.0353929 0 0.00233333 0.0353929 0
          0.00266667 0.0353929 0 0.003 0.0353929 0 0.00333333 0.0353929 0 0.00366667 0.0353929 0
          0.004 0.0353929 0 0.00433333 0.0353929 0 0.00466667 0.0353929 0 0.005 0.0353929 0
          0.00533333 0.0353929 0 0.00566667 0.0353929 0 0.006 0.0353929 0 0.00633333 0.0353929 0
          0.00666667 0.0353929 0 0.007 0.0353929 0 0.00733333 0.0353929 0 0.00766667 0.0353929 0
          0.008 0.0353929 0 0.00833333 0.0353929 0 0.00866667 0.0353929 0 0.009 0.0353929 0
          0.00933333 0.0353929 0 0.00966667 0.0353929 0 0.01 0.0353929 0 0 0.0355249 0
          0.000333333 0.0355249 0 0.000666667 0.0355249 0 0.001 0.0355249 0 0.00133333 0.0355249 0
          0.00166667 0.0355249 0 0.002 0.0355249 0 0.00233333 0.0355249 0 0.00266667 0.0355249 0
          0.003 0.0355249 0 0.00333333 0.0355249 0 0.00366667 0.0355249 0 0.004 0.0355249 0
          0.00433333 0.0355249 0 0.00466667 0.0355249 0 0.005 0.0355249 0 0.00533333 0.0355249 0
          0.00566667 0.0355249 0 0.006 0.0355249 0 0.00633333 0.0355249 0 0.00666667 0.0355249 0
          0.007 0.0355249 0 0.00733333 0.0355249 0 0.00766667 0.0355249 0 0.008 0.0355249 0
          0.00833333 0.0355249 0 0.00866667 0.0355249 0 0.009 0.0355249 0 0.00933333 0.0355249 0
          0.00966667 0.0355249 0 0.01 0.0355249 0 0 0.0356742 0 0.000333333 0.0356742 0
          0.000666667 0.0356742 0 0.001 0.0356742 0 0.00133333 0.0356742 0 0.00166667 0.0356742 0
          0.002 0.0356742 0 0.00233333 0.0356742 0 0.00266667 0.0356742 0 0.003 0.0356742 0
          0.00333333 0.0356742 0 0.00366667 0.0356742 0 0.004 0.0356742 0 0.00433333 0.0356742 0
          0.00466667 0.0356742 0 0.005 0.0356742 0 0.00533333 0.0356742 0 0.00566667 0.0356742 0
          0.006 0.0356742 0 0.00633333 0.0356742 0 0.00666667 0.0356742 0 0.007 0.0356742 0
          0.00733333 0.0356742 0 0.00766667 0.0356742 0 0.008 0.0356742 0 0.00833333 0.0356742 0
          0.00866667 0.0356742 0 0.009 0.0356742 0 0.00933333 0.0356742 0 0.00966667 0.0356742 0
          0.01 0.0356742 0 0 0.0358428 0 0.000333333 0.0358428 0 0.000666667 0.0358428 0
          0.001 0.0358428 0 0.00133333 0.0358428 0 0.00166667 0.0358428 0 0.002 0.0358428 0
          0.00233333 0.0358428 0 0.00266667 0.0358428 0 0.003 0.0358428 0 0.00333333 0.0358428 0
          0.00366667 0.0358428 0 0.004 0.0358428 0 0.00433333 0.0358428 0 0.00466667 0.0358428 0
          0.005 0.0358428 0 0.00533333 0.0358428 0 0.00566667 0.0358428 0 0.006 0.0358428 0
          0.00633333 0.0358428 0 0.00666667 0.0358428 0 0.007 0.0358428 0 0.00733333 0.0358428 0
          0.00766667 0.0358428 0 0.008 0.0358428 0 0.00833333 0.0358428 0 0.00866667 0.0358428 0
          0.009 0.0358428 0 0.00933333 0.0358428 0 0.00966667 0.0358428 0 0.01 0.0358428 0
          0 0.0360334 0 0.000333333 0.0360334 0 0.000666667 0.0360334 0 0.001 0.0360334 0
          0.00133333 0.0360334 0 0.00166667 0.0360334 0 0.002 0.0360334 0 0.00233333 0.0360334 0
          0.00266667 0.0360334 0 0.003 0.0360334 0 0.00333333 0.0360334 0 0.00366667 0.0360334 0
          0.004 0.0360334 0 0.00433333 0.0360334 0 0.00466667 0.0360334 0 0.005 0.0360334 0
          0.00533333 0.0360334 0 0.00566667 0.0360334 0 0.006 0.0360334 0 0.00633333 0.0360334 0
          0.00666667 0.0360334 0 0.007 0.0360334 0 0.00733333 0.0360334 0 0.00766667 0.0360334 0
          0.008 0.0360334 0 0.00833333 0.0360334 0 0.00866667 0.0360334 0 0.009 0.0360334 0
          0.00933333 0.0360334 0 0.00966667 0.0360334 0 0.01 0.0360334 0 0 0.0362487 0
          0.000333333 0.0362487 0 0.000666667 0.0362487 0 0.001 0.0362487 0 0.00133333 0.0362487 0
          0.00166667 0.0362487 0 0.002 0.0362487 0 0.00233333 0.0362487 0 0.00266667 0.0362487 0
          0.003 0.0362487 0 0.00333333 0.0362487 0 0.00366667 0.0362487 0 0.004 0.0362487 0
          0.00433333 0.0362487 0 0.00466667 0.0362487 0 0.005 0.0362487 0 0.00533333 0.0362487 0
          0.00566667 0.0362487 0 0.006 0.0362487 0 0.00633333 0.0362487 0 0.00666667 0.0362487 0
          0.007 0.0362487 0 0.00733333 0.0362487 0 0.00766667 0.0362487 0 0.008 0.0362487 0
          0.00833333 0.0362487 0 0.00866667 0.0362487 0 0.009 0.0362487 0 0.00933333 0.0362487 0
          0.00966667 0.0362487 0 0.01 0.0362487 0 0 0.0364921 0 0.000333333 0.0364921 0
          0.000666667 0.0364921 0 0.001 0.0364921 0 0.00133333 0.0364921 0 0.00166667 0.0364921 0
          0.002 0.0364921 0 0.00233333 0.0364921 0 0.00266667 0.0364921 0 0.003 0.0364921 0
          0.00333333 0.0364921 0 0.00366667 0.0364921 0 0.004 0.0364921 0 0.00433333 0.0364921 0
          0.00466667 0.0364921 0 0.005 0.0364921 0 0.00533333 0.0364921 0 0.00566667 0.0364921 0
          0.006 0.0364921 0 0.00633333 0.0364921 0 0.00666667 0.0364921 0 0.007 0.0364921 0
          0.00733333 0.0364921 0 0.00766667 0.0364921 0 0.008 0.0364921 0 0.00833333 0.0364921 0
          0.00866667 0.0364921 0 0.009 0.0364921 0 0.00933333 0.0364921 0 0.00966667 0.0364921 0
          0.01 0.0364921 0 0 0.0367671 0 0.000333333 0.0367671 0 0.000666667 0.0367671 0
          0.001 0.0367671 0 0.00133333 0.0367671 0 0.00166667 0.0367671 0 0.002 0.0367671 0
          0.00233333 0.0367671 0 0.00266667 0.0367671 0 0.003 0.0367671 0 0.00333333 0.0367671 0
          0.00366667 0.0367671 0 0.004 0.0367671 0 0.00433333 0.0367671 0 0.00466667 0.0367671 0
          0.005 0.0367671 0 0.00533333 0.0367671 0 0.00566667 0.0367671 0 0.006 0.0367671 0
          0.00633333 0.0367671 0 0.00666667 0.0367671 0 0.007 0.0367671 0 0.00733333 0.0367671 0
          0.00766667 0.0367671 0 0.008 0.0367671 0 0.00833333 0.0367671 0 0.00866667 0.0367671 0
          0.009 0.0367671 0 0.00933333 0.0367671 0 0.00966667 0.0367671 0 0.01 0.0367671 0
          0 0.0370778 0 0.000333333 0.0370778 0 0.000666667 0.0370778 0 0.001 0.0370778 0
          0.00133333 0.0370778 0 0.00166667 0.0370778 0 0.002 0.0370778 0 0.00233333 0.0370778 0
          0.00266667 0.0370778 0 0.003 0.0370778 0 0.00333333 0.0370778 0 0.00366667 0.0370778 0
          0.004 0.0370778 0 0.00433333 0.0370778 0 0.00466667 0.0370778 0 0.005 0.0370778 0
          0.00533333 0.0370778 0 0.00566667 0.0370778 0 0.006 0.0370778 0 0.00633333 0.0370778 0
          0.00666667 0.0370778 0 0.007 0.0370778 0 0.00733333 0.0370778 0 0.00766667 0.0370778 0
          0.008 0.0370778 0 0.00833333 0.0370778 0 0.00866667 0.0370778 0 0.009 0.0370778 0
          0.00933333 0.0370778 0 0.00966667 0.0370778 0 0.01 0.0370778 0 0 0.0374289 0
          0.000333333 0.0374289 0 0.000666667 0.0374289 0 0.001 0.0374289 0 0.00133333 0.0374289 0
          0.00166667 0.0374289 0 0.002 0.0374289 0 0.00233333 0.0374289 0 0.00266667 0.0374289 0
          0.003 0.0374289 0 0.00333333 0.0374289 0 0.00366667 0.0374289 0 0.004 0.0374289 0
          0.00433333 0.0374289 0 0.00466667 0.0374289 0 0.005 0.0374289 0 0.00533333 0.0374289 0
          0.00566667 0.0374289 0 0.006 0.0374289 0 0.00633333 0.0374289 0 0.00666667 0.0374289 0
          0.007 0.0374289 0 0.00733333 0.0374289 0 0.00766667 0.0374289 0 0.008 0.0374289 0
          0.00833333 0.0374289 0 0.00866667 0.0374289 0 0.009 0.0374289 0 0.00933333 0.0374289 0
          0.00966667 0.0374289 0 0.01 0.0374289 0 0 0.0378256 0 0.000333333 0.0378256 0
          0.000666667 0.0378256 0 0.001 0.0378256 0 0.00133333 0.0378256 0 0.00166667 0.0378256 0
          0.002 0.0378256 0 0.00233333 0.0378256 0 0.00266667 0.0378256 0 0.003 0.0378256 0
          0.00333333 0.0378256 0 0.00366667 0.0378256 0 0.004 0.0378256 0 0.00433333 0.0378256 0
          0.00466667 0.0378256 0 0.005 0.0378256 0 0.00533333 0.0378256 0 0.00566667 0.0378256 0
          0.006 0.0378256 0 0.00633333 0.0378256 0 0.00666667 0.0378256 0 0.007 0.0378256 0
          0.00733333 0.0378256 0 0.00766667 0.0378256 0 0.008 0.0378256 0 0.00833333 0.0378256 0
          0.00866667 0.0378256 0 0.009 0.0378256 0 0.00933333 0.0378256 0 0.00966667 0.0378256 0
          0.01 0.0378256 0 0 0.038274 0 0.000333333 0.038274 0 0.000666667 0.038274 0
          0.001 0.038274 0 0.00133333 0.038274 0 0.00166667 0.038274 0 0.002 0.038274 0
          0.00233333 0.038274 0 0.00266667 0.038274 0 0.003 0.038274 0 0.00333333 0.038274 0
          0.00366667 0.038274 0 0.004 0.038274 0 0.00433333 0.038274 0 0.00466667 0.038274 0
          0.005 0.038274 0 0.00533333 0.038274 0 0.00566667 0.038274 0 0.006 0.038274 0
          0.00633333 0.038274 0 0.00666667 0.038274 0 0.007 0.038274 0 0.00733333 0.038274 0
          0.00766667 0.038274 0 0.008 0.038274 0 0.00833333 0.038274 0 0.00866667 0.038274 0
          0.009 0.038274 0 0.00933333 0.038274 0 0.00966667 0.038274 0 0.01 0.038274 0
          0 0.0387806 0 0.000333333 0.0387806 0 0.000666667 0.0387806 0 0.001 0.0387806 0
          0.00133333 0.0387806 0 0.00166667 0.0387806 0 0.002 0.0387806 0 0.00233333 0.0387806 0
          0.00266667 0.0387806 0 0.003 0.0387806 0 0.00333333 0.0387806 0 0.00366667 0.0387806 0
          0.004 0.0387806 0 0.00433333 0.0387806 0 0.00466667 0.0387806 0 0.005 0.0387806 0
          0.00533333 0.0387806 0 0.00566667 0.0387806 0 0.006 0.0387806 0 0.00633333 0.0387806 0
          0.00666667 0.0387806 0 0.007 0.0387806 0 0.00733333 0.0387806 0 0.00766667 0.0387806 0
          0.008 0.0387806 0 0.00833333 0.0387806 0 0.00866667 0.0387806 0 0.009 0.0387806 0
          0.00933333 0.0387806 0 0.00966667 0.0387806 0 0.01 0.0387806 0 0 0.0393531 0
          0.000333333 0.0393531 0 0.000666667 0.0393531 0 0.001 0.0393531 0 0.00133333 0.0393531 0
          0.00166667 0.0393531 0 0.002 0.0393531 0 0.00233333 0.0393531 0 0.00266667 0.0393531 0
          0.003 0.0393531 0 0.00333333 0.0393531 0 0.00366667 0.0393531 0 0.004 0.0393531 0
          0.00433333 0.0393531 0 0.00466667 0.0393531 0 0.005 0.0393531 0 0.00533333 0.0393531 0
          0.00566667 0.0393531 0 0.006 0.0393531 0 0.00633333 0.0393531 0 0.00666667 0.0393531 0
          0.007 0.0393531 0 0.00733333 0.0393531 0 0.00766667 0.0393531 0 0.008 0.0393531 0
          0.00833333 0.0393531 0 0.00866667 0.0393531 0 0.009 0.0393531 0 0.00933333 0.0393531 0
          0.00966667 0.0393531 0 0.01 0.0393531 0 0 0.04 0 0.000333333 0.04 0
          0.000666667 0.04 0 0.001 0.04 0 0.00133333 0.04 0 0.00166667 0.04 0
          0.002 0.04 0 0.00233333 0.04 0 0.00266667 0.04 0 0.003 0.04 0
          0.00333333 0.04 0 0.00366667 0.04 0 0.004 0.04 0 0.00433333 0.04 0
          0.00466667 0.04 0 0.005 0.04 0 0.00533333 0.04 0 0.00566667 0.04 0
          0.006 0.04 0 0.00633333 0.04 0 0.00666667 0.04 0 0.007 0.04 0
          0.00733333 0.04 0 0.00766667 0.04 0 0.008 0.04 0 0.00833333 0.04 0
          0.00866667 0.04 0 0.009 0.04 0 0.00933333 0.04 0 0.00966667 0.04 0
          0.01 0.04 0
        </DataArray>
      </Points>
      <Cells>
        <DataArray type="Int32" Name="connectivity" NumberOfComponents="1" format="ascii">
          0 1 3 2 1 4 5 3 4 6 7 5
          6 8 9 7 8 10 11 9 10 12 13 11
          12 14 15 13 14 16 17 15 16 18 19 17
          18 20 21 19 20 22 23 21 22 24 25 23
          24 26 27 25 26 28 29 27 28 30 31 29
          30 32 33 31 32 34 35 33 34 36 37 35
          36 38 39 37 38 40 41 39 40 42 43 41
          42 44 45 43 44 46 47 45 46 48 49 47
          48 50 51 49 50 52 53 51 52 54 55 53
          54 56 57 55 56 58 59 57 58 60 61 59
          2 3 63 62 3 5 64 63 5 7 65 64
          7 9 66 65 9 11 67 66 11 13 68 67
          13 15 69 68 15 17 70 69 17 19 71 70
          19 21 72 71 21 23 73 72 23 25 74 73
          25 27 75 74 27 29 76 75 29 31 77 76
          31 33 78 77 33 35 79 78 35 37 80 79
          37 39 81 80 39 41 82 81 41 43 83 82
          43 45 84 83 45 47 85 84 47 49 86 85
          49 51 87 86 51 53 88 87 53 55 89 88
          55 57 90 89 57 59 91 90 59 61 92 91
          62 63 94 93 63 64 95 94 64 65 96 95
          65 66 97 96 66 67 98 97 67 68 99 98
          68 69 100 99 69 70 101 100 70 71 102 101
          71 72 103 102 72 73 104 103 73 74 105 104
          74 75 106 105 75 76 107 106 76 77 108 107
          77 78 109 108 78 79 110 109 79 80 111 110
          80 81 112 111 81 82 113 112 82 83 114 113
          83 84 115 114 84 85 116 115 85 86 117 116
          86 87 118 117 87 88 119 118 88 89 120 119
          89 90 121 120 90 91 122 121 91 92 123 122
          93 94 125 124 94 95 126 125 95 96 127 126
          96 97 128 127 97 98 129 128 98 99 130 129
          99 100 131 130 100 101 132 131 101 102 133 132
          102 103 134 133 103 104 135 134 104 105 136 135
          105 106 137 136 106 107 138 137 107 108 139 138
          108 109 140 139 109 110 141 140 110 111 142 141
          111 112 143 142 112 113 144 143 113 114 145 144
          114 115 146 145 115 116 147 146 116 117 148 147
          117 118 149 148 118 119 150 149 119 120 151 150
          120 121 152 151 121 122 153 152 122 123 154 153
          124 125 156 155 125 126 157 156 126 127 158 157
          127 128 159 158 128 129 160 159 129 130 161 160
          130 131 162 161 131 132 163 162 132 133 164 163
          133 134 165 164 134 135 166 165 135 136 167 166
          136 137 168 167 137 138 169 168 138 139 170 169
          139 140 171 170 140 141 172 171 141 142 173 172
          142 143 174 173 143 144 175 174 144 145 176 175
          145 146 177 176 146 147 178 177 147 148 179 178
          148 149 180 179 149 150 181 180 150 151 182 181
          151 152 183 182 152 153 184 183 153 154 185 184
          155 156 187 186 156 157 188 187 157 158 189 188
          158 159 190 189 159 160 191 190 160 161 192 191
          161 162 193 192 162 163 194 193 163 164 195 194
          164 165 196 195 165 166 197 196 166 167 198 197
          167 168 199 198 168 169 200 199 169 170 201 200
          170 171 202 201 171 172 203 202 172 173 204 203
          173 174 205 204 174 175 206 205 175 176 207 206
          176 177 208 207 177 178 209 208 178 179 210 209
          179 180 211 210 180 181 212 211 181 182 213 212
          182 183 214 213 183 184 215 214 184 185 216 215
          186 187 218 217 187 188 219 218 188 189 220 219
          189 190 221 220 190 191 222 221 191 192 223 222
          192 193 224 223 193 194 225 224 194 195 226 225
          195 196 227 226 196 197 228 227 197 198 229 228
          198 199 230 229 199 200 231 230 200 201 232 231
          201 202 233 232 202 203 234 233 203 204 235 234
          204 205 236 235 205 206 237 236 206 207 238 237
          207 208 239 238 208 209 240 239 209 210 241 240
          210 211 242 241 211 212 243 242 212 213 244 243
          213 214 245 244 214 215 246 245 215 216 247 246
          217 218 249 248 218 219 250 249 219 220 251 250
          220 221 252 251 221 222 253 252 222 223 254 253
          223 224 255 254 224 225 256 255 225 226 257 256
          226 227 258 257 227 228 259 258 228 229 260 259
          229 230 261 260 230 231 262 261 231 232 263 262
          232 233 264 263 233 234 265 264 234 235 266 265
          235 236 267 266 236 237 268 267 237 238 269 268
          238 239 270 269 239 240 271 270 240 241 272 271
          241 242 273 272 242 243 274 273 243 244 275 274
          244 245 276 275 245 246 277 276 246 247 278 277
          248 249 280 279 249 250 281 280 250 251 282 281
          251 252 283 282 252 253 284 283 253 254 285 284
          254 255 286 285 255 256 287 286 256 257 288 287
          257 258 289 288 258 259 290 289 259 260 291 290
          260 261 292 291 261 262 293 292 262 263 294 293
          263 264 295 294 264 265 296 295 265 266 297 296
          266 267 298 297 267 268 299 298 268 269 300 299
          269 270 301 300 270 271 302 301 271 272 303 302
          272 273 304 303 273 274 305 304 274 275 306 305
          275 276 307 306 276 277 308 307 277 278 309 308
          279 280 311 310 280 281 312 311 281 282 313 312
          282 283 314 313 283 284 315 314 284 285 316 315
          285 286 317 316 286 287 318 317 287 288 319 318
          288 289 320 319 289 290 321 320 290 291 322 321
          291 292 323 322 292 293 324 323 293 294 325 324
          294 295 326 325 295 296 327 326 296 297 328 327
          297 298 329 328 298 299 330 329 299 300 331 330
          300 301 332 331 301 302 333 332 302 303 334 333
          303 304 335 334 304 305 336 335 305 306 337 336
          306 307 338 337 307 308 339 338 308 309 340 339
          310 311 342 341 311 312 343 342 312 313 344 343
          313 314 345 344 314 315 346 345 315 316 347 346
          316 317 348 347 317 318 349 348 318 319 350 349
          319 320 351 350 320 321 352 351 321 322 353 352
          322 323 354 353 323 324 355 354 324 325 356 355
          325 326 357 356 326 327 358 357 327 328 359 358
          328 329 360 359 329 330 361 360 330 331 362 361
          331 332 363 362 332 333 364 363 333 334 365 364
          334 335 366 365 335 336 367 366 336 337 368 367
          337 338 369 368 338 339 370 369 339 340 371 370
          341 342 373 372 342 343 374 373 343 344 375 374
          344 345 376 375 345 346 377 376 346 347 378 377
          347 348 379 378 348 349 380 379 349 350 381 380
          350 351 382 381 351 352 383 382 352 353 384 383
          353 354 385 384 354 355 386 385 355 356 387 386
          356 357 388 387 357 358 389 388 358 359 390 389
          359 360 391 390 360 361 392 391 361 362 393 392
          362 363 394 393 363 364 395 394 364 365 396 395
          365 366 397 396 366 367 398 397 367 368 399 398
          368 369 400 399 369 370 401 400 370 371 402 401
          372 373 404 403 373 374 405 404 374 375 406 405
          375 376 407 406 376 377 408 407 377 378 409 408
          378 379 410 409 379 380 411 410 380 381 412 411
          381 382 413 412 382 383 414 413 383 384 415 414
          384 385 416 415 385 386 417 416 386 387 418 417
          387 388 419 418 388 389 420 419 389 390 421 420
          390 391 422 421 391 392 423 422 392 393 424 423
          393 394 425 424 394 395 426 425 395 396 427 426
          396 397 428 427 397 398 429 428 398 399 430 429
          399 400 431 430 400 401 432 431 401 402 433 432
          403 404 435 434 404 405 436 435 405 406 437 436
          406 407 438 437 407 408 439 438 408 409 440 439
          409 410 441 440 410 411 442 441 411 412 443 442
          412 413 444 443 413 414 445 444 414 415 446 445
          415 416 447 446 416 417 448 447 417 418 449 448
          418 419 450 449 419 420 451 450 420 421 452 451
          421 422 453 452 422 423 454 453 423 424 455 454
          424 425 456 455 425 426 457 456 426 427 458 457
          427 428 459 458 428 429 460 459 429 430 461 460
          430 431 462 461 431 432 463 462 432 433 464 463
          434 435 466 465 435 436 467 466 436 437 468 467
          437 438 469 468 438 439 470 469 439 440 471 470
          440 441 472 471 441 442 473 472 442 443 474 473
          443 444 475 474 444 445 476 475 445 446 477 476
          446 447 478 477 447 448 479 478 448 449 480 479
          449 450 481 480 450 451 482 481 451 452 483 482
          452 453 484 483 453 454 485 484 454 455 486 485
          455 456 487 486 456 457 488 487 457 458 489 488
          458 459 490 489 459 460 491 490 460 461 492 491
          461 462 493 492 462 463 494 493 463 464 495 494
          465 466 497 496 466 467 498 497 467 468 499 498
          468 469 500 499 469 470 501 500 470 471 502 501
          471 472 503 502 472 473 504 503 473 474 505 504
          474 475 506 505 475 476 507 506 476 477 508 507
          477 478 509 508 478 479 510 509 479 480 511 510
          480 481 512 511 481 482 513 512 482 483 514 513
          483 484 515 514 484 485 516 515 485 486 517 516
          486 487 518 517 487 488 519 518 488 489 520 519
          489 490 521 520 490 491 522 521 491 492 523 522
          492 493 524 523 493 494 525 524 494 495 526 525
          496 497 528 527 497 498 529 528 498 499 530 529
          499 500 531 530 500 501 532 531 501 502 533 532
          502 503 534 533 503 504 535 534 504 505 536 535
          505 506 537 536 506 507 538 537 507 508 539 538
          508 509 540 539 509 510 541 540 510 511 542 541
          511 512 543 542 512 513 544 543 513 514 545 544
          514 515 546 545 515 516 547 546 516 517 548 547
          517 518 549 548 518 519 550 549 519 520 551 550
          520 521 552 551 521 522 553 552 522 523 554 553
          523 524 555 554 524 525 556 555 525 526 557 556
          527 528 559 558 528 529 560 559 529 530 561 560
          530 531 562 561 531 532 563 562 532 533 564 563
          533 534 565 564 534 535 566 565 535 536 567 566
          536 537 568 567 537 538 569 568 538 539 570 569
          539 540 571 570 540 541 572 571 541 542 573 572
          542 543 574 573 543 544 575 574 544 545 576 575
          545 546 577 576 546 547 578 577 547 548 579 578
          548 549 580 579 549 550 581 580 550 551 582 581
          551 552 583 582 552 553 584 583 553 554 585 584
          554 555 586 585 555 556 587 586 556 557 588 587
        </DataArray>
        <DataArray type="Int32" Name="offsets" NumberOfComponents="1" format="ascii">
          4 8 12 16 20 24 28 32 36 40 44 48
          52 56 60 64 68 72 76 80 84 88 92 96
          100 104 108 112 116 120 124 128 132 136 140 144
          148 152 156 160 164 168 172 176 180 184 188 192
          196 200 204 208 212 216 220 224 228 232 236 240
          244 248 252 256 260 264 268 272 276 280 284 288
          292 296 300 304 308 312 316 320 324 328 332 336
          340 344 348 352 356 360 364 368 372 376 380 384
          388 392 396 400 404 408 412 416 420 424 428 432
          436 440 444 448 452 456 460 464 468 472 476 480
          484 488 492 496 500 504 508 512 516 520 524 528
          532 536 540 544 548 552 556 560 564 568 572 576
          580 584 588 592 596 600 604 608 612 616 620 624
          628 632 636 640 644 648 652 656 660 664 668 672
          676 680 684 688 692 696 700 704 708 712 716 720
          724 728 732 736 740 744 748 752 756 760 764 768
          772 776 780 784 788 792 796 800 804 808 812 816
          820 824 828 832 836 840 844 848 852 856 860 864
          868 872 876 880 884 888 892 896 900 904 908 912
          916 920 924 928 932 936 940 944 948 952 956 960
          964 968 972 976 980 984 988 992 996 1000 1004 1008
          1012 1016 1020 1024 1028 1032 1036 1040 1044 1048 1052 1056
          1060 1064 1068 1072 1076 1080 1084 1088 1092 1096 1100 1104
          1108 1112 1116 1120 1124 1128 1132 1136 1140 1144 1148 1152
          1156 1160 1164 1168 1172 1176 1180 1184 1188 1192 1196 1200
          1204 1208 1212 1216 1220 1224 1228 1232 1236 1240 1244 1248
          1252 1256 1260 1264 1268 1272 1276 1280 1284 1288 1292 1296
          1300 1304 1308 1312 1316 1320 1324 1328 1332 1336 1340 1344
          1348 1352 1356 1360 1364 1368 1372 1376 1380 1384 1388 1392
          1396 1400 1404 1408 1412 1416 1420 1424 1428 1432 1436 1440
          1444 1448 1452 1456 1460 1464 1468 1472 1476 1480 1484 1488
          1492 1496 1500 1504 1508 1512 1516 1520 1524 1528 1532 1536
          1540 1544 1548 1552 1556 1560 1564 1568 1572 1576 1580 1584
          1588 1592 1596 1600 1604 1608 1612 1616 1620 1624 1628 1632
          1636 1640 1644 1648 1652 1656 1660 1664 1668 1672 1676 1680
          1684 1688 1692 1696 1700 1704 1708 1712 1716 1720 1724 1728
          1732 1736 1740 1744 1748 1752 1756 1760 1764 1768 1772 1776
          1780 1784 1788 1792 1796 1800 1804 1808 1812 1816 1820 1824
          1828 1832 1836 1840 1844 1848 1852 1856 1860 1864 1868 1872
          1876 1880 1884 1888 1892 1896 1900 1904 1908 1912 1916 1920
          1924 1928 1932 1936 1940 1944 1948 1952 1956 1960 1964 1968
          1972 1976 1980 1984 1988 1992 1996 2000 2004 2008 2012 2016
          2020 2024 2028 2032 2036 2040 2044 2048 2052 2056 2060 2064
          2068 2072 2076 2080 2084 2088 2092 2096 2100 2104 2108 2112
          2116 2120 2124 2128 2132 2136 2140 2144 2148 2152 2156 2160
        </DataArray>
        <DataArray type="UInt8" Name="types" NumberOfComponents="1" format="ascii">
          9 9 9 9 9 9 9 9 9 9 9 9
          9 9 9 9 9 9 9 9 9 9 9 9
          9 9 9 9 9 9 9 9 9 9 9 9
          9 9 9 9 9 9 9 9 9 9 9 9
          9 9 9 9 9 9 9 9 9 9 9 9
          9 9 9 9 9 9 9 9 9 9 9 9
          9 9 9 9 9 9 9 9 9 9 9 9
          9 9 9 9 9 9 9 9 9 9 9 9
          9 9 9 9 9 9 9 9 9 9 9 9
          9 9 9 9 9 9 9 9 9 9 9 9
          9 9 9 9 9 9 9 9 9 9 9 9
          9 9 9 9 9 9 9 9 9 9 9 9
          9 9 9 9 9 9 9 9 9 9 9 9
          9 9 9 9 9 9 9 9 9 9 9 9
          9 9 9 9 9 9 9 9 9 9 9 9
          9 9 9 9 9 9 9 9 9 9 9 9
          9 9 9 9 9 9 9 9 9 9 9 9
          9 9 9 9 9 9 9 9 9 9 9 9
          9 9 9 9 9 9 9 9 9 9 9 9
          9 9 9 9 9 9 9 9 9 9 9 9
          9 9 9 9 9 9 9 9 9 9 9 9
          9 9 9 9 9 9 9 9 9 9 9 9
          9 9 9 9 9 9 9 9 9 9 9 9
          9 9 9 9 9 9 9 9 9 9 9 9
          9 9 9 9 9 9 9 9 9 9 9 9
          9 9 9 9 9 9 9 9 9 9 9 9
          9 9 9 9 9 9 9 9 9 9 9 9
          9 9 9 9 9 9 9 9 9 9 9 9
          9 9 9 9 9 9 9 9 9 9 9 9
          9 9 9 9 9 9 9 9 9 9 9 9
          9 9 9 9 9 9 9 9 9 9 9 9
          9 9 9 9 9 9 9 9 9 9 9 9
          9 9 9 9 9 9 9 9 9 9 9 9
          9 9 9 9 9 9 9 9 9 9 9 9
          9 9 9 9 9 9 9 9 9 9 9 9
          9 9 9 9 9 9 9 9 9 9 9 9
          9 9 9 9 9 9 9 9 9 9 9 9
          9 9 9 9 9 9 9 9 9 9 9 9
          9 9 9 9 9 9 9 9 9 9 9 9
          9 9 9 9 9 9 9 9 9 9 9 9
          9 9 9 9 9 9 9 9 9 9 9 9
          9 9 9 9 9 9 9 9 9 9 9 9
          9 9 9 9 9 9 9 9 9 9 9 9
          9 9 9 9 9 9 9 9 9 9 9 9
          9 9 9 9 9 9 9 9 9 9 9 9
        </DataArray>
      </Cells>
    </Piece>
  </UnstructuredGrid>
</VTKFile>
