<?xml version="1.0"?>
<VTKFile type="UnstructuredGrid" version="0.1" byte_order="LittleEndian">
  <UnstructuredGrid>
    <Piece NumberOfCells="540" NumberOfPoints="589">
      <PointData Scalars="temperature" Vectors="v">
        <DataArray type="Float32" Name="temperature" NumberOfComponents="1" format="ascii">
          304.059 304.259 295.376 302.13 304.346 302.872 304.417 303.261 304.477 303.515 304.528 303.694
          304.573 303.834 304.615 303.949 304.652 304.046 304.687 304.132 304.719 304.209 304.75 304.278
          304.778 304.342 304.804 304.399 304.829 304.452 304.852 304.5 304.873 304.544 304.894 304.584
          304.913 304.621 304.931 304.654 304.948 304.686 304.964 304.718 304.98 304.754 304.996 304.801
          305.012 304.861 305.027 304.937 305.04 305.022 305.05 305.096 305.055 305.124 305.055 305.101
          305.052 305.15 288.895 297.982 300.916 301.795 302.325 302.678 302.941 303.148 303.32 303.468
          303.599 303.715 303.821 303.916 304.002 304.081 304.152 304.215 304.273 304.324 304.372 304.421
          304.477 304.55 304.652 304.788 304.951 305.109 305.192 305.168 305.15 284.741 293.131 297.99
          299.891 300.83 301.426 301.853 302.18 302.446 302.671 302.866 303.04 303.196 303.336 303.463
          303.577 303.681 303.773 303.856 303.93 303.997 304.063 304.138 304.236 304.373 304.565 304.809
          305.067 305.243 305.253 305.15 282.468 288.689 294.261 297.334 298.924 299.867 300.517 301.002
          301.387 301.708 301.984 302.227 302.444 302.639 302.814 302.972 303.114 303.242 303.356 303.456
          303.547 303.633 303.727 303.846 304.014 304.255 304.575 304.943 305.247 305.336 305.15 281.496
          285.318 290.331 294.124 296.479 297.91 298.865 299.56 300.101 300.542 300.917 301.245 301.536
          301.797 302.031 302.242 302.432 302.602 302.754 302.888 303.007 303.118 303.232 303.371 303.563
          303.843 304.233 304.714 305.172 305.39 305.15 281.288 283.209 286.901 290.626 293.504 295.476
          296.824 297.793 298.534 299.13 299.629 300.06 300.441 300.782 301.088 301.362 301.609 301.832
          302.03 302.206 302.361 302.502 302.641 302.8 303.013 303.325 303.772 304.361 304.987 305.382
          305.15 281.417 282.191 284.427 287.408 290.283 292.61 294.354 295.647 296.637 297.425 298.079
          298.637 299.126 299.562 299.954 300.305 300.621 300.906 301.162 301.389 301.589 301.769 301.94
          302.125 302.359 302.697 303.192 303.877 304.673 305.284 305.15 281.629 281.905 283.021 284.981
          287.329 289.607 291.562 293.138 294.391 295.4 296.235 296.944 297.562 298.111 298.604 299.046
          299.445 299.805 300.129 300.419 300.677 300.907 301.12 301.339 301.601 301.965 302.502 303.27
          304.226 305.08 305.15 281.806 281.989 282.482 283.551 285.125 286.953 288.784 290.447 291.88
          293.088 294.109 294.983 295.744 296.419 297.026 297.573 298.068 298.516 298.921 299.287 299.614
          299.908 300.178 300.444 300.744 301.141 301.719 302.559 303.661 304.768 305.15 281.95 282.201
          282.482 283.013 283.901 285.108 286.514 287.977 289.383 290.669 291.814 292.826 293.724 294.526
          295.25 295.909 296.507 297.053 297.55 298.003 298.413 298.785 299.126 299.455 299.808 300.249
          300.869 301.774 303.005 304.365 305.15 282.098 282.448 282.743 283.077 283.562 284.256 285.158
          286.218 287.364 288.525 289.647 290.699 291.672 292.564 293.385 294.142 294.839 295.482 296.074
          296.619 297.12 297.58 298.006 298.412 298.831 299.325 299.991 300.952 302.291 303.893 305.15
          282.318 282.76 283.143 283.489 283.85 284.283 284.826 285.495 286.28 287.155 288.08 289.018
          289.942 290.833 291.682 292.488 293.248 293.964 294.635 295.263 295.85 296.398 296.911 297.4
          297.891 298.441 299.147 300.146 301.567 303.388 305.15 282.676 283.23 283.72 284.157 284.558
          284.951 285.361 285.815 286.331 286.918 287.573 288.284 289.032 289.798 290.566 291.328 292.075
          292.801 293.502 294.174 294.816 295.428 296.011 296.569 297.122 297.713 298.435 299.437 300.894
          302.887 305.15 283.293 284.01 284.638 285.193 285.695 286.158 286.594 287.016 287.439 287.875
          288.339 288.838 289.374 289.944 290.543 291.162 291.798 292.442 293.087 293.728 294.359 294.977
          295.578 296.163 296.738 297.333 298.024 298.965 300.376 302.454 305.15 284.408 285.376 286.194
          286.897 287.518 288.077 288.59 289.067 289.512 289.932 290.335 290.731 291.129 291.538 291.963
          292.406 292.871 293.356 293.86 294.38 294.909 295.445 295.982 296.516 297.045 297.579 298.169
          298.95 300.179 302.179 305.15 286.657 287.975 288.998 289.851 290.577 291.208 291.77 292.279
          292.745 293.173 293.565 293.927 294.264 294.584 294.892 295.198 295.504 295.819 296.147 296.491
          296.849 297.223 297.609 298.003 298.401 298.802 299.221 299.738 300.582 302.223 305.15 291.461
          293.528 294.472 295.252 295.902 296.45 296.923 297.337 297.705 298.037 298.336 298.607 298.853
          299.075 299.278 299.466 299.643 299.812 299.979 300.147 300.322 300.503 300.693 300.892 301.097
          301.307 301.518 301.747 302.083 302.87 305.15 292.494 305.15 305.15 305.15 305.15 305.15
          305.15 305.15 305.15 305.15 305.15 305.15 305.15 305.15 305.15 305.15 305.15 305.15
          305.15 305.15 305.15 305.15 305.15 305.15 305.15 305.15 305.15 305.15 305.15 305.15
          305.15
        </DataArray>
        <DataArray type="Float32" Name="pg" NumberOfComponents="1" format="ascii">
          372584 372584 372584 372584 372584 372584 372584 372584 372584 372584 372584 372584
          372584 372584 372584 372584 372584 372584 372584 372584 372584 372584 372584 372584
          372584 372584 372584 372584 372584 372584 372584 372584 372584 372584 372584 372584
          372584 372584 372584 372584 372584 372584 372584 372584 372584 372584 372584 372584
          372584 372584 372584 372584 372584 372584 372584 372584 372584 372584 372584 372584
          372584 372584 372584 372584 372584 372584 372584 372584 372584 372584 372584 372584
          372584 372584 372584 372584 372584 372584 372584 372584 372584 372584 372584 372584
          372584 372584 372584 372584 372584 372584 372584 372584 372584 372584 372584 372584
          372584 372584 372584 372584 372584 372584 372584 372584 372584 372584 372584 372584
          372584 372584 372584 372584 372584 372584 372584 372584 372584 372584 372584 372584
          372584 372584 372584 372584 372584 372584 372584 372584 372584 372584 372584 372584
          372584 372584 372584 372584 372584 372584 372584 372584 372584 372584 372584 372584
          372584 372584 372584 372584 372584 372584 372584 372584 372584 372584 372584 372584
          372584 372584 372584 372584 372584 372584 372584 372584 372584 372584 372584 372584
          372584 372584 372584 372584 372584 372584 372584 372584 372584 372584 372584 372584
          372584 372584 372584 372584 372584 372584 372584 372584 372584 372584 372584 372584
          372584 372584 372584 372584 372584 372584 372584 372584 372584 372584 372584 372584
          372584 372584 372584 372584 372584 372584 372584 372584 372584 372584 372584 372584
          372584 372584 372584 372584 372584 372584 372584 372584 372584 372584 372584 372584
          372584 372584 372584 372584 372584 372584 372584 372584 372584 372584 372584 372584
          372584 372584 372584 372584 372584 372584 372584 372584 372584 372584 372584 372584
          372584 372584 372584 372584 372584 372584 372584 372584 372584 372584 372584 372584
          372584 372584 372584 372584 372584 372584 372584 372584 372584 372584 372584 372584
          372584 372584 372584 372584 372584 372584 372584 372584 372584 372584 372584 372584
          372584 372584 372584 372584 372584 372584 372584 372584 372584 372584 372584 372584
          372584 372584 372584 372584 372584 372584 372584 372584 372584 372584 372584 372584
          372584 372584 372584 372584 372584 372584 372584 372584 372584 372584 372584 372584
          372584 372584 372584 372584 372584 372584 372584 372584 372584 372584 372584 372584
          372584 372584 372584 372584 372584 372584 372584 372584 372584 372584 372584 372584
          372584 372584 372584 372584 372584 372584 372584 372584 372584 372584 372584 372584
          372584 372584 372584 372584 372584 372584 372584 372584 372584 372584 372584 372584
          372584 372584 372584 372584 372584 372584 372584 372584 372584 372584 372584 372584
          372584 372584 372584 372584 372584 372584 372584 372584 372584 372584 372584 372584
          372584 372584 372584 372584 372584 372584 372584 372584 372584 372584 372584 372584
          372584 372584 372584 372584 372584 372584 372584 372584 372584 372584 372584 372584
          372584 372584 372584 372584 372584 372584 372584 372584 372584 372584 372584 372584
          372584 372584 372584 372584 372584 372584 372584 372584 372584 372584 372584 372584
          372584 372584 372584 372584 372584 372584 372584 372584 372584 372584 372584 372584
          372584 372584 372584 372584 372584 372584 372584 372584 372584 372584 372584 372584
          372584 372584 372584 372584 372584 372584 372584 372584 372584 372584 372584 372584
          372584 372584 372584 372584 372584 372584 372584 372584 372584 372584 372584 372584
          372584 372584 372584 372584 372584 372584 372584 372584 372584 372584 372584 372584
          372584 372584 372584 372584 372584 372584 372584 372584 372584 372584 372584 372584
          372584 372584 372584 372584 372584 372584 372584 372584 372584 372584 372584 372584
          372584 372584 372584 372584 372584 372584 372584 372584 372584 372584 372584 372584
          372584 372584 372584 372584 372584 372584 372584 372584 372584 372584 372584 372584
          372584 372584 372584 372584 372584 372584 372584 372584 372584 372584 372584 372584
          372584 372584 372584 372584 372584 372584 372584 372584 372584 372584 372584 372584
          372584 372584 372584 372584 372584 372584 372584 372584 372584 372584 372584 372584
          372584
        </DataArray>
        <DataArray type="Float32" Name="delP" NumberOfComponents="1" format="ascii">
          272584 272584 272584 272584 272584 272584 272584 272584 272584 272584 272584 272584
          272584 272584 272584 272584 272584 272584 272584 272584 272584 272584 272584 272584
          272584 272584 272584 272584 272584 272584 272584 272584 272584 272584 272584 272584
          272584 272584 272584 272584 272584 272584 272584 272584 272584 272584 272584 272584
          272584 272584 272584 272584 272584 272584 272584 272584 272584 272584 272584 272584
          272584 272584 272584 272584 272584 272584 272584 272584 272584 272584 272584 272584
          272584 272584 272584 272584 272584 272584 272584 272584 272584 272584 272584 272584
          272584 272584 272584 272584 272584 272584 272584 272584 272584 272584 272584 272584
          272584 272584 272584 272584 272584 272584 272584 272584 272584 272584 272584 272584
          272584 272584 272584 272584 272584 272584 272584 272584 272584 272584 272584 272584
          272584 272584 272584 272584 272584 272584 272584 272584 272584 272584 272584 272584
          272584 272584 272584 272584 272584 272584 272584 272584 272584 272584 272584 272584
          272584 272584 272584 272584 272584 272584 272584 272584 272584 272584 272584 272584
          272584 272584 272584 272584 272584 272584 272584 272584 272584 272584 272584 272584
          272584 272584 272584 272584 272584 272584 272584 272584 272584 272584 272584 272584
          272584 272584 272584 272584 272584 272584 272584 272584 272584 272584 272584 272584
          272584 272584 272584 272584 272584 272584 272584 272584 272584 272584 272584 272584
          272584 272584 272584 272584 272584 272584 272584 272584 272584 272584 272584 272584
          272584 272584 272584 272584 272584 272584 272584 272584 272584 272584 272584 272584
          272584 272584 272584 272584 272584 272584 272584 272584 272584 272584 272584 272584
          272584 272584 272584 272584 272584 272584 272584 272584 272584 272584 272584 272584
          272584 272584 272584 272584 272584 272584 272584 272584 272584 272584 272584 272584
          272584 272584 272584 272584 272584 272584 272584 272584 272584 272584 272584 272584
          272584 272584 272584 272584 272584 272584 272584 272584 272584 272584 272584 272584
          272584 272584 272584 272584 272584 272584 272584 272584 272584 272584 272584 272584
          272584 272584 272584 272584 272584 272584 272584 272584 272584 272584 272584 272584
          272584 272584 272584 272584 272584 272584 272584 272584 272584 272584 272584 272584
          272584 272584 272584 272584 272584 272584 272584 272584 272584 272584 272584 272584
          272584 272584 272584 272584 272584 272584 272584 272584 272584 272584 272584 272584
          272584 272584 272584 272584 272584 272584 272584 272584 272584 272584 272584 272584
          272584 272584 272584 272584 272584 272584 272584 272584 272584 272584 272584 272584
          272584 272584 272584 272584 272584 272584 272584 272584 272584 272584 272584 272584
          272584 272584 272584 272584 272584 272584 272584 272584 272584 272584 272584 272584
          272584 272584 272584 272584 272584 272584 272584 272584 272584 272584 272584 272584
          272584 272584 272584 272584 272584 272584 272584 272584 272584 272584 272584 272584
          272584 272584 272584 272584 272584 272584 272584 272584 272584 272584 272584 272584
          272584 272584 272584 272584 272584 272584 272584 272584 272584 272584 272584 272584
          272584 272584 272584 272584 272584 272584 272584 272584 272584 272584 272584 272584
          272584 272584 272584 272584 272584 272584 272584 272584 272584 272584 272584 272584
          272584 272584 272584 272584 272584 272584 272584 272584 272584 272584 272584 272584
          272584 272584 272584 272584 272584 272584 272584 272584 272584 272584 272584 272584
          272584 272584 272584 272584 272584 272584 272584 272584 272584 272584 272584 272584
          272584 272584 272584 272584 272584 272584 272584 272584 272584 272584 272584 272584
          272584 272584 272584 272584 272584 272584 272584 272584 272584 272584 272584 272584
          272584 272584 272584 272584 272584 272584 272584 272584 272584 272584 272584 272584
          272584 272584 272584 272584 272584 272584 272584 272584 272584 272584 272584 272584
          272584 272584 272584 272584 272584 272584 272584 272584 272584 272584 272584 272584
          272584 272584 272584 272584 272584 272584 272584 272584 272584 272584 272584 272584
          272584 272584 272584 272584 272584 272584 272584 272584 272584 272584 272584 272584
          272584
        </DataArray>
        <DataArray type="Float32" Name="xH2Og" NumberOfComponents="1" format="ascii">
          0.0102919 0.0105947 0.00751464 0.00995303 0.0106651 0.0102141 0.0107146 0.0103461 0.010758 0.0104396 0.0107951 0.0105104
          0.010825 0.0105656 0.0108559 0.0106144 0.0108796 0.0106547 0.0109038 0.0106911 0.0109269 0.0107251 0.0109444 0.0107532
          0.0109624 0.0107791 0.0109796 0.0108033 0.0109965 0.0108261 0.0110114 0.0108465 0.0110245 0.0108641 0.0110389 0.0108815
          0.0110509 0.0108964 0.0110592 0.0109072 0.0110681 0.0109165 0.0110755 0.0109235 0.0110784 0.010925 0.0110814 0.0109221
          0.0110831 0.0109124 0.0110789 0.010887 0.0110713 0.0108371 0.0110468 0.0107371 0.0110351 0.0105753 0.0109186 0.0102781
          0.0106639 0.0062 0.0052326 0.00862908 0.00962149 0.00988852 0.0100535 0.0101701 0.0102582 0.0103306 0.0103908 0.0104429
          0.0104901 0.0105307 0.0105666 0.0105994 0.0106295 0.0106564 0.0106797 0.010701 0.0107196 0.0107335 0.0107442 0.0107516
          0.0107525 0.0107458 0.0107274 0.0106857 0.0106029 0.0104433 0.0101625 0.00966405 0.0062 0.00355965 0.00694553 0.00870031
          0.00930128 0.00957814 0.00975903 0.00989113 0.00999481 0.0100798 0.0101518 0.0102153 0.0102708 0.0103193 0.0103627 0.0104018
          0.0104368 0.0104671 0.0104938 0.0105169 0.0105349 0.0105481 0.0105567 0.0105581 0.0105496 0.0105257 0.010473 0.0103676
          0.0101656 0.00979931 0.00915032 0.0062 0.00246331 0.00523804 0.00743161 0.0084937 0.00897802 0.00925583 0.00944856 0.00959439
          0.00971133 0.00980863 0.00989265 0.00996607 0.0100303 0.010087 0.0101374 0.0101822 0.0102212 0.010255 0.010284 0.0103071
          0.0103242 0.0103353 0.0103384 0.0103302 0.0103041 0.010246 0.0101284 0.00990174 0.00948307 0.00873359 0.0062 0.0018432
          0.00377213 0.00595437 0.00741026 0.0081943 0.00862817 0.00890892 0.0091128 0.00927196 0.00940193 0.00951212 0.00960765 0.00969124
          0.00976462 0.00982925 0.0098863 0.00993614 0.00997916 0.0100158 0.0100456 0.0100681 0.0100832 0.0100895 0.0100837 0.0100589
          0.0100009 0.00988092 0.00964674 0.00920614 0.00840324 0.0062 0.00157014 0.00269902 0.00449982 0.00610493 0.00718186 0.00783178
          0.00824241 0.00852831 0.00874462 0.00891749 0.00906147 0.0091848 0.00929224 0.00938647 0.00946908 0.00954156 0.00960494 0.00965973
          0.00970633 0.00974476 0.00977463 0.00979578 0.00980717 0.00980606 0.0097859 0.00973324 0.00961987 0.00939324 0.00895668 0.00814167
          0.0062 0.00151302 0.00204726 0.00328672 0.0047429 0.00597009 0.00683551 0.00741423 0.00781367 0.00810809 0.00833804 0.00852603
          0.00868481 0.00882202 0.00894204 0.00904723 0.0091392 0.00921958 0.00928929 0.00934885 0.00939854 0.00943823 0.00946783 0.00948667
          0.00949281 0.00948065 0.00943822 0.00933928 0.00913285 0.00872163 0.00793 0.0062 0.00156589 0.00174919 0.00244899 0.00354128
          0.00469619 0.00567403 0.00641036 0.0069446 0.00733987 0.00764454 0.00788961 0.00809369 0.00826825 0.00842013 0.00855328 0.00866966
          0.00877138 0.00885991 0.00893606 0.00900037 0.009053 0.0090941 0.0091234 0.00913982 0.00913918 0.00911151 0.00903351 0.00885727
          0.00848772 0.00774793 0.0062 0.00165586 0.00168943 0.00199912 0.0026677 0.00356121 0.00447862 0.0052825 0.00592771 0.00642982
          0.00682288 0.00713834 0.0073988 0.00761957 0.00781047 0.00797756 0.00812395 0.00825208 0.00836403 0.00846109 0.00854409 0.00861352
          0.00866988 0.00871335 0.00874371 0.00875841 0.00874981 0.00869817 0.00855984 0.0082445 0.00757944 0.0062 0.00174858 0.00175481
          0.00185675 0.00218196 0.00274254 0.00344651 0.00417544 0.00484322 0.00541332 0.00588489 0.00627344 0.00659711 0.00687144 0.00710802
          0.00731492 0.00749677 0.00765654 0.00779687 0.00791954 0.0080258 0.00811651 0.00819249 0.00825447 0.00830302 0.00833715 0.00835172
          0.00833086 0.00823605 0.00798388 0.0074108 0.0062 0.00183607 0.00186848 0.00190389 0.00202945 0.00230985 0.00274496 0.00328256
          0.0038541 0.00440431 0.00490211 0.00533786 0.00571442 0.00603998 0.00632345 0.00657267 0.00679324 0.00698838 0.00716109 0.00731354
          0.00744735 0.00756371 0.00766379 0.00774874 0.00781981 0.00787741 0.00791876 0.007932 0.00788459 0.00770214 0.00723452 0.0062
          0.00193113 0.00200034 0.00204448 0.00209952 0.00221764 0.00243458 0.00275323 0.00314872 0.00358408 0.00402462 0.00444595 0.00483488
          0.00518703 0.00550322 0.00578685 0.00604188 0.00627078 0.00647597 0.00665945 0.00682288 0.0069676 0.00709493 0.00720623 0.00730317
          0.00738714 0.00745744 0.00750624 0.00750776 0.0073986 0.00704588 0.0062 0.0020538 0.00215789 0.00223515 0.00229432 0.00235921
          0.00245959 0.00261753 0.00283969 0.00311797 0.0034352 0.00377188 0.00411098 0.00444025 0.00475229 0.00504374 0.00531398 0.00556325
          0.00579169 0.00600002 0.00618915 0.00635998 0.00651351 0.00665097 0.0067739 0.00688411 0.00698244 0.00706497 0.00711351 0.00707772
          0.00684546 0.0062 0.0022367 0.00237485 0.00248698 0.0025758 0.00264878 0.00271962 0.00280491 0.00291877 0.00306903 0.00325623
          0.00347501 0.00371662 0.00397139 0.00423056 0.00448726 0.00473696 0.00497695 0.00520483 0.00541907 0.00561886 0.00580387 0.00597415
          0.00613011 0.0062726 0.00640303 0.00652288 0.00663149 0.00671893 0.00675007 0.00663716 0.0062 0.00253209 0.00270966 0.00285436
          0.00297354 0.00307172 0.00315441 0.00322911 0.00330475 0.00338999 0.00349154 0.00361311 0.00375527 0.00391593 0.00409131 0.00427682
          0.00446808 0.00466166 0.00485427 0.00504301 0.00522558 0.00540027 0.00556584 0.00572152 0.005867 0.00600258 0.00612928 0.0062482
          0.00635688 0.00643767 0.0064317 0.0062 0.00305623 0.00327747 0.00344397 0.00358143 0.00369579 0.00379173 0.00387322 0.00394443
          0.00400995 0.00407463 0.00414303 0.00421882 0.00430442 0.00440082 0.00450767 0.00462366 0.00474699 0.0048759 0.00500826 0.00514195
          0.005275 0.00540566 0.00553249 0.00565431 0.00577036 0.00588051 0.0059856 0.00608704 0.00618264 0.00624994 0.0062 0.00401426
          0.00433817 0.00446775 0.00457765 0.00467054 0.00474932 0.00481633 0.00487362 0.00492304 0.00496658 0.00500639 0.00504472 0.00508372
          0.00512524 0.00517061 0.00522054 0.00527512 0.00533407 0.00539701 0.00546321 0.00553174 0.00560161 0.00567182 0.00574141 0.00580954
          0.00587556 0.00593929 0.00600161 0.00606518 0.00613334 0.0062 0.00422748 0.0062 0.0062 0.0062 0.0062 0.0062
          0.0062 0.0062 0.0062 0.0062 0.0062 0.0062 0.0062 0.0062 0.0062 0.0062 0.0062 0.0062
          0.0062 0.0062 0.0062 0.0062 0.0062 0.0062 0.0062 0.0062 0.0062 0.0062 0.0062 0.0062
          0.0062
        </DataArray>
        <DataArray type="Float32" Name="xAirg" NumberOfComponents="1" format="ascii">
          0.989708 0.989405 0.992485 0.990047 0.989335 0.989786 0.989285 0.989654 0.989242 0.98956 0.989205 0.98949
          0.989175 0.989434 0.989144 0.989386 0.98912 0.989345 0.989096 0.989309 0.989073 0.989275 0.989056 0.989247
          0.989038 0.989221 0.98902 0.989197 0.989004 0.989174 0.988989 0.989154 0.988976 0.989136 0.988961 0.989119
          0.988949 0.989104 0.988941 0.989093 0.988932 0.989084 0.988925 0.989076 0.988922 0.989075 0.988919 0.989078
          0.988917 0.989088 0.988921 0.989113 0.988929 0.989163 0.988953 0.989263 0.988965 0.989425 0.989081 0.989722
          0.989336 0.9938 0.994767 0.991371 0.990378 0.990111 0.989946 0.98983 0.989742 0.989669 0.989609 0.989557
          0.98951 0.989469 0.989433 0.989401 0.989371 0.989344 0.98932 0.989299 0.98928 0.989266 0.989256 0.989248
          0.989248 0.989254 0.989273 0.989314 0.989397 0.989557 0.989837 0.990336 0.9938 0.99644 0.993054 0.9913
          0.990699 0.990422 0.990241 0.990109 0.990005 0.98992 0.989848 0.989785 0.989729 0.989681 0.989637 0.989598
          0.989563 0.989533 0.989506 0.989483 0.989465 0.989452 0.989443 0.989442 0.98945 0.989474 0.989527 0.989632
          0.989834 0.990201 0.99085 0.9938 0.997537 0.994762 0.992568 0.991506 0.991022 0.990744 0.990551 0.990406
          0.990289 0.990191 0.990107 0.990034 0.98997 0.989913 0.989863 0.989818 0.989779 0.989745 0.989716 0.989693
          0.989676 0.989665 0.989662 0.98967 0.989696 0.989754 0.989872 0.990098 0.990517 0.991266 0.9938 0.998157
          0.996228 0.994046 0.99259 0.991806 0.991372 0.991091 0.990887 0.990728 0.990598 0.990488 0.990392 0.990309
          0.990235 0.990171 0.990114 0.990064 0.990021 0.989984 0.989954 0.989932 0.989917 0.98991 0.989916 0.989941
          0.989999 0.990119 0.990353 0.990794 0.991597 0.9938 0.99843 0.997301 0.9955 0.993895 0.992818 0.992168
          0.991758 0.991472 0.991255 0.991082 0.990939 0.990815 0.990708 0.990614 0.990531 0.990458 0.990395 0.99034
          0.990294 0.990255 0.990225 0.990204 0.990193 0.990194 0.990214 0.990267 0.99038 0.990607 0.991043 0.991858
          0.9938 0.998487 0.997953 0.996713 0.995257 0.99403 0.993164 0.992586 0.992186 0.991892 0.991662 0.991474
          0.991315 0.991178 0.991058 0.990953 0.990861 0.99078 0.990711 0.990651 0.990601 0.990562 0.990532 0.990513
          0.990507 0.990519 0.990562 0.990661 0.990867 0.991278 0.99207 0.9938 0.998434 0.998251 0.997551 0.996459
          0.995304 0.994326 0.99359 0.993055 0.99266 0.992355 0.99211 0.991906 0.991732 0.99158 0.991447 0.99133
          0.991229 0.99114 0.991064 0.991 0.990947 0.990906 0.990877 0.99086 0.990861 0.990888 0.990966 0.991143
          0.991512 0.992252 0.9938 0.998344 0.998311 0.998001 0.997332 0.996439 0.995521 0.994717 0.994072 0.99357
          0.993177 0.992862 0.992601 0.99238 0.99219 0.992022 0.991876 0.991748 0.991636 0.991539 0.991456 0.991386
          0.99133 0.991287 0.991256 0.991242 0.99125 0.991302 0.99144 0.991755 0.992421 0.9938 0.998251 0.998245
          0.998143 0.997818 0.997257 0.996553 0.995825 0.995157 0.994587 0.994115 0.993727 0.993403 0.993129 0.992892
          0.992685 0.992503 0.992343 0.992203 0.99208 0.991974 0.991884 0.991808 0.991746 0.991697 0.991663 0.991648
          0.991669 0.991764 0.992016 0.992589 0.9938 0.998164 0.998132 0.998096 0.997971 0.99769 0.997255 0.996717
          0.996146 0.995596 0.995098 0.994662 0.994286 0.99396 0.993677 0.993427 0.993207 0.993012 0.992839 0.992686
          0.992553 0.992436 0.992336 0.992251 0.99218 0.992123 0.992081 0.992068 0.992115 0.992298 0.992765 0.9938
          0.998069 0.998 0.997956 0.9979 0.997782 0.997565 0.997247 0.996851 0.996416 0.995975 0.995554 0.995165
          0.994813 0.994497 0.994213 0.993958 0.993729 0.993524 0.993341 0.993177 0.993032 0.992905 0.992794 0.992697
          0.992613 0.992543 0.992494 0.992492 0.992601 0.992954 0.9938 0.997946 0.997842 0.997765 0.997706 0.997641
          0.99754 0.997382 0.99716 0.996882 0.996565 0.996228 0.995889 0.99556 0.995248 0.994956 0.994686 0.994437
          0.994208 0.994 0.993811 0.99364 0.993486 0.993349 0.993226 0.993116 0.993018 0.992935 0.992886 0.992922
          0.993155 0.9938 0.997763 0.997625 0.997513 0.997424 0.997351 0.99728 0.997195 0.997081 0.996931 0.996744
          0.996525 0.996283 0.996029 0.995769 0.995513 0.995263 0.995023 0.994795 0.994581 0.994381 0.994196 0.994026
          0.99387 0.993727 0.993597 0.993477 0.993369 0.993281 0.99325 0.993363 0.9938 0.997468 0.99729 0.997146
          0.997026 0.996928 0.996846 0.996771 0.996695 0.99661 0.996508 0.996387 0.996245 0.996084 0.995909 0.995723
          0.995532 0.995338 0.995146 0.994957 0.994774 0.9946 0.994434 0.994278 0.994133 0.993997 0.993871 0.993752
          0.993643 0.993562 0.993568 0.9938 0.996944 0.996723 0.996556 0.996419 0.996304 0.996208 0.996127 0.996056
          0.99599 0.995925 0.995857 0.995781 0.995696 0.995599 0.995492 0.995376 0.995253 0.995124 0.994992 0.994858
          0.994725 0.994594 0.994467 0.994346 0.99423 0.994119 0.994014 0.993913 0.993817 0.99375 0.9938 0.995986
          0.995662 0.995532 0.995422 0.995329 0.995251 0.995184 0.995126 0.995077 0.995033 0.994994 0.994955 0.994916
          0.994875 0.994829 0.994779 0.994725 0.994666 0.994603 0.994537 0.994468 0.994398 0.994328 0.994259 0.99419
          0.994124 0.994061 0.993998 0.993935 0.993867 0.9938 0.995773 0.9938 0.9938 0.9938 0.9938 0.9938
          0.9938 0.9938 0.9938 0.9938 0.9938 0.9938 0.9938 0.9938 0.9938 0.9938 0.9938 0.9938
          0.9938 0.9938 0.9938 0.9938 0.9938 0.9938 0.9938 0.9938 0.9938 0.9938 0.9938 0.9938
          0.9938
        </DataArray>
        <DataArray type="Float32" Name="h" NumberOfComponents="1" format="ascii">
          46219.1 46874.8 33159.5 43718.4 47068.9 44873.1 47216.5 45471.3 47342.2 45872.9 47450.4 46163.7
          47541.9 46390.6 47630.5 46581.6 47704.7 46742.7 47776.8 46885.6 47844.5 47015.5 47901.7 47129.3
          47957.6 47233.2 48010.4 47329 48061.1 47417.6 48107.1 47497.9 48149.1 47569.8 48191.6 47637
          48229 47696.8 48260.1 47747.3 48291 47793.8 48319 47837.8 48340.1 47878 48361 47921.6
          48379.9 47969.8 48389.4 48011.3 48391.8 48025.7 48365.6 47954 48353.4 47743.1 48180.2 47279.2
          47800.4 41296.8 23200.1 37476.6 41970.5 43275.4 44068 44606.5 45009.4 45331.4 45599.1 45829.7
          46034.6 46215.8 46378.2 46525.4 46659.5 46780.7 46888.9 46986.8 47073.5 47147.7 47213.2 47274.6
          47334.4 47400.8 47478.7 47558.5 47605.4 47532.1 47202.7 46439.4 41296.8 16583 30016.2 37588.1
          40438.2 41818.1 42702.3 43339.3 43831.5 44232.8 44572 44868.6 45130.9 45364.4 45574 45763.1
          45933.6 46085.7 46221.4 46341.2 46444.2 46533.4 46615.1 46695 46784 46891.2 47012.6 47109.1
          47077 46717.1 45766.1 41296.8 12742.1 22995.2 31884.8 36607.4 38962 40346.9 41303 42020
          42592.1 43067.6 43477.2 43837.4 44157.7 44443.4 44699.4 44929.4 45134.9 45317.4 45478 45616.6
          45735.7 45841.8 45943.7 46055.3 46190.6 46354.3 46512.5 46558.7 46253.2 45234.9 41296.8 10902.2
          17470.3 25705.2 31712.5 35285.5 37400.4 38800.3 39818.3 40612.3 41261.1 41811.8 42291.6 42716.8
          43095.8 43433.6 43736 44006.4 44246.7 44458 44641 44797.8 44935 45062.8 45198.4 45361
          45565.9 45792 45943.8 45765.4 44801.5 41296.8 10318.4 13823.5 20113.9 26223.9 30741.6 33721
          35713.1 37133 38216.9 39087.3 39815.4 40442.8 40995.3 41487.3 41925.5 42316.3 42665.8 42976.9
          43251.2 43490 43694.9 43872.3 44033 44196.7 44388 44633.1 44929.4 45203.3 45204.9 44405.7
          41296.8 10371.3 11889 15882.2 20977.3 25677.9 29319.1 31956.3 33872.6 35324.8 36475.8 37426.2
          38236 38943.4 39571.3 40131.2 40629.9 41075.6 41473.3 41825.4 42133.8 42400.2 42630.3 42835
          43035.2 43260.5 43547.6 43915 44318.2 44532.7 43991.8 41296.8 10659.3 11189.9 13287.8 16803.9
          20830.5 24559.1 27627.5 30022.6 31887.7 33372.4 34591.7 35622.4 36516 37305.4 38010.1 38638.4
          39200.1 39702.7 40150 40544.7 40888.9 41187.8 41451.8 41702.4 41972.7 42309 42750.2 43284.5
          43726.7 43512.2 41296.8 10962.2 11194.2 12120.1 14130.4 16978.5 20137.7 23155.6 25787.3 27983.7
          29795.8 31305.3 32585.2 33692.6 34667.9 35538.6 36317.9 37016.3 37643.2 38204.6 38704.4 39145.1
          39532.1 39875 40194.9 40527.1 40925.3 41446.9 42112.2 42785.1 42943.2 41296.8 11235.3 11498.7
          11924.6 12911.9 14590.7 16802.2 19262.3 21704.7 23959.2 25955.2 27692.4 29201.7 30523.1 31693
          32741.1 33685 34535.6 35303.7 35996.6 36619.5 37176.2 37671.7 38115.2 38526.6 38941.7 39418.7
          40029.8 40825.5 41724.2 42279.1 41296.8 11504.9 11906.2 12254.3 12767.5 13647.7 14957.1 16624.9
          18508.3 20456.8 22352.1 24124.3 25744.6 27211.9 28538.8 29743.8 30843 31844.7 32758.2 33591
          34348.5 35035.2 35656.2 36219.7 36743.1 37260.6 37831.5 38538.9 39460.8 40574.3 41534.5 41296.8
          11859.8 12404.5 12855 13282.8 13813.9 14554.8 15550.4 16783.8 18195.7 19709.2 21251.3 22765.4
          24215.1 25582 26861.3 28056.9 29169.8 30202.9 31159.8 32044.2 32859.3 33609.2 34300.2 34945.9
          35575.7 36245.7 37045.1 38077.8 39382.6 40737 41296.8 12391.9 13099.5 13705.9 14232.4 14731.4
          15270.5 15908.4 16680.6 17596.1 18640.3 19783.7 20989.4 22221.6 23450.3 24654.2 25822.1 26947.4
          28022.4 29042.9 30007.5 30915.6 31767.9 32567.2 33321.1 34050.6 34803.2 35668 36771.7 38219.5
          39927.9 41296.8 13272.2 14194.3 14989.5 15679.4 16292.5 16863.1 17427.5 18018.1 18659.9 19368.8
          20150.5 21001.2 21910.2 22861.9 23840 24830.8 25825.5 26813 27783.3 28728.8 29644.2 30525.2
          31369.4 32177.2 32958 33744.1 34614 35710.3 37207.5 39176.3 41296.8 14817.4 16052.2 17087.9
          17973.2 18744.1 19431.5 20061 20654.3 21229.4 21802.3 22386.5 22992.9 23628.6 24296.7 24996.3
          25723.7 26476.4 27250.2 28038.3 28833.6 29629 30418.1 31194.7 31953.6 32693.3 33426.6 34206.3
          35166.7 36547.4 38592.5 41296.8 17843 19500.2 20780.3 21847.2 22751 23532.8 24223.6 24846
          25415.9 25945.6 26445.2 26924.2 27391.9 27857 28326.7 28806.2 29297.9 29806.6 30333.7 30878.7
          31439.1 32011.4 32591.1 33172.4 33749.7 34320.9 34904.5 35583.1 36589.3 38371.4 41296.8 24108.9
          26686.3 27839.4 28795.8 29594.3 30270 30850.2 31356.9 31805.7 32208.2 32572.6 32905.8 33213.4
          33501.4 33775.3 34040.7 34301.3 34560.2 34822.6 35092.1 35370.5 35658.7 35956.2 36261.4 36571.6
          36882.6 37192.7 37518.5 37956.8 38863.1 41296.8 25469.9 41296.8 41296.8 41296.8 41296.8 41296.8
          41296.8 41296.8 41296.8 41296.8 41296.8 41296.8 41296.8 41296.8 41296.8 41296.8 41296.8 41296.8
          41296.8 41296.8 41296.8 41296.8 41296.8 41296.8 41296.8 41296.8 41296.8 41296.8 41296.8 41296.8
          41296.8
        </DataArray>
        <DataArray type="Float32" Name="rho" NumberOfComponents="1" format="ascii">
          4.25151 4.24822 4.38108 4.27919 4.2469 4.26829 4.24582 4.26261 4.24493 4.25889 4.24415 4.25626
          4.24347 4.25421 4.24285 4.25253 4.24228 4.2511 4.24176 4.24984 4.24127 4.24872 4.24083 4.2477
          4.24041 4.24678 4.24001 4.24593 4.23964 4.24516 4.2393 4.24445 4.23897 4.24381 4.23867 4.24323
          4.23838 4.2427 4.23812 4.24222 4.23787 4.24176 4.23763 4.2413 4.2374 4.24079 4.23717 4.24015
          4.23695 4.23933 4.23675 4.23831 4.23658 4.23721 4.23648 4.23634 4.23643 4.23622 4.23663 4.23701
          4.23707 4.24285 4.48322 4.34093 4.297 4.28405 4.27628 4.2711 4.26725 4.26422 4.2617 4.25954
          4.25763 4.25593 4.2544 4.25301 4.25176 4.25062 4.24959 4.24866 4.24783 4.24709 4.24641 4.24572
          4.24493 4.24392 4.24254 4.2407 4.23856 4.23663 4.23592 4.23705 4.24285 4.5515 4.41558 4.3407
          4.3122 4.2983 4.2895 4.28323 4.27842 4.27452 4.27123 4.26837 4.26583 4.26356 4.26152 4.25968
          4.25802 4.25652 4.25518 4.25398 4.25293 4.25196 4.25102 4.24997 4.24862 4.24674 4.24414 4.24092
          4.23766 4.2358 4.2367 4.24285 4.59003 4.48641 4.39782 4.35062 4.32669 4.31262 4.30299 4.29582
          4.29013 4.28542 4.28137 4.27781 4.27463 4.27179 4.26924 4.26694 4.26487 4.26302 4.26137 4.25992
          4.25863 4.2574 4.25608 4.25442 4.25212 4.24884 4.24456 4.2398 4.23624 4.23621 4.24285 4.60696
          4.54193 4.45983 4.3999 4.36366 4.34198 4.32765 4.31729 4.30925 4.3027 4.29716 4.29233 4.28805
          4.28422 4.28079 4.27772 4.27495 4.27248 4.27028 4.26834 4.26662 4.26504 4.26342 4.26148 4.25882
          4.25499 4.24973 4.2434 4.23773 4.23599 4.24285 4.61084 4.57761 4.51563 4.45505 4.40957 4.37908
          4.35851 4.34386 4.33272 4.32381 4.31637 4.30997 4.30433 4.29929 4.29479 4.29077 4.28715 4.2839
          4.28101 4.27846 4.27622 4.27419 4.27221 4.26996 4.26699 4.26269 4.2566 4.24873 4.2407 4.23652
          4.24285 4.60882 4.59526 4.55699 4.50725 4.46054 4.42363 4.39646 4.37656 4.36148 4.34954 4.3397
          4.33133 4.32402 4.31753 4.31172 4.30653 4.30187 4.29768 4.29394 4.29062 4.2877 4.2851 4.28264
          4.28002 4.27671 4.27201 4.26519 4.25592 4.24545 4.23822 4.24285 4.60526 4.60043 4.58107 4.54769
          4.50857 4.47146 4.44023 4.41547 4.39602 4.3805 4.36775 4.35698 4.34765 4.3394 4.33202 4.32542
          4.3195 4.31417 4.30938 4.30512 4.30134 4.29798 4.29489 4.29175 4.28802 4.2829 4.27542 4.26487
          4.25206 4.24135 4.24285 4.6022 4.59916 4.59059 4.57213 4.54537 4.51485 4.48487 4.45809 4.43537
          4.41643 4.40058 4.38711 4.37545 4.36517 4.35598 4.34772 4.3403 4.33361 4.32757 4.32215 4.31731
          4.31298 4.30904 4.30517 4.30085 4.2952 4.28706 4.27537 4.26036 4.24595 4.24285 4.59969 4.5956
          4.59084 4.58167 4.56638 4.54583 4.52228 4.49817 4.47535 4.45477 4.43663 4.42075 4.40679 4.3944
          4.38327 4.37322 4.36413 4.35588 4.3484 4.34162 4.33551 4.32999 4.32494 4.32011 4.31497 4.30861
          4.29976 4.28702 4.27001 4.25185 4.24285 4.59714 4.59137 4.58653 4.58089 4.57258 4.56066 4.54532
          4.52751 4.50851 4.48953 4.47141 4.45458 4.43919 4.42517 4.41238 4.40066 4.38993 4.38009 4.37108
          4.36282 4.35528 4.34838 4.34203 4.336 4.32982 4.32261 4.31299 4.29931 4.28055 4.25873 4.24285
          4.59338 4.58608 4.5798 4.57412 4.5681 4.56077 4.55153 4.54019 4.52698 4.51245 4.49724 4.48198
          4.4671 4.45289 4.43946 4.4268 4.41494 4.40385 4.39351 4.3839 4.37496 4.36666 4.35894 4.35161
          4.34429 4.33617 4.32586 4.31146 4.29132 4.26613 4.24285 4.58736 4.57821 4.57016 4.56303 4.55648
          4.55004 4.54322 4.53563 4.52698 4.51718 4.50631 4.49463 4.48244 4.47007 4.45775 4.44565 4.43386
          4.42248 4.41157 4.40118 4.39131 4.38196 4.37311 4.36467 4.35637 4.34756 4.3369 4.32231 4.30144
          4.27351 4.24285 4.57705 4.56525 4.55499 4.54597 4.53786 4.5304 4.52336 4.51651 4.50961 4.50246
          4.49485 4.48668 4.47793 4.46868 4.45905 4.44914 4.43905 4.42889 4.41878 4.40881 4.39905 4.38955
          4.38036 4.37148 4.3628 4.35388 4.34359 4.32977 4.30938 4.27997 4.24285 4.5586 4.54282 4.5296
          4.51829 4.50837 4.49948 4.49135 4.48382 4.47678 4.47013 4.46371 4.4574 4.45103 4.44449 4.43771
          4.43066 4.42332 4.41567 4.40778 4.3997 4.39151 4.38327 4.37506 4.36695 4.35895 4.35091 4.3421
          4.33059 4.31273 4.2842 4.24285 4.52194 4.50087 4.48465 4.47122 4.45986 4.45003 4.44132 4.43346
          4.4263 4.41974 4.41371 4.40815 4.40296 4.39803 4.39324 4.38851 4.38375 4.37887 4.3738 4.36852
          4.36302 4.35732 4.35146 4.3455 4.33951 4.33352 4.32727 4.31964 4.30735 4.28386 4.24285 4.44579
          4.41395 4.39958 4.38777 4.37799 4.36975 4.36269 4.35653 4.35105 4.34614 4.34171 4.33771 4.33408
          4.33079 4.32778 4.32498 4.32234 4.31981 4.3173 4.31477 4.31215 4.30943 4.30659 4.30364 4.30059
          4.2975 4.29438 4.29102 4.28614 4.2749 4.24285 4.42974 4.24285 4.24285 4.24285 4.24285 4.24285
          4.24285 4.24285 4.24285 4.24285 4.24285 4.24285 4.24285 4.24285 4.24285 4.24285 4.24285 4.24285
          4.24285 4.24285 4.24285 4.24285 4.24285 4.24285 4.24285 4.24285 4.24285 4.24285 4.24285 4.24285
          4.24285
        </DataArray>
        <DataArray type="Float32" Name="mu" NumberOfComponents="1" format="ascii">
          1.8518e-05 1.85274e-05 1.81067e-05 1.84271e-05 1.85315e-05 1.84621e-05 1.85348e-05 1.84804e-05 1.85376e-05 1.84924e-05 1.854e-05 1.85008e-05
          1.85422e-05 1.85074e-05 1.85441e-05 1.85128e-05 1.85459e-05 1.85174e-05 1.85475e-05 1.85214e-05 1.8549e-05 1.8525e-05 1.85505e-05 1.85283e-05
          1.85518e-05 1.85313e-05 1.8553e-05 1.8534e-05 1.85542e-05 1.85365e-05 1.85553e-05 1.85387e-05 1.85563e-05 1.85408e-05 1.85572e-05 1.85427e-05
          1.85581e-05 1.85444e-05 1.8559e-05 1.8546e-05 1.85598e-05 1.85475e-05 1.85606e-05 1.8549e-05 1.85613e-05 1.85507e-05 1.85621e-05 1.85529e-05
          1.85628e-05 1.85557e-05 1.85635e-05 1.85593e-05 1.85641e-05 1.85633e-05 1.85646e-05 1.85667e-05 1.85648e-05 1.8568e-05 1.85648e-05 1.8567e-05
          1.85647e-05 1.85693e-05 1.77961e-05 1.82307e-05 1.83697e-05 1.84112e-05 1.84362e-05 1.84529e-05 1.84653e-05 1.84751e-05 1.84832e-05 1.84902e-05
          1.84963e-05 1.85018e-05 1.85068e-05 1.85112e-05 1.85153e-05 1.8519e-05 1.85223e-05 1.85253e-05 1.8528e-05 1.85305e-05 1.85327e-05 1.8535e-05
          1.85376e-05 1.85411e-05 1.85459e-05 1.85523e-05 1.856e-05 1.85673e-05 1.85713e-05 1.85701e-05 1.85693e-05 1.75955e-05 1.79995e-05 1.82311e-05
          1.83212e-05 1.83657e-05 1.83938e-05 1.8414e-05 1.84294e-05 1.8442e-05 1.84526e-05 1.84618e-05 1.847e-05 1.84773e-05 1.84839e-05 1.84899e-05
          1.84953e-05 1.85002e-05 1.85045e-05 1.85084e-05 1.85119e-05 1.8515e-05 1.85182e-05 1.85217e-05 1.85263e-05 1.85328e-05 1.85418e-05 1.85533e-05
          1.85654e-05 1.85737e-05 1.85741e-05 1.85693e-05 1.74851e-05 1.77862e-05 1.80535e-05 1.81999e-05 1.82754e-05 1.83201e-05 1.83508e-05 1.83738e-05
          1.8392e-05 1.84071e-05 1.84201e-05 1.84316e-05 1.84419e-05 1.84511e-05 1.84593e-05 1.84668e-05 1.84735e-05 1.84795e-05 1.84849e-05 1.84896e-05
          1.84939e-05 1.84979e-05 1.85024e-05 1.8508e-05 1.85159e-05 1.85272e-05 1.85423e-05 1.85596e-05 1.85739e-05 1.8578e-05 1.85693e-05 1.74378e-05
          1.76234e-05 1.78652e-05 1.80469e-05 1.81592e-05 1.82273e-05 1.82726e-05 1.83055e-05 1.83311e-05 1.8352e-05 1.83698e-05 1.83852e-05 1.8399e-05
          1.84114e-05 1.84224e-05 1.84323e-05 1.84413e-05 1.84493e-05 1.84565e-05 1.84628e-05 1.84684e-05 1.84737e-05 1.8479e-05 1.84856e-05 1.84946e-05
          1.85078e-05 1.85262e-05 1.85488e-05 1.85703e-05 1.85806e-05 1.85693e-05 1.74277e-05 1.75211e-05 1.77e-05 1.78794e-05 1.80173e-05 1.81114e-05
          1.81756e-05 1.82217e-05 1.82569e-05 1.82851e-05 1.83088e-05 1.83292e-05 1.83472e-05 1.83634e-05 1.83778e-05 1.83908e-05 1.84025e-05 1.8413e-05
          1.84223e-05 1.84306e-05 1.8438e-05 1.84446e-05 1.84512e-05 1.84587e-05 1.84687e-05 1.84834e-05 1.85045e-05 1.85322e-05 1.85616e-05 1.85802e-05
          1.85693e-05 1.74339e-05 1.74716e-05 1.75802e-05 1.77245e-05 1.78629e-05 1.79745e-05 1.80579e-05 1.81196e-05 1.81667e-05 1.82042e-05 1.82353e-05
          1.82617e-05 1.82849e-05 1.83056e-05 1.83242e-05 1.83408e-05 1.83558e-05 1.83692e-05 1.83813e-05 1.83921e-05 1.84015e-05 1.841e-05 1.84181e-05
          1.84268e-05 1.84379e-05 1.84538e-05 1.84772e-05 1.85094e-05 1.85468e-05 1.85756e-05 1.85693e-05 1.74443e-05 1.74577e-05 1.7512e-05 1.76071e-05
          1.77206e-05 1.78304e-05 1.79243e-05 1.79998e-05 1.80597e-05 1.81078e-05 1.81476e-05 1.81814e-05 1.82107e-05 1.82368e-05 1.82602e-05 1.82812e-05
          1.83001e-05 1.83171e-05 1.83325e-05 1.83462e-05 1.83584e-05 1.83693e-05 1.83794e-05 1.83897e-05 1.84021e-05 1.84193e-05 1.84446e-05 1.84808e-05
          1.85259e-05 1.8566e-05 1.85693e-05 1.74529e-05 1.74618e-05 1.74858e-05 1.75378e-05 1.76141e-05 1.77025e-05 1.77908e-05 1.78708e-05 1.79395e-05
          1.79974e-05 1.80462e-05 1.80879e-05 1.81242e-05 1.81564e-05 1.81853e-05 1.82113e-05 1.82347e-05 1.8256e-05 1.82752e-05 1.82926e-05 1.83081e-05
          1.8322e-05 1.83348e-05 1.83474e-05 1.83616e-05 1.83804e-05 1.84076e-05 1.84473e-05 1.84993e-05 1.85513e-05 1.85693e-05 1.74599e-05 1.74721e-05
          1.74858e-05 1.75116e-05 1.75547e-05 1.76133e-05 1.76813e-05 1.77519e-05 1.78196e-05 1.78814e-05 1.79364e-05 1.79849e-05 1.80278e-05 1.80661e-05
          1.81007e-05 1.81321e-05 1.81606e-05 1.81865e-05 1.82102e-05 1.82317e-05 1.82511e-05 1.82688e-05 1.8285e-05 1.83006e-05 1.83173e-05 1.83381e-05
          1.83675e-05 1.84103e-05 1.84683e-05 1.85324e-05 1.85693e-05 1.74671e-05 1.74842e-05 1.74985e-05 1.75147e-05 1.75383e-05 1.7572e-05 1.76156e-05
          1.76669e-05 1.77223e-05 1.77783e-05 1.78323e-05 1.78829e-05 1.79296e-05 1.79723e-05 1.80116e-05 1.80478e-05 1.80811e-05 1.81117e-05 1.81399e-05
          1.81659e-05 1.81897e-05 1.82116e-05 1.82318e-05 1.82511e-05 1.8271e-05 1.82944e-05 1.8326e-05 1.83714e-05 1.84347e-05 1.85102e-05 1.85693e-05
          1.74778e-05 1.74993e-05 1.75179e-05 1.75347e-05 1.75523e-05 1.75733e-05 1.75996e-05 1.7632e-05 1.767e-05 1.77122e-05 1.77569e-05 1.78021e-05
          1.78465e-05 1.78893e-05 1.793e-05 1.79687e-05 1.80051e-05 1.80393e-05 1.80713e-05 1.81013e-05 1.81293e-05 1.81554e-05 1.81798e-05 1.8203e-05
          1.82264e-05 1.82525e-05 1.8286e-05 1.83333e-05 1.84005e-05 1.84864e-05 1.85693e-05 1.74952e-05 1.75221e-05 1.7546e-05 1.75671e-05 1.75866e-05
          1.76056e-05 1.76255e-05 1.76475e-05 1.76724e-05 1.77008e-05 1.77324e-05 1.77667e-05 1.78027e-05 1.78396e-05 1.78765e-05 1.79131e-05 1.79489e-05
          1.79837e-05 1.80172e-05 1.80493e-05 1.808e-05 1.81092e-05 1.81369e-05 1.81635e-05 1.81898e-05 1.82179e-05 1.82522e-05 1.82997e-05 1.83687e-05
          1.84628e-05 1.85693e-05 1.75252e-05 1.756e-05 1.75905e-05 1.76174e-05 1.76417e-05 1.7664e-05 1.76851e-05 1.77056e-05 1.77259e-05 1.7747e-05
          1.77694e-05 1.77934e-05 1.78192e-05 1.78466e-05 1.78754e-05 1.79051e-05 1.79356e-05 1.79665e-05 1.79974e-05 1.8028e-05 1.80582e-05 1.80876e-05
          1.81163e-05 1.81442e-05 1.81715e-05 1.81998e-05 1.82327e-05 1.82773e-05 1.83442e-05 1.84423e-05 1.85693e-05 1.75793e-05 1.76262e-05 1.76658e-05
          1.76998e-05 1.77297e-05 1.77567e-05 1.77815e-05 1.78044e-05 1.78258e-05 1.7846e-05 1.78654e-05 1.78844e-05 1.79035e-05 1.79231e-05 1.79435e-05
          1.79648e-05 1.7987e-05 1.80102e-05 1.80343e-05 1.80591e-05 1.80844e-05 1.811e-05 1.81356e-05 1.8161e-05 1.81861e-05 1.82115e-05 1.82396e-05
          1.82766e-05 1.83348e-05 1.84294e-05 1.85693e-05 1.76882e-05 1.77518e-05 1.78011e-05 1.78422e-05 1.7877e-05 1.79073e-05 1.79343e-05 1.79587e-05
          1.7981e-05 1.80014e-05 1.80202e-05 1.80375e-05 1.80536e-05 1.80689e-05 1.80836e-05 1.80982e-05 1.81128e-05 1.81278e-05 1.81434e-05 1.81598e-05
          1.81768e-05 1.81946e-05 1.82129e-05 1.82317e-05 1.82506e-05 1.82696e-05 1.82895e-05 1.8314e-05 1.83539e-05 1.84315e-05 1.85693e-05 1.79195e-05
          1.80184e-05 1.80636e-05 1.81008e-05 1.81317e-05 1.81579e-05 1.81803e-05 1.82e-05 1.82175e-05 1.82333e-05 1.82475e-05 1.82604e-05 1.8272e-05
          1.82825e-05 1.82922e-05 1.83011e-05 1.83095e-05 1.83175e-05 1.83254e-05 1.83333e-05 1.83416e-05 1.83502e-05 1.83592e-05 1.83686e-05 1.83783e-05
          1.83882e-05 1.83982e-05 1.8409e-05 1.84249e-05 1.8462e-05 1.85693e-05 1.7969e-05 1.85693e-05 1.85693e-05 1.85693e-05 1.85693e-05 1.85693e-05
          1.85693e-05 1.85693e-05 1.85693e-05 1.85693e-05 1.85693e-05 1.85693e-05 1.85693e-05 1.85693e-05 1.85693e-05 1.85693e-05 1.85693e-05 1.85693e-05
          1.85693e-05 1.85693e-05 1.85693e-05 1.85693e-05 1.85693e-05 1.85693e-05 1.85693e-05 1.85693e-05 1.85693e-05 1.85693e-05 1.85693e-05 1.85693e-05
          1.85693e-05
        </DataArray>
        <DataArray type="Float32" Name="v" NumberOfComponents="3" format="ascii">
          0.00243705 0.00020804 0 0.0013489 -1.44983e-05 0 0.01 0 0 0.00646886 0.000533651 0
          0.000343546 5.51341e-06 0 0.0026439 0.000200668 0 0.000366656 -5.8073e-06 0 0.00211957 6.78171e-06 0
          0.000243273 -8.58497e-06 0 0.00148762 3.2852e-05 0 0.000215007 -1.12666e-05 0 0.00129156 -2.81038e-06 0
          0.000180904 -1.32316e-05 0 0.0010844 -3.93313e-06 0 0.000165984 -1.46035e-05 0 0.000993338 -1.25254e-05 0
          0.000151878 -1.59173e-05 0 0.000906455 -1.50808e-05 0 0.000144742 -1.69198e-05 0 0.000862648 -1.85542e-05 0
          0.000138202 -1.77454e-05 0 0.000822603 -2.02028e-05 0 0.000134925 -1.85999e-05 0 0.000802068 -2.21284e-05 0
          0.000131858 -1.92319e-05 0 0.000783357 -2.32392e-05 0 0.000130587 -1.98183e-05 0 0.000775142 -2.43578e-05 0
          0.000129305 -2.02793e-05 0 0.000767451 -2.51473e-05 0 0.000129287 -2.0693e-05 0 0.000767016 -2.58838e-05 0
          0.000129163 -2.10626e-05 0 0.00076653 -2.66042e-05 0 0.000130359 -2.12822e-05 0 0.000773593 -2.71232e-05 0
          0.000131438 -2.14547e-05 0 0.000780638 -2.78754e-05 0 0.000134525 -2.16182e-05 0 0.000799253 -2.84645e-05 0
          0.000137526 -2.16127e-05 0 0.000818147 -2.9621e-05 0 0.000144285 -2.14895e-05 0 0.000859081 -3.02132e-05 0
          0.000150951 -2.12628e-05 0 0.000900308 -3.26485e-05 0 0.000165692 -2.06637e-05 0 0.000989766 -3.29908e-05 0
          0.00017961 -1.93294e-05 0 0.00107573 -3.95397e-05 0 0.000215554 -1.75372e-05 0 0.00128949 -3.5223e-05 0
          0.000240279 -1.03819e-05 0 0.00147224 -6.68229e-05 0 0.000372332 -1.79652e-05 0 0.00212083 -2.02358e-05 0
          0.000322684 8.56742e-05 0 0.00259211 -0.000218861 0 0.00138598 -0.000409238 0 0.00639639 -0.00040048 0
          0.00258902 0.00324328 0 0.01 0 0 0.01 0 0 0.00803418 0.00218068 0
          0.00494245 0.000966519 0 0.00360923 0.000186004 0 0.00279902 0.000209363 0 0.00237088 6.7327e-05 0
          0.00205556 5.57348e-05 0 0.00186995 1.7458e-05 0 0.00172742 7.4881e-06 0 0.00163988 -7.06505e-06 0
          0.00157192 -1.2942e-05 0 0.00153078 -1.97919e-05 0 0.00149888 -2.32965e-05 0 0.00148169 -2.69009e-05 0
          0.00146915 -2.92969e-05 0 0.0014667 -3.1582e-05 0 0.00146744 -3.39588e-05 0 0.00147856 -3.59748e-05 0
          0.00149387 -3.93963e-05 0 0.00152493 -4.21766e-05 0 0.00156387 -4.85994e-05 0 0.00163201 -5.30115e-05 0
          0.0017164 -6.71642e-05 0 0.00186087 -7.38827e-05 0 0.00204078 -0.000111566 0 0.00236147 -0.000114617 0
          0.00277516 -0.000256256 0 0.00359554 -0.000201741 0 0.00487008 -0.00098868 0 0.00793902 -0.00194922 0
          0.01 0 0 0.01 0 0 0.00924809 0.00244031 0 0.00719269 0.00150907 0
          0.00534083 0.00055327 0 0.00423693 0.000385416 0 0.00359971 0.000193458 0 0.00313545 0.000132647 0
          0.00285594 6.90567e-05 0 0.00264032 4.09779e-05 0 0.00250688 1.39622e-05 0 0.00240287 -2.01938e-07 0
          0.0023392 -1.33076e-05 0 0.00229 -2.106e-05 0 0.00226301 -2.81011e-05 0 0.00224365 -3.31319e-05 0
          0.00223953 -3.77882e-05 0 0.00224088 -4.25974e-05 0 0.00225787 -4.71965e-05 0 0.00228184 -5.41695e-05 0
          0.00232942 -6.1097e-05 0 0.00238956 -7.39816e-05 0 0.00249316 -8.6385e-05 0 0.00262187 -0.000113226 0
          0.00283869 -0.000137235 0 0.00311007 -0.000200766 0 0.00357791 -0.000250736 0 0.00419669 -0.000442555 0
          0.0053002 -0.000571809 0 0.00709029 -0.00150846 0 0.00912563 -0.00219399 0 0.01 0 0
          0.01 0 0 0.00971532 0.00337634 0 0.00840717 0.0023707 0 0.00674997 0.00112468 0
          0.00556756 0.000740463 0 0.00478918 0.000406661 0 0.00424084 0.000284012 0 0.00387505 0.000163264 0
          0.00360861 0.000108591 0 0.0034294 5.61988e-05 0 0.00329759 2.86382e-05 0 0.00321066 3.15157e-06 0
          0.0031477 -1.18688e-05 0 0.00310986 -2.55094e-05 0 0.00308552 -3.52855e-05 0 0.00307842 -4.43658e-05 0
          0.00308164 -5.37708e-05 0 0.00310241 -6.29464e-05 0 0.00313628 -7.6786e-05 0 0.00319624 -9.06818e-05 0
          0.00327899 -0.000116295 0 0.00340862 -0.00014134 0 0.00358259 -0.000194117 0 0.00384761 -0.000242959 0
          0.00420513 -0.000364218 0 0.00475198 -0.000471243 0 0.00551271 -0.000803242 0 0.00668509 -0.00113083 0
          0.00830573 -0.00232248 0 0.00961081 -0.00307339 0 0.01 0 0 0.01 0 0
          0.0101979 0.00310949 0 0.00963481 0.00276888 0 0.00817541 0.00166978 0 0.006975 0.00109299 0
          0.0060847 0.000672417 0 0.00544044 0.000458341 0 0.00499606 0.000288923 0 0.00466713 0.000193079 0
          0.00444344 0.000114776 0 0.00427661 6.70802e-05 0 0.00416605 2.76487e-05 0 0.00408505 1.88e-06 0
          0.00403631 -1.98167e-05 0 0.00400454 -3.62451e-05 0 0.00399527 -5.12228e-05 0 0.00399912 -6.65645e-05 0
          0.00402586 -8.23569e-05 0 0.00406897 -0.00010433 0 0.00414559 -0.000128773 0 0.00425008 -0.000168319 0
          0.00441318 -0.000213042 0 0.00462937 -0.000291261 0 0.00495452 -0.000379826 0 0.00538752 -0.000547952 0
          0.00602581 -0.000742069 0 0.00689557 -0.00115199 0 0.00808287 -0.00165541 0 0.00952062 -0.00267936 0
          0.01009 -0.00285357 0 0.01 0 0 0.01 0 0 0.0102352 0.00350915 0
          0.0100582 0.00336161 0 0.00909632 0.00233388 0 0.00809308 0.00160693 0 0.00723814 0.00103746 0
          0.00658682 0.000722497 0 0.006104 0.000470784 0 0.00574745 0.000324405 0 0.00549149 0.000203713 0
          0.00530425 0.000129434 0 0.00517401 6.75301e-05 0 0.00508147 2.68956e-05 0 0.00502254 -7.67e-06 0
          0.0049863 -3.38805e-05 0 0.00497368 -5.78988e-05 0 0.00497928 -8.24812e-05 0 0.00500868 -0.000107821 0
          0.00506062 -0.0001428 0 0.00514668 -0.0001816 0 0.00526971 -0.000243694 0 0.00545051 -0.000313695 0
          0.005698 -0.00043379 0 0.00604693 -0.000569597 0 0.00651809 -0.000817034 0 0.0071585 -0.00110265 0
          0.00799897 -0.00164848 0 0.00899208 -0.00228197 0 0.00995897 -0.00323255 0 0.0101551 -0.00325552 0
          0.01 0 0 0.01 0 0 0.0104123 0.00295598 0 0.0106164 0.0033932 0
          0.00999864 0.00273121 0 0.00921285 0.00201294 0 0.00842279 0.00140178 0 0.00778215 0.00099155 0
          0.00727864 0.000678434 0 0.00689589 0.000471749 0 0.00661432 0.000311659 0 0.00640443 0.000203662 0
          0.00625677 0.000118431 0 0.00615018 5.86048e-05 0 0.00608208 9.5833e-06 0 0.00603935 -2.90058e-05 0
          0.00602443 -6.40474e-05 0 0.00603007 -9.95679e-05 0 0.00606378 -0.000137255 0 0.00612252 -0.000186404 0
          0.0062204 -0.00024409 0 0.00635821 -0.000328724 0 0.00655911 -0.000431376 0 0.00682924 -0.000588449 0
          0.00720109 -0.000781299 0 0.00769029 -0.00108312 0 0.00831757 -0.00145575 0 0.00909583 -0.00202938 0
          0.00987344 -0.00265822 0 0.0105086 -0.00326245 0 0.0103319 -0.00277783 0 0.01 0 0
          0.01 0 0 0.0103088 0.00305084 0 0.0106206 0.00361888 0 0.0104084 0.00317813 0
          0.00992864 0.00249358 0 0.00934272 0.00182874 0 0.00881058 0.00133639 0 0.00835709 0.000940905 0
          0.00799863 0.000669784 0 0.00772121 0.000454922 0 0.00751266 0.000307504 0 0.00735988 0.000189495 0
          0.00725054 0.000105799 0 0.00717749 3.65521e-05 0 0.00713305 -1.84419e-05 0 0.00711526 -6.84946e-05 0
          0.00712152 -0.000119228 0 0.00715444 -0.000172789 0 0.00721617 -0.000242017 0 0.00731398 -0.000322479 0
          0.00745531 -0.000438951 0 0.00765169 -0.000578407 0 0.00791685 -0.000787124 0 0.00826148 -0.00103827 0
          0.00870284 -0.0014146 0 0.0092216 -0.00185971 0 0.00980413 -0.00248047 0 0.0102816 -0.0030831 0
          0.0105285 -0.00348308 0 0.0102508 -0.00288992 0 0.01 0 0 0.01 0 0
          0.0103672 0.0024159 0 0.0108277 0.00331394 0 0.0108642 0.00321812 0 0.0106445 0.00271531 0
          0.0102397 0.00212878 0 0.0098287 0.00161465 0 0.0094408 0.00118556 0 0.0091193 0.000860641 0
          0.00885805 0.000604538 0 0.00865613 0.000416588 0 0.00850421 0.000268859 0 0.00839335 0.000158827 0
          0.00831808 6.92283e-05 0 0.00827124 -3.96615e-06 0 0.00825184 -7.03932e-05 0 0.00825666 -0.000137167 0
          0.00828904 -0.000208759 0 0.00834985 -0.000297343 0 0.00844627 -0.000403274 0 0.00858372 -0.000547076 0
          0.00877079 -0.000724742 0 0.00901753 -0.000969569 0 0.00932353 -0.00127048 0 0.0096989 -0.00167358 0
          0.0100959 -0.00214208 0 0.010499 -0.00268736 0 0.0107195 -0.00313343 0 0.0107259 -0.00320652 0
          0.0103056 -0.00232066 0 0.01 0 0 0.01 0 0 0.0102489 0.00236622 0
          0.0106809 0.00324897 0 0.0109304 0.00332274 0 0.0109593 0.00294538 0 0.0108058 0.00241899 0
          0.010579 0.00190613 0 0.0103266 0.00144623 0 0.0100957 0.00107912 0 0.00989386 0.000777621 0
          0.00973115 0.000549965 0 0.00960247 0.000366739 0 0.00950711 0.000227979 0 0.00943906 0.000113371 0
          0.00939686 1.88158e-05 0 0.00937668 -6.74114e-05 0 0.00937967 -0.000153977 0 0.00940457 -0.000246088 0
          0.00945603 -0.000358751 0 0.00953426 -0.000491436 0 0.00964741 -0.000668377 0 0.00979344 -0.000882338 0
          0.00998167 -0.00116897 0 0.0101967 -0.00150931 0 0.0104393 -0.00194233 0 0.0106533 -0.00241401 0
          0.010811 -0.0029057 0 0.0107901 -0.00324 0 0.0105893 -0.00315032 0 0.0101994 -0.00228023 0
          0.01 0 0 0.01 0 0 0.0102718 0.00175764 0 0.0107425 0.00272926 0
          0.0111091 0.00300217 0 0.0113209 0.00282935 0 0.0113509 0.00245284 0 0.0112885 0.00201475 0
          0.0111604 0.00159113 0 0.011024 0.00122181 0 0.0108872 0.000908888 0 0.0107708 0.00065786 0
          0.0106721 0.000453399 0 0.0105967 0.0002919 0 0.0105399 0.000157965 0 0.0105034 4.5018e-05 0
          0.0104838 -5.84739e-05 0 0.0104831 -0.00016153 0 0.0104994 -0.000271989 0 0.0105367 -0.000402337 0
          0.0105927 -0.000557189 0 0.0106737 -0.000753183 0 0.0107718 -0.000990962 0 0.0108933 -0.00128846 0
          0.0110124 -0.00163632 0 0.0111293 -0.00203728 0 0.0111791 -0.00244718 0 0.0111551 -0.00279736 0
          0.0109551 -0.00294648 0 0.0106388 -0.00266458 0 0.0102135 -0.00171797 0 0.01 0 0
          0.01 0 0 0.0101821 0.00163898 0 0.0105854 0.00247847 0 0.0110146 0.00280065 0
          0.0113551 0.00272843 0 0.0115725 0.00244869 0 0.0116857 0.00207727 0 0.0117198 0.00169007 0
          0.0117105 0.00133437 0 0.0116749 0.0010191 0 0.0116331 0.000757463 0 0.0115888 0.000537312 0
          0.0115515 0.000359069 0 0.0115188 0.000207912 0 0.0114963 7.85158e-05 0 0.01148 -4.11573e-05 0
          0.0114747 -0.000160352 0 0.0114754 -0.000287048 0 0.0114877 -0.000434649 0 0.0115044 -0.0006066 0
          0.0115307 -0.000819623 0 0.0115533 -0.00107088 0 0.0115741 -0.00137496 0 0.0115661 -0.00171559 0
          0.0115233 -0.00208626 0 0.0114007 -0.00243743 0 0.011193 -0.00269626 0 0.0108678 -0.00275212 0
          0.0104848 -0.00242143 0 0.0101267 -0.00159994 0 0.01 0 0 0.01 0 0
          0.0101989 0.00108873 0 0.0106016 0.00185104 0 0.0110571 0.00221947 0 0.0114757 0.00227672 0
          0.0118005 0.00213286 0 0.0120391 0.00187777 0 0.0121906 0.00157887 0 0.0122874 0.00128184 0
          0.0123366 0.00100624 0 0.0123633 0.000766533 0 0.0123691 0.00055946 0 0.012369 0.000385952 0
          0.0123601 0.000235865 0 0.0123518 0.00010466 0 0.0123391 -1.84407e-05 0 0.0123288 -0.000140714 0
          0.012314 -0.000271408 0 0.0123007 -0.000419439 0 0.0122785 -0.00059139 0 0.0122523 -0.000795257 0
          0.0122047 -0.00103235 0 0.0121386 -0.00130252 0 0.0120245 -0.00159425 0 0.011864 -0.00188272 0
          0.0116178 -0.00212869 0 0.0113019 -0.00225823 0 0.0108982 -0.00219642 0 0.0104853 -0.00182301 0
          0.0101305 -0.00108072 0 0.01 0 0 0.01 0 0 0.0101398 0.000927947 0
          0.0104744 0.00149814 0 0.0109092 0.0018113 0 0.0113485 0.0018962 0 0.0117485 0.00181917 0
          0.0120817 0.00164061 0 0.0123444 0.00141059 0 0.0125438 0.00116977 0 0.0126874 0.000936611 0
          0.0127903 0.000728268 0 0.0128574 0.000543553 0 0.0129021 0.000385885 0 0.0129244 0.000246917 0
          0.0129342 0.000123482 0 0.0129273 6.45945e-06 0 0.0129115 -0.000110779 0 0.0128787 -0.000235561 0
          0.0128345 -0.000375973 0 0.0127674 -0.000536192 0 0.0126804 -0.000722617 0 0.0125575 -0.00093341 0
          0.0123987 -0.00116609 0 0.0121846 -0.00140692 0 0.0119153 -0.00163149 0 0.0115769 -0.00180723 0
          0.0111845 -0.0018749 0 0.010758 -0.00179039 0 0.0103578 -0.00147212 0 0.0100699 -0.000916458 0
          0.01 0 0 0.01 0 0 0.0101569 0.000446031 0 0.0104695 0.000852863 0
          0.0108693 0.00110794 0 0.0112932 0.00122824 0 0.0116952 0.00122586 0 0.0120572 0.00114677 0
          0.012359 0.00101323 0 0.0126083 0.000862243 0 0.0127987 0.000704458 0 0.0129467 0.000559275 0
          0.0130496 0.000425578 0 0.0131236 0.000310077 0 0.0131651 0.000205851 0 0.0131873 0.000112949 0
          0.0131838 2.31868e-05 0 0.0131643 -6.63682e-05 0 0.0131192 -0.000162875 0 0.0130555 -0.000269573 0
          0.0129598 -0.0003912 0 0.012837 -0.00052835 0 0.0126702 -0.000680553 0 0.0124644 -0.000840622 0
          0.0122017 -0.000998219 0 0.0118916 -0.00113154 0 0.011524 -0.00121697 0 0.0111244 -0.00121687 0
          0.0107092 -0.00110438 0 0.0103369 -0.000847106 0 0.0100713 -0.000452535 0 0.01 0 0
          0.01 0 0 0.0101109 0.000280729 0 0.0103396 0.000510036 0 0.0106554 0.000659696 0
          0.0110057 0.000746132 0 0.0113627 0.000755552 0 0.0116995 0.000719924 0 0.0119984 0.000645681 0
          0.0122551 0.000558426 0 0.0124622 0.00046289 0 0.0126279 0.00037342 0 0.0127492 0.000289213 0
          0.0128385 0.000215844 0 0.0128922 0.000149102 0 0.0129223 8.94262e-05 0 0.0129228 3.17304e-05 0
          0.0129031 -2.59346e-05 0 0.0128541 -8.79439e-05 0 0.0127822 -0.000156601 0 0.0126756 -0.00023424 0
          0.0125385 -0.00032135 0 0.0123581 -0.000416608 0 0.0121385 -0.000515174 0 0.0118711 -0.00060986 0
          0.0115645 -0.00068666 0 0.0112223 -0.00073204 0 0.0108646 -0.000723712 0 0.010518 -0.000650074 0
          0.0102193 -0.000497931 0 0.0100289 -0.000285855 0 0.01 0 0 0.01 0 0
          0.0101384 -5.50666e-05 0 0.0102793 3.1601e-05 0 0.0104526 8.63563e-05 0 0.0106736 0.000143088 0
          0.0108927 0.000161326 0 0.0111173 0.000174336 0 0.011313 0.000163805 0 0.0114921 0.000152761 0
          0.0116336 0.000131042 0 0.0117538 0.000112844 0 0.0118391 9.11249e-05 0 0.0119063 7.39422e-05 0
          0.0119446 5.57497e-05 0 0.0119692 4.08817e-05 0 0.0119691 2.48517e-05 0 0.0119568 1.00106e-05 0
          0.0119203 -7.07977e-06 0 0.0118699 -2.50921e-05 0 0.0117916 -4.5764e-05 0 0.0116947 -6.81882e-05 0
          0.0115648 -9.15855e-05 0 0.0114122 -0.000114865 0 0.0112252 -0.000133417 0 0.0110189 -0.000146167 0
          0.0107891 -0.000143636 0 0.0105598 -0.000127525 0 0.0103379 -8.486e-05 0 0.0101559 -3.00864e-05 0
          0.0100285 3.88833e-05 0 0.01 0 0 0.01 0 0 0.01 0 0
          0.01 0 0 0.01 0 0 0.01 0 0 0.01 0 0
          0.01 0 0 0.01 0 0 0.01 0 0 0.01 0 0
          0.01 0 0 0.01 0 0 0.01 0 0 0.01 0 0
          0.01 0 0 0.01 0 0 0.01 0 0 0.01 0 0
          0.01 0 0 0.01 0 0 0.01 0 0 0.01 0 0
          0.01 0 0 0.01 0 0 0.01 0 0 0.01 0 0
          0.01 0 0 0.01 0 0 0.01 0 0 0.01 0 0
          0.01 0 0
        </DataArray>
      </PointData>
      <Points>
        <DataArray type="Float32" Name="Coordinates" NumberOfComponents="3" format="ascii">
          0 0.035 0 0.000333333 0.035 0 0 0.035081 0 0.000333333 0.035081 0
          0.000666667 0.035 0 0.000666667 0.035081 0 0.001 0.035 0 0.001 0.035081 0
          0.00133333 0.035 0 0.00133333 0.035081 0 0.00166667 0.035 0 0.00166667 0.035081 0
          0.002 0.035 0 0.002 0.035081 0 0.00233333 0.035 0 0.00233333 0.035081 0
          0.00266667 0.035 0 0.00266667 0.035081 0 0.003 0.035 0 0.003 0.035081 0
          0.00333333 0.035 0 0.00333333 0.035081 0 0.00366667 0.035 0 0.00366667 0.035081 0
          0.004 0.035 0 0.004 0.035081 0 0.00433333 0.035 0 0.00433333 0.035081 0
          0.00466667 0.035 0 0.00466667 0.035081 0 0.005 0.035 0 0.005 0.035081 0
          0.00533333 0.035 0 0.00533333 0.035081 0 0.00566667 0.035 0 0.00566667 0.035081 0
          0.006 0.035 0 0.006 0.035081 0 0.00633333 0.035 0 0.00633333 0.035081 0
          0.00666667 0.035 0 0.00666667 0.035081 0 0.007 0.035 0 0.007 0.035081 0
          0.00733333 0.035 0 0.00733333 0.035081 0 0.00766667 0.035 0 0.00766667 0.035081 0
          0.008 0.035 0 0.008 0.035081 0 0.00833333 0.035 0 0.00833333 0.035081 0
          0.00866667 0.035 0 0.00866667 0.035081 0 0.009 0.035 0 0.009 0.035081 0
          0.00933333 0.035 0 0.00933333 0.035081 0 0.00966667 0.035 0 0.00966667 0.035081 0
          0.01 0.035 0 0.01 0.035081 0 0 0.0351725 0 0.000333333 0.0351725 0
          0.000666667 0.0351725 0 0.001 0.0351725 0 0.00133333 0.0351725 0 0.00166667 0.0351725 0
          0.002 0.0351725 0 0.00233333 0.0351725 0 0.00266667 0.0351725 0 0.003 0.0351725 0
          0.00333333 0.0351725 0 0.00366667 0.0351725 0 0.004 0.0351725 0 0.00433333 0.0351725 0
          0.00466667 0.0351725 0 0.005 0.0351725 0 0.00533333 0.0351725 0 0.00566667 0.0351725 0
          0.006 0.0351725 0 0.00633333 0.0351725 0 0.00666667 0.0351725 0 0.007 0.0351725 0
          0.00733333 0.0351725 0 0.00766667 0.0351725 0 0.008 0.0351725 0 0.00833333 0.0351725 0
          0.00866667 0.0351725 0 0.009 0.0351725 0 0.00933333 0.0351725 0 0.00966667 0.0351725 0
          0.01 0.0351725 0 0 0.035276 0 0.000333333 0.035276 0 0.000666667 0.035276 0
          0.001 0.035276 0 0.00133333 0.035276 0 0.00166667 0.035276 0 0.002 0.035276 0
          0.00233333 0.035276 0 0.00266667 0.035276 0 0.003 0.035276 0 0.00333333 0.035276 0
          0.00366667 0.035276 0 0.004 0.035276 0 0.00433333 0.035276 0 0.00466667 0.035276 0
          0.005 0.035276 0 0.00533333 0.035276 0 0.00566667 0.035276 0 0.006 0.035276 0
          0.00633333 0.035276 0 0.00666667 0.035276 0 0.007 0.035276 0 0.00733333 0.035276 0
          0.00766667 0.035276 0 0.008 0.035276 0 0.00833333 0.035276 0 0.00866667 0.035276 0
          0.009 0.035276 0 0.00933333 0.035276 0 0.00966667 0.035276 0 0.01 0.035276 0
          0 0.0353929 0 0.000333333 0.0353929 0 0.000666667 0.0353929 0 0.001 0.0353929 0
          0.00133333 0.0353929 0 0.00166667 0.0353929 0 0.002 0.0353929 0 0.00233333 0.0353929 0
          0.00266667 0.0353929 0 0.003 0.0353929 0 0.00333333 0.0353929 0 0.00366667 0.0353929 0
          0.004 0.0353929 0 0.00433333 0.0353929 0 0.00466667 0.0353929 0 0.005 0.0353929 0
          0.00533333 0.0353929 0 0.00566667 0.0353929 0 0.006 0.0353929 0 0.00633333 0.0353929 0
          0.00666667 0.0353929 0 0.007 0.0353929 0 0.00733333 0.0353929 0 0.00766667 0.0353929 0
          0.008 0.0353929 0 0.00833333 0.0353929 0 0.00866667 0.0353929 0 0.009 0.0353929 0
          0.00933333 0.0353929 0 0.00966667 0.0353929 0 0.01 0.0353929 0 0 0.0355249 0
          0.000333333 0.0355249 0 0.000666667 0.0355249 0 0.001 0.0355249 0 0.00133333 0.0355249 0
          0.00166667 0.0355249 0 0.002 0.0355249 0 0.00233333 0.0355249 0 0.00266667 0.0355249 0
          0.003 0.0355249 0 0.00333333 0.0355249 0 0.00366667 0.0355249 0 0.004 0.0355249 0
          0.00433333 0.0355249 0 0.00466667 0.0355249 0 0.005 0.0355249 0 0.00533333 0.0355249 0
          0.00566667 0.0355249 0 0.006 0.0355249 0 0.00633333 0.0355249 0 0.00666667 0.0355249 0
          0.007 0.0355249 0 0.00733333 0.0355249 0 0.00766667 0.0355249 0 0.008 0.0355249 0
          0.00833333 0.0355249 0 0.00866667 0.0355249 0 0.009 0.0355249 0 0.00933333 0.0355249 0
          0.00966667 0.0355249 0 0.01 0.0355249 0 0 0.0356742 0 0.000333333 0.0356742 0
          0.000666667 0.0356742 0 0.001 0.0356742 0 0.00133333 0.0356742 0 0.00166667 0.0356742 0
          0.002 0.0356742 0 0.00233333 0.0356742 0 0.00266667 0.0356742 0 0.003 0.0356742 0
          0.00333333 0.0356742 0 0.00366667 0.0356742 0 0.004 0.0356742 0 0.00433333 0.0356742 0
          0.00466667 0.0356742 0 0.005 0.0356742 0 0.00533333 0.0356742 0 0.00566667 0.0356742 0
          0.006 0.0356742 0 0.00633333 0.0356742 0 0.00666667 0.0356742 0 0.007 0.0356742 0
          0.00733333 0.0356742 0 0.00766667 0.0356742 0 0.008 0.0356742 0 0.00833333 0.0356742 0
          0.00866667 0.0356742 0 0.009 0.0356742 0 0.00933333 0.0356742 0 0.00966667 0.0356742 0
          0.01 0.0356742 0 0 0.0358428 0 0.000333333 0.0358428 0 0.000666667 0.0358428 0
          0.001 0.0358428 0 0.00133333 0.0358428 0 0.00166667 0.0358428 0 0.002 0.0358428 0
          0.00233333 0.0358428 0 0.00266667 0.0358428 0 0.003 0.0358428 0 0.00333333 0.0358428 0
          0.00366667 0.0358428 0 0.004 0.0358428 0 0.00433333 0.0358428 0 0.00466667 0.0358428 0
          0.005 0.0358428 0 0.00533333 0.0358428 0 0.00566667 0.0358428 0 0.006 0.0358428 0
          0.00633333 0.0358428 0 0.00666667 0.0358428 0 0.007 0.0358428 0 0.00733333 0.0358428 0
          0.00766667 0.0358428 0 0.008 0.0358428 0 0.00833333 0.0358428 0 0.00866667 0.0358428 0
          0.009 0.0358428 0 0.00933333 0.0358428 0 0.00966667 0.0358428 0 0.01 0.0358428 0
          0 0.0360334 0 0.000333333 0.0360334 0 0.000666667 0.0360334 0 0.001 0.0360334 0
          0.00133333 0.0360334 0 0.00166667 0.0360334 0 0.002 0.0360334 0 0.00233333 0.0360334 0
          0.00266667 0.0360334 0 0.003 0.0360334 0 0.00333333 0.0360334 0 0.00366667 0.0360334 0
          0.004 0.0360334 0 0.00433333 0.0360334 0 0.00466667 0.0360334 0 0.005 0.0360334 0
          0.00533333 0.0360334 0 0.00566667 0.0360334 0 0.006 0.0360334 0 0.00633333 0.0360334 0
          0.00666667 0.0360334 0 0.007 0.0360334 0 0.00733333 0.0360334 0 0.00766667 0.0360334 0
          0.008 0.0360334 0 0.00833333 0.0360334 0 0.00866667 0.0360334 0 0.009 0.0360334 0
          0.00933333 0.0360334 0 0.00966667 0.0360334 0 0.01 0.0360334 0 0 0.0362487 0
          0.000333333 0.0362487 0 0.000666667 0.0362487 0 0.001 0.0362487 0 0.00133333 0.0362487 0
          0.00166667 0.0362487 0 0.002 0.0362487 0 0.00233333 0.0362487 0 0.00266667 0.0362487 0
          0.003 0.0362487 0 0.00333333 0.0362487 0 0.00366667 0.0362487 0 0.004 0.0362487 0
          0.00433333 0.0362487 0 0.00466667 0.0362487 0 0.005 0.0362487 0 0.00533333 0.0362487 0
          0.00566667 0.0362487 0 0.006 0.0362487 0 0.00633333 0.0362487 0 0.00666667 0.0362487 0
          0.007 0.0362487 0 0.00733333 0.0362487 0 0.00766667 0.0362487 0 0.008 0.0362487 0
          0.00833333 0.0362487 0 0.00866667 0.0362487 0 0.009 0.0362487 0 0.00933333 0.0362487 0
          0.00966667 0.0362487 0 0.01 0.0362487 0 0 0.0364921 0 0.000333333 0.0364921 0
          0.000666667 0.0364921 0 0.001 0.0364921 0 0.00133333 0.0364921 0 0.00166667 0.0364921 0
          0.002 0.0364921 0 0.00233333 0.0364921 0 0.00266667 0.0364921 0 0.003 0.0364921 0
          0.00333333 0.0364921 0 0.00366667 0.0364921 0 0.004 0.0364921 0 0.00433333 0.0364921 0
          0.00466667 0.0364921 0 0.005 0.0364921 0 0.00533333 0.0364921 0 0.00566667 0.0364921 0
          0.006 0.0364921 0 0.00633333 0.0364921 0 0.00666667 0.0364921 0 0.007 0.0364921 0
          0.00733333 0.0364921 0 0.00766667 0.0364921 0 0.008 0.0364921 0 0.00833333 0.0364921 0
          0.00866667 0.0364921 0 0.009 0.0364921 0 0.00933333 0.0364921 0 0.00966667 0.0364921 0
          0.01 0.0364921 0 0 0.0367671 0 0.000333333 0.0367671 0 0.000666667 0.0367671 0
          0.001 0.0367671 0 0.00133333 0.0367671 0 0.00166667 0.0367671 0 0.002 0.0367671 0
          0.00233333 0.0367671 0 0.00266667 0.0367671 0 0.003 0.0367671 0 0.00333333 0.0367671 0
          0.00366667 0.0367671 0 0.004 0.0367671 0 0.00433333 0.0367671 0 0.00466667 0.0367671 0
          0.005 0.0367671 0 0.00533333 0.0367671 0 0.00566667 0.0367671 0 0.006 0.0367671 0
          0.00633333 0.0367671 0 0.00666667 0.0367671 0 0.007 0.0367671 0 0.00733333 0.0367671 0
          0.00766667 0.0367671 0 0.008 0.0367671 0 0.00833333 0.0367671 0 0.00866667 0.0367671 0
          0.009 0.0367671 0 0.00933333 0.0367671 0 0.00966667 0.0367671 0 0.01 0.0367671 0
          0 0.0370778 0 0.000333333 0.0370778 0 0.000666667 0.0370778 0 0.001 0.0370778 0
          0.00133333 0.0370778 0 0.00166667 0.0370778 0 0.002 0.0370778 0 0.00233333 0.0370778 0
          0.00266667 0.0370778 0 0.003 0.0370778 0 0.00333333 0.0370778 0 0.00366667 0.0370778 0
          0.004 0.0370778 0 0.00433333 0.0370778 0 0.00466667 0.0370778 0 0.005 0.0370778 0
          0.00533333 0.0370778 0 0.00566667 0.0370778 0 0.006 0.0370778 0 0.00633333 0.0370778 0
          0.00666667 0.0370778 0 0.007 0.0370778 0 0.00733333 0.0370778 0 0.00766667 0.0370778 0
          0.008 0.0370778 0 0.00833333 0.0370778 0 0.00866667 0.0370778 0 0.009 0.0370778 0
          0.00933333 0.0370778 0 0.00966667 0.0370778 0 0.01 0.0370778 0 0 0.0374289 0
          0.000333333 0.0374289 0 0.000666667 0.0374289 0 0.001 0.0374289 0 0.00133333 0.0374289 0
          0.00166667 0.0374289 0 0.002 0.0374289 0 0.00233333 0.0374289 0 0.00266667 0.0374289 0
          0.003 0.0374289 0 0.00333333 0.0374289 0 0.00366667 0.0374289 0 0.004 0.0374289 0
          0.00433333 0.0374289 0 0.00466667 0.0374289 0 0.005 0.0374289 0 0.00533333 0.0374289 0
          0.00566667 0.0374289 0 0.006 0.0374289 0 0.00633333 0.0374289 0 0.00666667 0.0374289 0
          0.007 0.0374289 0 0.00733333 0.0374289 0 0.00766667 0.0374289 0 0.008 0.0374289 0
          0.00833333 0.0374289 0 0.00866667 0.0374289 0 0.009 0.0374289 0 0.00933333 0.0374289 0
          0.00966667 0.0374289 0 0.01 0.0374289 0 0 0.0378256 0 0.000333333 0.0378256 0
          0.000666667 0.0378256 0 0.001 0.0378256 0 0.00133333 0.0378256 0 0.00166667 0.0378256 0
          0.002 0.0378256 0 0.00233333 0.0378256 0 0.00266667 0.0378256 0 0.003 0.0378256 0
          0.00333333 0.0378256 0 0.00366667 0.0378256 0 0.004 0.0378256 0 0.00433333 0.0378256 0
          0.00466667 0.0378256 0 0.005 0.0378256 0 0.00533333 0.0378256 0 0.00566667 0.0378256 0
          0.006 0.0378256 0 0.00633333 0.0378256 0 0.00666667 0.0378256 0 0.007 0.0378256 0
          0.00733333 0.0378256 0 0.00766667 0.0378256 0 0.008 0.0378256 0 0.00833333 0.0378256 0
          0.00866667 0.0378256 0 0.009 0.0378256 0 0.00933333 0.0378256 0 0.00966667 0.0378256 0
          0.01 0.0378256 0 0 0.038274 0 0.000333333 0.038274 0 0.000666667 0.038274 0
          0.001 0.038274 0 0.00133333 0.038274 0 0.00166667 0.038274 0 0.002 0.038274 0
          0.00233333 0.038274 0 0.00266667 0.038274 0 0.003 0.038274 0 0.00333333 0.038274 0
          0.00366667 0.038274 0 0.004 0.038274 0 0.00433333 0.038274 0 0.00466667 0.038274 0
          0.005 0.038274 0 0.00533333 0.038274 0 0.00566667 0.038274 0 0.006 0.038274 0
          0.00633333 0.038274 0 0.00666667 0.038274 0 0.007 0.038274 0 0.00733333 0.038274 0
          0.00766667 0.038274 0 0.008 0.038274 0 0.00833333 0.038274 0 0.00866667 0.038274 0
          0.009 0.038274 0 0.00933333 0.038274 0 0.00966667 0.038274 0 0.01 0.038274 0
          0 0.0387806 0 0.000333333 0.0387806 0 0.000666667 0.0387806 0 0.001 0.0387806 0
          0.00133333 0.0387806 0 0.00166667 0.0387806 0 0.002 0.0387806 0 0.00233333 0.0387806 0
          0.00266667 0.0387806 0 0.003 0.0387806 0 0.00333333 0.0387806 0 0.00366667 0.0387806 0
          0.004 0.0387806 0 0.00433333 0.0387806 0 0.00466667 0.0387806 0 0.005 0.0387806 0
          0.00533333 0.0387806 0 0.00566667 0.0387806 0 0.006 0.0387806 0 0.00633333 0.0387806 0
          0.00666667 0.0387806 0 0.007 0.0387806 0 0.00733333 0.0387806 0 0.00766667 0.0387806 0
          0.008 0.0387806 0 0.00833333 0.0387806 0 0.00866667 0.0387806 0 0.009 0.0387806 0
          0.00933333 0.0387806 0 0.00966667 0.0387806 0 0.01 0.0387806 0 0 0.0393531 0
          0.000333333 0.0393531 0 0.000666667 0.0393531 0 0.001 0.0393531 0 0.00133333 0.0393531 0
          0.00166667 0.0393531 0 0.002 0.0393531 0 0.00233333 0.0393531 0 0.00266667 0.0393531 0
          0.003 0.0393531 0 0.00333333 0.0393531 0 0.00366667 0.0393531 0 0.004 0.0393531 0
          0.00433333 0.0393531 0 0.00466667 0.0393531 0 0.005 0.0393531 0 0.00533333 0.0393531 0
          0.00566667 0.0393531 0 0.006 0.0393531 0 0.00633333 0.0393531 0 0.00666667 0.0393531 0
          0.007 0.0393531 0 0.00733333 0.0393531 0 0.00766667 0.0393531 0 0.008 0.0393531 0
          0.00833333 0.0393531 0 0.00866667 0.0393531 0 0.009 0.0393531 0 0.00933333 0.0393531 0
          0.00966667 0.0393531 0 0.01 0.0393531 0 0 0.04 0 0.000333333 0.04 0
          0.000666667 0.04 0 0.001 0.04 0 0.00133333 0.04 0 0.00166667 0.04 0
          0.002 0.04 0 0.00233333 0.04 0 0.00266667 0.04 0 0.003 0.04 0
          0.00333333 0.04 0 0.00366667 0.04 0 0.004 0.04 0 0.00433333 0.04 0
          0.00466667 0.04 0 0.005 0.04 0 0.00533333 0.04 0 0.00566667 0.04 0
          0.006 0.04 0 0.00633333 0.04 0 0.00666667 0.04 0 0.007 0.04 0
          0.00733333 0.04 0 0.00766667 0.04 0 0.008 0.04 0 0.00833333 0.04 0
          0.00866667 0.04 0 0.009 0.04 0 0.00933333 0.04 0 0.00966667 0.04 0
          0.01 0.04 0
        </DataArray>
      </Points>
      <Cells>
        <DataArray type="Int32" Name="connectivity" NumberOfComponents="1" format="ascii">
          0 1 3 2 1 4 5 3 4 6 7 5
          6 8 9 7 8 10 11 9 10 12 13 11
          12 14 15 13 14 16 17 15 16 18 19 17
          18 20 21 19 20 22 23 21 22 24 25 23
          24 26 27 25 26 28 29 27 28 30 31 29
          30 32 33 31 32 34 35 33 34 36 37 35
          36 38 39 37 38 40 41 39 40 42 43 41
          42 44 45 43 44 46 47 45 46 48 49 47
          48 50 51 49 50 52 53 51 52 54 55 53
          54 56 57 55 56 58 59 57 58 60 61 59
          2 3 63 62 3 5 64 63 5 7 65 64
          7 9 66 65 9 11 67 66 11 13 68 67
          13 15 69 68 15 17 70 69 17 19 71 70
          19 21 72 71 21 23 73 72 23 25 74 73
          25 27 75 74 27 29 76 75 29 31 77 76
          31 33 78 77 33 35 79 78 35 37 80 79
          37 39 81 80 39 41 82 81 41 43 83 82
          43 45 84 83 45 47 85 84 47 49 86 85
          49 51 87 86 51 53 88 87 53 55 89 88
          55 57 90 89 57 59 91 90 59 61 92 91
          62 63 94 93 63 64 95 94 64 65 96 95
          65 66 97 96 66 67 98 97 67 68 99 98
          68 69 100 99 69 70 101 100 70 71 102 101
          71 72 103 102 72 73 104 103 73 74 105 104
          74 75 106 105 75 76 107 106 76 77 108 107
          77 78 109 108 78 79 110 109 79 80 111 110
          80 81 112 111 81 82 113 112 82 83 114 113
          83 84 115 114 84 85 116 115 85 86 117 116
          86 87 118 117 87 88 119 118 88 89 120 119
          89 90 121 120 90 91 122 121 91 92 123 122
          93 94 125 124 94 95 126 125 95 96 127 126
          96 97 128 127 97 98 129 128 98 99 130 129
          99 100 131 130 100 101 132 131 101 102 133 132
          102 103 134 133 103 104 135 134 104 105 136 135
          105 106 137 136 106 107 138 137 107 108 139 138
          108 109 140 139 109 110 141 140 110 111 142 141
          111 112 143 142 112 113 144 143 113 114 145 144
          114 115 146 145 115 116 147 146 116 117 148 147
          117 118 149 148 118 119 150 149 119 120 151 150
          120 121 152 151 121 122 153 152 122 123 154 153
          124 125 156 155 125 126 157 156 126 127 158 157
          127 128 159 158 128 129 160 159 129 130 161 160
          130 131 162 161 131 132 163 162 132 133 164 163
          133 134 165 164 134 135 166 165 135 136 167 166
          136 137 168 167 137 138 169 168 138 139 170 169
          139 140 171 170 140 141 172 171 141 142 173 172
          142 143 174 173 143 144 175 174 144 145 176 175
          145 146 177 176 146 147 178 177 147 148 179 178
          148 149 180 179 149 150 181 180 150 151 182 181
          151 152 183 182 152 153 184 183 153 154 185 184
          155 156 187 186 156 157 188 187 157 158 189 188
          158 159 190 189 159 160 191 190 160 161 192 191
          161 162 193 192 162 163 194 193 163 164 195 194
          164 165 196 195 165 166 197 196 166 167 198 197
          167 168 199 198 168 169 200 199 169 170 201 200
          170 171 202 201 171 172 203 202 172 173 204 203
          173 174 205 204 174 175 206 205 175 176 207 206
          176 177 208 207 177 178 209 208 178 179 210 209
          179 180 211 210 180 181 212 211 181 182 213 212
          182 183 214 213 183 184 215 214 184 185 216 215
          186 187 218 217 187 188 219 218 188 189 220 219
          189 190 221 220 190 191 222 221 191 192 223 222
          192 193 224 223 193 194 225 224 194 195 226 225
          195 196 227 226 196 197 228 227 197 198 229 228
          198 199 230 229 199 200 231 230 200 201 232 231
          201 202 233 232 202 203 234 233 203 204 235 234
          204 205 236 235 205 206 237 236 206 207 238 237
          207 208 239 238 208 209 240 239 209 210 241 240
          210 211 242 241 211 212 243 242 212 213 244 243
          213 214 245 244 214 215 246 245 215 216 247 246
          217 218 249 248 218 219 250 249 219 220 251 250
          220 221 252 251 221 222 253 252 222 223 254 253
          223 224 255 254 224 225 256 255 225 226 257 256
          226 227 258 257 227 228 259 258 228 229 260 259
          229 230 261 260 230 231 262 261 231 232 263 262
          232 233 264 263 233 234 265 264 234 235 266 265
          235 236 267 266 236 237 268 267 237 238 269 268
          238 239 270 269 239 240 271 270 240 241 272 271
          241 242 273 272 242 243 274 273 243 244 275 274
          244 245 276 275 245 246 277 276 246 247 278 277
          248 249 280 279 249 250 281 280 250 251 282 281
          251 252 283 282 252 253 284 283 253 254 285 284
          254 255 286 285 255 256 287 286 256 257 288 287
          257 258 289 288 258 259 290 289 259 260 291 290
          260 261 292 291 261 262 293 292 262 263 294 293
          263 264 295 294 264 265 296 295 265 266 297 296
          266 267 298 297 267 268 299 298 268 269 300 299
          269 270 301 300 270 271 302 301 271 272 303 302
          272 273 304 303 273 274 305 304 274 275 306 305
          275 276 307 306 276 277 308 307 277 278 309 308
          279 280 311 310 280 281 312 311 281 282 313 312
          282 283 314 313 283 284 315 314 284 285 316 315
          285 286 317 316 286 287 318 317 287 288 319 318
          288 289 320 319 289 290 321 320 290 291 322 321
          291 292 323 322 292 293 324 323 293 294 325 324
          294 295 326 325 295 296 327 326 296 297 328 327
          297 298 329 328 298 299 330 329 299 300 331 330
          300 301 332 331 301 302 333 332 302 303 334 333
          303 304 335 334 304 305 336 335 305 306 337 336
          306 307 338 337 307 308 339 338 308 309 340 339
          310 311 342 341 311 312 343 342 312 313 344 343
          313 314 345 344 314 315 346 345 315 316 347 346
          316 317 348 347 317 318 349 348 318 319 350 349
          319 320 351 350 320 321 352 351 321 322 353 352
          322 323 354 353 323 324 355 354 324 325 356 355
          325 326 357 356 326 327 358 357 327 328 359 358
          328 329 360 359 329 330 361 360 330 331 362 361
          331 332 363 362 332 333 364 363 333 334 365 364
          334 335 366 365 335 336 367 366 336 337 368 367
          337 338 369 368 338 339 370 369 339 340 371 370
          341 342 373 372 342 343 374 373 343 344 375 374
          344 345 376 375 345 346 377 376 346 347 378 377
          347 348 379 378 348 349 380 379 349 350 381 380
          350 351 382 381 351 352 383 382 352 353 384 383
          353 354 385 384 354 355 386 385 355 356 387 386
          356 357 388 387 357 358 389 388 358 359 390 389
          359 360 391 390 360 361 392 391 361 362 393 392
          362 363 394 393 363 364 395 394 364 365 396 395
          365 366 397 396 366 367 398 397 367 368 399 398
          368 369 400 399 369 370 401 400 370 371 402 401
          372 373 404 403 373 374 405 404 374 375 406 405
          375 376 407 406 376 377 408 407 377 378 409 408
          378 379 410 409 379 380 411 410 380 381 412 411
          381 382 413 412 382 383 414 413 383 384 415 414
          384 385 416 415 385 386 417 416 386 387 418 417
          387 388 419 418 388 389 420 419 389 390 421 420
          390 391 422 421 391 392 423 422 392 393 424 423
          393 394 425 424 394 395 426 425 395 396 427 426
          396 397 428 427 397 398 429 428 398 399 430 429
          399 400 431 430 400 401 432 431 401 402 433 432
          403 404 435 434 404 405 436 435 405 406 437 436
          406 407 438 437 407 408 439 438 408 409 440 439
          409 410 441 440 410 411 442 441 411 412 443 442
          412 413 444 443 413 414 445 444 414 415 446 445
          415 416 447 446 416 417 448 447 417 418 449 448
          418 419 450 449 419 420 451 450 420 421 452 451
          421 422 453 452 422 423 454 453 423 424 455 454
          424 425 456 455 425 426 457 456 426 427 458 457
          427 428 459 458 428 429 460 459 429 430 461 460
          430 431 462 461 431 432 463 462 432 433 464 463
          434 435 466 465 435 436 467 466 436 437 468 467
          437 438 469 468 438 439 470 469 439 440 471 470
          440 441 472 471 441 442 473 472 442 443 474 473
          443 444 475 474 444 445 476 475 445 446 477 476
          446 447 478 477 447 448 479 478 448 449 480 479
          449 450 481 480 450 451 482 481 451 452 483 482
          452 453 484 483 453 454 485 484 454 455 486 485
          455 456 487 486 456 457 488 487 457 458 489 488
          458 459 490 489 459 460 491 490 460 461 492 491
          461 462 493 492 462 463 494 493 463 464 495 494
          465 466 497 496 466 467 498 497 467 468 499 498
          468 469 500 499 469 470 501 500 470 471 502 501
          471 472 503 502 472 473 504 503 473 474 505 504
          474 475 506 505 475 476 507 506 476 477 508 507
          477 478 509 508 478 479 510 509 479 480 511 510
          480 481 512 511 481 482 513 512 482 483 514 513
          483 484 515 514 484 485 516 515 485 486 517 516
          486 487 518 517 487 488 519 518 488 489 520 519
          489 490 521 520 490 491 522 521 491 492 523 522
          492 493 524 523 493 494 525 524 494 495 526 525
          496 497 528 527 497 498 529 528 498 499 530 529
          499 500 531 530 500 501 532 531 501 502 533 532
          502 503 534 533 503 504 535 534 504 505 536 535
          505 506 537 536 506 507 538 537 507 508 539 538
          508 509 540 539 509 510 541 540 510 511 542 541
          511 512 543 542 512 513 544 543 513 514 545 544
          514 515 546 545 515 516 547 546 516 517 548 547
          517 518 549 548 518 519 550 549 519 520 551 550
          520 521 552 551 521 522 553 552 522 523 554 553
          523 524 555 554 524 525 556 555 525 526 557 556
          527 528 559 558 528 529 560 559 529 530 561 560
          530 531 562 561 531 532 563 562 532 533 564 563
          533 534 565 564 534 535 566 565 535 536 567 566
          536 537 568 567 537 538 569 568 538 539 570 569
          539 540 571 570 540 541 572 571 541 542 573 572
          542 543 574 573 543 544 575 574 544 545 576 575
          545 546 577 576 546 547 578 577 547 548 579 578
          548 549 580 579 549 550 581 580 550 551 582 581
          551 552 583 582 552 553 584 583 553 554 585 584
          554 555 586 585 555 556 587 586 556 557 588 587
        </DataArray>
        <DataArray type="Int32" Name="offsets" NumberOfComponents="1" format="ascii">
          4 8 12 16 20 24 28 32 36 40 44 48
          52 56 60 64 68 72 76 80 84 88 92 96
          100 104 108 112 116 120 124 128 132 136 140 144
          148 152 156 160 164 168 172 176 180 184 188 192
          196 200 204 208 212 216 220 224 228 232 236 240
          244 248 252 256 260 264 268 272 276 280 284 288
          292 296 300 304 308 312 316 320 324 328 332 336
          340 344 348 352 356 360 364 368 372 376 380 384
          388 392 396 400 404 408 412 416 420 424 428 432
          436 440 444 448 452 456 460 464 468 472 476 480
          484 488 492 496 500 504 508 512 516 520 524 528
          532 536 540 544 548 552 556 560 564 568 572 576
          580 584 588 592 596 600 604 608 612 616 620 624
          628 632 636 640 644 648 652 656 660 664 668 672
          676 680 684 688 692 696 700 704 708 712 716 720
          724 728 732 736 740 744 748 752 756 760 764 768
          772 776 780 784 788 792 796 800 804 808 812 816
          820 824 828 832 836 840 844 848 852 856 860 864
          868 872 876 880 884 888 892 896 900 904 908 912
          916 920 924 928 932 936 940 944 948 952 956 960
          964 968 972 976 980 984 988 992 996 1000 1004 1008
          1012 1016 1020 1024 1028 1032 1036 1040 1044 1048 1052 1056
          1060 1064 1068 1072 1076 1080 1084 1088 1092 1096 1100 1104
          1108 1112 1116 1120 1124 1128 1132 1136 1140 1144 1148 1152
          1156 1160 1164 1168 1172 1176 1180 1184 1188 1192 1196 1200
          1204 1208 1212 1216 1220 1224 1228 1232 1236 1240 1244 1248
          1252 1256 1260 1264 1268 1272 1276 1280 1284 1288 1292 1296
          1300 1304 1308 1312 1316 1320 1324 1328 1332 1336 1340 1344
          1348 1352 1356 1360 1364 1368 1372 1376 1380 1384 1388 1392
          1396 1400 1404 1408 1412 1416 1420 1424 1428 1432 1436 1440
          1444 1448 1452 1456 1460 1464 1468 1472 1476 1480 1484 1488
          1492 1496 1500 1504 1508 1512 1516 1520 1524 1528 1532 1536
          1540 1544 1548 1552 1556 1560 1564 1568 1572 1576 1580 1584
          1588 1592 1596 1600 1604 1608 1612 1616 1620 1624 1628 1632
          1636 1640 1644 1648 1652 1656 1660 1664 1668 1672 1676 1680
          1684 1688 1692 1696 1700 1704 1708 1712 1716 1720 1724 1728
          1732 1736 1740 1744 1748 1752 1756 1760 1764 1768 1772 1776
          1780 1784 1788 1792 1796 1800 1804 1808 1812 1816 1820 1824
          1828 1832 1836 1840 1844 1848 1852 1856 1860 1864 1868 1872
          1876 1880 1884 1888 1892 1896 1900 1904 1908 1912 1916 1920
          1924 1928 1932 1936 1940 1944 1948 1952 1956 1960 1964 1968
          1972 1976 1980 1984 1988 1992 1996 2000 2004 2008 2012 2016
          2020 2024 2028 2032 2036 2040 2044 2048 2052 2056 2060 2064
          2068 2072 2076 2080 2084 2088 2092 2096 2100 2104 2108 2112
          2116 2120 2124 2128 2132 2136 2140 2144 2148 2152 2156 2160
        </DataArray>
        <DataArray type="UInt8" Name="types" NumberOfComponents="1" format="ascii">
          9 9 9 9 9 9 9 9 9 9 9 9
          9 9 9 9 9 9 9 9 9 9 9 9
          9 9 9 9 9 9 9 9 9 9 9 9
          9 9 9 9 9 9 9 9 9 9 9 9
          9 9 9 9 9 9 9 9 9 9 9 9
          9 9 9 9 9 9 9 9 9 9 9 9
          9 9 9 9 9 9 9 9 9 9 9 9
          9 9 9 9 9 9 9 9 9 9 9 9
          9 9 9 9 9 9 9 9 9 9 9 9
          9 9 9 9 9 9 9 9 9 9 9 9
          9 9 9 9 9 9 9 9 9 9 9 9
          9 9 9 9 9 9 9 9 9 9 9 9
          9 9 9 9 9 9 9 9 9 9 9 9
          9 9 9 9 9 9 9 9 9 9 9 9
          9 9 9 9 9 9 9 9 9 9 9 9
          9 9 9 9 9 9 9 9 9 9 9 9
          9 9 9 9 9 9 9 9 9 9 9 9
          9 9 9 9 9 9 9 9 9 9 9 9
          9 9 9 9 9 9 9 9 9 9 9 9
          9 9 9 9 9 9 9 9 9 9 9 9
          9 9 9 9 9 9 9 9 9 9 9 9
          9 9 9 9 9 9 9 9 9 9 9 9
          9 9 9 9 9 9 9 9 9 9 9 9
          9 9 9 9 9 9 9 9 9 9 9 9
          9 9 9 9 9 9 9 9 9 9 9 9
          9 9 9 9 9 9 9 9 9 9 9 9
          9 9 9 9 9 9 9 9 9 9 9 9
          9 9 9 9 9 9 9 9 9 9 9 9
          9 9 9 9 9 9 9 9 9 9 9 9
          9 9 9 9 9 9 9 9 9 9 9 9
          9 9 9 9 9 9 9 9 9 9 9 9
          9 9 9 9 9 9 9 9 9 9 9 9
          9 9 9 9 9 9 9 9 9 9 9 9
          9 9 9 9 9 9 9 9 9 9 9 9
          9 9 9 9 9 9 9 9 9 9 9 9
          9 9 9 9 9 9 9 9 9 9 9 9
          9 9 9 9 9 9 9 9 9 9 9 9
          9 9 9 9 9 9 9 9 9 9 9 9
          9 9 9 9 9 9 9 9 9 9 9 9
          9 9 9 9 9 9 9 9 9 9 9 9
          9 9 9 9 9 9 9 9 9 9 9 9
          9 9 9 9 9 9 9 9 9 9 9 9
          9 9 9 9 9 9 9 9 9 9 9 9
          9 9 9 9 9 9 9 9 9 9 9 9
          9 9 9 9 9 9 9 9 9 9 9 9
        </DataArray>
      </Cells>
    </Piece>
  </UnstructuredGrid>
</VTKFile>
