<?xml version="1.0"?>
<VTKFile type="UnstructuredGrid" version="0.1" byte_order="LittleEndian">
  <UnstructuredGrid>
    <Piece NumberOfCells="540" NumberOfPoints="589">
      <PointData Scalars="temperature" Vectors="v">
        <DataArray type="Float32" Name="temperature" NumberOfComponents="1" format="ascii">
          304.697 304.801 300.658 303.781 304.846 304.148 304.884 304.356 304.915 304.494 304.942 304.593
          304.965 304.671 304.987 304.736 305.006 304.793 305.023 304.844 305.039 304.89 305.053 304.931
          305.066 304.968 305.078 305.001 305.089 305.03 305.098 305.058 305.107 305.086 305.116 305.117
          305.123 305.154 305.13 305.199 305.136 305.249 305.14 305.301 305.142 305.349 305.14 305.384
          305.134 305.397 305.123 305.384 305.108 305.345 305.087 305.283 305.062 305.211 305.022 305.166
          304.986 305.15 297.399 301.783 303.206 303.672 303.96 304.155 304.303 304.424 304.527 304.618
          304.7 304.774 304.839 304.897 304.949 304.997 305.045 305.099 305.165 305.247 305.344 305.45
          305.553 305.636 305.681 305.678 305.622 305.522 305.383 305.295 305.15 295.469 299.353 301.763
          302.758 303.27 303.601 303.841 304.031 304.192 304.332 304.457 304.57 304.67 304.759 304.837
          304.909 304.979 305.056 305.15 305.269 305.413 305.577 305.743 305.887 305.98 306.003 305.942
          305.81 305.605 305.424 305.15 294.813 297.167 299.864 301.485 302.359 302.887 303.254 303.535
          303.767 303.967 304.145 304.305 304.447 304.574 304.685 304.785 304.88 304.981 305.101 305.254
          305.444 305.666 305.903 306.122 306.282 306.351 306.305 306.15 305.886 305.589 305.15 295.187
          295.754 297.866 299.821 301.135 301.952 302.499 302.903 303.227 303.502 303.744 303.961 304.155
          304.327 304.479 304.614 304.739 304.865 305.01 305.193 305.424 305.704 306.014 306.319 306.567
          306.708 306.702 306.541 306.224 305.798 305.15 296.247 295.371 296.294 297.987 299.569 300.722
          301.517 302.09 302.536 302.907 303.229 303.515 303.772 304.001 304.203 304.381 304.542 304.697
          304.868 305.076 305.341 305.672 306.055 306.453 306.807 307.047 307.111 306.97 306.609 306.043
          305.15 297.586 295.964 295.591 296.432 297.833 299.185 300.248 301.04 301.649 302.144 302.566
          302.938 303.271 303.57 303.834 304.067 304.273 304.464 304.662 304.892 305.183 305.554 306.001
          306.493 306.963 307.328 307.498 307.41 307.022 306.315 305.15 298.85 297.209 295.931 295.667
          296.357 297.522 298.71 299.714 300.517 301.169 301.718 302.196 302.623 303.005 303.346 303.647
          303.911 304.149 304.38 304.632 304.941 305.338 305.832 306.406 306.995 307.504 307.813 307.817
          307.431 306.592 305.15 299.778 298.647 297.114 295.97 295.67 296.171 297.123 298.171 299.128
          299.947 300.646 301.253 301.792 302.275 302.709 303.094 303.432 303.731 304.006 304.286 304.608
          305.015 305.535 306.168 306.863 307.519 307.994 308.134 307.795 306.858 305.15 300.286 299.853
          298.671 297.222 296.107 295.691 295.975 296.707 297.613 298.516 299.345 300.087 300.752 301.352
          301.893 302.379 302.809 303.186 303.523 303.842 304.18 304.588 305.109 305.769 306.539 307.328
          307.979 308.292 308.058 307.081 305.15 300.426 300.593 300.068 298.924 297.544 296.407 295.834
          295.872 296.366 297.107 297.93 298.747 299.518 300.232 300.887 301.484 302.021 302.495 302.913
          303.291 303.659 304.067 304.571 305.22 306.019 306.904 307.718 308.229 308.158 307.226 305.15
          300.38 300.877 300.967 300.463 299.418 298.122 296.959 296.219 295.999 296.229 296.764 297.464
          298.229 298.997 299.738 300.435 301.078 301.659 302.174 302.632 303.051 303.472 303.953 304.56
          305.335 306.255 307.19 307.895 308.039 307.249 305.15 300.344 300.912 301.351 301.445 301.04
          300.154 298.987 297.837 296.962 296.5 296.454 296.745 297.266 297.92 298.635 299.363 300.072
          300.738 301.347 301.894 302.383 302.839 303.308 303.858 304.559 305.438 306.42 307.284 307.668
          307.119 305.15 300.493 300.976 301.477 301.882 302.024 301.771 301.1 300.131 299.073 298.147
          297.504 297.207 297.237 297.53 298.011 298.607 299.261 299.93 300.579 301.186 301.739 302.241
          302.715 303.212 303.808 304.568 305.494 306.435 307.045 306.814 305.15 300.925 301.295 301.695
          302.118 302.487 302.684 302.597 302.178 301.474 300.614 299.761 299.057 298.594 298.4 298.457
          298.719 299.132 299.643 300.203 300.773 301.325 301.839 302.312 302.766 303.249 303.835 304.585
          305.462 306.22 306.346 305.15 301.738 302.02 302.283 302.574 302.89 303.192 303.406 303.451
          303.271 302.866 302.295 301.656 301.054 300.575 300.268 300.15 300.207 300.41 300.722 301.104
          301.522 301.945 302.352 302.735 303.105 303.502 303.991 304.621 305.325 305.75 305.15 303.004
          303.311 303.425 303.554 303.703 303.874 304.052 304.206 304.292 304.273 304.131 303.88 303.557
          303.213 302.9 302.656 302.504 302.45 302.487 302.601 302.773 302.981 303.206 303.433 303.651
          303.862 304.088 304.37 304.746 305.15 305.15 303.234 305.15 305.15 305.15 305.15 305.15
          305.15 305.15 305.15 305.15 305.15 305.15 305.15 305.15 305.15 305.15 305.15 305.15
          305.15 305.15 305.15 305.15 305.15 305.15 305.15 305.15 305.15 305.15 305.15 305.15
          305.15
        </DataArray>
        <DataArray type="Float32" Name="pg" NumberOfComponents="1" format="ascii">
          127760 127760 127760 127760 127760 127760 127760 127760 127760 127760 127760 127760
          127760 127760 127760 127760 127760 127760 127760 127760 127760 127760 127760 127760
          127760 127760 127760 127760 127760 127760 127760 127760 127760 127760 127760 127760
          127760 127760 127760 127760 127760 127760 127760 127760 127760 127760 127760 127760
          127760 127760 127760 127760 127760 127760 127760 127760 127760 127760 127760 127760
          127760 127760 127760 127760 127760 127760 127760 127760 127760 127760 127760 127760
          127760 127760 127760 127760 127760 127760 127760 127760 127760 127760 127760 127760
          127760 127760 127760 127760 127760 127760 127760 127760 127760 127760 127760 127760
          127760 127760 127760 127760 127760 127760 127760 127760 127760 127760 127760 127760
          127760 127760 127760 127760 127760 127760 127760 127760 127760 127760 127760 127760
          127760 127760 127760 127760 127760 127760 127760 127760 127760 127760 127760 127760
          127760 127760 127760 127760 127760 127760 127760 127760 127760 127760 127760 127760
          127760 127760 127760 127760 127760 127760 127760 127760 127760 127760 127760 127760
          127760 127760 127760 127760 127760 127760 127760 127760 127760 127760 127760 127760
          127760 127760 127760 127760 127760 127760 127760 127760 127760 127760 127760 127760
          127760 127760 127760 127760 127760 127760 127760 127760 127760 127760 127760 127760
          127760 127760 127760 127760 127760 127760 127760 127760 127760 127760 127760 127760
          127760 127760 127760 127760 127760 127760 127760 127760 127760 127760 127760 127760
          127760 127760 127760 127760 127760 127760 127760 127760 127760 127760 127760 127760
          127760 127760 127760 127760 127760 127760 127760 127760 127760 127760 127760 127760
          127760 127760 127760 127760 127760 127760 127760 127760 127760 127760 127760 127760
          127760 127760 127760 127760 127760 127760 127760 127760 127760 127760 127760 127760
          127760 127760 127760 127760 127760 127760 127760 127760 127760 127760 127760 127760
          127760 127760 127760 127760 127760 127760 127760 127760 127760 127760 127760 127760
          127760 127760 127760 127760 127760 127760 127760 127760 127760 127760 127760 127760
          127760 127760 127760 127760 127760 127760 127760 127760 127760 127760 127760 127760
          127760 127760 127760 127760 127760 127760 127760 127760 127760 127760 127760 127760
          127760 127760 127760 127760 127760 127760 127760 127760 127760 127760 127760 127760
          127760 127760 127760 127760 127760 127760 127760 127760 127760 127760 127760 127760
          127760 127760 127760 127760 127760 127760 127760 127760 127760 127760 127760 127760
          127760 127760 127760 127760 127760 127760 127760 127760 127760 127760 127760 127760
          127760 127760 127760 127760 127760 127760 127760 127760 127760 127760 127760 127760
          127760 127760 127760 127760 127760 127760 127760 127760 127760 127760 127760 127760
          127760 127760 127760 127760 127760 127760 127760 127760 127760 127760 127760 127760
          127760 127760 127760 127760 127760 127760 127760 127760 127760 127760 127760 127760
          127760 127760 127760 127760 127760 127760 127760 127760 127760 127760 127760 127760
          127760 127760 127760 127760 127760 127760 127760 127760 127760 127760 127760 127760
          127760 127760 127760 127760 127760 127760 127760 127760 127760 127760 127760 127760
          127760 127760 127760 127760 127760 127760 127760 127760 127760 127760 127760 127760
          127760 127760 127760 127760 127760 127760 127760 127760 127760 127760 127760 127760
          127760 127760 127760 127760 127760 127760 127760 127760 127760 127760 127760 127760
          127760 127760 127760 127760 127760 127760 127760 127760 127760 127760 127760 127760
          127760 127760 127760 127760 127760 127760 127760 127760 127760 127760 127760 127760
          127760 127760 127760 127760 127760 127760 127760 127760 127760 127760 127760 127760
          127760 127760 127760 127760 127760 127760 127760 127760 127760 127760 127760 127760
          127760 127760 127760 127760 127760 127760 127760 127760 127760 127760 127760 127760
          127760 127760 127760 127760 127760 127760 127760 127760 127760 127760 127760 127760
          127760 127760 127760 127760 127760 127760 127760 127760 127760 127760 127760 127760
          127760 127760 127760 127760 127760 127760 127760 127760 127760 127760 127760 127760
          127760
        </DataArray>
        <DataArray type="Float32" Name="delP" NumberOfComponents="1" format="ascii">
          27760.1 27760.1 27760.1 27760.1 27760.1 27760.1 27760.1 27760.1 27760.1 27760.1 27760.1 27760.1
          27760.1 27760.1 27760.1 27760.1 27760.1 27760.1 27760.1 27760.1 27760.1 27760.1 27760.1 27760.1
          27760.1 27760.1 27760.1 27760.1 27760.1 27760.1 27760.1 27760.1 27760.1 27760.1 27760.1 27760.1
          27760.1 27760.1 27760.1 27760.1 27760.1 27760.1 27760.1 27760.1 27760.1 27760.1 27760.1 27760.1
          27760.1 27760.1 27760.1 27760.1 27760.1 27760.1 27760.1 27760.1 27760.1 27760.1 27760.1 27760.1
          27760.1 27760.1 27760.1 27760.1 27760.1 27760.1 27760.1 27760.1 27760.1 27760.1 27760.1 27760.1
          27760.1 27760.1 27760.1 27760.1 27760.1 27760.1 27760.1 27760.1 27760.1 27760.1 27760.1 27760.1
          27760.1 27760.1 27760.1 27760.1 27760.1 27760.1 27760.1 27760.1 27760.1 27760.1 27760.1 27760.1
          27760.1 27760.1 27760.1 27760.1 27760.1 27760.1 27760.1 27760.1 27760.1 27760.1 27760.1 27760.1
          27760.1 27760.1 27760.1 27760.1 27760.1 27760.1 27760.1 27760.1 27760.1 27760.1 27760.1 27760.1
          27760.1 27760.1 27760.1 27760.1 27760.1 27760.1 27760.1 27760.1 27760.1 27760.1 27760.1 27760.1
          27760.1 27760.1 27760.1 27760.1 27760.1 27760.1 27760.1 27760.1 27760.1 27760.1 27760.1 27760.1
          27760.1 27760.1 27760.1 27760.1 27760.1 27760.1 27760.1 27760.1 27760.1 27760.1 27760.1 27760.1
          27760.1 27760.1 27760.1 27760.1 27760.1 27760.1 27760.1 27760.1 27760.1 27760.1 27760.1 27760.1
          27760.1 27760.1 27760.1 27760.1 27760.1 27760.1 27760.1 27760.1 27760.1 27760.1 27760.1 27760.1
          27760.1 27760.1 27760.1 27760.1 27760.1 27760.1 27760.1 27760.1 27760.1 27760.1 27760.1 27760.1
          27760.1 27760.1 27760.1 27760.1 27760.1 27760.1 27760.1 27760.1 27760.1 27760.1 27760.1 27760.1
          27760.1 27760.1 27760.1 27760.1 27760.1 27760.1 27760.1 27760.1 27760.1 27760.1 27760.1 27760.1
          27760.1 27760.1 27760.1 27760.1 27760.1 27760.1 27760.1 27760.1 27760.1 27760.1 27760.1 27760.1
          27760.1 27760.1 27760.1 27760.1 27760.1 27760.1 27760.1 27760.1 27760.1 27760.1 27760.1 27760.1
          27760.1 27760.1 27760.1 27760.1 27760.1 27760.1 27760.1 27760.1 27760.1 27760.1 27760.1 27760.1
          27760.1 27760.1 27760.1 27760.1 27760.1 27760.1 27760.1 27760.1 27760.1 27760.1 27760.1 27760.1
          27760.1 27760.1 27760.1 27760.1 27760.1 27760.1 27760.1 27760.1 27760.1 27760.1 27760.1 27760.1
          27760.1 27760.1 27760.1 27760.1 27760.1 27760.1 27760.1 27760.1 27760.1 27760.1 27760.1 27760.1
          27760.1 27760.1 27760.1 27760.1 27760.1 27760.1 27760.1 27760.1 27760.1 27760.1 27760.1 27760.1
          27760.1 27760.1 27760.1 27760.1 27760.1 27760.1 27760.1 27760.1 27760.1 27760.1 27760.1 27760.1
          27760.1 27760.1 27760.1 27760.1 27760.1 27760.1 27760.1 27760.1 27760.1 27760.1 27760.1 27760.1
          27760.1 27760.1 27760.1 27760.1 27760.1 27760.1 27760.1 27760.1 27760.1 27760.1 27760.1 27760.1
          27760.1 27760.1 27760.1 27760.1 27760.1 27760.1 27760.1 27760.1 27760.1 27760.1 27760.1 27760.1
          27760.1 27760.1 27760.1 27760.1 27760.1 27760.1 27760.1 27760.1 27760.1 27760.1 27760.1 27760.1
          27760.1 27760.1 27760.1 27760.1 27760.1 27760.1 27760.1 27760.1 27760.1 27760.1 27760.1 27760.1
          27760.1 27760.1 27760.1 27760.1 27760.1 27760.1 27760.1 27760.1 27760.1 27760.1 27760.1 27760.1
          27760.1 27760.1 27760.1 27760.1 27760.1 27760.1 27760.1 27760.1 27760.1 27760.1 27760.1 27760.1
          27760.1 27760.1 27760.1 27760.1 27760.1 27760.1 27760.1 27760.1 27760.1 27760.1 27760.1 27760.1
          27760.1 27760.1 27760.1 27760.1 27760.1 27760.1 27760.1 27760.1 27760.1 27760.1 27760.1 27760.1
          27760.1 27760.1 27760.1 27760.1 27760.1 27760.1 27760.1 27760.1 27760.1 27760.1 27760.1 27760.1
          27760.1 27760.1 27760.1 27760.1 27760.1 27760.1 27760.1 27760.1 27760.1 27760.1 27760.1 27760.1
          27760.1 27760.1 27760.1 27760.1 27760.1 27760.1 27760.1 27760.1 27760.1 27760.1 27760.1 27760.1
          27760.1 27760.1 27760.1 27760.1 27760.1 27760.1 27760.1 27760.1 27760.1 27760.1 27760.1 27760.1
          27760.1 27760.1 27760.1 27760.1 27760.1 27760.1 27760.1 27760.1 27760.1 27760.1 27760.1 27760.1
          27760.1 27760.1 27760.1 27760.1 27760.1 27760.1 27760.1 27760.1 27760.1 27760.1 27760.1 27760.1
          27760.1 27760.1 27760.1 27760.1 27760.1 27760.1 27760.1 27760.1 27760.1 27760.1 27760.1 27760.1
          27760.1 27760.1 27760.1 27760.1 27760.1 27760.1 27760.1 27760.1 27760.1 27760.1 27760.1 27760.1
          27760.1 27760.1 27760.1 27760.1 27760.1 27760.1 27760.1 27760.1 27760.1 27760.1 27760.1 27760.1
          27760.1 27760.1 27760.1 27760.1 27760.1 27760.1 27760.1 27760.1 27760.1 27760.1 27760.1 27760.1
          27760.1 27760.1 27760.1 27760.1 27760.1 27760.1 27760.1 27760.1 27760.1 27760.1 27760.1 27760.1
          27760.1 27760.1 27760.1 27760.1 27760.1 27760.1 27760.1 27760.1 27760.1 27760.1 27760.1 27760.1
          27760.1 27760.1 27760.1 27760.1 27760.1 27760.1 27760.1 27760.1 27760.1 27760.1 27760.1 27760.1
          27760.1 27760.1 27760.1 27760.1 27760.1 27760.1 27760.1 27760.1 27760.1 27760.1 27760.1 27760.1
          27760.1
        </DataArray>
        <DataArray type="Float32" Name="xH2Og" NumberOfComponents="1" format="ascii">
          0.0312458 0.0319884 0.0253104 0.0309181 0.0320731 0.0312726 0.0321718 0.0314668 0.0322208 0.0315955 0.0322733 0.0316931
          0.0323238 0.0317775 0.0323581 0.0318406 0.0323939 0.0318948 0.0324373 0.0319508 0.0324718 0.0319987 0.0324882 0.032028
          0.0325196 0.0320619 0.0325485 0.0320958 0.0325559 0.032111 0.0325884 0.0321377 0.0326021 0.0321536 0.0326188 0.0321627
          0.0326225 0.0321568 0.0326255 0.0321375 0.0326536 0.0321234 0.0326375 0.0320649 0.0326399 0.0319868 0.0325937 0.0318479
          0.032572 0.0316764 0.0325152 0.0314289 0.0324388 0.0310694 0.0323343 0.0305305 0.0321987 0.0296716 0.0315056 0.0281016
          0.0295124 0.0062 0.019761 0.0282885 0.030249 0.0306182 0.0308488 0.0310118 0.0311407 0.03124 0.0313196 0.0313926
          0.0314562 0.031501 0.0315413 0.0315807 0.0316045 0.0316293 0.0316466 0.0316517 0.0316379 0.0316006 0.0315495 0.0314492
          0.031299 0.0310692 0.0307591 0.0303294 0.0297124 0.0287926 0.0273247 0.0247678 0.0062 0.0149605 0.024479 0.0285216
          0.0295575 0.0299477 0.0302033 0.0303936 0.0305392 0.030653 0.0307496 0.0308326 0.0308959 0.0309473 0.030994 0.0310272
          0.0310542 0.0310733 0.0310775 0.0310587 0.0310085 0.0309274 0.0307887 0.0305759 0.0302615 0.0298261 0.0292284 0.0283818
          0.0271386 0.0251842 0.0218758 0.0062 0.0110617 0.0200351 0.0258245 0.0280509 0.0288293 0.0292307 0.0295085 0.0297162
          0.0298761 0.0300054 0.0301136 0.0301995 0.0302672 0.0303245 0.0303685 0.0304015 0.0304241 0.0304303 0.0304105 0.0303531
          0.0302507 0.0300803 0.0298161 0.0294277 0.0288834 0.0281366 0.0270926 0.0255844 0.0232651 0.0194378 0.0062 0.00812542
          0.0155407 0.0221982 0.0258194 0.0273409 0.0280307 0.0284456 0.0287409 0.0289638 0.0291387 0.0292809 0.0293952 0.0294853
          0.0295582 0.0296155 0.0296583 0.0296875 0.0296987 0.0296822 0.0296242 0.0295106 0.0293185 0.0290165 0.0285692 0.027936
          0.0270644 0.0258572 0.0241421 0.0215676 0.0174323 0.0062 0.00612515 0.01152 0.0179878 0.0227158 0.0252555 0.0264785
          0.0271396 0.0275697 0.0278821 0.0281212 0.0283106 0.0284623 0.0285824 0.0286778 0.0287529 0.0288096 0.0288492 0.0288691
          0.0288606 0.0288088 0.0286951 0.0284941 0.0281706 0.0276837 0.0269855 0.0260181 0.0246846 0.0228174 0.0200815 0.0158106
          0.0062 0.00495006 0.00834669 0.0137339 0.0188653 0.022387 0.024382 0.0254741 0.0261329 0.0265824 0.0269144 0.027171
          0.0273738 0.0275346 0.0276615 0.027761 0.0278372 0.0278921 0.0279251 0.0279293 0.0278907 0.0277881 0.0275931 0.027267
          0.0267637 0.0260288 0.0249988 0.0235785 0.0216106 0.0187905 0.0145158 0.0062 0.00443081 0.00618755 0.0100087 0.0146974
          0.0187627 0.0215652 0.0232781 0.0243154 0.0249887 0.0254634 0.0258187 0.0260941 0.0263108 0.0264817 0.0266156 0.0267189
          0.0267955 0.0268468 0.026869 0.0268502 0.0267693 0.0265959 0.026288 0.0257947 0.025055 0.0239999 0.0225351 0.0205151
          0.0176722 0.013485 0.0062 0.0043645 0.00499882 0.00722893 0.0108144 0.0147252 0.0180315 0.0204 0.0219615 0.0229848
          0.023685 0.0241913 0.0245738 0.0248705 0.0251032 0.0252855 0.025427 0.025534 0.0256108 0.0256567 0.025664 0.0256139
          0.0254767 0.0252083 0.0247532 0.024044 0.0230052 0.0215414 0.0195178 0.0167033 0.0126629 0.0062 0.00455321 0.00457439
          0.00554585 0.00777277 0.0108735 0.0141035 0.0168702 0.0189574 0.0204331 0.021464 0.0222002 0.0227442 0.0231584 0.0234798
          0.023731 0.0239266 0.0240767 0.0241886 0.0242657 0.0243051 0.0242934 0.0242043 0.0239947 0.023606 0.0229644 0.0219863
          0.0205725 0.018595 0.0158548 0.011998 0.0062 0.00483158 0.00463076 0.00483062 0.00586227 0.00782106 0.0103825 0.0130407
          0.0153958 0.0172763 0.0186933 0.0197396 0.020516 0.0211019 0.0215519 0.0219016 0.0221743 0.0223853 0.0225461 0.0226646
          0.0227434 0.0227762 0.0227436 0.0226076 0.0223104 0.021773 0.0209023 0.0195913 0.017714 0.0150952 0.0114498 0.0062
          0.00509277 0.00489787 0.00477205 0.00502553 0.00592604 0.00750546 0.00954199 0.0117027 0.0137062 0.0154016 0.0167575 0.0178114
          0.0186233 0.0192504 0.0197378 0.0201182 0.0204147 0.0206437 0.0208179 0.020946 0.0210291 0.0210577 0.0210038 0.0208161
          0.0204151 0.0196984 0.0185467 0.0168285 0.0143833 0.0109783 0.0062 0.00528938 0.00518581 0.00502212 0.00493639 0.00514446
          0.00582086 0.00699437 0.00853783 0.010242 0.011908 0.0134031 0.0146696 0.0157043 0.0165331 0.0171905 0.0177102 0.0181197
          0.01844 0.0186884 0.0188787 0.0190194 0.0191114 0.0191403 0.0190688 0.0188262 0.0183065 0.0173746 0.0158828 0.0136729
          0.0105478 0.0062 0.00542778 0.00540911 0.00532276 0.00519338 0.00511688 0.00523518 0.00566934 0.00645929 0.00754928 0.00881975
          0.0101369 0.0113919 0.012517 0.0134836 0.0142901 0.0149506 0.0154848 0.0159122 0.0162503 0.0165155 0.0167213 0.0168769
          0.0169819 0.0170183 0.0169362 0.0166413 0.0159896 0.0148044 0.0129073 0.0101184 0.0062 0.00554348 0.00556967 0.00555982
          0.00550015 0.00540431 0.00532868 0.00536071 0.00558473 0.00604628 0.00673591 0.00759729 0.00855066 0.00951702 0.0104345 0.0112637
          0.0119866 0.0126004 0.0131115 0.0135292 0.0138662 0.0141351 0.0143483 0.0145145 0.0146337 0.0146844 0.0146052 0.0142723
          0.0134896 0.0120177 0.00965136 0.0062 0.00568636 0.00571991 0.00574157 0.00574226 0.00571054 0.00564927 0.00558479 0.0055643
          0.00564091 0.00585432 0.00621727 0.0067134 0.00730496 0.00794526 0.00858969 0.00920326 0.009763 0.0102577 0.0106832 0.011041
          0.0113367 0.0115782 0.0117748 0.0119344 0.0120576 0.0121249 0.0120703 0.0117433 0.010873 0.00909474 0.0062 0.00588984
          0.00592666 0.00593861 0.00595097 0.00595605 0.00594627 0.00591905 0.00588174 0.00585249 0.00585596 0.00591535 0.00604501 0.00624654
          0.0065095 0.00681528 0.00714236 0.0074706 0.00778434 0.00807311 0.00833046 0.00855375 0.00874348 0.00890251 0.00903553 0.00914803
          0.00924287 0.00931033 0.00930326 0.00908191 0.00830214 0.0062 0.00593441 0.0062 0.0062 0.0062 0.0062 0.0062
          0.0062 0.0062 0.0062 0.0062 0.0062 0.0062 0.0062 0.0062 0.0062 0.0062 0.0062 0.0062
          0.0062 0.0062 0.0062 0.0062 0.0062 0.0062 0.0062 0.0062 0.0062 0.0062 0.0062 0.0062
          0.0062
        </DataArray>
        <DataArray type="Float32" Name="xAirg" NumberOfComponents="1" format="ascii">
          0.968754 0.968012 0.97469 0.969082 0.967927 0.968727 0.967828 0.968533 0.967779 0.968405 0.967727 0.968307
          0.967676 0.968222 0.967642 0.968159 0.967606 0.968105 0.967563 0.968049 0.967528 0.968001 0.967512 0.967972
          0.96748 0.967938 0.967451 0.967904 0.967444 0.967889 0.967412 0.967862 0.967398 0.967846 0.967381 0.967837
          0.967377 0.967843 0.967375 0.967862 0.967346 0.967877 0.967363 0.967935 0.96736 0.968013 0.967406 0.968152
          0.967428 0.968324 0.967485 0.968571 0.967561 0.968931 0.967666 0.96947 0.967801 0.970328 0.968494 0.971898
          0.970488 0.9938 0.980239 0.971712 0.969751 0.969382 0.969151 0.968988 0.968859 0.96876 0.96868 0.968607
          0.968544 0.968499 0.968459 0.968419 0.968395 0.968371 0.968353 0.968348 0.968362 0.968399 0.96845 0.968551
          0.968701 0.968931 0.969241 0.969671 0.970288 0.971207 0.972675 0.975232 0.9938 0.985039 0.975521 0.971478
          0.970443 0.970052 0.969797 0.969606 0.969461 0.969347 0.96925 0.969167 0.969104 0.969053 0.969006 0.968973
          0.968946 0.968927 0.968923 0.968941 0.968991 0.969073 0.969211 0.969424 0.969739 0.970174 0.970772 0.971618
          0.972861 0.974816 0.978124 0.9938 0.988938 0.979965 0.974176 0.971949 0.971171 0.970769 0.970492 0.970284
          0.970124 0.969995 0.969886 0.969801 0.969733 0.969676 0.969631 0.969599 0.969576 0.96957 0.96959 0.969647
          0.969749 0.96992 0.970184 0.970572 0.971117 0.971863 0.972907 0.974416 0.976735 0.980562 0.9938 0.991875
          0.984459 0.977802 0.974181 0.972659 0.971969 0.971554 0.971259 0.971036 0.970861 0.970719 0.970605 0.970515
          0.970442 0.970384 0.970342 0.970313 0.970301 0.970318 0.970376 0.970489 0.970682 0.970984 0.971431 0.972064
          0.972936 0.974143 0.975858 0.978432 0.982568 0.9938 0.993875 0.98848 0.982012 0.977284 0.974744 0.973521
          0.97286 0.97243 0.972118 0.971879 0.971689 0.971538 0.971418 0.971322 0.971247 0.97119 0.971151 0.971131
          0.971139 0.971191 0.971305 0.971506 0.971829 0.972316 0.973014 0.973982 0.975315 0.977183 0.979918 0.984189
          0.9938 0.99505 0.991653 0.986266 0.981135 0.977613 0.975618 0.974526 0.973867 0.973418 0.973086 0.972829
          0.972626 0.972465 0.972338 0.972239 0.972163 0.972108 0.972075 0.972071 0.972109 0.972212 0.972407 0.972733
          0.973236 0.973971 0.975001 0.976422 0.978389 0.98121 0.985484 0.9938 0.995569 0.993812 0.989991 0.985303
          0.981237 0.978435 0.976722 0.975685 0.975011 0.974537 0.974181 0.973906 0.973689 0.973518 0.973384 0.973281
          0.973205 0.973153 0.973131 0.97315 0.973231 0.973404 0.973712 0.974205 0.974945 0.976 0.977465 0.979485
          0.982328 0.986515 0.9938 0.995636 0.995001 0.992771 0.989186 0.985275 0.981968 0.9796 0.978039 0.977015
          0.976315 0.975809 0.975426 0.97513 0.974897 0.974714 0.974573 0.974466 0.974389 0.974343 0.974336 0.974386
          0.974523 0.974792 0.975247 0.975956 0.976995 0.978459 0.980482 0.983297 0.987337 0.9938 0.995447 0.995426
          0.994454 0.992227 0.989127 0.985897 0.98313 0.981043 0.979567 0.978536 0.9778 0.977256 0.976842 0.97652
          0.976269 0.976073 0.975923 0.975811 0.975734 0.975695 0.975707 0.975796 0.976005 0.976394 0.977036 0.978014
          0.979428 0.981405 0.984145 0.988002 0.9938 0.995168 0.995369 0.995169 0.994138 0.992179 0.989618 0.986959
          0.984604 0.982724 0.981307 0.98026 0.979484 0.978898 0.978448 0.978098 0.977826 0.977615 0.977454 0.977335
          0.977257 0.977224 0.977256 0.977392 0.97769 0.978227 0.979098 0.980409 0.982286 0.984905 0.98855 0.9938
          0.994907 0.995102 0.995228 0.994974 0.994074 0.992495 0.990458 0.988297 0.986294 0.984598 0.983243 0.982189
          0.981377 0.98075 0.980262 0.979882 0.979585 0.979356 0.979182 0.979054 0.978971 0.978942 0.978996 0.979184
          0.979585 0.980302 0.981453 0.983172 0.985617 0.989022 0.9938 0.994711 0.994814 0.994978 0.995064 0.994856
          0.994179 0.993006 0.991462 0.989758 0.988092 0.986597 0.98533 0.984296 0.983467 0.982809 0.98229 0.98188
          0.98156 0.981312 0.981121 0.980981 0.980889 0.98086 0.980931 0.981174 0.981694 0.982625 0.984117 0.986327
          0.989452 0.9938 0.994572 0.994591 0.994677 0.994807 0.994883 0.994765 0.994331 0.993541 0.992451 0.99118
          0.989863 0.988608 0.987483 0.986516 0.98571 0.985049 0.984515 0.984088 0.98375 0.983484 0.983279 0.983123
          0.983018 0.982982 0.983064 0.983359 0.98401 0.985196 0.987093 0.989882 0.9938 0.994457 0.99443 0.99444
          0.9945 0.994596 0.994671 0.994639 0.994415 0.993954 0.993264 0.992403 0.991449 0.990483 0.989565 0.988736
          0.988013 0.9874 0.986889 0.986471 0.986134 0.985865 0.985652 0.985485 0.985366 0.985316 0.985395 0.985728
          0.98651 0.987982 0.990349 0.9938 0.994314 0.99428 0.994258 0.994258 0.994289 0.994351 0.994415 0.994436
          0.994359 0.994146 0.993783 0.993287 0.992695 0.992055 0.99141 0.990797 0.990237 0.989742 0.989317 0.988959
          0.988663 0.988422 0.988225 0.988066 0.987942 0.987875 0.98793 0.988257 0.989127 0.990905 0.9938 0.99411
          0.994073 0.994061 0.994049 0.994044 0.994054 0.994081 0.994118 0.994147 0.994144 0.994085 0.993955 0.993753
          0.993491 0.993185 0.992858 0.992529 0.992216 0.991927 0.99167 0.991446 0.991257 0.991098 0.990964 0.990852
          0.990757 0.99069 0.990697 0.990918 0.991698 0.9938 0.994066 0.9938 0.9938 0.9938 0.9938 0.9938
          0.9938 0.9938 0.9938 0.9938 0.9938 0.9938 0.9938 0.9938 0.9938 0.9938 0.9938 0.9938
          0.9938 0.9938 0.9938 0.9938 0.9938 0.9938 0.9938 0.9938 0.9938 0.9938 0.9938 0.9938
          0.9938
        </DataArray>
        <DataArray type="Float32" Name="h" NumberOfComponents="1" format="ascii">
          80313.9 81592.5 66780.2 78836.4 81773.2 79779.9 81968.3 80303.8 82078.3 80651.1 82189.1 80908.3
          82293.6 81123.1 82369.9 81291.4 82446.3 81436.8 82533.1 81578.5 82604 81702.1 82644.9 81791.7
          82708.2 81883.8 82766 81971.6 82788.8 82026.6 82850.3 82097.5 82881.4 82152 82916.4 82198.7
          82930.5 82228.7 82942.6 82245 82993 82275.6 82972 82238.5 82977.3 82165.6 82902.5 81983
          82862 81726.1 82761.1 81322.5 82624.2 80715.3 82437.8 79802.3 82197.5 78375.2 81063.8 75860.1
          77889.6 41717.8 54756.8 72614.5 77181.1 78250.5 78915.5 79377.1 79735.1 80017.6 80251.4 80462.1
          80648.2 80796.1 80928.4 81051.3 81143.3 81232.7 81310.4 81374.8 81422.6 81450.2 81471.4 81424.5
          81295.8 81020.6 80579.4 79898.9 78869.4 77318.3 74866.3 70762.5 41717.8 45345 64121.1 72958.4
          75626 76775.8 77524.1 78075.2 78503.5 78850.8 79149.7 79411.6 79629.4 79815.6 79982.1 80117
          80234.6 80338.2 80425.5 80494.6 80540 80563.5 80516.3 80355.4 80011.3 79423.6 78506.1 77110.9
          75018.6 71737.7 66368.4 41717.8 38675.4 54940.9 66753 71929.5 74065.4 75248.4 76069.1 76690
          77184.4 77597.5 77953.8 78256 78512.1 78734.5 78920.6 79077.4 79212.7 79328.1 79423 79492.5
          79530.1 79494.9 79326.4 78943.9 78255.3 77152.5 75462.9 72932.3 69021.7 62728.6 41717.8 34556.1
          46532.3 59022.7 66700.4 70452 72387.3 73610.4 74496.3 75185.6 75748.5 76225.3 76631.6 76976.5
          77271.7 77520.9 77729.3 77905.6 78055.8 78181.9 78281.6 78344.7 78335 78184.4 77799.4 77062.1
          75838.6 73935 71076.3 66714.8 59815.2 41717.8 32570.6 39951.5 50867.4 59952.6 65557 68671.8
          70536.8 71809.4 72765.9 73528.7 74162.6 74700.1 75157.3 75546.7 75876.1 76151.6 76381.8 76576
          76740.5 76876.8 76975.6 77005.1 76896.2 76546.5 75817 74546.6 72519.2 69444.1 64787.9 57539.8
          41717.8 32128.8 35687.3 43581.8 52367.7 59282.1 63794.7 66607.7 68464 69803.2 70840 71683.3
          72390.1 72990.2 73501 73933.6 74296.3 74597.7 74849.5 75062.2 75242.6 75385.5 75466.2 75419.9
          75141.4 74476.3 73238.1 71184.9 68008.1 63195.6 55801.7 41717.8 32612.5 33643.3 38203.2 45143.3
          52130.8 57681.9 61580.6 64242.6 66130.8 67552.3 68680.8 69611.4 70395.6 71062.3 71628.2 72104.3
          72499.9 72828.7 73103.8 73337.9 73533.2 73674.3 73706.4 73528.9 72980.2 71851.9 69874.1 66712.9
          61869.7 54481.8 41717.8 33450.3 33278.3 35144 39481.3 45188.8 50807.9 55460.1 58972.7 61560
          63503.7 65021.2 66251.2 67276.1 68143.7 68880.8 69503.9 70024 70455.5 70813.9 71116.6 71373.8
          71582.5 71702.9 71647.1 71256.1 70307.5 68504 65478.8 60731.2 53475.2 41717.8 34253.6 33848.6
          34141.8 36088.4 39711.9 44253.7 48811.1 52795.1 56021.1 58559.4 60565.4 62184.1 63521.3 64646.5
          65601.9 66413.1 67094.8 67662.7 68133.2 68526.8 68860.6 69144.7 69358.3 69434.1 69227.3 68512.3
          66970.2 64198.4 59675.9 52668.5 41717.8 34823.2 34683.4 34459.7 34884.5 36490 39264.6 42764.8
          46431.3 49843.3 52800.4 55275 57326.9 59037.2 60478.6 61703.9 62749 63634.7 64378.5 64997.4
          65512.9 65946.2 66318.3 66628.6 66836.5 66823.6 66375.9 65164.7 62755.2 58594.2 51964.5 41717.8
          35178.4 35381.3 35279.8 35159 35483.1 36593 38536.7 41101.4 43958.5 46808 49453.2 51806.4
          53854.3 55622.4 57146.4 58460.1 59587.1 60545 61350.7 62024.5 62588.3 63068.9 63482.7 63818
          63993.1 63823.2 62987.2 61029.4 57361.9 51255.5 41717.8 35443.6 35860 36052.9 36016 35926.1
          36067.7 36687.4 37889 39616.2 41705.1 43959.2 46210.4 48344.1 50299.9 52055.6 53612.6 54979.7
          56165.4 57180.9 58041.9 58766.4 59380.5 59909.5 60366.3 60711.5 60807.4 60364.8 58926.3 55875.4
          50453.8 41717.8 35807.3 36268.2 36643.4 36854.2 36880.5 36805.6 36794.4 37026.3 37628.4 38638.5
          40008.5 41635.3 43398.3 45189.7 46927.7 48561.1 50060.8 51411.2 52603.8 53640.7 54529.7 55288.1
          55939.3 56508.4 56993.5 57317.3 57253.9 56374.2 54046.1 49476.9 41717.8 36423.7 36838.2 37229.1
          37565.3 37791.6 37874.8 37836 37756.3 37753.4 37942.4 38401.2 39152.6 40167.4 41381.7 42717.4
          44100.4 45470.6 46783.5 48003.8 49110.4 50092.5 50950.5 51694.5 52345 52919.4 53398.4 53650.2
          53331.8 51819.9 48275.7 41717.8 37467.3 37804.8 38104.7 38400.4 38671.9 38883.2 39000.8 39014.3
          38950.1 38869 38849.8 38965.9 39265.8 39764.8 40446 41271.1 42191.9 43162 44137.2 45080.4
          45964.1 46770.4 47491.1 48129.7 48698.8 49209 49623.9 49760.8 49129.5 46806.6 41717.8 39063.6
          39431.6 39565.8 39715.3 39874.3 40032.3 40171.2 40269.5 40311.6 40297.4 40245.7 40191.1 40174.2
          40231.3 40385.2 40642.4 40994.6 41423.8 41907.4 42420.6 42939.6 43444.4 43919.9 44356.6 44752.6
          45114.2 45448.1 45724.4 45765 44968.4 41717.8 39365.8 41717.8 41717.8 41717.8 41717.8 41717.8
          41717.8 41717.8 41717.8 41717.8 41717.8 41717.8 41717.8 41717.8 41717.8 41717.8 41717.8 41717.8
          41717.8 41717.8 41717.8 41717.8 41717.8 41717.8 41717.8 41717.8 41717.8 41717.8 41717.8 41717.8
          41717.8
        </DataArray>
        <DataArray type="Float32" Name="rho" NumberOfComponents="1" format="ascii">
          1.44327 1.44237 1.46596 1.4478 1.44211 1.44586 1.44188 1.44476 1.4417 1.44404 1.44155 1.44352
          1.44141 1.4431 1.44129 1.44276 1.44118 1.44246 1.44107 1.44219 1.44098 1.44194 1.4409 1.44173
          1.44082 1.44154 1.44075 1.44136 1.4407 1.44122 1.44063 1.44107 1.44058 1.44093 1.44054 1.44078
          1.4405 1.44061 1.44046 1.44041 1.44042 1.44018 1.44041 1.43996 1.4404 1.43978 1.44043 1.43969
          1.44047 1.43973 1.44056 1.43992 1.44067 1.4403 1.44083 1.44089 1.44102 1.4417 1.44159 1.44277
          1.44285 1.45488 1.48515 1.45884 1.45092 1.44849 1.44699 1.44597 1.44519 1.44457 1.44403 1.44356
          1.44314 1.44276 1.44243 1.44214 1.44188 1.44164 1.4414 1.44114 1.44084 1.44047 1.44004 1.4396
          1.43919 1.43893 1.43889 1.43914 1.43974 1.44071 1.44217 1.44399 1.45488 1.49757 1.47282 1.45881
          1.45344 1.45078 1.44905 1.4478 1.44682 1.44599 1.44527 1.44463 1.44406 1.44356 1.44311 1.44272
          1.44237 1.44203 1.44166 1.44123 1.44069 1.44006 1.43936 1.4387 1.43819 1.43799 1.43821 1.43896
          1.44026 1.4423 1.44497 1.45488 1.50313 1.48616 1.46956 1.46042 1.45577 1.45301 1.45109 1.44964
          1.44844 1.44742 1.44651 1.4457 1.44499 1.44436 1.44381 1.44331 1.44285 1.44237 1.44181 1.44112
          1.44028 1.43933 1.43836 1.43754 1.43709 1.43717 1.43796 1.43951 1.44202 1.44552 1.45488 1.50289
          1.4958 1.48145 1.46977 1.46251 1.45817 1.4553 1.4532 1.45152 1.45011 1.44888 1.44778 1.44681
          1.44595 1.4452 1.44453 1.44393 1.44332 1.44264 1.44181 1.44078 1.43957 1.43827 1.43708 1.43627
          1.43608 1.43677 1.43846 1.44136 1.44563 1.45488 1.49865 1.50003 1.4917 1.48056 1.47132 1.465
          1.46077 1.45776 1.45544 1.45352 1.45188 1.45042 1.44913 1.44799 1.44698 1.4461 1.44532 1.44457
          1.44377 1.44281 1.44162 1.44017 1.43854 1.43694 1.43567 1.43507 1.4355 1.43717 1.44036 1.44536
          1.45488 1.49257 1.49882 1.49765 1.4905 1.48151 1.4737 1.46787 1.46364 1.46044 1.45786 1.45569
          1.45379 1.4521 1.4506 1.44929 1.44813 1.44712 1.4462 1.44526 1.44418 1.44286 1.44122 1.43929
          1.43726 1.43545 1.43431 1.43429 1.43578 1.43913 1.44479 1.45488 1.48655 1.49376 1.49805 1.49672
          1.49094 1.48352 1.47666 1.47114 1.46683 1.46339 1.46053 1.45806 1.45589 1.45396 1.45225 1.45075
          1.44945 1.44829 1.44718 1.44599 1.44457 1.44279 1.44062 1.43819 1.43584 1.43404 1.43339 1.43447
          1.43782 1.44405 1.45488 1.48198 1.48724 1.49365 1.49739 1.49669 1.49229 1.48617 1.48007 1.47476
          1.47034 1.46665 1.46348 1.4607 1.45823 1.45604 1.45411 1.45243 1.45096 1.44962 1.44829 1.44678
          1.44493 1.44261 1.43988 1.43701 1.4345 1.43309 1.43354 1.43665 1.44325 1.45488 1.47937 1.48149
          1.48681 1.4928 1.49666 1.49694 1.49394 1.48907 1.4837 1.47864 1.47413 1.47018 1.4667 1.4636
          1.46084 1.45838 1.45623 1.45435 1.4527 1.45115 1.44954 1.44765 1.44529 1.44239 1.43912 1.43595
          1.43369 1.4333 1.43589 1.44256 1.45488 1.47852 1.47782 1.48029 1.48537 1.49116 1.49543 1.49681
          1.49529 1.49173 1.48722 1.48252 1.47803 1.4739 1.47014 1.46674 1.46368 1.46097 1.45859 1.45651
          1.45465 1.45287 1.45094 1.44861 1.44569 1.44221 1.43853 1.43544 1.43408 1.43583 1.44218 1.45488
          1.4786 1.47627 1.4759 1.47823 1.48289 1.48845 1.49312 1.49563 1.4956 1.49348 1.49002 1.48592
          1.48166 1.4775 1.47357 1.46994 1.46664 1.46369 1.46109 1.45881 1.45675 1.45471 1.45244 1.44965
          1.44619 1.44224 1.43848 1.43611 1.43678 1.44233 1.45488 1.47867 1.47594 1.47388 1.47347 1.47533
          1.47931 1.48442 1.48929 1.49271 1.49409 1.49348 1.4913 1.48811 1.48437 1.48045 1.47655 1.47284
          1.4694 1.46629 1.46353 1.46108 1.45883 1.45656 1.45396 1.45075 1.44686 1.44273 1.43949 1.4389
          1.44318 1.45488 1.47786 1.4755 1.47309 1.47119 1.47054 1.47171 1.47475 1.47907 1.48368 1.48758
          1.49005 1.49083 1.49005 1.48803 1.48518 1.48184 1.4783 1.47477 1.47139 1.46828 1.46548 1.46296
          1.46061 1.45819 1.45538 1.45191 1.44787 1.44407 1.44223 1.44485 1.45488 1.47567 1.47385 1.4719
          1.46987 1.46813 1.46722 1.46762 1.46953 1.47271 1.47654 1.48026 1.4832 1.48496 1.48541 1.48466
          1.48295 1.48056 1.47775 1.47476 1.47177 1.46893 1.46631 1.46392 1.46166 1.45931 1.45653 1.45313
          1.44939 1.44661 1.44731 1.45488 1.47162 1.47022 1.46893 1.46752 1.46601 1.46458 1.46358 1.46338
          1.46421 1.46605 1.46861 1.47145 1.47406 1.47605 1.4772 1.47744 1.47684 1.47557 1.4738 1.47173
          1.46953 1.46733 1.46525 1.46331 1.46145 1.4595 1.45719 1.45435 1.45148 1.45043 1.45488 1.46536
          1.46385 1.4633 1.46267 1.46195 1.46113 1.46029 1.45957 1.45917 1.45926 1.45991 1.46105 1.46249
          1.464 1.46535 1.46635 1.4669 1.46699 1.46665 1.46595 1.465 1.46389 1.46271 1.46154 1.46043
          1.45936 1.45824 1.4569 1.45522 1.45372 1.45488 1.46422 1.45488 1.45488 1.45488 1.45488 1.45488
          1.45488 1.45488 1.45488 1.45488 1.45488 1.45488 1.45488 1.45488 1.45488 1.45488 1.45488 1.45488
          1.45488 1.45488 1.45488 1.45488 1.45488 1.45488 1.45488 1.45488 1.45488 1.45488 1.45488 1.45488
          1.45488
        </DataArray>
        <DataArray type="Float32" Name="mu" NumberOfComponents="1" format="ascii">
          1.8548e-05 1.85529e-05 1.83575e-05 1.85049e-05 1.8555e-05 1.85222e-05 1.85568e-05 1.8532e-05 1.85582e-05 1.85384e-05 1.85595e-05 1.85431e-05
          1.85606e-05 1.85467e-05 1.85616e-05 1.85498e-05 1.85625e-05 1.85525e-05 1.85633e-05 1.85549e-05 1.85641e-05 1.85571e-05 1.85647e-05 1.8559e-05
          1.85653e-05 1.85607e-05 1.85659e-05 1.85623e-05 1.85664e-05 1.85637e-05 1.85669e-05 1.8565e-05 1.85673e-05 1.85663e-05 1.85677e-05 1.85677e-05
          1.8568e-05 1.85695e-05 1.85684e-05 1.85716e-05 1.85686e-05 1.85739e-05 1.85688e-05 1.85764e-05 1.85689e-05 1.85786e-05 1.85688e-05 1.85803e-05
          1.85685e-05 1.85809e-05 1.8568e-05 1.85803e-05 1.85673e-05 1.85784e-05 1.85663e-05 1.85755e-05 1.85651e-05 1.85721e-05 1.85633e-05 1.857e-05
          1.85616e-05 1.85693e-05 1.8203e-05 1.84107e-05 1.84778e-05 1.84997e-05 1.85133e-05 1.85225e-05 1.85295e-05 1.85351e-05 1.854e-05 1.85443e-05
          1.85481e-05 1.85516e-05 1.85547e-05 1.85574e-05 1.85598e-05 1.85621e-05 1.85644e-05 1.85669e-05 1.857e-05 1.85739e-05 1.85784e-05 1.85834e-05
          1.85882e-05 1.85921e-05 1.85942e-05 1.85941e-05 1.85915e-05 1.85868e-05 1.85803e-05 1.85761e-05 1.85693e-05 1.81111e-05 1.82957e-05 1.84097e-05
          1.84567e-05 1.84808e-05 1.84964e-05 1.85077e-05 1.85167e-05 1.85242e-05 1.85308e-05 1.85367e-05 1.8542e-05 1.85467e-05 1.85509e-05 1.85546e-05
          1.8558e-05 1.85613e-05 1.85649e-05 1.85693e-05 1.85749e-05 1.85816e-05 1.85893e-05 1.85971e-05 1.86039e-05 1.86083e-05 1.86093e-05 1.86065e-05
          1.86003e-05 1.85907e-05 1.85822e-05 1.85693e-05 1.80798e-05 1.8192e-05 1.83199e-05 1.83966e-05 1.84379e-05 1.84628e-05 1.84801e-05 1.84933e-05
          1.85042e-05 1.85137e-05 1.8522e-05 1.85295e-05 1.85362e-05 1.85422e-05 1.85474e-05 1.85521e-05 1.85566e-05 1.85613e-05 1.8567e-05 1.85742e-05
          1.85831e-05 1.85935e-05 1.86046e-05 1.86149e-05 1.86224e-05 1.86257e-05 1.86235e-05 1.86162e-05 1.86038e-05 1.85899e-05 1.85693e-05 1.80977e-05
          1.81247e-05 1.82252e-05 1.83179e-05 1.83801e-05 1.84187e-05 1.84445e-05 1.84635e-05 1.84788e-05 1.84918e-05 1.85032e-05 1.85134e-05 1.85225e-05
          1.85306e-05 1.85378e-05 1.85441e-05 1.855e-05 1.85559e-05 1.85627e-05 1.85713e-05 1.85822e-05 1.85953e-05 1.86099e-05 1.86242e-05 1.86358e-05
          1.86424e-05 1.86421e-05 1.86346e-05 1.86197e-05 1.85997e-05 1.85693e-05 1.81482e-05 1.81064e-05 1.81504e-05 1.82309e-05 1.83059e-05 1.83605e-05
          1.83981e-05 1.84252e-05 1.84462e-05 1.84637e-05 1.84789e-05 1.84924e-05 1.85045e-05 1.85152e-05 1.85248e-05 1.85331e-05 1.85407e-05 1.8548e-05
          1.8556e-05 1.85658e-05 1.85783e-05 1.85938e-05 1.86118e-05 1.86305e-05 1.8647e-05 1.86583e-05 1.86613e-05 1.86547e-05 1.86378e-05 1.86112e-05
          1.85693e-05 1.82119e-05 1.81347e-05 1.81169e-05 1.8157e-05 1.82236e-05 1.82878e-05 1.83381e-05 1.83756e-05 1.84043e-05 1.84277e-05 1.84476e-05
          1.84652e-05 1.84809e-05 1.84949e-05 1.85074e-05 1.85184e-05 1.8528e-05 1.85371e-05 1.85463e-05 1.85572e-05 1.85709e-05 1.85883e-05 1.86092e-05
          1.86323e-05 1.86544e-05 1.86715e-05 1.86794e-05 1.86753e-05 1.86571e-05 1.8624e-05 1.85693e-05 1.82719e-05 1.8194e-05 1.81331e-05 1.81205e-05
          1.81534e-05 1.82088e-05 1.82652e-05 1.83128e-05 1.83508e-05 1.83816e-05 1.84076e-05 1.84302e-05 1.84503e-05 1.84683e-05 1.84844e-05 1.84986e-05
          1.8511e-05 1.85222e-05 1.85331e-05 1.85449e-05 1.85595e-05 1.85781e-05 1.86013e-05 1.86282e-05 1.86559e-05 1.86797e-05 1.86942e-05 1.86944e-05
          1.86763e-05 1.8637e-05 1.85693e-05 1.83159e-05 1.82622e-05 1.81894e-05 1.8135e-05 1.81207e-05 1.81446e-05 1.81898e-05 1.82396e-05 1.82851e-05
          1.83239e-05 1.83569e-05 1.83856e-05 1.84111e-05 1.84339e-05 1.84544e-05 1.84725e-05 1.84885e-05 1.85025e-05 1.85155e-05 1.85286e-05 1.85438e-05
          1.85629e-05 1.85874e-05 1.86171e-05 1.86497e-05 1.86804e-05 1.87027e-05 1.87092e-05 1.86933e-05 1.86495e-05 1.85693e-05 1.83399e-05 1.83194e-05
          1.82634e-05 1.81946e-05 1.81415e-05 1.81217e-05 1.81352e-05 1.81701e-05 1.82132e-05 1.8256e-05 1.82953e-05 1.83305e-05 1.8362e-05 1.83903e-05
          1.84159e-05 1.84388e-05 1.84591e-05 1.84769e-05 1.84927e-05 1.85078e-05 1.85237e-05 1.85429e-05 1.85674e-05 1.85983e-05 1.86345e-05 1.86715e-05
          1.87019e-05 1.87166e-05 1.87056e-05 1.86599e-05 1.85693e-05 1.83465e-05 1.83544e-05 1.83296e-05 1.82754e-05 1.82099e-05 1.81558e-05 1.81285e-05
          1.81303e-05 1.81539e-05 1.81891e-05 1.82282e-05 1.8267e-05 1.83035e-05 1.83373e-05 1.83684e-05 1.83966e-05 1.84219e-05 1.84443e-05 1.8464e-05
          1.84818e-05 1.84992e-05 1.85183e-05 1.85421e-05 1.85726e-05 1.86101e-05 1.86516e-05 1.86897e-05 1.87136e-05 1.87103e-05 1.86667e-05 1.85693e-05
          1.83444e-05 1.83678e-05 1.83721e-05 1.83483e-05 1.82988e-05 1.82373e-05 1.8182e-05 1.81468e-05 1.81364e-05 1.81473e-05 1.81728e-05 1.82061e-05
          1.82424e-05 1.82788e-05 1.8314e-05 1.8347e-05 1.83774e-05 1.84048e-05 1.84291e-05 1.84507e-05 1.84705e-05 1.84903e-05 1.8513e-05 1.85416e-05
          1.8578e-05 1.86212e-05 1.8665e-05 1.8698e-05 1.87048e-05 1.86678e-05 1.85693e-05 1.83426e-05 1.83695e-05 1.83903e-05 1.83947e-05 1.83756e-05
          1.83336e-05 1.82784e-05 1.82238e-05 1.81822e-05 1.81602e-05 1.8158e-05 1.81719e-05 1.81966e-05 1.82277e-05 1.82617e-05 1.82962e-05 1.83298e-05
          1.83613e-05 1.83901e-05 1.84159e-05 1.8439e-05 1.84605e-05 1.84826e-05 1.85085e-05 1.85415e-05 1.85828e-05 1.86289e-05 1.86694e-05 1.86874e-05
          1.86617e-05 1.85693e-05 1.83497e-05 1.83725e-05 1.83962e-05 1.84154e-05 1.84221e-05 1.84101e-05 1.83784e-05 1.83326e-05 1.82825e-05 1.82385e-05
          1.8208e-05 1.81938e-05 1.81953e-05 1.82092e-05 1.8232e-05 1.82603e-05 1.82914e-05 1.83231e-05 1.83538e-05 1.83825e-05 1.84086e-05 1.84323e-05
          1.84546e-05 1.84781e-05 1.85061e-05 1.85419e-05 1.85854e-05 1.86296e-05 1.86582e-05 1.86474e-05 1.85693e-05 1.83702e-05 1.83876e-05 1.84065e-05
          1.84265e-05 1.84439e-05 1.84532e-05 1.84491e-05 1.84293e-05 1.83961e-05 1.83554e-05 1.8315e-05 1.82817e-05 1.82597e-05 1.82505e-05 1.82532e-05
          1.82657e-05 1.82852e-05 1.83095e-05 1.8336e-05 1.8363e-05 1.8389e-05 1.84133e-05 1.84357e-05 1.84571e-05 1.84798e-05 1.85074e-05 1.85427e-05
          1.85839e-05 1.86195e-05 1.86254e-05 1.85693e-05 1.84086e-05 1.84219e-05 1.84343e-05 1.8448e-05 1.84629e-05 1.84771e-05 1.84872e-05 1.84893e-05
          1.84808e-05 1.84618e-05 1.84349e-05 1.84047e-05 1.83762e-05 1.83536e-05 1.83391e-05 1.83335e-05 1.83362e-05 1.83458e-05 1.83605e-05 1.83786e-05
          1.83983e-05 1.84183e-05 1.84376e-05 1.84556e-05 1.84731e-05 1.84918e-05 1.85148e-05 1.85444e-05 1.85775e-05 1.85975e-05 1.85693e-05 1.84683e-05
          1.84827e-05 1.84881e-05 1.84942e-05 1.85012e-05 1.85093e-05 1.85177e-05 1.85249e-05 1.85289e-05 1.8528e-05 1.85214e-05 1.85096e-05 1.84943e-05
          1.84781e-05 1.84634e-05 1.84519e-05 1.84447e-05 1.84422e-05 1.84439e-05 1.84493e-05 1.84574e-05 1.84672e-05 1.84778e-05 1.84885e-05 1.84988e-05
          1.85087e-05 1.85193e-05 1.85326e-05 1.85503e-05 1.85693e-05 1.85693e-05 1.84791e-05 1.85693e-05 1.85693e-05 1.85693e-05 1.85693e-05 1.85693e-05
          1.85693e-05 1.85693e-05 1.85693e-05 1.85693e-05 1.85693e-05 1.85693e-05 1.85693e-05 1.85693e-05 1.85693e-05 1.85693e-05 1.85693e-05 1.85693e-05
          1.85693e-05 1.85693e-05 1.85693e-05 1.85693e-05 1.85693e-05 1.85693e-05 1.85693e-05 1.85693e-05 1.85693e-05 1.85693e-05 1.85693e-05 1.85693e-05
          1.85693e-05
        </DataArray>
        <DataArray type="Float32" Name="v" NumberOfComponents="3" format="ascii">
          0.00240494 0.00151047 0 0.00134118 -8.74296e-07 0 0.01 0 0 0.00648461 0.000764538 0
          0.000350225 0.000185583 0 0.00265219 0.000341624 0 0.00036652 0.000126373 0 0.0021302 0.000146042 0
          0.00024306 0.000115092 0 0.00148558 0.00015488 0 0.000214674 0.000103494 0 0.00129062 0.00011196 0
          0.000178627 9.61856e-05 0 0.00107264 0.000105004 0 0.000164509 8.95791e-05 0 0.000984241 9.1283e-05 0
          0.000148216 8.48678e-05 0 0.000886796 8.51926e-05 0 0.000142298 8.1854e-05 0 0.000847123 7.97417e-05 0
          0.00013351 7.9576e-05 0 0.000796976 7.64923e-05 0 0.000131854 7.63398e-05 0 0.000782433 7.23044e-05 0
          0.000126328 7.5502e-05 0 0.000752772 7.07906e-05 0 0.000127173 7.52717e-05 0 0.000752988 7.01573e-05 0
          0.000123163 7.28785e-05 0 0.000733546 6.72698e-05 0 0.000125713 7.47712e-05 0 0.000743075 6.90256e-05 0
          0.000122448 7.45716e-05 0 0.000729333 6.82132e-05 0 0.000126848 7.7409e-05 0 0.000748755 7.11126e-05 0
          0.000123993 8.09369e-05 0 0.000738979 7.36169e-05 0 0.000131311 8.62845e-05 0 0.000773412 7.92739e-05 0
          0.000128687 9.94568e-05 0 0.000767888 9.04128e-05 0 0.000141587 0.000111695 0 0.00083168 0.000103338 0
          0.000139385 0.000136083 0 0.000833935 0.00012344 0 0.000163709 0.000162172 0 0.000957761 0.000151642 0
          0.000161644 0.000205063 0 0.000973272 0.000182811 0 0.000214619 0.000259873 0 0.00124136 0.000249888 0
          0.000202656 0.000344608 0 0.00126989 0.000276777 0 0.000375858 0.000459504 0 0.00201625 0.000522582 0
          0.000219402 0.000750285 0 0.0020486 0.000190126 0 0.00134696 0.000646194 0 0.00564623 0.0023058 0
          0.00288209 0.0133195 0 0.01 0 0 0.01 0 0 0.00805515 0.00234515 0
          0.00495554 0.00111613 0 0.00361976 0.000323401 0 0.0027962 0.000332875 0 0.00236513 0.000182898 0
          0.00203504 0.000165324 0 0.00184993 0.000122075 0 0.00169228 0.000108176 0 0.00160794 9.1666e-05 0
          0.00152581 8.36216e-05 0 0.00149075 7.49574e-05 0 0.0014438 7.02531e-05 0 0.00143641 6.7562e-05 0
          0.00140806 6.25126e-05 0 0.0014175 6.33618e-05 0 0.00140053 5.99651e-05 0 0.00142651 6.27071e-05 0
          0.00141932 6.10539e-05 0 0.00146905 6.73265e-05 0 0.00147512 7.0165e-05 0 0.00156967 8.45489e-05 0
          0.0016014 8.75225e-05 0 0.00178364 0.000120414 0 0.00186723 0.000109574 0 0.00224129 0.000196811 0
          0.00244338 9.07877e-05 0 0.00334081 0.00040235 0 0.00399528 -0.000391069 0 0.00690368 0.000600975 0
          0.01 0 0 0.01 0 0 0.00925391 0.00256553 0 0.00719865 0.00164708 0
          0.00534843 0.000692023 0 0.00422754 0.000509134 0 0.00358739 0.000310904 0 0.00310357 0.000243224 0
          0.00282287 0.000175101 0 0.00258812 0.000142522 0 0.00245629 0.000113646 0 0.00233468 9.66617e-05 0
          0.00227612 8.20798e-05 0 0.00220916 7.22587e-05 0 0.0021915 6.64594e-05 0 0.00215399 5.8218e-05 0
          0.00216168 5.72891e-05 0 0.0021427 5.06321e-05 0 0.00217449 5.20701e-05 0 0.00217249 4.56445e-05 0
          0.0022383 5.04356e-05 0 0.00226059 4.44274e-05 0 0.00238862 5.56869e-05 0 0.00245706 4.19678e-05 0
          0.00270496 6.77253e-05 0 0.00286741 2.39377e-05 0 0.00336497 8.92622e-05 0 0.00375558 -8.10734e-05 0
          0.00484189 0.000115607 0 0.00605006 -0.000774615 0 0.00807559 0.000123018 0 0.01 0 0
          0.01 0 0 0.00971776 0.00344184 0 0.00840338 0.00248918 0 0.00674779 0.00125739 0
          0.00554928 0.00086543 0 0.00476596 0.000525989 0 0.00419645 0.000397063 0 0.00382617 0.000271914 0
          0.00353823 0.000212261 0 0.00335776 0.000157847 0 0.00320624 0.000126617 0 0.00312216 0.000100102 0
          0.00303978 8.17467e-05 0 0.0030096 6.98004e-05 0 0.00296578 5.59202e-05 0 0.00296909 5.15334e-05 0
          0.00295062 3.90209e-05 0 0.00298457 3.79843e-05 0 0.0029906 2.28724e-05 0 0.00306632 2.4922e-05 0
          0.00310863 2.86239e-06 0 0.00325818 9.01767e-06 0 0.00336807 -3.58154e-05 0 0.00365478 -2.01794e-05 0
          0.00389733 -0.000128599 0 0.00445199 -8.93832e-05 0 0.00497948 -0.000401313 0 0.00608378 -0.000337725 0
          0.00724003 -0.00142519 0 0.00863711 -0.00102968 0 0.01 0 0 0.01 0 0
          0.0101842 0.00315324 0 0.00961344 0.00285949 0 0.00815923 0.00179218 0 0.00694096 0.00121529 0
          0.00604698 0.000793655 0 0.00537893 0.000573677 0 0.00492869 0.000400885 0 0.00457532 0.000299404 0
          0.00434845 0.0002192 0 0.00415925 0.000166786 0 0.00404988 0.000126591 0 0.00394769 9.62874e-05 0
          0.00390492 7.65609e-05 0 0.00385226 5.51467e-05 0 0.00385194 4.57073e-05 0 0.00383261 2.62318e-05 0
          0.00387072 2.05267e-05 0 0.00388409 -3.92064e-06 0 0.00397343 -8.59958e-06 0 0.00403532 -4.6553e-05 0
          0.00421249 -5.34861e-05 0 0.00436273 -0.000126398 0 0.00469772 -0.000138188 0 0.00501685 -0.000295215 0
          0.00563734 -0.000318888 0 0.00629321 -0.000701632 0 0.00737778 -0.000778987 0 0.0085344 -0.00172236 0
          0.00928135 -0.00111142 0 0.01 0 0 0.01 0 0 0.0102206 0.00351037 0
          0.0100248 0.00342244 0 0.00906472 0.00243622 0 0.00804241 0.00172385 0 0.00718199 0.00115818 0
          0.00650629 0.000840696 0 0.00601508 0.000586558 0 0.00563264 0.000434561 0 0.00537077 0.000311879 0
          0.00515953 0.000231871 0 0.00502803 0.000169375 0 0.00491318 0.000122718 0 0.00485788 9.05968e-05 0
          0.00479994 5.81372e-05 0 0.00479425 4.08593e-05 0 0.00477597 1.07672e-05 0 0.00481422 -1.73709e-06 0
          0.00483544 -4.06314e-05 0 0.00493059 -5.45239e-05 0 0.00501041 -0.000117078 0 0.00519946 -0.000140735 0
          0.00538169 -0.000257649 0 0.00573164 -0.000302451 0 0.00609527 -0.000537585 0 0.00670663 -0.000630654 0
          0.00736601 -0.00113395 0 0.00827473 -0.00134241 0 0.00911662 -0.00223498 0 0.00950431 -0.0018058 0
          0.01 0 0 0.01 0 0 0.0103882 0.00294674 0 0.0105686 0.00342825 0
          0.00994851 0.00281397 0 0.00914024 0.00211986 0 0.008344 0.00152043 0 0.0076771 0.00111087 0
          0.00716439 0.000797946 0 0.00675377 0.000585667 0 0.0064648 0.000424178 0 0.00622895 0.00030931 0
          0.00607846 0.000223666 0 0.00594803 0.000156377 0 0.00588194 0.000110083 0 0.00581645 6.40022e-05 0
          0.00580681 3.66764e-05 0 0.00578778 -5.38198e-06 0 0.00582803 -2.76948e-05 0 0.00585527 -8.13559e-05 0
          0.00595839 -0.000109701 0 0.00605334 -0.000195093 0 0.00625635 -0.000244171 0 0.00646497 -0.000397573 0
          0.00682933 -0.000488953 0 0.00722617 -0.000774785 0 0.00781815 -0.00094421 0 0.00846915 -0.00146942 0
          0.00919277 -0.00171116 0 0.0098399 -0.00231945 0 0.00985351 -0.00161295 0 0.01 0 0
          0.01 0 0 0.01029 0.00301191 0 0.0105712 0.00362493 0 0.0103477 0.0032338 0
          0.00983877 0.00258746 0 0.00924116 0.00194205 0 0.00868104 0.00145615 0 0.00821567 0.00106327 0
          0.00782827 0.000787714 0 0.00754092 0.000571943 0 0.00730544 0.000416886 0 0.00714749 0.000298655 0
          0.00701369 0.000206011 0 0.00694036 0.000139761 0 0.00687299 7.59294e-05 0 0.00685839 3.47254e-05 0
          0.00684016 -2.37201e-05 0 0.00687711 -5.8872e-05 0 0.00690822 -0.000133038 0 0.0070079 -0.000179021 0
          0.00710862 -0.000295949 0 0.00730295 -0.000373941 0 0.00751369 -0.000577032 0 0.00784868 -0.000717715 0
          0.00821908 -0.00107247 0 0.00871347 -0.00131436 0 0.00922805 -0.00188336 0 0.00969764 -0.00216437 0
          0.0100384 -0.00261105 0 0.00991033 -0.00197204 0 0.01 0 0 0.01 0 0
          0.010346 0.00237903 0 0.010775 0.00330377 0 0.0107929 0.00325294 0 0.010537 0.00279332 0
          0.0101132 0.00223617 0 0.00967004 0.00173361 0 0.0092683 0.00131089 0 0.00891629 0.000982027 0
          0.00864388 0.000726072 0 0.00841375 0.000529534 0 0.00825541 0.000381901 0 0.00811943 0.000261558 0
          0.00804256 0.000175094 0 0.00797266 9.17127e-05 0 0.00795504 3.49538e-05 0 0.00793589 -4.03022e-05 0
          0.00797036 -9.12375e-05 0 0.0080024 -0.000184439 0 0.00809803 -0.000251899 0 0.00819885 -0.000394386 0
          0.00838067 -0.000505169 0 0.00858367 -0.000740984 0 0.00888017 -0.000928309 0 0.00921306 -0.00130708 0
          0.00960141 -0.0015868 0 0.00999873 -0.0020936 0 0.0102497 -0.00229651 0 0.0103988 -0.00246287 0
          0.010091 -0.00162613 0 0.01 0 0 0.01 0 0 0.0102362 0.00231966 0
          0.0106363 0.00322252 0 0.0108613 0.00333428 0 0.0108473 0.00300303 0 0.0106643 0.00251451 0
          0.0103978 0.00202222 0 0.0101255 0.00157371 0 0.00986228 0.00120442 0 0.00964658 0.000903556 0
          0.00945509 0.000666487 0 0.00931782 0.00048328 0 0.00919751 0.000332911 0 0.00912608 0.000221496 0
          0.00906171 0.000115452 0 0.00904173 3.96325e-05 0 0.00902285 -5.61785e-05 0 0.0090485 -0.000125642 0
          0.00907502 -0.000242421 0 0.00915143 -0.000333089 0 0.00923487 -0.000506382 0 0.00937606 -0.000649573 0
          0.00953458 -0.00092286 0 0.00974701 -0.00115129 0 0.00997766 -0.00155798 0 0.0102068 -0.0018664 0
          0.0104099 -0.0023339 0 0.0104488 -0.00250507 0 0.0104026 -0.00252897 0 0.010077 -0.00176356 0
          0.01 0 0 0.01 0 0 0.0102575 0.0017313 0 0.0106977 0.00270897 0
          0.0110364 0.0030089 0 0.0112035 0.00287172 0 0.0111972 0.00253505 0 0.0110866 0.00212317 0
          0.010931 0.00171919 0 0.010758 0.00135104 0 0.0106052 0.00104071 0 0.0104596 0.000778892 0
          0.0103516 0.000573898 0 0.0102516 0.000398968 0 0.0101909 0.000267764 0 0.0101336 0.000141934 0
          0.0101137 4.86936e-05 0 0.010094 -6.42527e-05 0 0.0101108 -0.000151525 0 0.0101283 -0.000285382 0
          0.0101831 -0.000397216 0 0.0102434 -0.000587334 0 0.0103389 -0.000754623 0 0.0104468 -0.00103588 0
          0.0105716 -0.00128029 0 0.0107059 -0.00165868 0 0.0107912 -0.00193872 0 0.0108508 -0.00228713 0
          0.0107274 -0.00234204 0 0.0105606 -0.0021849 0 0.0101658 -0.0013543 0 0.01 0 0
          0.01 0 0 0.0101723 0.0016235 0 0.0105456 0.00246682 0 0.0109468 0.00280846 0
          0.0112431 0.0027601 0 0.0114216 0.00251436 0 0.0114814 0.00216978 0 0.0114782 0.00180922 0
          0.011425 0.0014618 0 0.0113671 0.00115418 0 0.0112945 0.000883207 0 0.0112389 0.000662275 0
          0.0111783 0.000468919 0 0.0111407 0.000319191 0 0.0110998 0.00017526 0 0.0110829 6.48338e-05 0
          0.0110629 -6.50471e-05 0 0.0110652 -0.000169359 0 0.011065 -0.00032021 0 0.0110834 -0.000450412 0
          0.0111006 -0.00065598 0 0.0111266 -0.000840784 0 0.0111509 -0.00112674 0 0.0111596 -0.00137724 0
          0.0111574 -0.00172909 0 0.0110862 -0.00198566 0 0.0109829 -0.00225744 0 0.0107384 -0.00227333 0
          0.0104872 -0.00205923 0 0.010129 -0.0013498 0 0.01 0 0 0.01 0 0
          0.0101812 0.00110203 0 0.0105516 0.0018685 0 0.0109778 0.00225107 0 0.0113556 0.0023169 0
          0.0116457 0.00219398 0 0.0118336 0.00195475 0 0.0119455 0.00168168 0 0.0119927 0.00139656 0
          0.012013 0.00113619 0 0.0120047 0.000892487 0 0.0119968 0.000688014 0 0.0119741 0.000499722 0
          0.0119609 0.00034988 0 0.0119375 0.000202283 0 0.0119257 8.56399e-05 0 0.0119058 -4.89488e-05 0
          0.011895 -0.00016078 0 0.0118771 -0.000312994 0 0.0118611 -0.000448324 0 0.0118375 -0.000645602 0
          0.0118002 -0.00082539 0 0.0117526 -0.00107956 0 0.0116635 -0.00129894 0 0.0115584 -0.0015758 0
          0.0113701 -0.0017594 0 0.0111638 -0.00191443 0 0.0108376 -0.00184792 0 0.0105366 -0.00157597 0
          0.0101665 -0.000925301 0 0.01 0 0 0.01 0 0 0.0101199 0.000958686 0
          0.0104188 0.00153841 0 0.0108248 0.00186634 0 0.0112265 0.00194965 0 0.0115983 0.00188139 0
          0.0118892 0.00170393 0 0.0121171 0.00149006 0 0.0122681 0.00125756 0 0.0123778 0.00104286 0
          0.0124405 0.00083762 0 0.0124872 0.000662562 0 0.0125072 0.000496163 0 0.0125229 0.000359607 0
          0.0125204 0.000221006 0 0.0125157 0.000107923 0 0.0124962 -2.26723e-05 0 0.0124709 -0.000133822 0
          0.012431 -0.000280237 0 0.0123757 -0.000412003 0 0.0123029 -0.000594336 0 0.0121979 -0.000760697 0
          0.0120701 -0.000981141 0 0.0118872 -0.00116925 0 0.0116791 -0.0013868 0 0.0113964 -0.00152608 0
          0.0111048 -0.00161998 0 0.0107441 -0.00155108 0 0.0104351 -0.00131103 0 0.0101236 -0.000828 0
          0.01 0 0 0.01 0 0 0.0101204 0.000498078 0 0.0103914 0.000921162 0
          0.0107621 0.00119119 0 0.0111519 0.00130335 0 0.0115354 0.00130068 0 0.0118667 0.00120878 0
          0.0121479 0.00107783 0 0.0123598 0.000923258 0 0.0125231 0.000777999 0 0.0126323 0.0006361 0
          0.0127123 0.000516644 0 0.0127587 0.000399851 0 0.0127905 0.000303671 0 0.0128005 0.000201344 0
          0.0127992 0.000115778 0 0.0127803 1.39825e-05 0 0.0127456 -7.45297e-05 0 0.0126927 -0.000189493 0
          0.0126132 -0.000293383 0 0.0125125 -0.000431182 0 0.0123688 -0.000554815 0 0.0121999 -0.000709597 0
          0.01197 -0.000834543 0 0.0117177 -0.000966561 0 0.0113968 -0.00103388 0 0.0110787 -0.00105632 0
          0.0107144 -0.000964756 0 0.0104135 -0.000762345 0 0.0101269 -0.000418018 0 0.01 0 0
          0.01 0 0 0.0100697 0.000348254 0 0.0102545 0.000583315 0 0.0105466 0.000747484 0
          0.0108704 0.000819004 0 0.0112181 0.000825822 0 0.0115355 0.000772401 0 0.0118268 0.000693339 0
          0.0120607 0.000594118 0 0.0122527 0.00050104 0 0.012389 0.000409633 0 0.0124906 0.000335986 0
          0.0125526 0.000264796 0 0.0125929 0.000209091 0 0.0126084 0.000147996 0 0.0126076 9.77093e-05 0
          0.0125883 3.38097e-05 0 0.0125488 -2.2056e-05 0 0.0124905 -9.76576e-05 0 0.0124014 -0.000166017 0
          0.0122894 -0.000256771 0 0.0121329 -0.000337704 0 0.0119505 -0.000436288 0 0.0117128 -0.000515309 0
          0.0114554 -0.000593208 0 0.0111468 -0.000632568 0 0.0108471 -0.000636749 0 0.0105309 -0.000581965 0
          0.0102825 -0.000458555 0 0.0100774 -0.000285754 0 0.01 0 0 0.01 0 0
          0.0100575 1.03669e-05 0 0.0101643 8.96227e-05 0 0.0103461 0.000150639 0 0.0105506 0.000192504 0
          0.0107803 0.000209356 0 0.0109933 0.000208941 0 0.0111969 0.000195199 0 0.0113639 0.0001734 0
          0.0115071 0.000150427 0 0.0116111 0.000126474 0 0.0116914 0.000108003 0 0.0117409 8.93921e-05 0
          0.0117726 7.69993e-05 0 0.0117845 6.15896e-05 0 0.0117822 5.09804e-05 0 0.0117674 3.40206e-05 0
          0.0117355 2.10423e-05 0 0.0116933 -4.38057e-07 0 0.0116258 -1.75022e-05 0 0.011547 -4.33227e-05 0
          0.0114324 -6.2697e-05 0 0.0113066 -8.83912e-05 0 0.0111376 -0.000103329 0 0.010964 -0.000118266 0
          0.0107515 -0.000115889 0 0.0105546 -0.000103905 0 0.0103435 -7.01879e-05 0 0.0101843 -2.25169e-05 0
          0.0100522 2.80536e-05 0 0.01 0 0 0.01 0 0 0.01 0 0
          0.01 0 0 0.01 0 0 0.01 0 0 0.01 0 0
          0.01 0 0 0.01 0 0 0.01 0 0 0.01 0 0
          0.01 0 0 0.01 0 0 0.01 0 0 0.01 0 0
          0.01 0 0 0.01 0 0 0.01 0 0 0.01 0 0
          0.01 0 0 0.01 0 0 0.01 0 0 0.01 0 0
          0.01 0 0 0.01 0 0 0.01 0 0 0.01 0 0
          0.01 0 0 0.01 0 0 0.01 0 0 0.01 0 0
          0.01 0 0
        </DataArray>
      </PointData>
      <Points>
        <DataArray type="Float32" Name="Coordinates" NumberOfComponents="3" format="ascii">
          0 0.035 0 0.000333333 0.035 0 0 0.035081 0 0.000333333 0.035081 0
          0.000666667 0.035 0 0.000666667 0.035081 0 0.001 0.035 0 0.001 0.035081 0
          0.00133333 0.035 0 0.00133333 0.035081 0 0.00166667 0.035 0 0.00166667 0.035081 0
          0.002 0.035 0 0.002 0.035081 0 0.00233333 0.035 0 0.00233333 0.035081 0
          0.00266667 0.035 0 0.00266667 0.035081 0 0.003 0.035 0 0.003 0.035081 0
          0.00333333 0.035 0 0.00333333 0.035081 0 0.00366667 0.035 0 0.00366667 0.035081 0
          0.004 0.035 0 0.004 0.035081 0 0.00433333 0.035 0 0.00433333 0.035081 0
          0.00466667 0.035 0 0.00466667 0.035081 0 0.005 0.035 0 0.005 0.035081 0
          0.00533333 0.035 0 0.00533333 0.035081 0 0.00566667 0.035 0 0.00566667 0.035081 0
          0.006 0.035 0 0.006 0.035081 0 0.00633333 0.035 0 0.00633333 0.035081 0
          0.00666667 0.035 0 0.00666667 0.035081 0 0.007 0.035 0 0.007 0.035081 0
          0.00733333 0.035 0 0.00733333 0.035081 0 0.00766667 0.035 0 0.00766667 0.035081 0
          0.008 0.035 0 0.008 0.035081 0 0.00833333 0.035 0 0.00833333 0.035081 0
          0.00866667 0.035 0 0.00866667 0.035081 0 0.009 0.035 0 0.009 0.035081 0
          0.00933333 0.035 0 0.00933333 0.035081 0 0.00966667 0.035 0 0.00966667 0.035081 0
          0.01 0.035 0 0.01 0.035081 0 0 0.0351725 0 0.000333333 0.0351725 0
          0.000666667 0.0351725 0 0.001 0.0351725 0 0.00133333 0.0351725 0 0.00166667 0.0351725 0
          0.002 0.0351725 0 0.00233333 0.0351725 0 0.00266667 0.0351725 0 0.003 0.0351725 0
          0.00333333 0.0351725 0 0.00366667 0.0351725 0 0.004 0.0351725 0 0.00433333 0.0351725 0
          0.00466667 0.0351725 0 0.005 0.0351725 0 0.00533333 0.0351725 0 0.00566667 0.0351725 0
          0.006 0.0351725 0 0.00633333 0.0351725 0 0.00666667 0.0351725 0 0.007 0.0351725 0
          0.00733333 0.0351725 0 0.00766667 0.0351725 0 0.008 0.0351725 0 0.00833333 0.0351725 0
          0.00866667 0.0351725 0 0.009 0.0351725 0 0.00933333 0.0351725 0 0.00966667 0.0351725 0
          0.01 0.0351725 0 0 0.035276 0 0.000333333 0.035276 0 0.000666667 0.035276 0
          0.001 0.035276 0 0.00133333 0.035276 0 0.00166667 0.035276 0 0.002 0.035276 0
          0.00233333 0.035276 0 0.00266667 0.035276 0 0.003 0.035276 0 0.00333333 0.035276 0
          0.00366667 0.035276 0 0.004 0.035276 0 0.00433333 0.035276 0 0.00466667 0.035276 0
          0.005 0.035276 0 0.00533333 0.035276 0 0.00566667 0.035276 0 0.006 0.035276 0
          0.00633333 0.035276 0 0.00666667 0.035276 0 0.007 0.035276 0 0.00733333 0.035276 0
          0.00766667 0.035276 0 0.008 0.035276 0 0.00833333 0.035276 0 0.00866667 0.035276 0
          0.009 0.035276 0 0.00933333 0.035276 0 0.00966667 0.035276 0 0.01 0.035276 0
          0 0.0353929 0 0.000333333 0.0353929 0 0.000666667 0.0353929 0 0.001 0.0353929 0
          0.00133333 0.0353929 0 0.00166667 0.0353929 0 0.002 0.0353929 0 0.00233333 0.0353929 0
          0.00266667 0.0353929 0 0.003 0.0353929 0 0.00333333 0.0353929 0 0.00366667 0.0353929 0
          0.004 0.0353929 0 0.00433333 0.0353929 0 0.00466667 0.0353929 0 0.005 0.0353929 0
          0.00533333 0.0353929 0 0.00566667 0.0353929 0 0.006 0.0353929 0 0.00633333 0.0353929 0
          0.00666667 0.0353929 0 0.007 0.0353929 0 0.00733333 0.0353929 0 0.00766667 0.0353929 0
          0.008 0.0353929 0 0.00833333 0.0353929 0 0.00866667 0.0353929 0 0.009 0.0353929 0
          0.00933333 0.0353929 0 0.00966667 0.0353929 0 0.01 0.0353929 0 0 0.0355249 0
          0.000333333 0.0355249 0 0.000666667 0.0355249 0 0.001 0.0355249 0 0.00133333 0.0355249 0
          0.00166667 0.0355249 0 0.002 0.0355249 0 0.00233333 0.0355249 0 0.00266667 0.0355249 0
          0.003 0.0355249 0 0.00333333 0.0355249 0 0.00366667 0.0355249 0 0.004 0.0355249 0
          0.00433333 0.0355249 0 0.00466667 0.0355249 0 0.005 0.0355249 0 0.00533333 0.0355249 0
          0.00566667 0.0355249 0 0.006 0.0355249 0 0.00633333 0.0355249 0 0.00666667 0.0355249 0
          0.007 0.0355249 0 0.00733333 0.0355249 0 0.00766667 0.0355249 0 0.008 0.0355249 0
          0.00833333 0.0355249 0 0.00866667 0.0355249 0 0.009 0.0355249 0 0.00933333 0.0355249 0
          0.00966667 0.0355249 0 0.01 0.0355249 0 0 0.0356742 0 0.000333333 0.0356742 0
          0.000666667 0.0356742 0 0.001 0.0356742 0 0.00133333 0.0356742 0 0.00166667 0.0356742 0
          0.002 0.0356742 0 0.00233333 0.0356742 0 0.00266667 0.0356742 0 0.003 0.0356742 0
          0.00333333 0.0356742 0 0.00366667 0.0356742 0 0.004 0.0356742 0 0.00433333 0.0356742 0
          0.00466667 0.0356742 0 0.005 0.0356742 0 0.00533333 0.0356742 0 0.00566667 0.0356742 0
          0.006 0.0356742 0 0.00633333 0.0356742 0 0.00666667 0.0356742 0 0.007 0.0356742 0
          0.00733333 0.0356742 0 0.00766667 0.0356742 0 0.008 0.0356742 0 0.00833333 0.0356742 0
          0.00866667 0.0356742 0 0.009 0.0356742 0 0.00933333 0.0356742 0 0.00966667 0.0356742 0
          0.01 0.0356742 0 0 0.0358428 0 0.000333333 0.0358428 0 0.000666667 0.0358428 0
          0.001 0.0358428 0 0.00133333 0.0358428 0 0.00166667 0.0358428 0 0.002 0.0358428 0
          0.00233333 0.0358428 0 0.00266667 0.0358428 0 0.003 0.0358428 0 0.00333333 0.0358428 0
          0.00366667 0.0358428 0 0.004 0.0358428 0 0.00433333 0.0358428 0 0.00466667 0.0358428 0
          0.005 0.0358428 0 0.00533333 0.0358428 0 0.00566667 0.0358428 0 0.006 0.0358428 0
          0.00633333 0.0358428 0 0.00666667 0.0358428 0 0.007 0.0358428 0 0.00733333 0.0358428 0
          0.00766667 0.0358428 0 0.008 0.0358428 0 0.00833333 0.0358428 0 0.00866667 0.0358428 0
          0.009 0.0358428 0 0.00933333 0.0358428 0 0.00966667 0.0358428 0 0.01 0.0358428 0
          0 0.0360334 0 0.000333333 0.0360334 0 0.000666667 0.0360334 0 0.001 0.0360334 0
          0.00133333 0.0360334 0 0.00166667 0.0360334 0 0.002 0.0360334 0 0.00233333 0.0360334 0
          0.00266667 0.0360334 0 0.003 0.0360334 0 0.00333333 0.0360334 0 0.00366667 0.0360334 0
          0.004 0.0360334 0 0.00433333 0.0360334 0 0.00466667 0.0360334 0 0.005 0.0360334 0
          0.00533333 0.0360334 0 0.00566667 0.0360334 0 0.006 0.0360334 0 0.00633333 0.0360334 0
          0.00666667 0.0360334 0 0.007 0.0360334 0 0.00733333 0.0360334 0 0.00766667 0.0360334 0
          0.008 0.0360334 0 0.00833333 0.0360334 0 0.00866667 0.0360334 0 0.009 0.0360334 0
          0.00933333 0.0360334 0 0.00966667 0.0360334 0 0.01 0.0360334 0 0 0.0362487 0
          0.000333333 0.0362487 0 0.000666667 0.0362487 0 0.001 0.0362487 0 0.00133333 0.0362487 0
          0.00166667 0.0362487 0 0.002 0.0362487 0 0.00233333 0.0362487 0 0.00266667 0.0362487 0
          0.003 0.0362487 0 0.00333333 0.0362487 0 0.00366667 0.0362487 0 0.004 0.0362487 0
          0.00433333 0.0362487 0 0.00466667 0.0362487 0 0.005 0.0362487 0 0.00533333 0.0362487 0
          0.00566667 0.0362487 0 0.006 0.0362487 0 0.00633333 0.0362487 0 0.00666667 0.0362487 0
          0.007 0.0362487 0 0.00733333 0.0362487 0 0.00766667 0.0362487 0 0.008 0.0362487 0
          0.00833333 0.0362487 0 0.00866667 0.0362487 0 0.009 0.0362487 0 0.00933333 0.0362487 0
          0.00966667 0.0362487 0 0.01 0.0362487 0 0 0.0364921 0 0.000333333 0.0364921 0
          0.000666667 0.0364921 0 0.001 0.0364921 0 0.00133333 0.0364921 0 0.00166667 0.0364921 0
          0.002 0.0364921 0 0.00233333 0.0364921 0 0.00266667 0.0364921 0 0.003 0.0364921 0
          0.00333333 0.0364921 0 0.00366667 0.0364921 0 0.004 0.0364921 0 0.00433333 0.0364921 0
          0.00466667 0.0364921 0 0.005 0.0364921 0 0.00533333 0.0364921 0 0.00566667 0.0364921 0
          0.006 0.0364921 0 0.00633333 0.0364921 0 0.00666667 0.0364921 0 0.007 0.0364921 0
          0.00733333 0.0364921 0 0.00766667 0.0364921 0 0.008 0.0364921 0 0.00833333 0.0364921 0
          0.00866667 0.0364921 0 0.009 0.0364921 0 0.00933333 0.0364921 0 0.00966667 0.0364921 0
          0.01 0.0364921 0 0 0.0367671 0 0.000333333 0.0367671 0 0.000666667 0.0367671 0
          0.001 0.0367671 0 0.00133333 0.0367671 0 0.00166667 0.0367671 0 0.002 0.0367671 0
          0.00233333 0.0367671 0 0.00266667 0.0367671 0 0.003 0.0367671 0 0.00333333 0.0367671 0
          0.00366667 0.0367671 0 0.004 0.0367671 0 0.00433333 0.0367671 0 0.00466667 0.0367671 0
          0.005 0.0367671 0 0.00533333 0.0367671 0 0.00566667 0.0367671 0 0.006 0.0367671 0
          0.00633333 0.0367671 0 0.00666667 0.0367671 0 0.007 0.0367671 0 0.00733333 0.0367671 0
          0.00766667 0.0367671 0 0.008 0.0367671 0 0.00833333 0.0367671 0 0.00866667 0.0367671 0
          0.009 0.0367671 0 0.00933333 0.0367671 0 0.00966667 0.0367671 0 0.01 0.0367671 0
          0 0.0370778 0 0.000333333 0.0370778 0 0.000666667 0.0370778 0 0.001 0.0370778 0
          0.00133333 0.0370778 0 0.00166667 0.0370778 0 0.002 0.0370778 0 0.00233333 0.0370778 0
          0.00266667 0.0370778 0 0.003 0.0370778 0 0.00333333 0.0370778 0 0.00366667 0.0370778 0
          0.004 0.0370778 0 0.00433333 0.0370778 0 0.00466667 0.0370778 0 0.005 0.0370778 0
          0.00533333 0.0370778 0 0.00566667 0.0370778 0 0.006 0.0370778 0 0.00633333 0.0370778 0
          0.00666667 0.0370778 0 0.007 0.0370778 0 0.00733333 0.0370778 0 0.00766667 0.0370778 0
          0.008 0.0370778 0 0.00833333 0.0370778 0 0.00866667 0.0370778 0 0.009 0.0370778 0
          0.00933333 0.0370778 0 0.00966667 0.0370778 0 0.01 0.0370778 0 0 0.0374289 0
          0.000333333 0.0374289 0 0.000666667 0.0374289 0 0.001 0.0374289 0 0.00133333 0.0374289 0
          0.00166667 0.0374289 0 0.002 0.0374289 0 0.00233333 0.0374289 0 0.00266667 0.0374289 0
          0.003 0.0374289 0 0.00333333 0.0374289 0 0.00366667 0.0374289 0 0.004 0.0374289 0
          0.00433333 0.0374289 0 0.00466667 0.0374289 0 0.005 0.0374289 0 0.00533333 0.0374289 0
          0.00566667 0.0374289 0 0.006 0.0374289 0 0.00633333 0.0374289 0 0.00666667 0.0374289 0
          0.007 0.0374289 0 0.00733333 0.0374289 0 0.00766667 0.0374289 0 0.008 0.0374289 0
          0.00833333 0.0374289 0 0.00866667 0.0374289 0 0.009 0.0374289 0 0.00933333 0.0374289 0
          0.00966667 0.0374289 0 0.01 0.0374289 0 0 0.0378256 0 0.000333333 0.0378256 0
          0.000666667 0.0378256 0 0.001 0.0378256 0 0.00133333 0.0378256 0 0.00166667 0.0378256 0
          0.002 0.0378256 0 0.00233333 0.0378256 0 0.00266667 0.0378256 0 0.003 0.0378256 0
          0.00333333 0.0378256 0 0.00366667 0.0378256 0 0.004 0.0378256 0 0.00433333 0.0378256 0
          0.00466667 0.0378256 0 0.005 0.0378256 0 0.00533333 0.0378256 0 0.00566667 0.0378256 0
          0.006 0.0378256 0 0.00633333 0.0378256 0 0.00666667 0.0378256 0 0.007 0.0378256 0
          0.00733333 0.0378256 0 0.00766667 0.0378256 0 0.008 0.0378256 0 0.00833333 0.0378256 0
          0.00866667 0.0378256 0 0.009 0.0378256 0 0.00933333 0.0378256 0 0.00966667 0.0378256 0
          0.01 0.0378256 0 0 0.038274 0 0.000333333 0.038274 0 0.000666667 0.038274 0
          0.001 0.038274 0 0.00133333 0.038274 0 0.00166667 0.038274 0 0.002 0.038274 0
          0.00233333 0.038274 0 0.00266667 0.038274 0 0.003 0.038274 0 0.00333333 0.038274 0
          0.00366667 0.038274 0 0.004 0.038274 0 0.00433333 0.038274 0 0.00466667 0.038274 0
          0.005 0.038274 0 0.00533333 0.038274 0 0.00566667 0.038274 0 0.006 0.038274 0
          0.00633333 0.038274 0 0.00666667 0.038274 0 0.007 0.038274 0 0.00733333 0.038274 0
          0.00766667 0.038274 0 0.008 0.038274 0 0.00833333 0.038274 0 0.00866667 0.038274 0
          0.009 0.038274 0 0.00933333 0.038274 0 0.00966667 0.038274 0 0.01 0.038274 0
          0 0.0387806 0 0.000333333 0.0387806 0 0.000666667 0.0387806 0 0.001 0.0387806 0
          0.00133333 0.0387806 0 0.00166667 0.0387806 0 0.002 0.0387806 0 0.00233333 0.0387806 0
          0.00266667 0.0387806 0 0.003 0.0387806 0 0.00333333 0.0387806 0 0.00366667 0.0387806 0
          0.004 0.0387806 0 0.00433333 0.0387806 0 0.00466667 0.0387806 0 0.005 0.0387806 0
          0.00533333 0.0387806 0 0.00566667 0.0387806 0 0.006 0.0387806 0 0.00633333 0.0387806 0
          0.00666667 0.0387806 0 0.007 0.0387806 0 0.00733333 0.0387806 0 0.00766667 0.0387806 0
          0.008 0.0387806 0 0.00833333 0.0387806 0 0.00866667 0.0387806 0 0.009 0.0387806 0
          0.00933333 0.0387806 0 0.00966667 0.0387806 0 0.01 0.0387806 0 0 0.0393531 0
          0.000333333 0.0393531 0 0.000666667 0.0393531 0 0.001 0.0393531 0 0.00133333 0.0393531 0
          0.00166667 0.0393531 0 0.002 0.0393531 0 0.00233333 0.0393531 0 0.00266667 0.0393531 0
          0.003 0.0393531 0 0.00333333 0.0393531 0 0.00366667 0.0393531 0 0.004 0.0393531 0
          0.00433333 0.0393531 0 0.00466667 0.0393531 0 0.005 0.0393531 0 0.00533333 0.0393531 0
          0.00566667 0.0393531 0 0.006 0.0393531 0 0.00633333 0.0393531 0 0.00666667 0.0393531 0
          0.007 0.0393531 0 0.00733333 0.0393531 0 0.00766667 0.0393531 0 0.008 0.0393531 0
          0.00833333 0.0393531 0 0.00866667 0.0393531 0 0.009 0.0393531 0 0.00933333 0.0393531 0
          0.00966667 0.0393531 0 0.01 0.0393531 0 0 0.04 0 0.000333333 0.04 0
          0.000666667 0.04 0 0.001 0.04 0 0.00133333 0.04 0 0.00166667 0.04 0
          0.002 0.04 0 0.00233333 0.04 0 0.00266667 0.04 0 0.003 0.04 0
          0.00333333 0.04 0 0.00366667 0.04 0 0.004 0.04 0 0.00433333 0.04 0
          0.00466667 0.04 0 0.005 0.04 0 0.00533333 0.04 0 0.00566667 0.04 0
          0.006 0.04 0 0.00633333 0.04 0 0.00666667 0.04 0 0.007 0.04 0
          0.00733333 0.04 0 0.00766667 0.04 0 0.008 0.04 0 0.00833333 0.04 0
          0.00866667 0.04 0 0.009 0.04 0 0.00933333 0.04 0 0.00966667 0.04 0
          0.01 0.04 0
        </DataArray>
      </Points>
      <Cells>
        <DataArray type="Int32" Name="connectivity" NumberOfComponents="1" format="ascii">
          0 1 3 2 1 4 5 3 4 6 7 5
          6 8 9 7 8 10 11 9 10 12 13 11
          12 14 15 13 14 16 17 15 16 18 19 17
          18 20 21 19 20 22 23 21 22 24 25 23
          24 26 27 25 26 28 29 27 28 30 31 29
          30 32 33 31 32 34 35 33 34 36 37 35
          36 38 39 37 38 40 41 39 40 42 43 41
          42 44 45 43 44 46 47 45 46 48 49 47
          48 50 51 49 50 52 53 51 52 54 55 53
          54 56 57 55 56 58 59 57 58 60 61 59
          2 3 63 62 3 5 64 63 5 7 65 64
          7 9 66 65 9 11 67 66 11 13 68 67
          13 15 69 68 15 17 70 69 17 19 71 70
          19 21 72 71 21 23 73 72 23 25 74 73
          25 27 75 74 27 29 76 75 29 31 77 76
          31 33 78 77 33 35 79 78 35 37 80 79
          37 39 81 80 39 41 82 81 41 43 83 82
          43 45 84 83 45 47 85 84 47 49 86 85
          49 51 87 86 51 53 88 87 53 55 89 88
          55 57 90 89 57 59 91 90 59 61 92 91
          62 63 94 93 63 64 95 94 64 65 96 95
          65 66 97 96 66 67 98 97 67 68 99 98
          68 69 100 99 69 70 101 100 70 71 102 101
          71 72 103 102 72 73 104 103 73 74 105 104
          74 75 106 105 75 76 107 106 76 77 108 107
          77 78 109 108 78 79 110 109 79 80 111 110
          80 81 112 111 81 82 113 112 82 83 114 113
          83 84 115 114 84 85 116 115 85 86 117 116
          86 87 118 117 87 88 119 118 88 89 120 119
          89 90 121 120 90 91 122 121 91 92 123 122
          93 94 125 124 94 95 126 125 95 96 127 126
          96 97 128 127 97 98 129 128 98 99 130 129
          99 100 131 130 100 101 132 131 101 102 133 132
          102 103 134 133 103 104 135 134 104 105 136 135
          105 106 137 136 106 107 138 137 107 108 139 138
          108 109 140 139 109 110 141 140 110 111 142 141
          111 112 143 142 112 113 144 143 113 114 145 144
          114 115 146 145 115 116 147 146 116 117 148 147
          117 118 149 148 118 119 150 149 119 120 151 150
          120 121 152 151 121 122 153 152 122 123 154 153
          124 125 156 155 125 126 157 156 126 127 158 157
          127 128 159 158 128 129 160 159 129 130 161 160
          130 131 162 161 131 132 163 162 132 133 164 163
          133 134 165 164 134 135 166 165 135 136 167 166
          136 137 168 167 137 138 169 168 138 139 170 169
          139 140 171 170 140 141 172 171 141 142 173 172
          142 143 174 173 143 144 175 174 144 145 176 175
          145 146 177 176 146 147 178 177 147 148 179 178
          148 149 180 179 149 150 181 180 150 151 182 181
          151 152 183 182 152 153 184 183 153 154 185 184
          155 156 187 186 156 157 188 187 157 158 189 188
          158 159 190 189 159 160 191 190 160 161 192 191
          161 162 193 192 162 163 194 193 163 164 195 194
          164 165 196 195 165 166 197 196 166 167 198 197
          167 168 199 198 168 169 200 199 169 170 201 200
          170 171 202 201 171 172 203 202 172 173 204 203
          173 174 205 204 174 175 206 205 175 176 207 206
          176 177 208 207 177 178 209 208 178 179 210 209
          179 180 211 210 180 181 212 211 181 182 213 212
          182 183 214 213 183 184 215 214 184 185 216 215
          186 187 218 217 187 188 219 218 188 189 220 219
          189 190 221 220 190 191 222 221 191 192 223 222
          192 193 224 223 193 194 225 224 194 195 226 225
          195 196 227 226 196 197 228 227 197 198 229 228
          198 199 230 229 199 200 231 230 200 201 232 231
          201 202 233 232 202 203 234 233 203 204 235 234
          204 205 236 235 205 206 237 236 206 207 238 237
          207 208 239 238 208 209 240 239 209 210 241 240
          210 211 242 241 211 212 243 242 212 213 244 243
          213 214 245 244 214 215 246 245 215 216 247 246
          217 218 249 248 218 219 250 249 219 220 251 250
          220 221 252 251 221 222 253 252 222 223 254 253
          223 224 255 254 224 225 256 255 225 226 257 256
          226 227 258 257 227 228 259 258 228 229 260 259
          229 230 261 260 230 231 262 261 231 232 263 262
          232 233 264 263 233 234 265 264 234 235 266 265
          235 236 267 266 236 237 268 267 237 238 269 268
          238 239 270 269 239 240 271 270 240 241 272 271
          241 242 273 272 242 243 274 273 243 244 275 274
          244 245 276 275 245 246 277 276 246 247 278 277
          248 249 280 279 249 250 281 280 250 251 282 281
          251 252 283 282 252 253 284 283 253 254 285 284
          254 255 286 285 255 256 287 286 256 257 288 287
          257 258 289 288 258 259 290 289 259 260 291 290
          260 261 292 291 261 262 293 292 262 263 294 293
          263 264 295 294 264 265 296 295 265 266 297 296
          266 267 298 297 267 268 299 298 268 269 300 299
          269 270 301 300 270 271 302 301 271 272 303 302
          272 273 304 303 273 274 305 304 274 275 306 305
          275 276 307 306 276 277 308 307 277 278 309 308
          279 280 311 310 280 281 312 311 281 282 313 312
          282 283 314 313 283 284 315 314 284 285 316 315
          285 286 317 316 286 287 318 317 287 288 319 318
          288 289 320 319 289 290 321 320 290 291 322 321
          291 292 323 322 292 293 324 323 293 294 325 324
          294 295 326 325 295 296 327 326 296 297 328 327
          297 298 329 328 298 299 330 329 299 300 331 330
          300 301 332 331 301 302 333 332 302 303 334 333
          303 304 335 334 304 305 336 335 305 306 337 336
          306 307 338 337 307 308 339 338 308 309 340 339
          310 311 342 341 311 312 343 342 312 313 344 343
          313 314 345 344 314 315 346 345 315 316 347 346
          316 317 348 347 317 318 349 348 318 319 350 349
          319 320 351 350 320 321 352 351 321 322 353 352
          322 323 354 353 323 324 355 354 324 325 356 355
          325 326 357 356 326 327 358 357 327 328 359 358
          328 329 360 359 329 330 361 360 330 331 362 361
          331 332 363 362 332 333 364 363 333 334 365 364
          334 335 366 365 335 336 367 366 336 337 368 367
          337 338 369 368 338 339 370 369 339 340 371 370
          341 342 373 372 342 343 374 373 343 344 375 374
          344 345 376 375 345 346 377 376 346 347 378 377
          347 348 379 378 348 349 380 379 349 350 381 380
          350 351 382 381 351 352 383 382 352 353 384 383
          353 354 385 384 354 355 386 385 355 356 387 386
          356 357 388 387 357 358 389 388 358 359 390 389
          359 360 391 390 360 361 392 391 361 362 393 392
          362 363 394 393 363 364 395 394 364 365 396 395
          365 366 397 396 366 367 398 397 367 368 399 398
          368 369 400 399 369 370 401 400 370 371 402 401
          372 373 404 403 373 374 405 404 374 375 406 405
          375 376 407 406 376 377 408 407 377 378 409 408
          378 379 410 409 379 380 411 410 380 381 412 411
          381 382 413 412 382 383 414 413 383 384 415 414
          384 385 416 415 385 386 417 416 386 387 418 417
          387 388 419 418 388 389 420 419 389 390 421 420
          390 391 422 421 391 392 423 422 392 393 424 423
          393 394 425 424 394 395 426 425 395 396 427 426
          396 397 428 427 397 398 429 428 398 399 430 429
          399 400 431 430 400 401 432 431 401 402 433 432
          403 404 435 434 404 405 436 435 405 406 437 436
          406 407 438 437 407 408 439 438 408 409 440 439
          409 410 441 440 410 411 442 441 411 412 443 442
          412 413 444 443 413 414 445 444 414 415 446 445
          415 416 447 446 416 417 448 447 417 418 449 448
          418 419 450 449 419 420 451 450 420 421 452 451
          421 422 453 452 422 423 454 453 423 424 455 454
          424 425 456 455 425 426 457 456 426 427 458 457
          427 428 459 458 428 429 460 459 429 430 461 460
          430 431 462 461 431 432 463 462 432 433 464 463
          434 435 466 465 435 436 467 466 436 437 468 467
          437 438 469 468 438 439 470 469 439 440 471 470
          440 441 472 471 441 442 473 472 442 443 474 473
          443 444 475 474 444 445 476 475 445 446 477 476
          446 447 478 477 447 448 479 478 448 449 480 479
          449 450 481 480 450 451 482 481 451 452 483 482
          452 453 484 483 453 454 485 484 454 455 486 485
          455 456 487 486 456 457 488 487 457 458 489 488
          458 459 490 489 459 460 491 490 460 461 492 491
          461 462 493 492 462 463 494 493 463 464 495 494
          465 466 497 496 466 467 498 497 467 468 499 498
          468 469 500 499 469 470 501 500 470 471 502 501
          471 472 503 502 472 473 504 503 473 474 505 504
          474 475 506 505 475 476 507 506 476 477 508 507
          477 478 509 508 478 479 510 509 479 480 511 510
          480 481 512 511 481 482 513 512 482 483 514 513
          483 484 515 514 484 485 516 515 485 486 517 516
          486 487 518 517 487 488 519 518 488 489 520 519
          489 490 521 520 490 491 522 521 491 492 523 522
          492 493 524 523 493 494 525 524 494 495 526 525
          496 497 528 527 497 498 529 528 498 499 530 529
          499 500 531 530 500 501 532 531 501 502 533 532
          502 503 534 533 503 504 535 534 504 505 536 535
          505 506 537 536 506 507 538 537 507 508 539 538
          508 509 540 539 509 510 541 540 510 511 542 541
          511 512 543 542 512 513 544 543 513 514 545 544
          514 515 546 545 515 516 547 546 516 517 548 547
          517 518 549 548 518 519 550 549 519 520 551 550
          520 521 552 551 521 522 553 552 522 523 554 553
          523 524 555 554 524 525 556 555 525 526 557 556
          527 528 559 558 528 529 560 559 529 530 561 560
          530 531 562 561 531 532 563 562 532 533 564 563
          533 534 565 564 534 535 566 565 535 536 567 566
          536 537 568 567 537 538 569 568 538 539 570 569
          539 540 571 570 540 541 572 571 541 542 573 572
          542 543 574 573 543 544 575 574 544 545 576 575
          545 546 577 576 546 547 578 577 547 548 579 578
          548 549 580 579 549 550 581 580 550 551 582 581
          551 552 583 582 552 553 584 583 553 554 585 584
          554 555 586 585 555 556 587 586 556 557 588 587
        </DataArray>
        <DataArray type="Int32" Name="offsets" NumberOfComponents="1" format="ascii">
          4 8 12 16 20 24 28 32 36 40 44 48
          52 56 60 64 68 72 76 80 84 88 92 96
          100 104 108 112 116 120 124 128 132 136 140 144
          148 152 156 160 164 168 172 176 180 184 188 192
          196 200 204 208 212 216 220 224 228 232 236 240
          244 248 252 256 260 264 268 272 276 280 284 288
          292 296 300 304 308 312 316 320 324 328 332 336
          340 344 348 352 356 360 364 368 372 376 380 384
          388 392 396 400 404 408 412 416 420 424 428 432
          436 440 444 448 452 456 460 464 468 472 476 480
          484 488 492 496 500 504 508 512 516 520 524 528
          532 536 540 544 548 552 556 560 564 568 572 576
          580 584 588 592 596 600 604 608 612 616 620 624
          628 632 636 640 644 648 652 656 660 664 668 672
          676 680 684 688 692 696 700 704 708 712 716 720
          724 728 732 736 740 744 748 752 756 760 764 768
          772 776 780 784 788 792 796 800 804 808 812 816
          820 824 828 832 836 840 844 848 852 856 860 864
          868 872 876 880 884 888 892 896 900 904 908 912
          916 920 924 928 932 936 940 944 948 952 956 960
          964 968 972 976 980 984 988 992 996 1000 1004 1008
          1012 1016 1020 1024 1028 1032 1036 1040 1044 1048 1052 1056
          1060 1064 1068 1072 1076 1080 1084 1088 1092 1096 1100 1104
          1108 1112 1116 1120 1124 1128 1132 1136 1140 1144 1148 1152
          1156 1160 1164 1168 1172 1176 1180 1184 1188 1192 1196 1200
          1204 1208 1212 1216 1220 1224 1228 1232 1236 1240 1244 1248
          1252 1256 1260 1264 1268 1272 1276 1280 1284 1288 1292 1296
          1300 1304 1308 1312 1316 1320 1324 1328 1332 1336 1340 1344
          1348 1352 1356 1360 1364 1368 1372 1376 1380 1384 1388 1392
          1396 1400 1404 1408 1412 1416 1420 1424 1428 1432 1436 1440
          1444 1448 1452 1456 1460 1464 1468 1472 1476 1480 1484 1488
          1492 1496 1500 1504 1508 1512 1516 1520 1524 1528 1532 1536
          1540 1544 1548 1552 1556 1560 1564 1568 1572 1576 1580 1584
          1588 1592 1596 1600 1604 1608 1612 1616 1620 1624 1628 1632
          1636 1640 1644 1648 1652 1656 1660 1664 1668 1672 1676 1680
          1684 1688 1692 1696 1700 1704 1708 1712 1716 1720 1724 1728
          1732 1736 1740 1744 1748 1752 1756 1760 1764 1768 1772 1776
          1780 1784 1788 1792 1796 1800 1804 1808 1812 1816 1820 1824
          1828 1832 1836 1840 1844 1848 1852 1856 1860 1864 1868 1872
          1876 1880 1884 1888 1892 1896 1900 1904 1908 1912 1916 1920
          1924 1928 1932 1936 1940 1944 1948 1952 1956 1960 1964 1968
          1972 1976 1980 1984 1988 1992 1996 2000 2004 2008 2012 2016
          2020 2024 2028 2032 2036 2040 2044 2048 2052 2056 2060 2064
          2068 2072 2076 2080 2084 2088 2092 2096 2100 2104 2108 2112
          2116 2120 2124 2128 2132 2136 2140 2144 2148 2152 2156 2160
        </DataArray>
        <DataArray type="UInt8" Name="types" NumberOfComponents="1" format="ascii">
          9 9 9 9 9 9 9 9 9 9 9 9
          9 9 9 9 9 9 9 9 9 9 9 9
          9 9 9 9 9 9 9 9 9 9 9 9
          9 9 9 9 9 9 9 9 9 9 9 9
          9 9 9 9 9 9 9 9 9 9 9 9
          9 9 9 9 9 9 9 9 9 9 9 9
          9 9 9 9 9 9 9 9 9 9 9 9
          9 9 9 9 9 9 9 9 9 9 9 9
          9 9 9 9 9 9 9 9 9 9 9 9
          9 9 9 9 9 9 9 9 9 9 9 9
          9 9 9 9 9 9 9 9 9 9 9 9
          9 9 9 9 9 9 9 9 9 9 9 9
          9 9 9 9 9 9 9 9 9 9 9 9
          9 9 9 9 9 9 9 9 9 9 9 9
          9 9 9 9 9 9 9 9 9 9 9 9
          9 9 9 9 9 9 9 9 9 9 9 9
          9 9 9 9 9 9 9 9 9 9 9 9
          9 9 9 9 9 9 9 9 9 9 9 9
          9 9 9 9 9 9 9 9 9 9 9 9
          9 9 9 9 9 9 9 9 9 9 9 9
          9 9 9 9 9 9 9 9 9 9 9 9
          9 9 9 9 9 9 9 9 9 9 9 9
          9 9 9 9 9 9 9 9 9 9 9 9
          9 9 9 9 9 9 9 9 9 9 9 9
          9 9 9 9 9 9 9 9 9 9 9 9
          9 9 9 9 9 9 9 9 9 9 9 9
          9 9 9 9 9 9 9 9 9 9 9 9
          9 9 9 9 9 9 9 9 9 9 9 9
          9 9 9 9 9 9 9 9 9 9 9 9
          9 9 9 9 9 9 9 9 9 9 9 9
          9 9 9 9 9 9 9 9 9 9 9 9
          9 9 9 9 9 9 9 9 9 9 9 9
          9 9 9 9 9 9 9 9 9 9 9 9
          9 9 9 9 9 9 9 9 9 9 9 9
          9 9 9 9 9 9 9 9 9 9 9 9
          9 9 9 9 9 9 9 9 9 9 9 9
          9 9 9 9 9 9 9 9 9 9 9 9
          9 9 9 9 9 9 9 9 9 9 9 9
          9 9 9 9 9 9 9 9 9 9 9 9
          9 9 9 9 9 9 9 9 9 9 9 9
          9 9 9 9 9 9 9 9 9 9 9 9
          9 9 9 9 9 9 9 9 9 9 9 9
          9 9 9 9 9 9 9 9 9 9 9 9
          9 9 9 9 9 9 9 9 9 9 9 9
          9 9 9 9 9 9 9 9 9 9 9 9
        </DataArray>
      </Cells>
    </Piece>
  </UnstructuredGrid>
</VTKFile>
