   time;  evaporationRate;  cumulativeWaterLoss;  CumulativeSaltLoss(Na);  CumulativeSaltLoss (Cl);  CumulativeSaltAccumilation
0.00509635; 0.00224291; 0.140412; 0.0108812; 0.0168713; 0
0.0156382; 0.000814945; 0.140412; 0.0108812; 0.0168713; 0
0.0434754; 0.000464035; 0.140412; 0.0108812; 0.0168713; 0
0.116983; 0.000285308; 0.140412; 0.0108812; 0.0168713; 0
0.311088; 0.000186505; 0.140411; 0.0108812; 0.0168713; 0
0.790792; 0.000138945; 0.140411; 0.0108812; 0.0168713; 0
1.80746; 0.000125732; 0.140409; 0.0108812; 0.0168713; 0
2.82767; 0.000124191; 0.140408; 0.0108812; 0.0168713; -1.64895e-35
4.88814; 0.000123714; 0.140405; 0.0108812; 0.0168713; -1.64895e-35
9.89725; 0.000122976; 0.140398; 0.0108812; 0.0168713; -1.64895e-35
20.8169; 0.000121825; 0.140384; 0.0108812; 0.0168713; -1.64895e-35
45.6614; 0.000120059; 0.140351; 0.0108812; 0.0168713; -1.64895e-35
91.8567; 0.000117838; 0.140291; 0.0108812; 0.0168713; -1.64895e-35
129.25; 0.000116276; 0.140243; 0.0108812; 0.0168713; -1.64895e-35
193.534; 0.000114675; 0.140162; 0.0108812; 0.0168713; -1.64895e-35
205.738; 0.000114106; 0.140147; 0.0108812; 0.0168713; -1.64895e-35
227.756; 0.000113713; 0.140119; 0.0108812; 0.0168713; -1.64895e-35
276.577; 0.000113045; 0.140058; 0.0108812; 0.0168713; -1.64895e-35
377.228; 0.000112222; 0.139934; 0.0108812; 0.0168713; -1.64895e-35
461.331; 0.000111841; 0.139831; 0.0108812; 0.0168713; -1.64895e-35
572.543; 0.000111674; 0.139694; 0.0108812; 0.0168713; -1.64895e-35
730.093; 0.000111546; 0.139501; 0.0108812; 0.0168713; -1.64895e-35
813.877; 0.000111502; 0.139398; 0.0108812; 0.0168713; -1.64895e-35
880.227; 0.000111471; 0.139317; 0.0108812; 0.0168713; -1.64895e-35
987.396; 0.00011143; 0.139185; 0.0108812; 0.0168713; -1.64895e-35
1134.23; 0.000111396; 0.139005; 0.0108812; 0.0168713; -1.64895e-35
1390.81; 0.000111258; 0.138691; 0.0108812; 0.0168713; -1.64895e-35
1541.66; 0.000111106; 0.138507; 0.0108812; 0.0168713; -1.64895e-35
1818.87; 0.000111043; 0.138168; 0.0108812; 0.0168713; -1.64895e-35
2354.06; 0.000110931; 0.137515; 0.0108812; 0.0168713; -1.64895e-35
2485.12; 0.000110925; 0.137355; 0.0108812; 0.0168713; -1.64895e-35
2638.51; 0.000110964; 0.137168; 0.0108812; 0.0168713; -1.64895e-35
2885.44; 0.000110781; 0.136867; 0.0108812; 0.0168713; -1.64895e-35
3117.05; 0.000110424; 0.136586; 0.0108812; 0.0168713; -1.64895e-35
3457.63; 0.000110296; 0.136173; 0.0108812; 0.0168713; -1.64895e-35
3600; 0.000110234; 0.136; 0.0108812; 0.0168713; -1.64895e-35
3805.47; 0.000110166; 0.135751; 0.0108812; 0.0168713; -1.64895e-35
4189.8; 0.000109952; 0.135286; 0.0108812; 0.0168713; -1.64895e-35
4261.94; 0.000109884; 0.135199; 0.0108812; 0.0168713; -1.64895e-35
4368.61; 0.000109783; 0.13507; 0.0108812; 0.0168713; -1.64895e-35
4417.52; 0.000109864; 0.135011; 0.0108812; 0.0168713; -1.64895e-35
4531.67; 0.000109956; 0.134873; 0.0108812; 0.0168713; -1.64895e-35
4802.6; 0.000109942; 0.134545; 0.0108812; 0.0168713; -1.64895e-35
5129.71; 0.000109926; 0.13415; 0.0108812; 0.0168713; -1.64895e-35
5442.45; 0.000109814; 0.133772; 0.0108812; 0.0168713; -1.64895e-35
5559.42; 0.000109782; 0.133631; 0.0108812; 0.0168713; -1.64895e-35
5808.9; 0.000109724; 0.13333; 0.0108812; 0.0168713; -1.64895e-35
6400.97; 0.000109486; 0.132617; 0.0108812; 0.0168713; -1.64895e-35
6801.42; 0.000109351; 0.132135; 0.0108812; 0.0168713; -1.64895e-35
7126.97; 0.000109249; 0.131744; 0.0108812; 0.0168713; -1.64895e-35
7200; 0.000109348; 0.131656; 0.0108812; 0.0168713; -1.64895e-35
7273.03; 0.000109399; 0.131568; 0.0108812; 0.0168713; -1.64895e-35
7472.94; 0.000109457; 0.131327; 0.0108812; 0.0168713; -1.64895e-35
7643.25; 0.00010946; 0.131122; 0.0108812; 0.0168713; -1.64895e-35
7848.75; 0.000109064; 0.130876; 0.0108812; 0.0168713; -1.64895e-35
8146.57; 0.000108694; 0.13052; 0.0108812; 0.0168713; -1.64895e-35
8214.98; 0.000108599; 0.130438; 0.0108812; 0.0168713; -1.64895e-35
8368.31; 0.000108582; 0.130255; 0.0108812; 0.0168713; -1.64895e-35
8475.78; 0.000108571; 0.130127; 0.0108812; 0.0168713; -1.64895e-35
8594.51; 0.000108539; 0.129985; 0.0108812; 0.0168713; -1.64895e-35
8674.36; 0.000108664; 0.129889; 0.0108812; 0.0168713; -1.64895e-35
8790.78; 0.000108885; 0.12975; 0.0108812; 0.0168713; -1.64895e-35
8950.12; 0.000108826; 0.129559; 0.0108812; 0.0168713; -1.64895e-35
9210.41; 0.000108919; 0.129247; 0.0108812; 0.0168713; -1.64895e-35
9354.32; 0.000109023; 0.129075; 0.0108812; 0.0168713; -1.64895e-35
9568.44; 0.000108948; 0.128818; 0.0108812; 0.0168713; -1.64895e-35
9867.21; 0.000108737; 0.128461; 0.0108812; 0.0168713; -1.64895e-35
10006.9; 0.000108739; 0.128294; 0.0108812; 0.0168713; -1.64895e-35
10179.9; 0.000108768; 0.128087; 0.0108812; 0.0168713; -1.64895e-35
10252.9; 0.000108783; 0.127999; 0.0108812; 0.0168713; -1.64895e-35
10321.4; 0.000108768; 0.127917; 0.0108812; 0.0168713; -1.64895e-35
10435; 0.000108612; 0.127782; 0.0108812; 0.0168713; -1.64895e-35
10608; 0.00010843; 0.127575; 0.0108812; 0.0168713; -1.64895e-35
10745.5; 0.000108404; 0.127411; 0.0108812; 0.0168713; -1.64895e-35
10800; 0.000108412; 0.127346; 0.0108812; 0.0168713; -1.64895e-35
10883; 0.000108347; 0.127247; 0.0108812; 0.0168713; -1.64895e-35
11114.7; 0.000108291; 0.126971; 0.0108812; 0.0168713; -1.64895e-35
11296.4; 0.000108323; 0.126755; 0.0108812; 0.0168713; -1.64895e-35
11405; 0.000108265; 0.126626; 0.0108812; 0.0168713; -1.64895e-35
11565.7; 0.000108187; 0.126434; 0.0108812; 0.0168713; -1.64895e-35
11724.6; 0.000108068; 0.126245; 0.0108812; 0.0168713; -1.64895e-35
11873.8; 0.000108061; 0.126068; 0.0108812; 0.0168713; -1.64895e-35
11974.6; 0.00010808; 0.125948; 0.0108812; 0.0168713; -1.64895e-35
12128.4; 0.000108052; 0.125765; 0.0108812; 0.0168713; -1.64895e-35
12271.3; 0.00010794; 0.125596; 0.0108812; 0.0168713; -1.64895e-35
12545.8; 0.000107621; 0.125271; 0.0108812; 0.0168713; -1.64895e-35
12760.1; 0.000107489; 0.125017; 0.0108812; 0.0168713; -1.64895e-35
12866.5; 0.000107524; 0.124892; 0.0108812; 0.0168713; -1.64895e-35
13043.8; 0.000107334; 0.124682; 0.0108812; 0.0168713; -1.64895e-35
13155.9; 0.000107118; 0.12455; 0.0108812; 0.0168713; -1.64895e-35
13260.1; 0.000107069; 0.124427; 0.0108812; 0.0168713; -1.64895e-35
13370.3; 0.000106964; 0.124298; 0.0108812; 0.0168713; 1.92525e-09
13478; 0.00010702; 0.124171; 0.0108812; 0.0168713; 2.51007e-09
13610.3; 0.000106788; 0.124016; 0.0108812; 0.0168713; 2.51007e-09
13694.3; 0.00010674; 0.123917; 0.0108812; 0.0168713; 2.51007e-09
13781.1; 0.000106671; 0.123815; 0.0108812; 0.0168713; 3.51544e-09
13929.6; 0.000106623; 0.123641; 0.0108812; 0.0168713; 1.91796e-08
14072.3; 0.000106616; 0.123474; 0.0108812; 0.0168713; 3.1464e-08
14246.2; 0.000106698; 0.123269; 0.0108812; 0.0168713; 4.51077e-08
14400; 0.000106902; 0.123089; 0.0108812; 0.0168712; 5.13104e-08
14605.7; 0.000107002; 0.122847; 0.0108812; 0.0168712; 5.74595e-08
14744.8; 0.000107091; 0.122683; 0.0108812; 0.0168712; 5.87227e-08
14956.8; 0.000106828; 0.122434; 0.0108812; 0.0168712; 5.95195e-08
15113.4; 0.000106568; 0.12225; 0.0108812; 0.0168712; 6.16565e-08
15321.2; 0.0001065; 0.122007; 0.0108812; 0.0168712; 6.34844e-08
15504.4; 0.000106202; 0.121792; 0.0108812; 0.0168712; 6.81974e-08
15777.9; 0.000105872; 0.121474; 0.0108812; 0.0168712; 9.56151e-08
16220.7; 0.000105768; 0.120959; 0.0108811; 0.0168712; 1.38891e-07
17049.8; 0.000105408; 0.119997; 0.0108811; 0.0168711; 2.56637e-07
18000; 0.000104974; 0.1189; 0.010881; 0.016871; 5.38803e-07
19000; 0.000104454; 0.117751; 0.0108807; 0.0168705; 1.23904e-06
19440.1; 0.000104075; 0.117247; 0.0108805; 0.0168702; 1.81621e-06
19720.1; 0.000103794; 0.116928; 0.0108802; 0.0168698; 2.46021e-06
19899.6; 0.000103503; 0.116723; 0.0108799; 0.0168693; 3.26816e-06
20096.1; 0.000102915; 0.116501; 0.0108788; 0.0168675; 6.19839e-06
20353.6; 0.000102722; 0.11621; 0.0108771; 0.0168649; 1.04525e-05
20853.5; 0.000102507; 0.115646; 0.0108737; 0.0168598; 1.89975e-05
21600; 0.000102162; 0.114807; 0.0108684; 0.0168516; 3.24374e-05
22526.2; 0.000101727; 0.113771; 0.0108615; 0.0168408; 5.01714e-05
23526.2; 0.000101251; 0.112657; 0.0108534; 0.0168284; 7.0689e-05
24526.2; 0.00010077; 0.111549; 0.0108447; 0.016815; 9.27895e-05
25200; 0.000100349; 0.110805; 0.0108384; 0.0168053; 0.000108696
26200; 9.99128e-05; 0.109706; 0.0108283; 0.0167897; 0.000134458
27200; 9.93619e-05; 0.108613; 0.0108169; 0.0167721; 0.00016353
28200; 9.87566e-05; 0.107527; 0.0108033; 0.0167512; 0.000197913
28800; 9.82261e-05; 0.106878; 0.0107937; 0.0167363; 0.00022252
29550; 9.7607e-05; 0.106073; 0.0107779; 0.016712; 0.000262538
29859.9; 9.73033e-05; 0.105741; 0.0107708; 0.016701; 0.000280672
30457.3; 9.68936e-05; 0.105105; 0.0107554; 0.0166774; 0.000319651
31457.3; 9.62684e-05; 0.104046; 0.0107269; 0.0166334; 0.000392136
32400; 9.5524e-05; 0.103055; 0.0106971; 0.0165874; 0.000468009
33400; 9.45636e-05; 0.102015; 0.0106613; 0.0165322; 0.000558914
34400; 9.36712e-05; 0.100985; 0.0106215; 0.0164709; 0.000660048
35400; 9.27412e-05; 0.0999644; 0.0105785; 0.0164045; 0.000769421
36000; 9.19988e-05; 0.0993572; 0.0105515; 0.0163628; 0.000838193
37000; 9.11654e-05; 0.0983544; 0.0105035; 0.0162888; 0.000960169
38000; 9.00812e-05; 0.0973635; 0.0104519; 0.0162092; 0.00109134
39000; 8.90731e-05; 0.0963837; 0.0103982; 0.0161265; 0.00122781
39600; 8.81654e-05; 0.0958018; 0.0103644; 0.0160744; 0.00131364
40600; 8.71294e-05; 0.0948434; 0.0103047; 0.0159823; 0.00146543
41600; 8.58936e-05; 0.0938986; 0.010242; 0.0158856; 0.00162488
42350; 8.48881e-05; 0.0931982; 0.0101928; 0.0158097; 0.00174997
42840.7; 8.43578e-05; 0.0927429; 0.0101598; 0.0157588; 0.00183387
43029.7; 8.41122e-05; 0.092568; 0.010147; 0.015739; 0.00186649
43200; 8.39534e-05; 0.0924108; 0.0101353; 0.0157211; 0.00189611
43623; 8.36979e-05; 0.0920213; 0.010106; 0.0156759; 0.0019706
44548.6; 8.31038e-05; 0.0911752; 0.01004; 0.0155741; 0.00213839
45178.8; 8.25874e-05; 0.0906027; 0.00999391; 0.015503; 0.00225558
46178.8; 8.2016e-05; 0.0897005; 0.0099189; 0.0153873; 0.00244627
46800; 8.15986e-05; 0.0891429; 0.00987142; 0.0153141; 0.00256695
47550; 8.12913e-05; 0.0884723; 0.00981304; 0.0152241; 0.00271537
48049; 8.11305e-05; 0.0880269; 0.00977333; 0.0151628; 0.00281633
48434.2; 8.10402e-05; 0.0876835; 0.00974196; 0.0151145; 0.00289606
49045.8; 8.08281e-05; 0.0871398; 0.00968988; 0.0150341; 0.00302845
49392.1; 8.05958e-05; 0.0868328; 0.00965932; 0.014987; 0.00310614
49684.6; 8.05595e-05; 0.0865736; 0.0096337; 0.0149475; 0.00317128
50210.1; 8.04912e-05; 0.0861083; 0.00958928; 0.014879; 0.0032842
50400; 8.04777e-05; 0.0859402; 0.00957347; 0.0148546; 0.0033244
50708.1; 8.03977e-05; 0.0856677; 0.00954771; 0.0148149; 0.00338988
51119.1; 8.01682e-05; 0.0853053; 0.00951354; 0.0147622; 0.00347673
51393.5; 7.97095e-05; 0.0850647; 0.00949097; 0.0147274; 0.00353412
51680.1; 7.92542e-05; 0.0848148; 0.00946795; 0.0146919; 0.00359264
51897.8; 7.90723e-05; 0.0846255; 0.00945089; 0.0146656; 0.00363601
52122.6; 7.90178e-05; 0.0844301; 0.00943364; 0.014639; 0.00367985
52422.1; 7.88081e-05; 0.0841705; 0.00941082; 0.0146038; 0.00373785
52836.6; 7.87539e-05; 0.0838113; 0.00938001; 0.0145563; 0.00381619
53191.4; 7.87348e-05; 0.083504; 0.00935401; 0.0145162; 0.00388229
53581.5; 7.86242e-05; 0.0831667; 0.00932512; 0.0144716; 0.00395572
53889; 7.83878e-05; 0.0829015; 0.00930184; 0.0144357; 0.00401491
54000; 7.82892e-05; 0.0828059; 0.00929342; 0.0144228; 0.00403631
54111; 7.82667e-05; 0.0827104; 0.00928501; 0.0144098; 0.00405768
54536.4; 7.82414e-05; 0.0823442; 0.00925283; 0.0143602; 0.0041395
55032.6; 7.81869e-05; 0.0819174; 0.00921536; 0.0143024; 0.00423475
55313.8; 7.80949e-05; 0.0816759; 0.00919397; 0.0142694; 0.00428911
55672.4; 7.79852e-05; 0.0813683; 0.00916632; 0.0142267; 0.00435942
56194.4; 7.78479e-05; 0.0809213; 0.00912578; 0.0141642; 0.00446247
56777.7; 7.75697e-05; 0.0804236; 0.00907923; 0.0140924; 0.00458082
57443.4; 7.73482e-05; 0.0798572; 0.00902577; 0.01401; 0.0047167
57600; 7.72159e-05; 0.0797242; 0.00901309; 0.0139905; 0.00474893
57990.2; 7.711e-05; 0.0793932; 0.00898153; 0.0139418; 0.00482917
58533.3; 7.70028e-05; 0.0789332; 0.0089375; 0.0138739; 0.0049411
59113.6; 7.68462e-05; 0.0784426; 0.00889013; 0.0138008; 0.00506153
59671; 7.66416e-05; 0.0779727; 0.00884401; 0.0137297; 0.00517875
60017.1; 7.65308e-05; 0.0776814; 0.00881535; 0.0136855; 0.00525162
60541.2; 7.63195e-05; 0.0772414; 0.00877134; 0.0136176; 0.0053635
61200; 7.60453e-05; 0.0766903; 0.00871482; 0.0135305; 0.00550719
61557.6; 7.59561e-05; 0.0763915; 0.00868413; 0.0134832; 0.00558519
61959; 7.58898e-05; 0.0760565; 0.00864987; 0.0134303; 0.00567228
62391.3; 7.58304e-05; 0.0756958; 0.00861322; 0.0133738; 0.00576545
63050.2; 7.56885e-05; 0.0751473; 0.0085576; 0.013288; 0.00590685
63565.5; 7.55451e-05; 0.074719; 0.00851451; 0.0132216; 0.00601639
64333.6; 7.54235e-05; 0.0740818; 0.00845117; 0.0131239; 0.00617742
64800; 7.52459e-05; 0.0736957; 0.00841242; 0.0130641; 0.00627591
65266.4; 7.51224e-05; 0.0733103; 0.00837354; 0.0130042; 0.00637475
66266.4; 7.48789e-05; 0.0724866; 0.00828939; 0.0128744; 0.00658867
66922.7; 7.46705e-05; 0.0719476; 0.00823414; 0.0127892; 0.00672913
67922.7; 7.45061e-05; 0.071128; 0.0081508; 0.0126607; 0.00694099
68400; 7.43131e-05; 0.0707379; 0.00811079; 0.012599; 0.00704269
68900; 7.41346e-05; 0.0703301; 0.00806835; 0.0125335; 0.00715059
69900; 7.39075e-05; 0.0695171; 0.00798345; 0.0124026; 0.00736641
70900; 7.35605e-05; 0.068708; 0.00789879; 0.0122721; 0.00758163
71530.2; 7.3358e-05; 0.0681994; 0.0078452; 0.0121894; 0.00771786
72000; 7.32404e-05; 0.0678209; 0.00780502; 0.0121275; 0.00782
72469.8; 7.31601e-05; 0.0674429; 0.00776467; 0.0120652; 0.00792257
73469.8; 7.30382e-05; 0.0666395; 0.0076782; 0.0119319; 0.00814239
74469.8; 7.2876e-05; 0.0658378; 0.00759088; 0.0117972; 0.00836436
75469.8; 7.26912e-05; 0.0650382; 0.00750265; 0.0116612; 0.00858867
75600; 7.26089e-05; 0.0649342; 0.00749111; 0.0116434; 0.00861799
76100; 7.24816e-05; 0.0645356; 0.00744661; 0.0115748; 0.00873111
77100; 7.22362e-05; 0.063741; 0.00735711; 0.0114367; 0.00895863
78100; 7.17566e-05; 0.0629517; 0.0072676; 0.0112987; 0.00918619
79100; 7.11033e-05; 0.0621695; 0.00717904; 0.0111621; 0.00941132
79200; 7.08769e-05; 0.0620916; 0.00717023; 0.0111485; 0.00943372
79700; 7.06117e-05; 0.0617032; 0.00712648; 0.0110811; 0.00954493
80700; 7.02677e-05; 0.0609302; 0.0070397; 0.0109472; 0.00976555
81700; 6.99079e-05; 0.0601613; 0.00695349; 0.0108143; 0.0099847
82700; 6.95629e-05; 0.0593961; 0.00686765; 0.0106819; 0.0102029
82800; 6.94336e-05; 0.0593197; 0.00685908; 0.0106687; 0.0102247
83300; 6.9257e-05; 0.0589388; 0.00681632; 0.0106028; 0.0103334
84300; 6.89753e-05; 0.05818; 0.00673105; 0.0104713; 0.0105502
85300; 6.85484e-05; 0.057426; 0.00664619; 0.0103404; 0.0107659
86300; 6.80569e-05; 0.0566774; 0.0065618; 0.0102103; 0.0109804
86400; 6.78712e-05; 0.0566027; 0.00655338; 0.0101973; 0.0110018
86900; 6.75861e-05; 0.056231; 0.00651143; 0.0101326; 0.0111084
87900; 6.71583e-05; 0.0554923; 0.00642799; 0.0100039; 0.0113206
88900; 6.65291e-05; 0.0547604; 0.00634523; 0.00987629; 0.011531
89900; 6.57486e-05; 0.0540372; 0.00626336; 0.00975004; 0.0117391
90000; 6.54354e-05; 0.0539652; 0.00625521; 0.00973747; 0.0117598
90500; 6.4937e-05; 0.0536081; 0.00621476; 0.00967509; 0.0118626
91250; 6.4313e-05; 0.0530775; 0.00615466; 0.0095824; 0.0120154
92156.2; 6.34609e-05; 0.0524449; 0.006083; 0.0094719; 0.0121976
92906.2; 6.2608e-05; 0.0519284; 0.00602451; 0.0093817; 0.0123463
93600; 6.18099e-05; 0.0514567; 0.00597112; 0.00929937; 0.012482
94465.6; 6.07407e-05; 0.0508783; 0.00590568; 0.00919846; 0.0126483
95465.6; 5.92941e-05; 0.0502261; 0.00583192; 0.00908471; 0.0128358
96465.6; 5.76068e-05; 0.0495924; 0.00576036; 0.00897436; 0.0130178
97200; 5.62007e-05; 0.0491384; 0.00570914; 0.00889537; 0.013148
98200; 5.47767e-05; 0.0485359; 0.00564121; 0.00879061; 0.0133207
99200; 5.33855e-05; 0.0479486; 0.00557495; 0.00868843; 0.0134891
100000; 5.24667e-05; 0.0474869; 0.00552273; 0.0086079; 0.0136219
